{
 "actions": [],
 "allow_rename": 1,
 "autoname": "field:student_name",
 "creation": "2021-12-15 15:42:08.523583",
 "doctype": "DocType",
 "editable_grid": 1,
 "engine": "InnoDB",
 "field_order": [
  "student_name",
  "subject"
 ],
 "fields": [
  {
   "fieldname": "student_name",
   "fieldtype": "Data",
   "label": "Student Name",
   "unique": 1
  },
  {
   "fieldname": "subject",
   "fieldtype": "Table MultiSelect",
   "label": "Subject",
   "options": "Sub"
  }
 ],
 "index_web_pages_for_search": 1,
 "links": [],
 "modified": "2021-12-15 15:42:08.523583",
 "modified_by": "Administrator",
 "module": "New App",
 "name": "Students",
 "owner": "Administrator",
 "permissions": [
  {
   "create": 1,
   "delete": 1,
   "email": 1,
   "export": 1,
   "print": 1,
   "read": 1,
   "report": 1,
   "role": "System Manager",
   "share": 1,
   "write": 1
  }
 ],
 "sort_field": "modified",
 "sort_order": "DESC"
}