2021-12-24 16:04:22,724 INFO scheduler Scheduled Job Complete: frappe.email.doctype.email_account.email_account.pull for newbench.new
2021-12-24 16:04:23,224 INFO scheduler Scheduled Job Start: frappe.email.queue.flush for newbench.new
2021-12-24 16:04:23,929 INFO scheduler Scheduled Job Complete: frappe.email.queue.flush for newbench.new
