2021-12-23 12:52:47,673 INFO scheduler Scheduled Job Start: frappe.email.doctype.email_account.email_account.notify_unreplied for newbench.new
2021-12-23 12:52:48,786 INFO scheduler Scheduled Job Complete: frappe.email.doctype.email_account.email_account.notify_unreplied for newbench.new
2021-12-23 12:52:48,954 INFO scheduler Scheduled Job Start: frappe.email.doctype.email_account.email_account.pull for newbench.new
2021-12-23 12:52:49,658 INFO scheduler Scheduled Job Complete: frappe.email.doctype.email_account.email_account.pull for newbench.new
2021-12-23 12:52:49,816 INFO scheduler Scheduled Job Start: frappe.email.queue.flush for newbench.new
2021-12-23 12:52:50,318 INFO scheduler Scheduled Job Complete: frappe.email.queue.flush for newbench.new
