2021-12-23 20:46:42,595 DEBUG scheduler Queued events for site newbench.new
2021-12-23 20:47:43,370 DEBUG scheduler Queued events for site newbench.new
2021-12-23 20:48:43,977 INFO scheduler Scheduled Job Start: erpnext.crm.doctype.social_media_post.social_media_post.process_scheduled_social_media_posts for newbench.new
2021-12-23 20:48:44,152 DEBUG scheduler Queued events for site newbench.new
2021-12-23 20:48:44,480 INFO scheduler Scheduled Job Complete: erpnext.crm.doctype.social_media_post.social_media_post.process_scheduled_social_media_posts for newbench.new
2021-12-23 20:48:44,634 INFO scheduler Scheduled Job Start: erpnext.hr.doctype.interview.interview.send_interview_reminder for newbench.new
2021-12-23 20:48:45,155 INFO scheduler Scheduled Job Complete: erpnext.hr.doctype.interview.interview.send_interview_reminder for newbench.new
2021-12-23 20:48:45,307 INFO scheduler Scheduled Job Start: erpnext.healthcare.doctype.patient_appointment.patient_appointment.send_appointment_reminder for newbench.new
2021-12-23 20:48:45,761 INFO scheduler Scheduled Job Complete: erpnext.healthcare.doctype.patient_appointment.patient_appointment.send_appointment_reminder for newbench.new
2021-12-23 20:48:45,917 INFO scheduler Scheduled Job Start: erpnext.projects.doctype.project.project.project_status_update_reminder for newbench.new
2021-12-23 20:48:46,643 INFO scheduler Scheduled Job Complete: erpnext.projects.doctype.project.project.project_status_update_reminder for newbench.new
2021-12-23 20:48:46,793 INFO scheduler Scheduled Job Start: frappe.monitor.flush for newbench.new
2021-12-23 20:48:47,241 INFO scheduler Scheduled Job Complete: frappe.monitor.flush for newbench.new
2021-12-23 20:48:47,391 INFO scheduler Scheduled Job Start: frappe.utils.global_search.sync_global_search for newbench.new
2021-12-23 20:48:47,793 INFO scheduler Scheduled Job Complete: frappe.utils.global_search.sync_global_search for newbench.new
2021-12-23 20:48:47,947 INFO scheduler Scheduled Job Start: frappe.integrations.doctype.razorpay_settings.razorpay_settings.capture_payment for newbench.new
2021-12-23 20:48:48,662 INFO scheduler Scheduled Job Complete: frappe.integrations.doctype.razorpay_settings.razorpay_settings.capture_payment for newbench.new
2021-12-23 20:48:48,812 INFO scheduler Scheduled Job Start: frappe.email.doctype.email_account.email_account.notify_unreplied for newbench.new
2021-12-23 20:48:49,371 INFO scheduler Scheduled Job Complete: frappe.email.doctype.email_account.email_account.notify_unreplied for newbench.new
2021-12-23 20:48:49,522 INFO scheduler Scheduled Job Start: frappe.email.doctype.email_account.email_account.pull for newbench.new
2021-12-23 20:48:50,115 INFO scheduler Scheduled Job Complete: frappe.email.doctype.email_account.email_account.pull for newbench.new
2021-12-23 20:48:50,271 INFO scheduler Scheduled Job Start: frappe.email.queue.flush for newbench.new
2021-12-23 20:48:50,706 INFO scheduler Scheduled Job Complete: frappe.email.queue.flush for newbench.new
2021-12-23 20:49:44,841 DEBUG scheduler Queued events for site newbench.new
2021-12-23 20:50:45,502 DEBUG scheduler Queued events for site newbench.new
2021-12-23 20:51:46,206 DEBUG scheduler Queued events for site newbench.new
2021-12-23 20:52:46,791 INFO scheduler Scheduled Job Start: erpnext.crm.doctype.social_media_post.social_media_post.process_scheduled_social_media_posts for newbench.new
2021-12-23 20:52:46,980 DEBUG scheduler Queued events for site newbench.new
2021-12-23 20:52:47,293 INFO scheduler Scheduled Job Complete: erpnext.crm.doctype.social_media_post.social_media_post.process_scheduled_social_media_posts for newbench.new
2021-12-23 20:52:47,451 INFO scheduler Scheduled Job Start: erpnext.hr.doctype.interview.interview.send_interview_reminder for newbench.new
2021-12-23 20:52:47,984 INFO scheduler Scheduled Job Complete: erpnext.hr.doctype.interview.interview.send_interview_reminder for newbench.new
2021-12-23 20:52:48,133 INFO scheduler Scheduled Job Start: erpnext.healthcare.doctype.patient_appointment.patient_appointment.send_appointment_reminder for newbench.new
2021-12-23 20:52:48,607 INFO scheduler Scheduled Job Complete: erpnext.healthcare.doctype.patient_appointment.patient_appointment.send_appointment_reminder for newbench.new
2021-12-23 20:52:48,759 INFO scheduler Scheduled Job Start: erpnext.projects.doctype.project.project.project_status_update_reminder for newbench.new
2021-12-23 20:52:49,482 INFO scheduler Scheduled Job Complete: erpnext.projects.doctype.project.project.project_status_update_reminder for newbench.new
2021-12-23 20:52:49,634 INFO scheduler Scheduled Job Start: frappe.monitor.flush for newbench.new
2021-12-23 20:52:50,045 INFO scheduler Scheduled Job Complete: frappe.monitor.flush for newbench.new
2021-12-23 20:52:50,202 INFO scheduler Scheduled Job Start: frappe.utils.global_search.sync_global_search for newbench.new
2021-12-23 20:52:50,617 INFO scheduler Scheduled Job Complete: frappe.utils.global_search.sync_global_search for newbench.new
2021-12-23 20:52:50,773 INFO scheduler Scheduled Job Start: frappe.integrations.doctype.razorpay_settings.razorpay_settings.capture_payment for newbench.new
2021-12-23 20:52:51,528 INFO scheduler Scheduled Job Complete: frappe.integrations.doctype.razorpay_settings.razorpay_settings.capture_payment for newbench.new
2021-12-23 20:52:51,681 INFO scheduler Scheduled Job Start: frappe.email.doctype.email_account.email_account.notify_unreplied for newbench.new
2021-12-23 20:52:52,249 INFO scheduler Scheduled Job Complete: frappe.email.doctype.email_account.email_account.notify_unreplied for newbench.new
2021-12-23 20:52:52,407 INFO scheduler Scheduled Job Start: frappe.email.doctype.email_account.email_account.pull for newbench.new
2021-12-23 20:52:53,018 INFO scheduler Scheduled Job Complete: frappe.email.doctype.email_account.email_account.pull for newbench.new
2021-12-23 20:52:53,176 INFO scheduler Scheduled Job Start: frappe.email.queue.flush for newbench.new
2021-12-23 20:52:53,613 INFO scheduler Scheduled Job Complete: frappe.email.queue.flush for newbench.new
2021-12-23 20:53:47,657 DEBUG scheduler Queued events for site newbench.new
2021-12-23 20:54:48,335 DEBUG scheduler Queued events for site newbench.new
2021-12-23 20:55:48,996 DEBUG scheduler Queued events for site newbench.new
2021-12-23 20:56:49,606 INFO scheduler Scheduled Job Start: erpnext.crm.doctype.social_media_post.social_media_post.process_scheduled_social_media_posts for newbench.new
2021-12-23 20:56:49,801 DEBUG scheduler Queued events for site newbench.new
2021-12-23 20:56:50,120 INFO scheduler Scheduled Job Complete: erpnext.crm.doctype.social_media_post.social_media_post.process_scheduled_social_media_posts for newbench.new
2021-12-23 20:56:50,270 INFO scheduler Scheduled Job Start: erpnext.hr.doctype.interview.interview.send_interview_reminder for newbench.new
2021-12-23 20:56:50,797 INFO scheduler Scheduled Job Complete: erpnext.hr.doctype.interview.interview.send_interview_reminder for newbench.new
2021-12-23 20:56:50,956 INFO scheduler Scheduled Job Start: erpnext.healthcare.doctype.patient_appointment.patient_appointment.send_appointment_reminder for newbench.new
2021-12-23 20:56:51,423 INFO scheduler Scheduled Job Complete: erpnext.healthcare.doctype.patient_appointment.patient_appointment.send_appointment_reminder for newbench.new
2021-12-23 20:56:51,572 INFO scheduler Scheduled Job Start: erpnext.projects.doctype.project.project.project_status_update_reminder for newbench.new
2021-12-23 20:56:52,286 INFO scheduler Scheduled Job Complete: erpnext.projects.doctype.project.project.project_status_update_reminder for newbench.new
2021-12-23 20:56:52,437 INFO scheduler Scheduled Job Start: frappe.monitor.flush for newbench.new
2021-12-23 20:56:52,852 INFO scheduler Scheduled Job Complete: frappe.monitor.flush for newbench.new
2021-12-23 20:56:53,011 INFO scheduler Scheduled Job Start: frappe.utils.global_search.sync_global_search for newbench.new
2021-12-23 20:56:53,412 INFO scheduler Scheduled Job Complete: frappe.utils.global_search.sync_global_search for newbench.new
2021-12-23 20:56:53,570 INFO scheduler Scheduled Job Start: frappe.integrations.doctype.razorpay_settings.razorpay_settings.capture_payment for newbench.new
2021-12-23 20:56:54,287 INFO scheduler Scheduled Job Complete: frappe.integrations.doctype.razorpay_settings.razorpay_settings.capture_payment for newbench.new
2021-12-23 20:56:54,442 INFO scheduler Scheduled Job Start: frappe.email.doctype.email_account.email_account.notify_unreplied for newbench.new
2021-12-23 20:56:55,030 INFO scheduler Scheduled Job Complete: frappe.email.doctype.email_account.email_account.notify_unreplied for newbench.new
2021-12-23 20:56:55,180 INFO scheduler Scheduled Job Start: frappe.email.doctype.email_account.email_account.pull for newbench.new
2021-12-23 20:56:55,799 INFO scheduler Scheduled Job Complete: frappe.email.doctype.email_account.email_account.pull for newbench.new
2021-12-23 20:56:55,958 INFO scheduler Scheduled Job Start: frappe.email.queue.flush for newbench.new
2021-12-23 20:56:56,458 INFO scheduler Scheduled Job Complete: frappe.email.queue.flush for newbench.new
2021-12-23 20:57:50,464 DEBUG scheduler Queued events for site newbench.new
2021-12-23 20:58:51,153 DEBUG scheduler Queued events for site newbench.new
2021-12-23 20:59:51,867 DEBUG scheduler Queued events for site newbench.new
2021-12-23 21:00:52,246 INFO scheduler Scheduled Job Start: erpnext.stock.doctype.repost_item_valuation.repost_item_valuation.repost_entries for newbench.new
2021-12-23 21:00:52,451 INFO scheduler Scheduled Job Start: erpnext.erpnext_integrations.connectors.shopify_connection.sync_old_orders for newbench.new
2021-12-23 21:00:53,091 DEBUG scheduler Queued events for site newbench.new
2021-12-23 21:00:53,294 INFO scheduler Scheduled Job Complete: erpnext.stock.doctype.repost_item_valuation.repost_item_valuation.repost_entries for newbench.new
2021-12-23 21:00:53,451 INFO scheduler Scheduled Job Complete: erpnext.erpnext_integrations.connectors.shopify_connection.sync_old_orders for newbench.new
2021-12-23 21:00:53,660 INFO scheduler Scheduled Job Start: erpnext.support.doctype.issue.issue.set_service_level_agreement_variance for newbench.new
2021-12-23 21:00:54,367 INFO scheduler Scheduled Job Complete: erpnext.support.doctype.issue.issue.set_service_level_agreement_variance for newbench.new
2021-12-23 21:00:54,586 INFO scheduler Scheduled Job Start: erpnext.hr.doctype.shift_type.shift_type.process_auto_attendance_for_all_shifts for newbench.new
2021-12-23 21:00:55,274 INFO scheduler Scheduled Job Complete: erpnext.hr.doctype.shift_type.shift_type.process_auto_attendance_for_all_shifts for newbench.new
2021-12-23 21:00:55,495 INFO scheduler Scheduled Job Start: erpnext.projects.doctype.project.project.collect_project_status for newbench.new
2021-12-23 21:00:56,260 INFO scheduler Scheduled Job Complete: erpnext.projects.doctype.project.project.collect_project_status for newbench.new
2021-12-23 21:00:56,496 INFO scheduler Scheduled Job Start: erpnext.projects.doctype.project.project.hourly_reminder for newbench.new
2021-12-23 21:00:57,336 INFO scheduler Scheduled Job Complete: erpnext.projects.doctype.project.project.hourly_reminder for newbench.new
2021-12-23 21:00:57,558 INFO scheduler Scheduled Job Start: erpnext.erpnext_integrations.doctype.plaid_settings.plaid_settings.automatic_synchronization for newbench.new
2021-12-23 21:00:58,412 INFO scheduler Scheduled Job Complete: erpnext.erpnext_integrations.doctype.plaid_settings.plaid_settings.automatic_synchronization for newbench.new
2021-12-23 21:00:58,661 INFO scheduler Scheduled Job Start: erpnext.accounts.doctype.gl_entry.gl_entry.rename_gle_sle_docs for newbench.new
2021-12-23 21:00:59,396 INFO scheduler Scheduled Job Complete: erpnext.accounts.doctype.gl_entry.gl_entry.rename_gle_sle_docs for newbench.new
2021-12-23 21:00:59,623 INFO scheduler Scheduled Job Start: erpnext.erpnext_integrations.doctype.amazon_mws_settings.amazon_mws_settings.schedule_get_order_details for newbench.new
2021-12-23 21:01:00,251 INFO scheduler Scheduled Job Complete: erpnext.erpnext_integrations.doctype.amazon_mws_settings.amazon_mws_settings.schedule_get_order_details for newbench.new
2021-12-23 21:01:00,469 INFO scheduler Scheduled Job Start: erpnext.accounts.doctype.subscription.subscription.process_all for newbench.new
2021-12-23 21:01:01,219 INFO scheduler Scheduled Job Complete: erpnext.accounts.doctype.subscription.subscription.process_all for newbench.new
2021-12-23 21:01:01,440 INFO scheduler Scheduled Job Start: erpnext.hr.doctype.daily_work_summary_group.daily_work_summary_group.trigger_emails for newbench.new
2021-12-23 21:01:02,062 INFO scheduler Scheduled Job Complete: erpnext.hr.doctype.daily_work_summary_group.daily_work_summary_group.trigger_emails for newbench.new
2021-12-23 21:01:02,291 INFO scheduler Scheduled Job Start: erpnext.crm.doctype.social_media_post.social_media_post.process_scheduled_social_media_posts for newbench.new
2021-12-23 21:01:02,792 INFO scheduler Scheduled Job Complete: erpnext.crm.doctype.social_media_post.social_media_post.process_scheduled_social_media_posts for newbench.new
2021-12-23 21:01:02,944 INFO scheduler Scheduled Job Start: erpnext.hr.doctype.interview.interview.send_interview_reminder for newbench.new
2021-12-23 21:01:03,553 INFO scheduler Scheduled Job Complete: erpnext.hr.doctype.interview.interview.send_interview_reminder for newbench.new
2021-12-23 21:01:03,708 INFO scheduler Scheduled Job Start: erpnext.healthcare.doctype.patient_appointment.patient_appointment.send_appointment_reminder for newbench.new
2021-12-23 21:01:04,218 INFO scheduler Scheduled Job Complete: erpnext.healthcare.doctype.patient_appointment.patient_appointment.send_appointment_reminder for newbench.new
2021-12-23 21:01:04,368 INFO scheduler Scheduled Job Start: erpnext.projects.doctype.project.project.project_status_update_reminder for newbench.new
2021-12-23 21:01:05,078 INFO scheduler Scheduled Job Complete: erpnext.projects.doctype.project.project.project_status_update_reminder for newbench.new
2021-12-23 21:01:05,231 INFO scheduler Scheduled Job Start: erpnext.utilities.doctype.video.video.update_youtube_data for newbench.new
2021-12-23 21:01:06,050 INFO scheduler Scheduled Job Failed: erpnext.utilities.doctype.video.video.update_youtube_data for newbench.new
2021-12-23 21:01:06,269 INFO scheduler Scheduled Job Start: frappe.email.doctype.newsletter.newsletter.send_scheduled_email for newbench.new
2021-12-23 21:01:07,020 INFO scheduler Scheduled Job Complete: frappe.email.doctype.newsletter.newsletter.send_scheduled_email for newbench.new
2021-12-23 21:01:07,237 INFO scheduler Scheduled Job Start: frappe.integrations.doctype.google_calendar.google_calendar.sync for newbench.new
2021-12-23 21:01:08,401 INFO scheduler Scheduled Job Complete: frappe.integrations.doctype.google_calendar.google_calendar.sync for newbench.new
2021-12-23 21:01:08,614 INFO scheduler Scheduled Job Start: frappe.desk.form.document_follow.send_hourly_updates for newbench.new
2021-12-23 21:01:09,273 INFO scheduler Scheduled Job Complete: frappe.desk.form.document_follow.send_hourly_updates for newbench.new
2021-12-23 21:01:09,500 INFO scheduler Scheduled Job Start: frappe.deferred_insert.save_to_db for newbench.new
2021-12-23 21:01:10,095 INFO scheduler Scheduled Job Complete: frappe.deferred_insert.save_to_db for newbench.new
2021-12-23 21:01:10,317 INFO scheduler Scheduled Job Start: frappe.desk.page.backups.backups.delete_downloadable_backups for newbench.new
2021-12-23 21:01:10,993 INFO scheduler Scheduled Job Complete: frappe.desk.page.backups.backups.delete_downloadable_backups for newbench.new
2021-12-23 21:01:11,211 INFO scheduler Scheduled Job Start: frappe.utils.error.collect_error_snapshots for newbench.new
2021-12-23 21:01:11,912 INFO scheduler Scheduled Job Complete: frappe.utils.error.collect_error_snapshots for newbench.new
2021-12-23 21:01:12,136 INFO scheduler Scheduled Job Start: frappe.model.utils.user_settings.sync_user_settings for newbench.new
2021-12-23 21:01:12,739 INFO scheduler Scheduled Job Complete: frappe.model.utils.user_settings.sync_user_settings for newbench.new
2021-12-23 21:01:12,956 INFO scheduler Scheduled Job Start: frappe.model.utils.link_count.update_link_count for newbench.new
2021-12-23 21:01:13,610 INFO scheduler Scheduled Job Complete: frappe.model.utils.link_count.update_link_count for newbench.new
2021-12-23 21:01:13,863 INFO scheduler Scheduled Job Start: frappe.monitor.flush for newbench.new
2021-12-23 21:01:14,335 INFO scheduler Scheduled Job Complete: frappe.monitor.flush for newbench.new
2021-12-23 21:01:14,492 INFO scheduler Scheduled Job Start: frappe.utils.global_search.sync_global_search for newbench.new
2021-12-23 21:01:14,944 INFO scheduler Scheduled Job Complete: frappe.utils.global_search.sync_global_search for newbench.new
2021-12-23 21:01:15,094 INFO scheduler Scheduled Job Start: frappe.integrations.doctype.razorpay_settings.razorpay_settings.capture_payment for newbench.new
2021-12-23 21:01:15,796 INFO scheduler Scheduled Job Complete: frappe.integrations.doctype.razorpay_settings.razorpay_settings.capture_payment for newbench.new
2021-12-23 21:01:15,948 INFO scheduler Scheduled Job Start: frappe.email.doctype.email_account.email_account.notify_unreplied for newbench.new
2021-12-23 21:01:16,638 INFO scheduler Scheduled Job Complete: frappe.email.doctype.email_account.email_account.notify_unreplied for newbench.new
2021-12-23 21:01:16,788 INFO scheduler Scheduled Job Start: frappe.email.doctype.email_account.email_account.pull for newbench.new
2021-12-23 21:01:17,401 INFO scheduler Scheduled Job Complete: frappe.email.doctype.email_account.email_account.pull for newbench.new
2021-12-23 21:01:17,554 INFO scheduler Scheduled Job Start: frappe.email.queue.flush for newbench.new
2021-12-23 21:01:18,014 INFO scheduler Scheduled Job Complete: frappe.email.queue.flush for newbench.new
2021-12-23 21:01:18,168 INFO scheduler Scheduled Job Start: frappe.twofactor.delete_all_barcodes_for_users for newbench.new
2021-12-23 21:01:19,003 INFO scheduler Scheduled Job Complete: frappe.twofactor.delete_all_barcodes_for_users for newbench.new
2021-12-23 21:01:19,260 INFO scheduler Scheduled Job Start: frappe.website.doctype.web_page.web_page.check_publish_status for newbench.new
2021-12-23 21:01:20,021 INFO scheduler Scheduled Job Complete: frappe.website.doctype.web_page.web_page.check_publish_status for newbench.new
2021-12-23 21:01:20,244 INFO scheduler Scheduled Job Start: frappe.oauth.delete_oauth2_data for newbench.new
2021-12-23 21:01:20,971 INFO scheduler Scheduled Job Complete: frappe.oauth.delete_oauth2_data for newbench.new
2021-12-23 21:01:53,739 DEBUG scheduler Queued events for site newbench.new
2021-12-23 21:02:54,398 DEBUG scheduler Queued events for site newbench.new
2021-12-23 21:03:55,070 DEBUG scheduler Queued events for site newbench.new
2021-12-23 21:04:55,668 INFO scheduler Scheduled Job Start: erpnext.crm.doctype.social_media_post.social_media_post.process_scheduled_social_media_posts for newbench.new
2021-12-23 21:04:55,865 DEBUG scheduler Queued events for site newbench.new
2021-12-23 21:04:56,179 INFO scheduler Scheduled Job Complete: erpnext.crm.doctype.social_media_post.social_media_post.process_scheduled_social_media_posts for newbench.new
2021-12-23 21:04:56,334 INFO scheduler Scheduled Job Start: erpnext.hr.doctype.interview.interview.send_interview_reminder for newbench.new
2021-12-23 21:04:56,858 INFO scheduler Scheduled Job Complete: erpnext.hr.doctype.interview.interview.send_interview_reminder for newbench.new
2021-12-23 21:04:57,011 INFO scheduler Scheduled Job Start: erpnext.healthcare.doctype.patient_appointment.patient_appointment.send_appointment_reminder for newbench.new
2021-12-23 21:04:57,567 INFO scheduler Scheduled Job Complete: erpnext.healthcare.doctype.patient_appointment.patient_appointment.send_appointment_reminder for newbench.new
2021-12-23 21:04:57,718 INFO scheduler Scheduled Job Start: erpnext.projects.doctype.project.project.project_status_update_reminder for newbench.new
2021-12-23 21:04:58,427 INFO scheduler Scheduled Job Complete: erpnext.projects.doctype.project.project.project_status_update_reminder for newbench.new
2021-12-23 21:04:58,577 INFO scheduler Scheduled Job Start: frappe.monitor.flush for newbench.new
2021-12-23 21:04:59,069 INFO scheduler Scheduled Job Complete: frappe.monitor.flush for newbench.new
2021-12-23 21:04:59,226 INFO scheduler Scheduled Job Start: frappe.utils.global_search.sync_global_search for newbench.new
2021-12-23 21:04:59,628 INFO scheduler Scheduled Job Complete: frappe.utils.global_search.sync_global_search for newbench.new
2021-12-23 21:04:59,783 INFO scheduler Scheduled Job Start: frappe.integrations.doctype.razorpay_settings.razorpay_settings.capture_payment for newbench.new
2021-12-23 21:05:00,483 INFO scheduler Scheduled Job Complete: frappe.integrations.doctype.razorpay_settings.razorpay_settings.capture_payment for newbench.new
2021-12-23 21:05:00,636 INFO scheduler Scheduled Job Start: frappe.email.doctype.email_account.email_account.notify_unreplied for newbench.new
2021-12-23 21:05:01,196 INFO scheduler Scheduled Job Complete: frappe.email.doctype.email_account.email_account.notify_unreplied for newbench.new
2021-12-23 21:05:01,351 INFO scheduler Scheduled Job Start: frappe.email.doctype.email_account.email_account.pull for newbench.new
2021-12-23 21:05:01,946 INFO scheduler Scheduled Job Complete: frappe.email.doctype.email_account.email_account.pull for newbench.new
2021-12-23 21:05:02,103 INFO scheduler Scheduled Job Start: frappe.email.queue.flush for newbench.new
2021-12-23 21:05:02,583 INFO scheduler Scheduled Job Complete: frappe.email.queue.flush for newbench.new
2021-12-23 21:05:56,550 DEBUG scheduler Queued events for site newbench.new
2021-12-23 21:06:57,205 DEBUG scheduler Queued events for site newbench.new
2021-12-23 21:07:57,863 DEBUG scheduler Queued events for site newbench.new
2021-12-23 21:08:58,468 INFO scheduler Scheduled Job Start: erpnext.crm.doctype.social_media_post.social_media_post.process_scheduled_social_media_posts for newbench.new
2021-12-23 21:08:58,657 DEBUG scheduler Queued events for site newbench.new
2021-12-23 21:08:58,975 INFO scheduler Scheduled Job Complete: erpnext.crm.doctype.social_media_post.social_media_post.process_scheduled_social_media_posts for newbench.new
2021-12-23 21:08:59,126 INFO scheduler Scheduled Job Start: erpnext.hr.doctype.interview.interview.send_interview_reminder for newbench.new
2021-12-23 21:08:59,647 INFO scheduler Scheduled Job Complete: erpnext.hr.doctype.interview.interview.send_interview_reminder for newbench.new
2021-12-23 21:08:59,797 INFO scheduler Scheduled Job Start: erpnext.healthcare.doctype.patient_appointment.patient_appointment.send_appointment_reminder for newbench.new
2021-12-23 21:09:00,262 INFO scheduler Scheduled Job Complete: erpnext.healthcare.doctype.patient_appointment.patient_appointment.send_appointment_reminder for newbench.new
2021-12-23 21:09:00,418 INFO scheduler Scheduled Job Start: erpnext.projects.doctype.project.project.project_status_update_reminder for newbench.new
2021-12-23 21:09:01,148 INFO scheduler Scheduled Job Complete: erpnext.projects.doctype.project.project.project_status_update_reminder for newbench.new
2021-12-23 21:09:01,373 INFO scheduler Scheduled Job Start: frappe.monitor.flush for newbench.new
2021-12-23 21:09:01,774 INFO scheduler Scheduled Job Complete: frappe.monitor.flush for newbench.new
2021-12-23 21:09:01,933 INFO scheduler Scheduled Job Start: frappe.utils.global_search.sync_global_search for newbench.new
2021-12-23 21:09:02,384 INFO scheduler Scheduled Job Complete: frappe.utils.global_search.sync_global_search for newbench.new
2021-12-23 21:09:02,534 INFO scheduler Scheduled Job Start: frappe.integrations.doctype.razorpay_settings.razorpay_settings.capture_payment for newbench.new
2021-12-23 21:09:03,267 INFO scheduler Scheduled Job Complete: frappe.integrations.doctype.razorpay_settings.razorpay_settings.capture_payment for newbench.new
2021-12-23 21:09:03,421 INFO scheduler Scheduled Job Start: frappe.email.doctype.email_account.email_account.notify_unreplied for newbench.new
2021-12-23 21:09:03,979 INFO scheduler Scheduled Job Complete: frappe.email.doctype.email_account.email_account.notify_unreplied for newbench.new
2021-12-23 21:09:04,131 INFO scheduler Scheduled Job Start: frappe.email.doctype.email_account.email_account.pull for newbench.new
2021-12-23 21:09:04,761 INFO scheduler Scheduled Job Complete: frappe.email.doctype.email_account.email_account.pull for newbench.new
2021-12-23 21:09:04,918 INFO scheduler Scheduled Job Start: frappe.email.queue.flush for newbench.new
2021-12-23 21:09:05,361 INFO scheduler Scheduled Job Complete: frappe.email.queue.flush for newbench.new
2021-12-23 21:09:59,360 DEBUG scheduler Queued events for site newbench.new
2021-12-23 21:11:00,026 DEBUG scheduler Queued events for site newbench.new
2021-12-23 21:12:00,623 INFO scheduler Scheduled Job Start: erpnext.crm.doctype.social_media_post.social_media_post.process_scheduled_social_media_posts for newbench.new
2021-12-23 21:12:00,808 DEBUG scheduler Queued events for site newbench.new
2021-12-23 21:12:01,119 INFO scheduler Scheduled Job Complete: erpnext.crm.doctype.social_media_post.social_media_post.process_scheduled_social_media_posts for newbench.new
2021-12-23 21:12:01,279 INFO scheduler Scheduled Job Start: erpnext.hr.doctype.interview.interview.send_interview_reminder for newbench.new
2021-12-23 21:12:01,797 INFO scheduler Scheduled Job Complete: erpnext.hr.doctype.interview.interview.send_interview_reminder for newbench.new
2021-12-23 21:12:01,951 INFO scheduler Scheduled Job Start: erpnext.healthcare.doctype.patient_appointment.patient_appointment.send_appointment_reminder for newbench.new
2021-12-23 21:12:02,411 INFO scheduler Scheduled Job Complete: erpnext.healthcare.doctype.patient_appointment.patient_appointment.send_appointment_reminder for newbench.new
2021-12-23 21:12:02,565 INFO scheduler Scheduled Job Start: erpnext.projects.doctype.project.project.project_status_update_reminder for newbench.new
2021-12-23 21:12:03,278 INFO scheduler Scheduled Job Complete: erpnext.projects.doctype.project.project.project_status_update_reminder for newbench.new
2021-12-23 21:12:03,432 INFO scheduler Scheduled Job Start: frappe.monitor.flush for newbench.new
2021-12-23 21:12:03,838 INFO scheduler Scheduled Job Complete: frappe.monitor.flush for newbench.new
2021-12-23 21:12:03,992 INFO scheduler Scheduled Job Start: frappe.utils.global_search.sync_global_search for newbench.new
2021-12-23 21:12:04,392 INFO scheduler Scheduled Job Complete: frappe.utils.global_search.sync_global_search for newbench.new
2021-12-23 21:12:04,549 INFO scheduler Scheduled Job Start: frappe.integrations.doctype.razorpay_settings.razorpay_settings.capture_payment for newbench.new
2021-12-23 21:12:05,241 INFO scheduler Scheduled Job Complete: frappe.integrations.doctype.razorpay_settings.razorpay_settings.capture_payment for newbench.new
2021-12-23 21:12:05,397 INFO scheduler Scheduled Job Start: frappe.email.doctype.email_account.email_account.notify_unreplied for newbench.new
2021-12-23 21:12:05,956 INFO scheduler Scheduled Job Complete: frappe.email.doctype.email_account.email_account.notify_unreplied for newbench.new
2021-12-23 21:12:06,109 INFO scheduler Scheduled Job Start: frappe.email.doctype.email_account.email_account.pull for newbench.new
2021-12-23 21:12:06,697 INFO scheduler Scheduled Job Complete: frappe.email.doctype.email_account.email_account.pull for newbench.new
2021-12-23 21:12:06,850 INFO scheduler Scheduled Job Start: frappe.email.queue.flush for newbench.new
2021-12-23 21:12:07,432 INFO scheduler Scheduled Job Complete: frappe.email.queue.flush for newbench.new
2021-12-23 21:13:01,473 DEBUG scheduler Queued events for site newbench.new
2021-12-23 21:14:02,175 DEBUG scheduler Queued events for site newbench.new
2021-12-23 21:15:02,864 DEBUG scheduler Queued events for site newbench.new
2021-12-23 21:15:02,973 INFO scheduler Scheduled Job Start: frappe.twofactor.delete_all_barcodes_for_users for newbench.new
2021-12-23 21:15:03,715 INFO scheduler Scheduled Job Complete: frappe.twofactor.delete_all_barcodes_for_users for newbench.new
2021-12-23 21:15:03,926 INFO scheduler Scheduled Job Start: frappe.website.doctype.web_page.web_page.check_publish_status for newbench.new
2021-12-23 21:15:04,687 INFO scheduler Scheduled Job Complete: frappe.website.doctype.web_page.web_page.check_publish_status for newbench.new
2021-12-23 21:15:04,915 INFO scheduler Scheduled Job Start: frappe.oauth.delete_oauth2_data for newbench.new
2021-12-23 21:15:05,612 INFO scheduler Scheduled Job Complete: frappe.oauth.delete_oauth2_data for newbench.new
2021-12-23 21:16:03,456 INFO scheduler Scheduled Job Start: erpnext.crm.doctype.social_media_post.social_media_post.process_scheduled_social_media_posts for newbench.new
2021-12-23 21:16:03,645 DEBUG scheduler Queued events for site newbench.new
2021-12-23 21:16:03,964 INFO scheduler Scheduled Job Complete: erpnext.crm.doctype.social_media_post.social_media_post.process_scheduled_social_media_posts for newbench.new
2021-12-23 21:16:04,114 INFO scheduler Scheduled Job Start: erpnext.hr.doctype.interview.interview.send_interview_reminder for newbench.new
2021-12-23 21:16:04,664 INFO scheduler Scheduled Job Complete: erpnext.hr.doctype.interview.interview.send_interview_reminder for newbench.new
2021-12-23 21:16:04,819 INFO scheduler Scheduled Job Start: erpnext.healthcare.doctype.patient_appointment.patient_appointment.send_appointment_reminder for newbench.new
2021-12-23 21:16:05,280 INFO scheduler Scheduled Job Complete: erpnext.healthcare.doctype.patient_appointment.patient_appointment.send_appointment_reminder for newbench.new
2021-12-23 21:16:05,432 INFO scheduler Scheduled Job Start: erpnext.projects.doctype.project.project.project_status_update_reminder for newbench.new
2021-12-23 21:16:06,149 INFO scheduler Scheduled Job Complete: erpnext.projects.doctype.project.project.project_status_update_reminder for newbench.new
2021-12-23 21:16:06,299 INFO scheduler Scheduled Job Start: frappe.monitor.flush for newbench.new
2021-12-23 21:16:06,705 INFO scheduler Scheduled Job Complete: frappe.monitor.flush for newbench.new
2021-12-23 21:16:06,859 INFO scheduler Scheduled Job Start: frappe.utils.global_search.sync_global_search for newbench.new
2021-12-23 21:16:07,390 INFO scheduler Scheduled Job Complete: frappe.utils.global_search.sync_global_search for newbench.new
2021-12-23 21:16:07,548 INFO scheduler Scheduled Job Start: frappe.integrations.doctype.razorpay_settings.razorpay_settings.capture_payment for newbench.new
2021-12-23 21:16:08,252 INFO scheduler Scheduled Job Complete: frappe.integrations.doctype.razorpay_settings.razorpay_settings.capture_payment for newbench.new
2021-12-23 21:16:08,406 INFO scheduler Scheduled Job Start: frappe.email.doctype.email_account.email_account.notify_unreplied for newbench.new
2021-12-23 21:16:08,957 INFO scheduler Scheduled Job Complete: frappe.email.doctype.email_account.email_account.notify_unreplied for newbench.new
2021-12-23 21:16:09,109 INFO scheduler Scheduled Job Start: frappe.email.doctype.email_account.email_account.pull for newbench.new
2021-12-23 21:16:09,689 INFO scheduler Scheduled Job Complete: frappe.email.doctype.email_account.email_account.pull for newbench.new
2021-12-23 21:16:09,841 INFO scheduler Scheduled Job Start: frappe.email.queue.flush for newbench.new
2021-12-23 21:16:10,322 INFO scheduler Scheduled Job Complete: frappe.email.queue.flush for newbench.new
2021-12-23 21:17:04,331 DEBUG scheduler Queued events for site newbench.new
2021-12-23 21:18:05,009 DEBUG scheduler Queued events for site newbench.new
2021-12-23 21:19:05,679 DEBUG scheduler Queued events for site newbench.new
2021-12-23 21:20:06,277 INFO scheduler Scheduled Job Start: erpnext.crm.doctype.social_media_post.social_media_post.process_scheduled_social_media_posts for newbench.new
2021-12-23 21:20:06,462 DEBUG scheduler Queued events for site newbench.new
2021-12-23 21:20:06,782 INFO scheduler Scheduled Job Complete: erpnext.crm.doctype.social_media_post.social_media_post.process_scheduled_social_media_posts for newbench.new
2021-12-23 21:20:06,935 INFO scheduler Scheduled Job Start: erpnext.hr.doctype.interview.interview.send_interview_reminder for newbench.new
2021-12-23 21:20:07,456 INFO scheduler Scheduled Job Complete: erpnext.hr.doctype.interview.interview.send_interview_reminder for newbench.new
2021-12-23 21:20:07,611 INFO scheduler Scheduled Job Start: erpnext.healthcare.doctype.patient_appointment.patient_appointment.send_appointment_reminder for newbench.new
2021-12-23 21:20:08,066 INFO scheduler Scheduled Job Complete: erpnext.healthcare.doctype.patient_appointment.patient_appointment.send_appointment_reminder for newbench.new
2021-12-23 21:20:08,219 INFO scheduler Scheduled Job Start: erpnext.projects.doctype.project.project.project_status_update_reminder for newbench.new
2021-12-23 21:20:08,932 INFO scheduler Scheduled Job Complete: erpnext.projects.doctype.project.project.project_status_update_reminder for newbench.new
2021-12-23 21:20:09,087 INFO scheduler Scheduled Job Start: frappe.monitor.flush for newbench.new
2021-12-23 21:20:09,618 INFO scheduler Scheduled Job Complete: frappe.monitor.flush for newbench.new
2021-12-23 21:20:09,774 INFO scheduler Scheduled Job Start: frappe.utils.global_search.sync_global_search for newbench.new
2021-12-23 21:20:10,183 INFO scheduler Scheduled Job Complete: frappe.utils.global_search.sync_global_search for newbench.new
2021-12-23 21:20:10,339 INFO scheduler Scheduled Job Start: frappe.integrations.doctype.razorpay_settings.razorpay_settings.capture_payment for newbench.new
2021-12-23 21:20:11,032 INFO scheduler Scheduled Job Complete: frappe.integrations.doctype.razorpay_settings.razorpay_settings.capture_payment for newbench.new
2021-12-23 21:20:11,186 INFO scheduler Scheduled Job Start: frappe.email.doctype.email_account.email_account.notify_unreplied for newbench.new
2021-12-23 21:20:11,744 INFO scheduler Scheduled Job Complete: frappe.email.doctype.email_account.email_account.notify_unreplied for newbench.new
2021-12-23 21:20:11,896 INFO scheduler Scheduled Job Start: frappe.email.doctype.email_account.email_account.pull for newbench.new
2021-12-23 21:20:12,548 INFO scheduler Scheduled Job Complete: frappe.email.doctype.email_account.email_account.pull for newbench.new
2021-12-23 21:20:12,702 INFO scheduler Scheduled Job Start: frappe.email.queue.flush for newbench.new
2021-12-23 21:20:13,142 INFO scheduler Scheduled Job Complete: frappe.email.queue.flush for newbench.new
2021-12-23 21:21:07,132 DEBUG scheduler Queued events for site newbench.new
2021-12-23 21:22:07,793 DEBUG scheduler Queued events for site newbench.new
2021-12-23 21:23:08,471 DEBUG scheduler Queued events for site newbench.new
2021-12-23 21:24:09,068 INFO scheduler Scheduled Job Start: erpnext.crm.doctype.social_media_post.social_media_post.process_scheduled_social_media_posts for newbench.new
2021-12-23 21:24:09,254 DEBUG scheduler Queued events for site newbench.new
2021-12-23 21:24:09,611 INFO scheduler Scheduled Job Complete: erpnext.crm.doctype.social_media_post.social_media_post.process_scheduled_social_media_posts for newbench.new
2021-12-23 21:24:09,767 INFO scheduler Scheduled Job Start: erpnext.hr.doctype.interview.interview.send_interview_reminder for newbench.new
2021-12-23 21:24:10,297 INFO scheduler Scheduled Job Complete: erpnext.hr.doctype.interview.interview.send_interview_reminder for newbench.new
2021-12-23 21:24:10,452 INFO scheduler Scheduled Job Start: erpnext.healthcare.doctype.patient_appointment.patient_appointment.send_appointment_reminder for newbench.new
2021-12-23 21:24:10,923 INFO scheduler Scheduled Job Complete: erpnext.healthcare.doctype.patient_appointment.patient_appointment.send_appointment_reminder for newbench.new
2021-12-23 21:24:11,078 INFO scheduler Scheduled Job Start: erpnext.projects.doctype.project.project.project_status_update_reminder for newbench.new
2021-12-23 21:24:11,791 INFO scheduler Scheduled Job Complete: erpnext.projects.doctype.project.project.project_status_update_reminder for newbench.new
2021-12-23 21:24:11,945 INFO scheduler Scheduled Job Start: frappe.monitor.flush for newbench.new
2021-12-23 21:24:12,349 INFO scheduler Scheduled Job Complete: frappe.monitor.flush for newbench.new
2021-12-23 21:24:12,507 INFO scheduler Scheduled Job Start: frappe.utils.global_search.sync_global_search for newbench.new
2021-12-23 21:24:12,925 INFO scheduler Scheduled Job Complete: frappe.utils.global_search.sync_global_search for newbench.new
2021-12-23 21:24:13,083 INFO scheduler Scheduled Job Start: frappe.integrations.doctype.razorpay_settings.razorpay_settings.capture_payment for newbench.new
2021-12-23 21:24:13,776 INFO scheduler Scheduled Job Complete: frappe.integrations.doctype.razorpay_settings.razorpay_settings.capture_payment for newbench.new
2021-12-23 21:24:13,934 INFO scheduler Scheduled Job Start: frappe.email.doctype.email_account.email_account.notify_unreplied for newbench.new
2021-12-23 21:24:14,492 INFO scheduler Scheduled Job Complete: frappe.email.doctype.email_account.email_account.notify_unreplied for newbench.new
2021-12-23 21:24:14,641 INFO scheduler Scheduled Job Start: frappe.email.doctype.email_account.email_account.pull for newbench.new
2021-12-23 21:24:15,251 INFO scheduler Scheduled Job Complete: frappe.email.doctype.email_account.email_account.pull for newbench.new
2021-12-23 21:24:15,407 INFO scheduler Scheduled Job Start: frappe.email.queue.flush for newbench.new
2021-12-23 21:24:15,879 INFO scheduler Scheduled Job Complete: frappe.email.queue.flush for newbench.new
2021-12-23 21:25:09,926 DEBUG scheduler Queued events for site newbench.new
2021-12-23 21:26:10,623 DEBUG scheduler Queued events for site newbench.new
2021-12-23 21:27:11,282 DEBUG scheduler Queued events for site newbench.new
2021-12-23 21:28:11,884 INFO scheduler Scheduled Job Start: erpnext.crm.doctype.social_media_post.social_media_post.process_scheduled_social_media_posts for newbench.new
2021-12-23 21:28:12,064 DEBUG scheduler Queued events for site newbench.new
2021-12-23 21:28:12,387 INFO scheduler Scheduled Job Complete: erpnext.crm.doctype.social_media_post.social_media_post.process_scheduled_social_media_posts for newbench.new
2021-12-23 21:28:12,542 INFO scheduler Scheduled Job Start: erpnext.hr.doctype.interview.interview.send_interview_reminder for newbench.new
2021-12-23 21:28:13,062 INFO scheduler Scheduled Job Complete: erpnext.hr.doctype.interview.interview.send_interview_reminder for newbench.new
2021-12-23 21:28:13,216 INFO scheduler Scheduled Job Start: erpnext.healthcare.doctype.patient_appointment.patient_appointment.send_appointment_reminder for newbench.new
2021-12-23 21:28:13,681 INFO scheduler Scheduled Job Complete: erpnext.healthcare.doctype.patient_appointment.patient_appointment.send_appointment_reminder for newbench.new
2021-12-23 21:28:13,835 INFO scheduler Scheduled Job Start: erpnext.projects.doctype.project.project.project_status_update_reminder for newbench.new
2021-12-23 21:28:14,573 INFO scheduler Scheduled Job Complete: erpnext.projects.doctype.project.project.project_status_update_reminder for newbench.new
2021-12-23 21:28:14,726 INFO scheduler Scheduled Job Start: frappe.monitor.flush for newbench.new
2021-12-23 21:28:15,124 INFO scheduler Scheduled Job Complete: frappe.monitor.flush for newbench.new
2021-12-23 21:28:15,280 INFO scheduler Scheduled Job Start: frappe.utils.global_search.sync_global_search for newbench.new
2021-12-23 21:28:15,697 INFO scheduler Scheduled Job Complete: frappe.utils.global_search.sync_global_search for newbench.new
2021-12-23 21:28:15,853 INFO scheduler Scheduled Job Start: frappe.integrations.doctype.razorpay_settings.razorpay_settings.capture_payment for newbench.new
2021-12-23 21:28:16,548 INFO scheduler Scheduled Job Complete: frappe.integrations.doctype.razorpay_settings.razorpay_settings.capture_payment for newbench.new
2021-12-23 21:28:16,699 INFO scheduler Scheduled Job Start: frappe.email.doctype.email_account.email_account.notify_unreplied for newbench.new
2021-12-23 21:28:17,266 INFO scheduler Scheduled Job Complete: frappe.email.doctype.email_account.email_account.notify_unreplied for newbench.new
2021-12-23 21:28:17,419 INFO scheduler Scheduled Job Start: frappe.email.doctype.email_account.email_account.pull for newbench.new
2021-12-23 21:28:18,011 INFO scheduler Scheduled Job Complete: frappe.email.doctype.email_account.email_account.pull for newbench.new
2021-12-23 21:28:18,161 INFO scheduler Scheduled Job Start: frappe.email.queue.flush for newbench.new
2021-12-23 21:28:18,597 INFO scheduler Scheduled Job Complete: frappe.email.queue.flush for newbench.new
2021-12-23 21:29:12,740 DEBUG scheduler Queued events for site newbench.new
2021-12-23 21:30:13,355 INFO scheduler Scheduled Job Start: erpnext.utilities.doctype.video.video.update_youtube_data for newbench.new
2021-12-23 21:30:13,453 DEBUG scheduler Queued events for site newbench.new
2021-12-23 21:30:14,158 INFO scheduler Scheduled Job Complete: erpnext.utilities.doctype.video.video.update_youtube_data for newbench.new
2021-12-23 21:30:14,393 INFO scheduler Scheduled Job Start: frappe.twofactor.delete_all_barcodes_for_users for newbench.new
2021-12-23 21:30:15,149 INFO scheduler Scheduled Job Complete: frappe.twofactor.delete_all_barcodes_for_users for newbench.new
2021-12-23 21:30:15,366 INFO scheduler Scheduled Job Start: frappe.website.doctype.web_page.web_page.check_publish_status for newbench.new
2021-12-23 21:30:16,131 INFO scheduler Scheduled Job Complete: frappe.website.doctype.web_page.web_page.check_publish_status for newbench.new
2021-12-23 21:30:16,380 INFO scheduler Scheduled Job Start: frappe.oauth.delete_oauth2_data for newbench.new
2021-12-23 21:30:17,068 INFO scheduler Scheduled Job Complete: frappe.oauth.delete_oauth2_data for newbench.new
2021-12-23 21:31:14,128 DEBUG scheduler Queued events for site newbench.new
2021-12-23 21:32:14,724 INFO scheduler Scheduled Job Start: erpnext.crm.doctype.social_media_post.social_media_post.process_scheduled_social_media_posts for newbench.new
2021-12-23 21:32:14,915 DEBUG scheduler Queued events for site newbench.new
2021-12-23 21:32:15,232 INFO scheduler Scheduled Job Complete: erpnext.crm.doctype.social_media_post.social_media_post.process_scheduled_social_media_posts for newbench.new
2021-12-23 21:32:15,388 INFO scheduler Scheduled Job Start: erpnext.hr.doctype.interview.interview.send_interview_reminder for newbench.new
2021-12-23 21:32:15,906 INFO scheduler Scheduled Job Complete: erpnext.hr.doctype.interview.interview.send_interview_reminder for newbench.new
2021-12-23 21:32:16,056 INFO scheduler Scheduled Job Start: erpnext.healthcare.doctype.patient_appointment.patient_appointment.send_appointment_reminder for newbench.new
2021-12-23 21:32:16,512 INFO scheduler Scheduled Job Complete: erpnext.healthcare.doctype.patient_appointment.patient_appointment.send_appointment_reminder for newbench.new
2021-12-23 21:32:16,664 INFO scheduler Scheduled Job Start: erpnext.projects.doctype.project.project.project_status_update_reminder for newbench.new
2021-12-23 21:32:17,377 INFO scheduler Scheduled Job Complete: erpnext.projects.doctype.project.project.project_status_update_reminder for newbench.new
2021-12-23 21:32:17,531 INFO scheduler Scheduled Job Start: frappe.monitor.flush for newbench.new
2021-12-23 21:32:17,933 INFO scheduler Scheduled Job Complete: frappe.monitor.flush for newbench.new
2021-12-23 21:32:18,091 INFO scheduler Scheduled Job Start: frappe.utils.global_search.sync_global_search for newbench.new
2021-12-23 21:32:18,498 INFO scheduler Scheduled Job Complete: frappe.utils.global_search.sync_global_search for newbench.new
2021-12-23 21:32:18,657 INFO scheduler Scheduled Job Start: frappe.integrations.doctype.razorpay_settings.razorpay_settings.capture_payment for newbench.new
2021-12-23 21:32:19,352 INFO scheduler Scheduled Job Complete: frappe.integrations.doctype.razorpay_settings.razorpay_settings.capture_payment for newbench.new
2021-12-23 21:32:19,501 INFO scheduler Scheduled Job Start: frappe.email.doctype.email_account.email_account.notify_unreplied for newbench.new
2021-12-23 21:32:20,254 INFO scheduler Scheduled Job Complete: frappe.email.doctype.email_account.email_account.notify_unreplied for newbench.new
2021-12-23 21:32:20,410 INFO scheduler Scheduled Job Start: frappe.email.doctype.email_account.email_account.pull for newbench.new
2021-12-23 21:32:21,056 INFO scheduler Scheduled Job Complete: frappe.email.doctype.email_account.email_account.pull for newbench.new
2021-12-23 21:32:21,210 INFO scheduler Scheduled Job Start: frappe.email.queue.flush for newbench.new
2021-12-23 21:32:21,664 INFO scheduler Scheduled Job Complete: frappe.email.queue.flush for newbench.new
2021-12-23 21:33:15,589 DEBUG scheduler Queued events for site newbench.new
2021-12-23 21:34:16,274 DEBUG scheduler Queued events for site newbench.new
2021-12-23 21:35:16,945 DEBUG scheduler Queued events for site newbench.new
2021-12-23 21:36:17,548 INFO scheduler Scheduled Job Start: erpnext.crm.doctype.social_media_post.social_media_post.process_scheduled_social_media_posts for newbench.new
2021-12-23 21:36:17,741 DEBUG scheduler Queued events for site newbench.new
2021-12-23 21:36:18,054 INFO scheduler Scheduled Job Complete: erpnext.crm.doctype.social_media_post.social_media_post.process_scheduled_social_media_posts for newbench.new
2021-12-23 21:36:18,209 INFO scheduler Scheduled Job Start: erpnext.hr.doctype.interview.interview.send_interview_reminder for newbench.new
2021-12-23 21:36:18,728 INFO scheduler Scheduled Job Complete: erpnext.hr.doctype.interview.interview.send_interview_reminder for newbench.new
2021-12-23 21:36:18,886 INFO scheduler Scheduled Job Start: erpnext.healthcare.doctype.patient_appointment.patient_appointment.send_appointment_reminder for newbench.new
2021-12-23 21:36:19,589 INFO scheduler Scheduled Job Complete: erpnext.healthcare.doctype.patient_appointment.patient_appointment.send_appointment_reminder for newbench.new
2021-12-23 21:36:19,743 INFO scheduler Scheduled Job Start: erpnext.projects.doctype.project.project.project_status_update_reminder for newbench.new
2021-12-23 21:36:20,461 INFO scheduler Scheduled Job Complete: erpnext.projects.doctype.project.project.project_status_update_reminder for newbench.new
2021-12-23 21:36:20,616 INFO scheduler Scheduled Job Start: frappe.monitor.flush for newbench.new
2021-12-23 21:36:21,029 INFO scheduler Scheduled Job Complete: frappe.monitor.flush for newbench.new
2021-12-23 21:36:21,187 INFO scheduler Scheduled Job Start: frappe.utils.global_search.sync_global_search for newbench.new
2021-12-23 21:36:21,597 INFO scheduler Scheduled Job Complete: frappe.utils.global_search.sync_global_search for newbench.new
2021-12-23 21:36:21,752 INFO scheduler Scheduled Job Start: frappe.integrations.doctype.razorpay_settings.razorpay_settings.capture_payment for newbench.new
2021-12-23 21:36:22,493 INFO scheduler Scheduled Job Complete: frappe.integrations.doctype.razorpay_settings.razorpay_settings.capture_payment for newbench.new
2021-12-23 21:36:22,648 INFO scheduler Scheduled Job Start: frappe.email.doctype.email_account.email_account.notify_unreplied for newbench.new
2021-12-23 21:36:23,218 INFO scheduler Scheduled Job Complete: frappe.email.doctype.email_account.email_account.notify_unreplied for newbench.new
2021-12-23 21:36:23,371 INFO scheduler Scheduled Job Start: frappe.email.doctype.email_account.email_account.pull for newbench.new
2021-12-23 21:36:24,051 INFO scheduler Scheduled Job Complete: frappe.email.doctype.email_account.email_account.pull for newbench.new
2021-12-23 21:36:24,204 INFO scheduler Scheduled Job Start: frappe.email.queue.flush for newbench.new
2021-12-23 21:36:24,682 INFO scheduler Scheduled Job Complete: frappe.email.queue.flush for newbench.new
2021-12-23 21:37:18,441 DEBUG scheduler Queued events for site newbench.new
2021-12-23 21:38:19,105 DEBUG scheduler Queued events for site newbench.new
2021-12-23 21:39:19,783 DEBUG scheduler Queued events for site newbench.new
2021-12-23 21:40:20,375 INFO scheduler Scheduled Job Start: erpnext.crm.doctype.social_media_post.social_media_post.process_scheduled_social_media_posts for newbench.new
2021-12-23 21:40:20,558 DEBUG scheduler Queued events for site newbench.new
2021-12-23 21:40:20,869 INFO scheduler Scheduled Job Complete: erpnext.crm.doctype.social_media_post.social_media_post.process_scheduled_social_media_posts for newbench.new
2021-12-23 21:40:21,023 INFO scheduler Scheduled Job Start: erpnext.hr.doctype.interview.interview.send_interview_reminder for newbench.new
2021-12-23 21:40:21,541 INFO scheduler Scheduled Job Complete: erpnext.hr.doctype.interview.interview.send_interview_reminder for newbench.new
2021-12-23 21:40:21,693 INFO scheduler Scheduled Job Start: erpnext.healthcare.doctype.patient_appointment.patient_appointment.send_appointment_reminder for newbench.new
2021-12-23 21:40:22,150 INFO scheduler Scheduled Job Complete: erpnext.healthcare.doctype.patient_appointment.patient_appointment.send_appointment_reminder for newbench.new
2021-12-23 21:40:22,299 INFO scheduler Scheduled Job Start: erpnext.projects.doctype.project.project.project_status_update_reminder for newbench.new
2021-12-23 21:40:23,015 INFO scheduler Scheduled Job Complete: erpnext.projects.doctype.project.project.project_status_update_reminder for newbench.new
2021-12-23 21:40:23,164 INFO scheduler Scheduled Job Start: frappe.monitor.flush for newbench.new
2021-12-23 21:40:23,572 INFO scheduler Scheduled Job Complete: frappe.monitor.flush for newbench.new
2021-12-23 21:40:23,725 INFO scheduler Scheduled Job Start: frappe.utils.global_search.sync_global_search for newbench.new
2021-12-23 21:40:24,132 INFO scheduler Scheduled Job Complete: frappe.utils.global_search.sync_global_search for newbench.new
2021-12-23 21:40:24,286 INFO scheduler Scheduled Job Start: frappe.integrations.doctype.razorpay_settings.razorpay_settings.capture_payment for newbench.new
2021-12-23 21:40:24,985 INFO scheduler Scheduled Job Complete: frappe.integrations.doctype.razorpay_settings.razorpay_settings.capture_payment for newbench.new
2021-12-23 21:40:25,136 INFO scheduler Scheduled Job Start: frappe.email.doctype.email_account.email_account.notify_unreplied for newbench.new
2021-12-23 21:40:25,922 INFO scheduler Scheduled Job Complete: frappe.email.doctype.email_account.email_account.notify_unreplied for newbench.new
2021-12-23 21:40:26,076 INFO scheduler Scheduled Job Start: frappe.email.doctype.email_account.email_account.pull for newbench.new
2021-12-23 21:40:26,791 INFO scheduler Scheduled Job Complete: frappe.email.doctype.email_account.email_account.pull for newbench.new
2021-12-23 21:40:26,942 INFO scheduler Scheduled Job Start: frappe.email.queue.flush for newbench.new
2021-12-23 21:40:27,376 INFO scheduler Scheduled Job Complete: frappe.email.queue.flush for newbench.new
2021-12-23 21:41:21,237 DEBUG scheduler Queued events for site newbench.new
2021-12-23 21:42:21,919 DEBUG scheduler Queued events for site newbench.new
2021-12-23 21:43:22,579 DEBUG scheduler Queued events for site newbench.new
2021-12-23 21:44:23,177 INFO scheduler Scheduled Job Start: erpnext.crm.doctype.social_media_post.social_media_post.process_scheduled_social_media_posts for newbench.new
2021-12-23 21:44:23,367 DEBUG scheduler Queued events for site newbench.new
2021-12-23 21:44:23,674 INFO scheduler Scheduled Job Complete: erpnext.crm.doctype.social_media_post.social_media_post.process_scheduled_social_media_posts for newbench.new
2021-12-23 21:44:23,827 INFO scheduler Scheduled Job Start: erpnext.hr.doctype.interview.interview.send_interview_reminder for newbench.new
2021-12-23 21:44:24,348 INFO scheduler Scheduled Job Complete: erpnext.hr.doctype.interview.interview.send_interview_reminder for newbench.new
2021-12-23 21:44:24,499 INFO scheduler Scheduled Job Start: erpnext.healthcare.doctype.patient_appointment.patient_appointment.send_appointment_reminder for newbench.new
2021-12-23 21:44:24,983 INFO scheduler Scheduled Job Complete: erpnext.healthcare.doctype.patient_appointment.patient_appointment.send_appointment_reminder for newbench.new
2021-12-23 21:44:25,133 INFO scheduler Scheduled Job Start: erpnext.projects.doctype.project.project.project_status_update_reminder for newbench.new
2021-12-23 21:44:25,844 INFO scheduler Scheduled Job Complete: erpnext.projects.doctype.project.project.project_status_update_reminder for newbench.new
2021-12-23 21:44:25,993 INFO scheduler Scheduled Job Start: frappe.monitor.flush for newbench.new
2021-12-23 21:44:26,525 INFO scheduler Scheduled Job Complete: frappe.monitor.flush for newbench.new
2021-12-23 21:44:26,679 INFO scheduler Scheduled Job Start: frappe.utils.global_search.sync_global_search for newbench.new
2021-12-23 21:44:27,074 INFO scheduler Scheduled Job Complete: frappe.utils.global_search.sync_global_search for newbench.new
2021-12-23 21:44:27,229 INFO scheduler Scheduled Job Start: frappe.integrations.doctype.razorpay_settings.razorpay_settings.capture_payment for newbench.new
2021-12-23 21:44:27,913 INFO scheduler Scheduled Job Complete: frappe.integrations.doctype.razorpay_settings.razorpay_settings.capture_payment for newbench.new
2021-12-23 21:44:28,065 INFO scheduler Scheduled Job Start: frappe.email.doctype.email_account.email_account.notify_unreplied for newbench.new
2021-12-23 21:44:28,715 INFO scheduler Scheduled Job Complete: frappe.email.doctype.email_account.email_account.notify_unreplied for newbench.new
2021-12-23 21:44:28,872 INFO scheduler Scheduled Job Start: frappe.email.doctype.email_account.email_account.pull for newbench.new
2021-12-23 21:44:29,471 INFO scheduler Scheduled Job Complete: frappe.email.doctype.email_account.email_account.pull for newbench.new
2021-12-23 21:44:29,622 INFO scheduler Scheduled Job Start: frappe.email.queue.flush for newbench.new
2021-12-23 21:44:30,093 INFO scheduler Scheduled Job Complete: frappe.email.queue.flush for newbench.new
2021-12-23 21:45:24,069 DEBUG scheduler Queued events for site newbench.new
2021-12-23 21:45:24,182 INFO scheduler Scheduled Job Start: frappe.twofactor.delete_all_barcodes_for_users for newbench.new
2021-12-23 21:45:24,986 INFO scheduler Scheduled Job Complete: frappe.twofactor.delete_all_barcodes_for_users for newbench.new
2021-12-23 21:45:25,214 INFO scheduler Scheduled Job Start: frappe.website.doctype.web_page.web_page.check_publish_status for newbench.new
2021-12-23 21:45:26,014 INFO scheduler Scheduled Job Complete: frappe.website.doctype.web_page.web_page.check_publish_status for newbench.new
2021-12-23 21:45:26,237 INFO scheduler Scheduled Job Start: frappe.oauth.delete_oauth2_data for newbench.new
2021-12-23 21:45:26,953 INFO scheduler Scheduled Job Complete: frappe.oauth.delete_oauth2_data for newbench.new
2021-12-23 21:46:24,719 DEBUG scheduler Queued events for site newbench.new
2021-12-23 21:47:25,398 DEBUG scheduler Queued events for site newbench.new
2021-12-23 21:48:25,991 INFO scheduler Scheduled Job Start: erpnext.crm.doctype.social_media_post.social_media_post.process_scheduled_social_media_posts for newbench.new
2021-12-23 21:48:26,189 DEBUG scheduler Queued events for site newbench.new
2021-12-23 21:48:26,505 INFO scheduler Scheduled Job Complete: erpnext.crm.doctype.social_media_post.social_media_post.process_scheduled_social_media_posts for newbench.new
2021-12-23 21:48:26,654 INFO scheduler Scheduled Job Start: erpnext.hr.doctype.interview.interview.send_interview_reminder for newbench.new
2021-12-23 21:48:27,173 INFO scheduler Scheduled Job Complete: erpnext.hr.doctype.interview.interview.send_interview_reminder for newbench.new
2021-12-23 21:48:27,324 INFO scheduler Scheduled Job Start: erpnext.healthcare.doctype.patient_appointment.patient_appointment.send_appointment_reminder for newbench.new
2021-12-23 21:48:27,784 INFO scheduler Scheduled Job Complete: erpnext.healthcare.doctype.patient_appointment.patient_appointment.send_appointment_reminder for newbench.new
2021-12-23 21:48:27,936 INFO scheduler Scheduled Job Start: erpnext.projects.doctype.project.project.project_status_update_reminder for newbench.new
2021-12-23 21:48:28,652 INFO scheduler Scheduled Job Complete: erpnext.projects.doctype.project.project.project_status_update_reminder for newbench.new
2021-12-23 21:48:28,804 INFO scheduler Scheduled Job Start: frappe.monitor.flush for newbench.new
2021-12-23 21:48:29,284 INFO scheduler Scheduled Job Complete: frappe.monitor.flush for newbench.new
2021-12-23 21:48:29,436 INFO scheduler Scheduled Job Start: frappe.utils.global_search.sync_global_search for newbench.new
2021-12-23 21:48:29,836 INFO scheduler Scheduled Job Complete: frappe.utils.global_search.sync_global_search for newbench.new
2021-12-23 21:48:29,993 INFO scheduler Scheduled Job Start: frappe.integrations.doctype.razorpay_settings.razorpay_settings.capture_payment for newbench.new
2021-12-23 21:48:30,687 INFO scheduler Scheduled Job Complete: frappe.integrations.doctype.razorpay_settings.razorpay_settings.capture_payment for newbench.new
2021-12-23 21:48:30,841 INFO scheduler Scheduled Job Start: frappe.email.doctype.email_account.email_account.notify_unreplied for newbench.new
2021-12-23 21:48:31,414 INFO scheduler Scheduled Job Complete: frappe.email.doctype.email_account.email_account.notify_unreplied for newbench.new
2021-12-23 21:48:31,568 INFO scheduler Scheduled Job Start: frappe.email.doctype.email_account.email_account.pull for newbench.new
2021-12-23 21:48:32,204 INFO scheduler Scheduled Job Complete: frappe.email.doctype.email_account.email_account.pull for newbench.new
2021-12-23 21:48:32,355 INFO scheduler Scheduled Job Start: frappe.email.queue.flush for newbench.new
2021-12-23 21:48:32,800 INFO scheduler Scheduled Job Complete: frappe.email.queue.flush for newbench.new
2021-12-23 21:49:26,845 DEBUG scheduler Queued events for site newbench.new
2021-12-23 21:50:27,505 DEBUG scheduler Queued events for site newbench.new
2021-12-23 21:51:28,197 DEBUG scheduler Queued events for site newbench.new
2021-12-23 21:52:28,795 INFO scheduler Scheduled Job Start: erpnext.crm.doctype.social_media_post.social_media_post.process_scheduled_social_media_posts for newbench.new
2021-12-23 21:52:28,988 DEBUG scheduler Queued events for site newbench.new
2021-12-23 21:52:29,396 INFO scheduler Scheduled Job Complete: erpnext.crm.doctype.social_media_post.social_media_post.process_scheduled_social_media_posts for newbench.new
2021-12-23 21:52:29,552 INFO scheduler Scheduled Job Start: erpnext.hr.doctype.interview.interview.send_interview_reminder for newbench.new
2021-12-23 21:52:30,065 INFO scheduler Scheduled Job Complete: erpnext.hr.doctype.interview.interview.send_interview_reminder for newbench.new
2021-12-23 21:52:30,223 INFO scheduler Scheduled Job Start: erpnext.healthcare.doctype.patient_appointment.patient_appointment.send_appointment_reminder for newbench.new
2021-12-23 21:52:30,681 INFO scheduler Scheduled Job Complete: erpnext.healthcare.doctype.patient_appointment.patient_appointment.send_appointment_reminder for newbench.new
2021-12-23 21:52:30,835 INFO scheduler Scheduled Job Start: erpnext.projects.doctype.project.project.project_status_update_reminder for newbench.new
2021-12-23 21:52:31,543 INFO scheduler Scheduled Job Complete: erpnext.projects.doctype.project.project.project_status_update_reminder for newbench.new
2021-12-23 21:52:31,698 INFO scheduler Scheduled Job Start: frappe.monitor.flush for newbench.new
2021-12-23 21:52:32,110 INFO scheduler Scheduled Job Complete: frappe.monitor.flush for newbench.new
2021-12-23 21:52:32,266 INFO scheduler Scheduled Job Start: frappe.utils.global_search.sync_global_search for newbench.new
2021-12-23 21:52:32,664 INFO scheduler Scheduled Job Complete: frappe.utils.global_search.sync_global_search for newbench.new
2021-12-23 21:52:32,822 INFO scheduler Scheduled Job Start: frappe.integrations.doctype.razorpay_settings.razorpay_settings.capture_payment for newbench.new
2021-12-23 21:52:33,513 INFO scheduler Scheduled Job Complete: frappe.integrations.doctype.razorpay_settings.razorpay_settings.capture_payment for newbench.new
2021-12-23 21:52:33,665 INFO scheduler Scheduled Job Start: frappe.email.doctype.email_account.email_account.notify_unreplied for newbench.new
2021-12-23 21:52:34,210 INFO scheduler Scheduled Job Complete: frappe.email.doctype.email_account.email_account.notify_unreplied for newbench.new
2021-12-23 21:52:34,362 INFO scheduler Scheduled Job Start: frappe.email.doctype.email_account.email_account.pull for newbench.new
2021-12-23 21:52:35,075 INFO scheduler Scheduled Job Complete: frappe.email.doctype.email_account.email_account.pull for newbench.new
2021-12-23 21:52:35,227 INFO scheduler Scheduled Job Start: frappe.email.queue.flush for newbench.new
2021-12-23 21:52:35,718 INFO scheduler Scheduled Job Complete: frappe.email.queue.flush for newbench.new
2021-12-23 21:53:29,688 DEBUG scheduler Queued events for site newbench.new
2021-12-23 21:54:30,366 DEBUG scheduler Queued events for site newbench.new
2021-12-23 21:55:31,034 DEBUG scheduler Queued events for site newbench.new
2021-12-23 21:56:31,644 INFO scheduler Scheduled Job Start: erpnext.crm.doctype.social_media_post.social_media_post.process_scheduled_social_media_posts for newbench.new
2021-12-23 21:56:31,829 DEBUG scheduler Queued events for site newbench.new
2021-12-23 21:56:32,143 INFO scheduler Scheduled Job Complete: erpnext.crm.doctype.social_media_post.social_media_post.process_scheduled_social_media_posts for newbench.new
2021-12-23 21:56:32,293 INFO scheduler Scheduled Job Start: erpnext.hr.doctype.interview.interview.send_interview_reminder for newbench.new
2021-12-23 21:56:32,816 INFO scheduler Scheduled Job Complete: erpnext.hr.doctype.interview.interview.send_interview_reminder for newbench.new
2021-12-23 21:56:32,967 INFO scheduler Scheduled Job Start: erpnext.healthcare.doctype.patient_appointment.patient_appointment.send_appointment_reminder for newbench.new
2021-12-23 21:56:33,430 INFO scheduler Scheduled Job Complete: erpnext.healthcare.doctype.patient_appointment.patient_appointment.send_appointment_reminder for newbench.new
2021-12-23 21:56:33,586 INFO scheduler Scheduled Job Start: erpnext.projects.doctype.project.project.project_status_update_reminder for newbench.new
2021-12-23 21:56:34,304 INFO scheduler Scheduled Job Complete: erpnext.projects.doctype.project.project.project_status_update_reminder for newbench.new
2021-12-23 21:56:34,462 INFO scheduler Scheduled Job Start: frappe.monitor.flush for newbench.new
2021-12-23 21:56:34,912 INFO scheduler Scheduled Job Complete: frappe.monitor.flush for newbench.new
2021-12-23 21:56:35,070 INFO scheduler Scheduled Job Start: frappe.utils.global_search.sync_global_search for newbench.new
2021-12-23 21:56:35,572 INFO scheduler Scheduled Job Complete: frappe.utils.global_search.sync_global_search for newbench.new
2021-12-23 21:56:35,727 INFO scheduler Scheduled Job Start: frappe.integrations.doctype.razorpay_settings.razorpay_settings.capture_payment for newbench.new
2021-12-23 21:56:36,421 INFO scheduler Scheduled Job Complete: frappe.integrations.doctype.razorpay_settings.razorpay_settings.capture_payment for newbench.new
2021-12-23 21:56:36,578 INFO scheduler Scheduled Job Start: frappe.email.doctype.email_account.email_account.notify_unreplied for newbench.new
2021-12-23 21:56:37,137 INFO scheduler Scheduled Job Complete: frappe.email.doctype.email_account.email_account.notify_unreplied for newbench.new
2021-12-23 21:56:37,291 INFO scheduler Scheduled Job Start: frappe.email.doctype.email_account.email_account.pull for newbench.new
2021-12-23 21:56:37,984 INFO scheduler Scheduled Job Complete: frappe.email.doctype.email_account.email_account.pull for newbench.new
2021-12-23 21:56:38,137 INFO scheduler Scheduled Job Start: frappe.email.queue.flush for newbench.new
2021-12-23 21:56:38,604 INFO scheduler Scheduled Job Complete: frappe.email.queue.flush for newbench.new
2021-12-23 21:57:32,509 DEBUG scheduler Queued events for site newbench.new
2021-12-23 21:58:33,178 DEBUG scheduler Queued events for site newbench.new
2021-12-23 21:59:33,877 DEBUG scheduler Queued events for site newbench.new
2021-12-23 22:00:34,263 INFO scheduler Scheduled Job Start: erpnext.stock.doctype.repost_item_valuation.repost_item_valuation.repost_entries for newbench.new
2021-12-23 22:00:34,493 INFO scheduler Scheduled Job Start: erpnext.erpnext_integrations.connectors.shopify_connection.sync_old_orders for newbench.new
2021-12-23 22:00:35,185 DEBUG scheduler Queued events for site newbench.new
2021-12-23 22:00:35,337 INFO scheduler Scheduled Job Complete: erpnext.stock.doctype.repost_item_valuation.repost_item_valuation.repost_entries for newbench.new
2021-12-23 22:00:35,532 INFO scheduler Scheduled Job Complete: erpnext.erpnext_integrations.connectors.shopify_connection.sync_old_orders for newbench.new
2021-12-23 22:00:35,741 INFO scheduler Scheduled Job Start: erpnext.support.doctype.issue.issue.set_service_level_agreement_variance for newbench.new
2021-12-23 22:00:36,472 INFO scheduler Scheduled Job Complete: erpnext.support.doctype.issue.issue.set_service_level_agreement_variance for newbench.new
2021-12-23 22:00:36,685 INFO scheduler Scheduled Job Start: erpnext.hr.doctype.shift_type.shift_type.process_auto_attendance_for_all_shifts for newbench.new
2021-12-23 22:00:37,427 INFO scheduler Scheduled Job Complete: erpnext.hr.doctype.shift_type.shift_type.process_auto_attendance_for_all_shifts for newbench.new
2021-12-23 22:00:37,630 INFO scheduler Scheduled Job Start: erpnext.projects.doctype.project.project.collect_project_status for newbench.new
2021-12-23 22:00:38,387 INFO scheduler Scheduled Job Complete: erpnext.projects.doctype.project.project.collect_project_status for newbench.new
2021-12-23 22:00:38,752 INFO scheduler Scheduled Job Start: erpnext.projects.doctype.project.project.hourly_reminder for newbench.new
2021-12-23 22:00:39,733 INFO scheduler Scheduled Job Complete: erpnext.projects.doctype.project.project.hourly_reminder for newbench.new
2021-12-23 22:00:39,948 INFO scheduler Scheduled Job Start: erpnext.erpnext_integrations.doctype.plaid_settings.plaid_settings.automatic_synchronization for newbench.new
2021-12-23 22:00:40,767 INFO scheduler Scheduled Job Complete: erpnext.erpnext_integrations.doctype.plaid_settings.plaid_settings.automatic_synchronization for newbench.new
2021-12-23 22:00:41,010 INFO scheduler Scheduled Job Start: erpnext.accounts.doctype.gl_entry.gl_entry.rename_gle_sle_docs for newbench.new
2021-12-23 22:00:41,776 INFO scheduler Scheduled Job Complete: erpnext.accounts.doctype.gl_entry.gl_entry.rename_gle_sle_docs for newbench.new
2021-12-23 22:00:42,053 INFO scheduler Scheduled Job Start: erpnext.erpnext_integrations.doctype.amazon_mws_settings.amazon_mws_settings.schedule_get_order_details for newbench.new
2021-12-23 22:00:42,691 INFO scheduler Scheduled Job Complete: erpnext.erpnext_integrations.doctype.amazon_mws_settings.amazon_mws_settings.schedule_get_order_details for newbench.new
2021-12-23 22:00:42,903 INFO scheduler Scheduled Job Start: erpnext.accounts.doctype.subscription.subscription.process_all for newbench.new
2021-12-23 22:00:43,582 INFO scheduler Scheduled Job Complete: erpnext.accounts.doctype.subscription.subscription.process_all for newbench.new
2021-12-23 22:00:43,798 INFO scheduler Scheduled Job Start: erpnext.hr.doctype.daily_work_summary_group.daily_work_summary_group.trigger_emails for newbench.new
2021-12-23 22:00:44,431 INFO scheduler Scheduled Job Complete: erpnext.hr.doctype.daily_work_summary_group.daily_work_summary_group.trigger_emails for newbench.new
2021-12-23 22:00:44,696 INFO scheduler Scheduled Job Start: erpnext.crm.doctype.social_media_post.social_media_post.process_scheduled_social_media_posts for newbench.new
2021-12-23 22:00:45,233 INFO scheduler Scheduled Job Complete: erpnext.crm.doctype.social_media_post.social_media_post.process_scheduled_social_media_posts for newbench.new
2021-12-23 22:00:45,385 INFO scheduler Scheduled Job Start: erpnext.hr.doctype.interview.interview.send_interview_reminder for newbench.new
2021-12-23 22:00:45,907 INFO scheduler Scheduled Job Complete: erpnext.hr.doctype.interview.interview.send_interview_reminder for newbench.new
2021-12-23 22:00:46,060 INFO scheduler Scheduled Job Start: erpnext.healthcare.doctype.patient_appointment.patient_appointment.send_appointment_reminder for newbench.new
2021-12-23 22:00:46,552 INFO scheduler Scheduled Job Complete: erpnext.healthcare.doctype.patient_appointment.patient_appointment.send_appointment_reminder for newbench.new
2021-12-23 22:00:46,710 INFO scheduler Scheduled Job Start: erpnext.projects.doctype.project.project.project_status_update_reminder for newbench.new
2021-12-23 22:00:47,485 INFO scheduler Scheduled Job Complete: erpnext.projects.doctype.project.project.project_status_update_reminder for newbench.new
2021-12-23 22:00:47,637 INFO scheduler Scheduled Job Start: erpnext.utilities.doctype.video.video.update_youtube_data for newbench.new
2021-12-23 22:00:48,459 INFO scheduler Scheduled Job Failed: erpnext.utilities.doctype.video.video.update_youtube_data for newbench.new
2021-12-23 22:00:48,727 INFO scheduler Scheduled Job Start: frappe.email.doctype.newsletter.newsletter.send_scheduled_email for newbench.new
2021-12-23 22:00:49,627 INFO scheduler Scheduled Job Complete: frappe.email.doctype.newsletter.newsletter.send_scheduled_email for newbench.new
2021-12-23 22:00:49,850 INFO scheduler Scheduled Job Start: frappe.integrations.doctype.google_calendar.google_calendar.sync for newbench.new
2021-12-23 22:00:51,022 INFO scheduler Scheduled Job Complete: frappe.integrations.doctype.google_calendar.google_calendar.sync for newbench.new
2021-12-23 22:00:51,249 INFO scheduler Scheduled Job Start: frappe.desk.form.document_follow.send_hourly_updates for newbench.new
2021-12-23 22:00:51,924 INFO scheduler Scheduled Job Complete: frappe.desk.form.document_follow.send_hourly_updates for newbench.new
2021-12-23 22:00:52,156 INFO scheduler Scheduled Job Start: frappe.deferred_insert.save_to_db for newbench.new
2021-12-23 22:00:52,795 INFO scheduler Scheduled Job Complete: frappe.deferred_insert.save_to_db for newbench.new
2021-12-23 22:00:53,015 INFO scheduler Scheduled Job Start: frappe.desk.page.backups.backups.delete_downloadable_backups for newbench.new
2021-12-23 22:00:53,724 INFO scheduler Scheduled Job Complete: frappe.desk.page.backups.backups.delete_downloadable_backups for newbench.new
2021-12-23 22:00:53,955 INFO scheduler Scheduled Job Start: frappe.utils.error.collect_error_snapshots for newbench.new
2021-12-23 22:00:54,599 INFO scheduler Scheduled Job Complete: frappe.utils.error.collect_error_snapshots for newbench.new
2021-12-23 22:00:54,815 INFO scheduler Scheduled Job Start: frappe.model.utils.user_settings.sync_user_settings for newbench.new
2021-12-23 22:00:55,460 INFO scheduler Scheduled Job Complete: frappe.model.utils.user_settings.sync_user_settings for newbench.new
2021-12-23 22:00:55,795 INFO scheduler Scheduled Job Start: frappe.model.utils.link_count.update_link_count for newbench.new
2021-12-23 22:00:56,438 INFO scheduler Scheduled Job Complete: frappe.model.utils.link_count.update_link_count for newbench.new
2021-12-23 22:00:56,651 INFO scheduler Scheduled Job Start: frappe.monitor.flush for newbench.new
2021-12-23 22:00:57,068 INFO scheduler Scheduled Job Complete: frappe.monitor.flush for newbench.new
2021-12-23 22:00:57,221 INFO scheduler Scheduled Job Start: frappe.utils.global_search.sync_global_search for newbench.new
2021-12-23 22:00:57,723 INFO scheduler Scheduled Job Complete: frappe.utils.global_search.sync_global_search for newbench.new
2021-12-23 22:00:57,879 INFO scheduler Scheduled Job Start: frappe.integrations.doctype.razorpay_settings.razorpay_settings.capture_payment for newbench.new
2021-12-23 22:00:58,577 INFO scheduler Scheduled Job Complete: frappe.integrations.doctype.razorpay_settings.razorpay_settings.capture_payment for newbench.new
2021-12-23 22:00:58,733 INFO scheduler Scheduled Job Start: frappe.email.doctype.email_account.email_account.notify_unreplied for newbench.new
2021-12-23 22:00:59,291 INFO scheduler Scheduled Job Complete: frappe.email.doctype.email_account.email_account.notify_unreplied for newbench.new
2021-12-23 22:00:59,447 INFO scheduler Scheduled Job Start: frappe.email.doctype.email_account.email_account.pull for newbench.new
2021-12-23 22:01:00,153 INFO scheduler Scheduled Job Complete: frappe.email.doctype.email_account.email_account.pull for newbench.new
2021-12-23 22:01:00,305 INFO scheduler Scheduled Job Start: frappe.email.queue.flush for newbench.new
2021-12-23 22:01:00,743 INFO scheduler Scheduled Job Complete: frappe.email.queue.flush for newbench.new
2021-12-23 22:01:00,894 INFO scheduler Scheduled Job Start: frappe.twofactor.delete_all_barcodes_for_users for newbench.new
2021-12-23 22:01:01,780 INFO scheduler Scheduled Job Complete: frappe.twofactor.delete_all_barcodes_for_users for newbench.new
2021-12-23 22:01:01,997 INFO scheduler Scheduled Job Start: frappe.website.doctype.web_page.web_page.check_publish_status for newbench.new
2021-12-23 22:01:03,006 INFO scheduler Scheduled Job Complete: frappe.website.doctype.web_page.web_page.check_publish_status for newbench.new
2021-12-23 22:01:03,217 INFO scheduler Scheduled Job Start: frappe.oauth.delete_oauth2_data for newbench.new
2021-12-23 22:01:03,915 INFO scheduler Scheduled Job Complete: frappe.oauth.delete_oauth2_data for newbench.new
2021-12-23 22:01:35,835 DEBUG scheduler Queued events for site newbench.new
2021-12-23 22:02:36,537 DEBUG scheduler Queued events for site newbench.new
2021-12-23 22:03:37,201 DEBUG scheduler Queued events for site newbench.new
2021-12-24 14:16:23,770 INFO scheduler Scheduled Job Start: erpnext.stock.doctype.repost_item_valuation.repost_item_valuation.repost_entries for newbench.new
2021-12-24 14:16:23,882 INFO scheduler Scheduled Job Start: erpnext.non_profit.doctype.membership.membership.set_expired_statuserpnext.hr.doctype.interview.interview.send_daily_feedback_reminder for newbench.new
2021-12-24 14:16:27,301 DEBUG scheduler Queued events for site newbench.new
2021-12-24 14:16:28,185 INFO scheduler Scheduled Job Failed: erpnext.non_profit.doctype.membership.membership.set_expired_statuserpnext.hr.doctype.interview.interview.send_daily_feedback_reminder for newbench.new
2021-12-24 14:16:28,642 INFO scheduler Scheduled Job Start: erpnext.accounts.doctype.process_statement_of_accounts.process_statement_of_accounts.send_auto_email for newbench.new
2021-12-24 14:16:30,612 INFO scheduler Scheduled Job Complete: erpnext.stock.doctype.repost_item_valuation.repost_item_valuation.repost_entries for newbench.new
2021-12-24 14:16:30,857 INFO scheduler Scheduled Job Start: erpnext.crm.doctype.lead.lead.daily_open_lead for newbench.new
2021-12-24 14:16:30,957 INFO scheduler Scheduled Job Complete: erpnext.accounts.doctype.process_statement_of_accounts.process_statement_of_accounts.send_auto_email for newbench.new
2021-12-24 14:16:31,313 INFO scheduler Scheduled Job Start: erpnext.buying.doctype.supplier_quotation.supplier_quotation.set_expired_status for newbench.new
2021-12-24 14:16:33,149 INFO scheduler Scheduled Job Complete: erpnext.buying.doctype.supplier_quotation.supplier_quotation.set_expired_status for newbench.new
2021-12-24 14:16:33,407 INFO scheduler Scheduled Job Complete: erpnext.crm.doctype.lead.lead.daily_open_lead for newbench.new
2021-12-24 14:16:33,422 INFO scheduler Scheduled Job Start: erpnext.healthcare.doctype.patient_appointment.patient_appointment.update_appointment_status for newbench.new
2021-12-24 14:16:33,642 INFO scheduler Scheduled Job Start: erpnext.loan_management.doctype.process_loan_interest_accrual.process_loan_interest_accrual.process_loan_interest_accrual_for_term_loans for newbench.new
2021-12-24 14:16:34,802 INFO scheduler Scheduled Job Failed: erpnext.healthcare.doctype.patient_appointment.patient_appointment.update_appointment_status for newbench.new
2021-12-24 14:16:35,032 INFO scheduler Scheduled Job Complete: erpnext.loan_management.doctype.process_loan_interest_accrual.process_loan_interest_accrual.process_loan_interest_accrual_for_term_loans for newbench.new
2021-12-24 14:16:35,058 INFO scheduler Scheduled Job Start: erpnext.selling.doctype.quotation.quotation.set_expired_status for newbench.new
2021-12-24 14:16:35,312 INFO scheduler Scheduled Job Start: erpnext.loan_management.doctype.process_loan_security_shortfall.process_loan_security_shortfall.create_process_loan_security_shortfall for newbench.new
2021-12-24 14:16:36,111 INFO scheduler Scheduled Job Complete: erpnext.loan_management.doctype.process_loan_security_shortfall.process_loan_security_shortfall.create_process_loan_security_shortfall for newbench.new
2021-12-24 14:16:36,379 INFO scheduler Scheduled Job Start: erpnext.hr.utils.allocate_earned_leaves for newbench.new
2021-12-24 14:16:36,460 INFO scheduler Scheduled Job Complete: erpnext.selling.doctype.quotation.quotation.set_expired_status for newbench.new
2021-12-24 14:16:36,692 INFO scheduler Scheduled Job Start: erpnext.crm.doctype.email_campaign.email_campaign.set_email_campaign_status for newbench.new
2021-12-24 14:16:37,419 INFO scheduler Scheduled Job Complete: erpnext.hr.utils.allocate_earned_leaves for newbench.new
2021-12-24 14:16:37,666 INFO scheduler Scheduled Job Start: erpnext.hr.utils.generate_leave_encashment for newbench.new
2021-12-24 14:16:38,120 INFO scheduler Scheduled Job Complete: erpnext.crm.doctype.email_campaign.email_campaign.set_email_campaign_status for newbench.new
2021-12-24 14:16:38,345 INFO scheduler Scheduled Job Start: erpnext.crm.doctype.email_campaign.email_campaign.send_email_to_leads_or_contacts for newbench.new
2021-12-24 14:16:39,111 INFO scheduler Scheduled Job Complete: erpnext.crm.doctype.email_campaign.email_campaign.send_email_to_leads_or_contacts for newbench.new
2021-12-24 14:16:39,189 INFO scheduler Scheduled Job Complete: erpnext.hr.utils.generate_leave_encashment for newbench.new
2021-12-24 14:16:39,427 INFO scheduler Scheduled Job Start: erpnext.support.doctype.service_level_agreement.service_level_agreement.check_agreement_status for newbench.new
2021-12-24 14:16:39,535 INFO scheduler Scheduled Job Start: erpnext.hr.doctype.leave_ledger_entry.leave_ledger_entry.process_expired_allocation for newbench.new
2021-12-24 14:16:41,130 INFO scheduler Scheduled Job Complete: erpnext.hr.doctype.leave_ledger_entry.leave_ledger_entry.process_expired_allocation for newbench.new
2021-12-24 14:16:41,283 INFO scheduler Scheduled Job Complete: erpnext.support.doctype.service_level_agreement.service_level_agreement.check_agreement_status for newbench.new
2021-12-24 14:16:41,470 INFO scheduler Scheduled Job Start: erpnext.manufacturing.doctype.bom_update_tool.bom_update_tool.update_latest_price_in_all_boms for newbench.new
2021-12-24 14:16:41,608 INFO scheduler Scheduled Job Start: erpnext.quality_management.doctype.quality_review.quality_review.review for newbench.new
2021-12-24 14:16:43,878 INFO scheduler Scheduled Job Complete: erpnext.quality_management.doctype.quality_review.quality_review.review for newbench.new
2021-12-24 14:16:44,329 INFO scheduler Scheduled Job Start: erpnext.projects.doctype.project.project.send_project_status_email_to_users for newbench.new
2021-12-24 14:16:44,826 INFO scheduler Scheduled Job Complete: erpnext.manufacturing.doctype.bom_update_tool.bom_update_tool.update_latest_price_in_all_boms for newbench.new
2021-12-24 14:16:45,273 INFO scheduler Scheduled Job Start: erpnext.setup.doctype.email_digest.email_digest.send for newbench.new
2021-12-24 14:16:47,181 INFO scheduler Scheduled Job Complete: erpnext.setup.doctype.email_digest.email_digest.send for newbench.new
2021-12-24 14:17:02,723 INFO scheduler Scheduled Job Complete: erpnext.projects.doctype.project.project.send_project_status_email_to_users for newbench.new
2021-12-24 14:17:09,984 INFO scheduler Scheduled Job Start: frappe.integrations.doctype.google_drive.google_drive.daily_backup for newbench.new
2021-12-24 14:17:18,658 INFO scheduler Scheduled Job Start: erpnext.projects.doctype.project.project.update_project_sales_billing for newbench.new
2021-12-24 14:17:28,225 DEBUG scheduler Queued events for site newbench.new
2021-12-24 14:17:37,298 INFO scheduler Scheduled Job Complete: erpnext.projects.doctype.project.project.update_project_sales_billing for newbench.new
2021-12-24 14:17:38,825 INFO scheduler Scheduled Job Start: erpnext.crm.doctype.contract.contract.update_status_for_contracts for newbench.new
2021-12-24 14:17:40,652 INFO scheduler Scheduled Job Complete: frappe.integrations.doctype.google_drive.google_drive.daily_backup for newbench.new
2021-12-24 14:17:41,006 INFO scheduler Scheduled Job Start: frappe.integrations.doctype.s3_backup_settings.s3_backup_settings.take_backups_daily for newbench.new
2021-12-24 14:17:41,081 INFO scheduler Scheduled Job Complete: erpnext.crm.doctype.contract.contract.update_status_for_contracts for newbench.new
2021-12-24 14:17:41,334 INFO scheduler Scheduled Job Start: erpnext.assets.doctype.asset.asset.make_post_gl_entry for newbench.new
2021-12-24 14:17:45,323 INFO scheduler Scheduled Job Complete: frappe.integrations.doctype.s3_backup_settings.s3_backup_settings.take_backups_daily for newbench.new
2021-12-24 14:17:45,574 INFO scheduler Scheduled Job Start: frappe.utils.change_log.check_for_update for newbench.new
2021-12-24 14:17:46,226 INFO scheduler Scheduled Job Complete: erpnext.assets.doctype.asset.asset.make_post_gl_entry for newbench.new
2021-12-24 14:17:46,594 INFO scheduler Scheduled Job Start: erpnext.assets.doctype.asset.asset.update_maintenance_status for newbench.new
2021-12-24 14:17:48,871 INFO scheduler Scheduled Job Complete: erpnext.assets.doctype.asset.asset.update_maintenance_status for newbench.new
2021-12-24 14:17:49,480 INFO scheduler Scheduled Job Start: erpnext.setup.doctype.company.company.cache_companies_monthly_sales_history for newbench.new
2021-12-24 14:18:11,936 INFO scheduler Scheduled Job Complete: erpnext.setup.doctype.company.company.cache_companies_monthly_sales_history for newbench.new
2021-12-24 14:18:19,931 INFO scheduler Scheduled Job Complete: frappe.utils.change_log.check_for_update for newbench.new
2021-12-24 14:18:24,028 INFO scheduler Scheduled Job Start: frappe.integrations.doctype.dropbox_settings.dropbox_settings.take_backups_daily for newbench.new
2021-12-24 14:18:24,028 INFO scheduler Scheduled Job Start: erpnext.buying.doctype.supplier_scorecard.supplier_scorecard.refresh_scorecards for newbench.new
2021-12-24 14:18:28,879 DEBUG scheduler Queued events for site newbench.new
2021-12-24 14:18:31,829 INFO scheduler Scheduled Job Complete: erpnext.buying.doctype.supplier_scorecard.supplier_scorecard.refresh_scorecards for newbench.new
2021-12-24 14:18:32,142 INFO scheduler Scheduled Job Start: erpnext.stock.doctype.serial_no.serial_no.update_maintenance_status for newbench.new
2021-12-24 14:18:35,385 INFO scheduler Scheduled Job Complete: frappe.integrations.doctype.dropbox_settings.dropbox_settings.take_backups_daily for newbench.new
2021-12-24 14:18:37,070 INFO scheduler Scheduled Job Complete: erpnext.stock.doctype.serial_no.serial_no.update_maintenance_status for newbench.new
2021-12-24 14:18:37,352 INFO scheduler Scheduled Job Start: erpnext.hr.doctype.daily_work_summary_group.daily_work_summary_group.send_summary for newbench.new
2021-12-24 14:18:38,882 INFO scheduler Scheduled Job Complete: erpnext.hr.doctype.daily_work_summary_group.daily_work_summary_group.send_summary for newbench.new
2021-12-24 14:18:39,095 INFO scheduler Scheduled Job Start: erpnext.assets.doctype.asset.depreciation.post_depreciation_entries for newbench.new
2021-12-24 14:18:40,044 INFO scheduler Scheduled Job Complete: erpnext.assets.doctype.asset.depreciation.post_depreciation_entries for newbench.new
2021-12-24 14:18:40,269 INFO scheduler Scheduled Job Start: erpnext.projects.doctype.task.task.set_tasks_as_overdue for newbench.new
2021-12-24 14:18:44,824 INFO scheduler Scheduled Job Complete: erpnext.projects.doctype.task.task.set_tasks_as_overdue for newbench.new
2021-12-24 14:18:45,105 INFO scheduler Scheduled Job Start: erpnext.hr.doctype.employee.employee_reminders.send_birthday_reminders for newbench.new
2021-12-24 14:18:46,100 INFO scheduler Scheduled Job Complete: erpnext.hr.doctype.employee.employee_reminders.send_birthday_reminders for newbench.new
2021-12-24 14:18:46,411 INFO scheduler Scheduled Job Start: erpnext.hr.doctype.employee.employee_reminders.send_work_anniversary_reminders for newbench.new
2021-12-24 14:18:47,091 INFO scheduler Scheduled Job Complete: erpnext.hr.doctype.employee.employee_reminders.send_work_anniversary_reminders for newbench.new
2021-12-24 14:18:47,305 INFO scheduler Scheduled Job Start: erpnext.accounts.doctype.fiscal_year.fiscal_year.auto_create_fiscal_year for newbench.new
2021-12-24 14:18:48,196 INFO scheduler Scheduled Job Complete: erpnext.accounts.doctype.fiscal_year.fiscal_year.auto_create_fiscal_year for newbench.new
2021-12-24 14:18:48,416 INFO scheduler Scheduled Job Start: erpnext.controllers.accounts_controller.update_invoice_status for newbench.new
2021-12-24 14:18:49,797 INFO scheduler Scheduled Job Complete: erpnext.controllers.accounts_controller.update_invoice_status for newbench.new
2021-12-24 14:18:50,050 INFO scheduler Scheduled Job Start: erpnext.crm.doctype.opportunity.opportunity.auto_close_opportunity for newbench.new
2021-12-24 14:18:50,987 INFO scheduler Scheduled Job Complete: erpnext.crm.doctype.opportunity.opportunity.auto_close_opportunity for newbench.new
2021-12-24 14:18:51,210 INFO scheduler Scheduled Job Start: erpnext.support.doctype.issue.issue.auto_close_tickets for newbench.new
2021-12-24 14:18:51,899 INFO scheduler Scheduled Job Complete: erpnext.support.doctype.issue.issue.auto_close_tickets for newbench.new
2021-12-24 14:18:52,176 INFO scheduler Scheduled Job Start: erpnext.stock.reorder_item.reorder_item for newbench.new
2021-12-24 14:18:53,635 INFO scheduler Scheduled Job Complete: erpnext.stock.reorder_item.reorder_item for newbench.new
2021-12-24 14:18:53,869 INFO scheduler Scheduled Job Start: erpnext.erpnext_integrations.connectors.shopify_connection.sync_old_orders for newbench.new
2021-12-24 14:18:56,596 INFO scheduler Scheduled Job Complete: erpnext.erpnext_integrations.connectors.shopify_connection.sync_old_orders for newbench.new
2021-12-24 14:18:56,823 INFO scheduler Scheduled Job Start: erpnext.support.doctype.issue.issue.set_service_level_agreement_variance for newbench.new
2021-12-24 14:18:57,641 INFO scheduler Scheduled Job Complete: erpnext.support.doctype.issue.issue.set_service_level_agreement_variance for newbench.new
2021-12-24 14:18:57,851 INFO scheduler Scheduled Job Start: erpnext.hr.doctype.shift_type.shift_type.process_auto_attendance_for_all_shifts for newbench.new
2021-12-24 14:18:59,081 INFO scheduler Scheduled Job Complete: erpnext.hr.doctype.shift_type.shift_type.process_auto_attendance_for_all_shifts for newbench.new
2021-12-24 14:18:59,304 INFO scheduler Scheduled Job Start: erpnext.projects.doctype.project.project.collect_project_status for newbench.new
2021-12-24 14:19:00,101 INFO scheduler Scheduled Job Complete: erpnext.projects.doctype.project.project.collect_project_status for newbench.new
2021-12-24 14:19:00,335 INFO scheduler Scheduled Job Start: erpnext.projects.doctype.project.project.hourly_reminder for newbench.new
2021-12-24 14:19:01,226 INFO scheduler Scheduled Job Complete: erpnext.projects.doctype.project.project.hourly_reminder for newbench.new
2021-12-24 14:19:01,433 INFO scheduler Scheduled Job Start: erpnext.erpnext_integrations.doctype.plaid_settings.plaid_settings.automatic_synchronization for newbench.new
2021-12-24 14:19:02,949 INFO scheduler Scheduled Job Complete: erpnext.erpnext_integrations.doctype.plaid_settings.plaid_settings.automatic_synchronization for newbench.new
2021-12-24 14:19:03,174 INFO scheduler Scheduled Job Start: erpnext.accounts.doctype.gl_entry.gl_entry.rename_gle_sle_docs for newbench.new
2021-12-24 14:19:04,458 INFO scheduler Scheduled Job Complete: erpnext.accounts.doctype.gl_entry.gl_entry.rename_gle_sle_docs for newbench.new
2021-12-24 14:19:04,680 INFO scheduler Scheduled Job Start: erpnext.erpnext_integrations.doctype.amazon_mws_settings.amazon_mws_settings.schedule_get_order_details for newbench.new
2021-12-24 14:19:05,622 INFO scheduler Scheduled Job Complete: erpnext.erpnext_integrations.doctype.amazon_mws_settings.amazon_mws_settings.schedule_get_order_details for newbench.new
2021-12-24 14:19:05,834 INFO scheduler Scheduled Job Start: erpnext.accounts.doctype.subscription.subscription.process_all for newbench.new
2021-12-24 14:19:06,787 INFO scheduler Scheduled Job Complete: erpnext.accounts.doctype.subscription.subscription.process_all for newbench.new
2021-12-24 14:19:07,012 INFO scheduler Scheduled Job Start: erpnext.hr.doctype.daily_work_summary_group.daily_work_summary_group.trigger_emails for newbench.new
2021-12-24 14:19:07,785 INFO scheduler Scheduled Job Complete: erpnext.hr.doctype.daily_work_summary_group.daily_work_summary_group.trigger_emails for newbench.new
2021-12-24 14:19:08,006 INFO scheduler Scheduled Job Start: erpnext.crm.doctype.social_media_post.social_media_post.process_scheduled_social_media_posts for newbench.new
2021-12-24 14:19:08,762 INFO scheduler Scheduled Job Complete: erpnext.crm.doctype.social_media_post.social_media_post.process_scheduled_social_media_posts for newbench.new
2021-12-24 14:19:08,911 INFO scheduler Scheduled Job Start: erpnext.hr.doctype.interview.interview.send_interview_reminder for newbench.new
2021-12-24 14:19:10,033 INFO scheduler Scheduled Job Complete: erpnext.hr.doctype.interview.interview.send_interview_reminder for newbench.new
2021-12-24 14:19:10,181 INFO scheduler Scheduled Job Start: erpnext.healthcare.doctype.patient_appointment.patient_appointment.send_appointment_reminder for newbench.new
2021-12-24 14:19:11,070 INFO scheduler Scheduled Job Complete: erpnext.healthcare.doctype.patient_appointment.patient_appointment.send_appointment_reminder for newbench.new
2021-12-24 14:19:11,218 INFO scheduler Scheduled Job Start: erpnext.projects.doctype.project.project.project_status_update_reminder for newbench.new
2021-12-24 14:19:12,266 INFO scheduler Scheduled Job Complete: erpnext.projects.doctype.project.project.project_status_update_reminder for newbench.new
2021-12-24 14:19:12,413 INFO scheduler Scheduled Job Start: erpnext.utilities.doctype.video.video.update_youtube_data for newbench.new
2021-12-24 14:19:14,431 INFO scheduler Scheduled Job Complete: erpnext.utilities.doctype.video.video.update_youtube_data for newbench.new
2021-12-24 14:19:14,643 INFO scheduler Scheduled Job Start: frappe.core.doctype.log_settings.log_settings.run_log_clean_up for newbench.new
2021-12-24 14:19:16,607 INFO scheduler Scheduled Job Complete: frappe.core.doctype.log_settings.log_settings.run_log_clean_up for newbench.new
2021-12-24 14:19:16,910 INFO scheduler Scheduled Job Start: frappe.core.doctype.prepared_report.prepared_report.delete_expired_prepared_reports for newbench.new
2021-12-24 14:19:18,274 INFO scheduler Scheduled Job Complete: frappe.core.doctype.prepared_report.prepared_report.delete_expired_prepared_reports for newbench.new
2021-12-24 14:19:18,514 INFO scheduler Scheduled Job Start: frappe.email.doctype.unhandled_email.unhandled_email.remove_old_unhandled_emails for newbench.new
2021-12-24 14:19:19,471 INFO scheduler Scheduled Job Complete: frappe.email.doctype.unhandled_email.unhandled_email.remove_old_unhandled_emails for newbench.new
2021-12-24 14:19:19,695 INFO scheduler Scheduled Job Start: frappe.automation.doctype.auto_repeat.auto_repeat.set_auto_repeat_as_completed for newbench.new
2021-12-24 14:19:20,873 INFO scheduler Scheduled Job Complete: frappe.automation.doctype.auto_repeat.auto_repeat.set_auto_repeat_as_completed for newbench.new
2021-12-24 14:19:21,103 INFO scheduler Scheduled Job Start: frappe.automation.doctype.auto_repeat.auto_repeat.make_auto_repeat_entry for newbench.new
2021-12-24 14:19:21,844 INFO scheduler Scheduled Job Complete: frappe.automation.doctype.auto_repeat.auto_repeat.make_auto_repeat_entry for newbench.new
2021-12-24 14:19:22,070 INFO scheduler Scheduled Job Start: frappe.integrations.doctype.google_contacts.google_contacts.sync for newbench.new
2021-12-24 14:19:24,981 INFO scheduler Scheduled Job Complete: frappe.integrations.doctype.google_contacts.google_contacts.sync for newbench.new
2021-12-24 14:19:25,206 INFO scheduler Scheduled Job Start: frappe.social.doctype.energy_point_settings.energy_point_settings.allocate_review_points for newbench.new
2021-12-24 14:19:26,007 INFO scheduler Scheduled Job Complete: frappe.social.doctype.energy_point_settings.energy_point_settings.allocate_review_points for newbench.new
2021-12-24 14:19:26,250 INFO scheduler Scheduled Job Start: frappe.desk.form.document_follow.send_daily_updates for newbench.new
2021-12-24 14:19:27,077 INFO scheduler Scheduled Job Complete: frappe.desk.form.document_follow.send_daily_updates for newbench.new
2021-12-24 14:19:27,295 INFO scheduler Scheduled Job Start: frappe.website.doctype.personal_data_deletion_request.personal_data_deletion_request.remove_unverified_record for newbench.new
2021-12-24 14:19:28,362 INFO scheduler Scheduled Job Complete: frappe.website.doctype.personal_data_deletion_request.personal_data_deletion_request.remove_unverified_record for newbench.new
2021-12-24 14:19:28,591 INFO scheduler Scheduled Job Start: frappe.email.doctype.auto_email_report.auto_email_report.send_daily for newbench.new
2021-12-24 14:19:29,452 DEBUG scheduler Queued events for site newbench.new
2021-12-24 14:19:33,049 INFO scheduler Scheduled Job Complete: frappe.email.doctype.auto_email_report.auto_email_report.send_daily for newbench.new
2021-12-24 14:19:33,273 INFO scheduler Scheduled Job Start: frappe.utils.scheduler.restrict_scheduler_events_if_dormant for newbench.new
2021-12-24 14:19:33,929 INFO scheduler Scheduled Job Failed: frappe.utils.scheduler.restrict_scheduler_events_if_dormant for newbench.new
2021-12-24 14:19:34,173 INFO scheduler Scheduled Job Start: frappe.email.doctype.notification.notification.trigger_daily_alerts for newbench.new
2021-12-24 14:19:35,331 INFO scheduler Scheduled Job Complete: frappe.email.doctype.notification.notification.trigger_daily_alerts for newbench.new
2021-12-24 14:19:35,557 INFO scheduler Scheduled Job Start: frappe.sessions.clear_expired_sessions for newbench.new
2021-12-24 14:19:38,119 INFO scheduler Scheduled Job Complete: frappe.sessions.clear_expired_sessions for newbench.new
2021-12-24 14:19:38,331 INFO scheduler Scheduled Job Start: frappe.desk.doctype.event.event.send_event_digest for newbench.new
2021-12-24 14:19:39,330 INFO scheduler Scheduled Job Complete: frappe.desk.doctype.event.event.send_event_digest for newbench.new
2021-12-24 14:19:39,555 INFO scheduler Scheduled Job Start: frappe.core.doctype.error_log.error_log.set_old_logs_as_seen for newbench.new
2021-12-24 14:19:40,430 INFO scheduler Scheduled Job Complete: frappe.core.doctype.error_log.error_log.set_old_logs_as_seen for newbench.new
2021-12-24 14:19:40,685 INFO scheduler Scheduled Job Start: frappe.desk.notifications.clear_notifications for newbench.new
2021-12-24 14:19:41,437 INFO scheduler Scheduled Job Complete: frappe.desk.notifications.clear_notifications for newbench.new
2021-12-24 14:19:41,654 INFO scheduler Scheduled Job Start: frappe.email.queue.set_expiry_for_email_queue for newbench.new
2021-12-24 14:19:42,303 INFO scheduler Scheduled Job Complete: frappe.email.queue.set_expiry_for_email_queue for newbench.new
2021-12-24 14:19:42,519 INFO scheduler Scheduled Job Start: frappe.email.doctype.newsletter.newsletter.send_scheduled_email for newbench.new
2021-12-24 14:19:43,516 INFO scheduler Scheduled Job Complete: frappe.email.doctype.newsletter.newsletter.send_scheduled_email for newbench.new
2021-12-24 14:19:43,818 INFO scheduler Scheduled Job Start: frappe.integrations.doctype.google_calendar.google_calendar.sync for newbench.new
2021-12-24 14:19:45,478 INFO scheduler Scheduled Job Complete: frappe.integrations.doctype.google_calendar.google_calendar.sync for newbench.new
2021-12-24 14:19:45,698 INFO scheduler Scheduled Job Start: frappe.desk.form.document_follow.send_hourly_updates for newbench.new
2021-12-24 14:19:46,358 INFO scheduler Scheduled Job Complete: frappe.desk.form.document_follow.send_hourly_updates for newbench.new
2021-12-24 14:19:46,625 INFO scheduler Scheduled Job Start: frappe.deferred_insert.save_to_db for newbench.new
2021-12-24 14:19:47,333 INFO scheduler Scheduled Job Complete: frappe.deferred_insert.save_to_db for newbench.new
2021-12-24 14:19:47,624 INFO scheduler Scheduled Job Start: frappe.desk.page.backups.backups.delete_downloadable_backups for newbench.new
2021-12-24 14:19:48,982 INFO scheduler Scheduled Job Complete: frappe.desk.page.backups.backups.delete_downloadable_backups for newbench.new
2021-12-24 14:19:49,201 INFO scheduler Scheduled Job Start: frappe.utils.error.collect_error_snapshots for newbench.new
2021-12-24 14:19:50,851 INFO scheduler Scheduled Job Complete: frappe.utils.error.collect_error_snapshots for newbench.new
2021-12-24 14:19:51,102 INFO scheduler Scheduled Job Start: frappe.model.utils.user_settings.sync_user_settings for newbench.new
2021-12-24 14:19:51,744 INFO scheduler Scheduled Job Complete: frappe.model.utils.user_settings.sync_user_settings for newbench.new
2021-12-24 14:19:51,982 INFO scheduler Scheduled Job Start: frappe.model.utils.link_count.update_link_count for newbench.new
2021-12-24 14:19:53,156 INFO scheduler Scheduled Job Complete: frappe.model.utils.link_count.update_link_count for newbench.new
2021-12-24 14:19:53,423 INFO scheduler Scheduled Job Start: frappe.monitor.flush for newbench.new
2021-12-24 14:19:53,906 INFO scheduler Scheduled Job Complete: frappe.monitor.flush for newbench.new
2021-12-24 14:19:54,059 INFO scheduler Scheduled Job Start: frappe.utils.global_search.sync_global_search for newbench.new
2021-12-24 14:19:54,863 INFO scheduler Scheduled Job Complete: frappe.utils.global_search.sync_global_search for newbench.new
2021-12-24 14:19:55,020 INFO scheduler Scheduled Job Start: frappe.integrations.doctype.razorpay_settings.razorpay_settings.capture_payment for newbench.new
2021-12-24 14:19:56,559 INFO scheduler Scheduled Job Complete: frappe.integrations.doctype.razorpay_settings.razorpay_settings.capture_payment for newbench.new
2021-12-24 14:19:56,719 INFO scheduler Scheduled Job Start: frappe.email.doctype.email_account.email_account.notify_unreplied for newbench.new
2021-12-24 14:19:57,802 INFO scheduler Scheduled Job Complete: frappe.email.doctype.email_account.email_account.notify_unreplied for newbench.new
2021-12-24 14:19:57,958 INFO scheduler Scheduled Job Start: frappe.email.doctype.email_account.email_account.pull for newbench.new
