2021-12-23 14:41:02,328 DEBUG scheduler Queued events for site newbench.new
2021-12-23 14:42:03,175 DEBUG scheduler Queued events for site newbench.new
2021-12-23 14:43:03,860 DEBUG scheduler Queued events for site newbench.new
2021-12-23 14:44:04,470 INFO scheduler Scheduled Job Start: erpnext.crm.doctype.social_media_post.social_media_post.process_scheduled_social_media_posts for newbench.new
2021-12-23 14:44:04,657 DEBUG scheduler Queued events for site newbench.new
2021-12-23 14:44:05,064 INFO scheduler Scheduled Job Complete: erpnext.crm.doctype.social_media_post.social_media_post.process_scheduled_social_media_posts for newbench.new
2021-12-23 14:44:05,223 INFO scheduler Scheduled Job Start: erpnext.hr.doctype.interview.interview.send_interview_reminder for newbench.new
2021-12-23 14:44:05,739 INFO scheduler Scheduled Job Complete: erpnext.hr.doctype.interview.interview.send_interview_reminder for newbench.new
2021-12-23 14:44:05,894 INFO scheduler Scheduled Job Start: erpnext.healthcare.doctype.patient_appointment.patient_appointment.send_appointment_reminder for newbench.new
2021-12-23 14:44:06,475 INFO scheduler Scheduled Job Complete: erpnext.healthcare.doctype.patient_appointment.patient_appointment.send_appointment_reminder for newbench.new
2021-12-23 14:44:06,634 INFO scheduler Scheduled Job Start: erpnext.projects.doctype.project.project.project_status_update_reminder for newbench.new
2021-12-23 14:44:07,440 INFO scheduler Scheduled Job Complete: erpnext.projects.doctype.project.project.project_status_update_reminder for newbench.new
2021-12-23 14:44:07,596 INFO scheduler Scheduled Job Start: frappe.monitor.flush for newbench.new
2021-12-23 14:44:08,103 INFO scheduler Scheduled Job Complete: frappe.monitor.flush for newbench.new
2021-12-23 14:44:08,267 INFO scheduler Scheduled Job Start: frappe.utils.global_search.sync_global_search for newbench.new
2021-12-23 14:44:08,834 INFO scheduler Scheduled Job Complete: frappe.utils.global_search.sync_global_search for newbench.new
2021-12-23 14:44:08,986 INFO scheduler Scheduled Job Start: frappe.integrations.doctype.razorpay_settings.razorpay_settings.capture_payment for newbench.new
2021-12-23 14:44:09,815 INFO scheduler Scheduled Job Complete: frappe.integrations.doctype.razorpay_settings.razorpay_settings.capture_payment for newbench.new
2021-12-23 14:44:09,968 INFO scheduler Scheduled Job Start: frappe.email.doctype.email_account.email_account.notify_unreplied for newbench.new
2021-12-23 14:44:10,551 INFO scheduler Scheduled Job Complete: frappe.email.doctype.email_account.email_account.notify_unreplied for newbench.new
2021-12-23 14:44:10,711 INFO scheduler Scheduled Job Start: frappe.email.doctype.email_account.email_account.pull for newbench.new
2021-12-23 14:44:11,384 INFO scheduler Scheduled Job Complete: frappe.email.doctype.email_account.email_account.pull for newbench.new
2021-12-23 14:44:11,540 INFO scheduler Scheduled Job Start: frappe.email.queue.flush for newbench.new
2021-12-23 14:44:11,983 INFO scheduler Scheduled Job Complete: frappe.email.queue.flush for newbench.new
2021-12-23 14:45:05,379 DEBUG scheduler Queued events for site newbench.new
2021-12-23 14:45:05,488 INFO scheduler Scheduled Job Start: frappe.twofactor.delete_all_barcodes_for_users for newbench.new
2021-12-23 14:45:06,322 INFO scheduler Scheduled Job Complete: frappe.twofactor.delete_all_barcodes_for_users for newbench.new
2021-12-23 14:45:06,580 INFO scheduler Scheduled Job Start: frappe.website.doctype.web_page.web_page.check_publish_status for newbench.new
2021-12-23 14:45:07,438 INFO scheduler Scheduled Job Complete: frappe.website.doctype.web_page.web_page.check_publish_status for newbench.new
2021-12-23 14:45:07,652 INFO scheduler Scheduled Job Start: frappe.oauth.delete_oauth2_data for newbench.new
2021-12-23 14:45:08,437 INFO scheduler Scheduled Job Complete: frappe.oauth.delete_oauth2_data for newbench.new
2021-12-23 14:46:06,057 DEBUG scheduler Queued events for site newbench.new
2021-12-23 14:47:06,735 DEBUG scheduler Queued events for site newbench.new
2021-12-23 14:48:07,354 INFO scheduler Scheduled Job Start: erpnext.crm.doctype.social_media_post.social_media_post.process_scheduled_social_media_posts for newbench.new
2021-12-23 14:48:07,545 DEBUG scheduler Queued events for site newbench.new
2021-12-23 14:48:07,948 INFO scheduler Scheduled Job Complete: erpnext.crm.doctype.social_media_post.social_media_post.process_scheduled_social_media_posts for newbench.new
2021-12-23 14:48:08,098 INFO scheduler Scheduled Job Start: erpnext.hr.doctype.interview.interview.send_interview_reminder for newbench.new
2021-12-23 14:48:08,633 INFO scheduler Scheduled Job Complete: erpnext.hr.doctype.interview.interview.send_interview_reminder for newbench.new
2021-12-23 14:48:08,786 INFO scheduler Scheduled Job Start: erpnext.healthcare.doctype.patient_appointment.patient_appointment.send_appointment_reminder for newbench.new
2021-12-23 14:48:09,338 INFO scheduler Scheduled Job Complete: erpnext.healthcare.doctype.patient_appointment.patient_appointment.send_appointment_reminder for newbench.new
2021-12-23 14:48:09,492 INFO scheduler Scheduled Job Start: erpnext.projects.doctype.project.project.project_status_update_reminder for newbench.new
2021-12-23 14:48:10,206 INFO scheduler Scheduled Job Complete: erpnext.projects.doctype.project.project.project_status_update_reminder for newbench.new
2021-12-23 14:48:10,361 INFO scheduler Scheduled Job Start: frappe.monitor.flush for newbench.new
2021-12-23 14:48:10,774 INFO scheduler Scheduled Job Complete: frappe.monitor.flush for newbench.new
2021-12-23 14:48:10,933 INFO scheduler Scheduled Job Start: frappe.utils.global_search.sync_global_search for newbench.new
2021-12-23 14:48:11,338 INFO scheduler Scheduled Job Complete: frappe.utils.global_search.sync_global_search for newbench.new
2021-12-23 14:48:11,494 INFO scheduler Scheduled Job Start: frappe.integrations.doctype.razorpay_settings.razorpay_settings.capture_payment for newbench.new
2021-12-23 14:48:12,204 INFO scheduler Scheduled Job Complete: frappe.integrations.doctype.razorpay_settings.razorpay_settings.capture_payment for newbench.new
2021-12-23 14:48:12,358 INFO scheduler Scheduled Job Start: frappe.email.doctype.email_account.email_account.notify_unreplied for newbench.new
2021-12-23 14:48:13,018 INFO scheduler Scheduled Job Complete: frappe.email.doctype.email_account.email_account.notify_unreplied for newbench.new
2021-12-23 14:48:13,178 INFO scheduler Scheduled Job Start: frappe.email.doctype.email_account.email_account.pull for newbench.new
2021-12-23 14:48:13,860 INFO scheduler Scheduled Job Complete: frappe.email.doctype.email_account.email_account.pull for newbench.new
2021-12-23 14:48:14,017 INFO scheduler Scheduled Job Start: frappe.email.queue.flush for newbench.new
2021-12-23 14:48:14,461 INFO scheduler Scheduled Job Complete: frappe.email.queue.flush for newbench.new
2021-12-23 14:49:08,221 DEBUG scheduler Queued events for site newbench.new
2021-12-23 14:50:08,930 DEBUG scheduler Queued events for site newbench.new
2021-12-23 14:51:09,598 DEBUG scheduler Queued events for site newbench.new
2021-12-23 14:52:10,210 INFO scheduler Scheduled Job Start: erpnext.crm.doctype.social_media_post.social_media_post.process_scheduled_social_media_posts for newbench.new
2021-12-23 14:52:10,396 DEBUG scheduler Queued events for site newbench.new
2021-12-23 14:52:10,799 INFO scheduler Scheduled Job Complete: erpnext.crm.doctype.social_media_post.social_media_post.process_scheduled_social_media_posts for newbench.new
2021-12-23 14:52:10,957 INFO scheduler Scheduled Job Start: erpnext.hr.doctype.interview.interview.send_interview_reminder for newbench.new
2021-12-23 14:52:11,561 INFO scheduler Scheduled Job Complete: erpnext.hr.doctype.interview.interview.send_interview_reminder for newbench.new
2021-12-23 14:52:11,715 INFO scheduler Scheduled Job Start: erpnext.healthcare.doctype.patient_appointment.patient_appointment.send_appointment_reminder for newbench.new
2021-12-23 14:52:12,269 INFO scheduler Scheduled Job Complete: erpnext.healthcare.doctype.patient_appointment.patient_appointment.send_appointment_reminder for newbench.new
2021-12-23 14:52:12,425 INFO scheduler Scheduled Job Start: erpnext.projects.doctype.project.project.project_status_update_reminder for newbench.new
2021-12-23 14:52:13,125 INFO scheduler Scheduled Job Complete: erpnext.projects.doctype.project.project.project_status_update_reminder for newbench.new
2021-12-23 14:52:13,278 INFO scheduler Scheduled Job Start: frappe.monitor.flush for newbench.new
2021-12-23 14:52:13,685 INFO scheduler Scheduled Job Complete: frappe.monitor.flush for newbench.new
2021-12-23 14:52:13,845 INFO scheduler Scheduled Job Start: frappe.utils.global_search.sync_global_search for newbench.new
2021-12-23 14:52:14,346 INFO scheduler Scheduled Job Complete: frappe.utils.global_search.sync_global_search for newbench.new
2021-12-23 14:52:14,507 INFO scheduler Scheduled Job Start: frappe.integrations.doctype.razorpay_settings.razorpay_settings.capture_payment for newbench.new
2021-12-23 14:52:15,198 INFO scheduler Scheduled Job Complete: frappe.integrations.doctype.razorpay_settings.razorpay_settings.capture_payment for newbench.new
2021-12-23 14:52:15,353 INFO scheduler Scheduled Job Start: frappe.email.doctype.email_account.email_account.notify_unreplied for newbench.new
2021-12-23 14:52:15,985 INFO scheduler Scheduled Job Complete: frappe.email.doctype.email_account.email_account.notify_unreplied for newbench.new
2021-12-23 14:52:16,141 INFO scheduler Scheduled Job Start: frappe.email.doctype.email_account.email_account.pull for newbench.new
2021-12-23 14:52:16,821 INFO scheduler Scheduled Job Complete: frappe.email.doctype.email_account.email_account.pull for newbench.new
2021-12-23 14:52:16,979 INFO scheduler Scheduled Job Start: frappe.email.queue.flush for newbench.new
2021-12-23 14:52:17,455 INFO scheduler Scheduled Job Complete: frappe.email.queue.flush for newbench.new
2021-12-23 14:53:11,072 DEBUG scheduler Queued events for site newbench.new
2021-12-23 14:54:11,749 DEBUG scheduler Queued events for site newbench.new
2021-12-23 14:55:12,417 DEBUG scheduler Queued events for site newbench.new
2021-12-23 14:56:13,010 INFO scheduler Scheduled Job Start: erpnext.crm.doctype.social_media_post.social_media_post.process_scheduled_social_media_posts for newbench.new
2021-12-23 14:56:13,204 DEBUG scheduler Queued events for site newbench.new
2021-12-23 14:56:13,616 INFO scheduler Scheduled Job Complete: erpnext.crm.doctype.social_media_post.social_media_post.process_scheduled_social_media_posts for newbench.new
2021-12-23 14:56:13,771 INFO scheduler Scheduled Job Start: erpnext.hr.doctype.interview.interview.send_interview_reminder for newbench.new
2021-12-23 14:56:14,382 INFO scheduler Scheduled Job Complete: erpnext.hr.doctype.interview.interview.send_interview_reminder for newbench.new
2021-12-23 14:56:14,537 INFO scheduler Scheduled Job Start: erpnext.healthcare.doctype.patient_appointment.patient_appointment.send_appointment_reminder for newbench.new
2021-12-23 14:56:14,999 INFO scheduler Scheduled Job Complete: erpnext.healthcare.doctype.patient_appointment.patient_appointment.send_appointment_reminder for newbench.new
2021-12-23 14:56:15,151 INFO scheduler Scheduled Job Start: erpnext.projects.doctype.project.project.project_status_update_reminder for newbench.new
2021-12-23 14:56:15,982 INFO scheduler Scheduled Job Complete: erpnext.projects.doctype.project.project.project_status_update_reminder for newbench.new
2021-12-23 14:56:16,133 INFO scheduler Scheduled Job Start: frappe.monitor.flush for newbench.new
2021-12-23 14:56:16,629 INFO scheduler Scheduled Job Complete: frappe.monitor.flush for newbench.new
2021-12-23 14:56:16,787 INFO scheduler Scheduled Job Start: frappe.utils.global_search.sync_global_search for newbench.new
2021-12-23 14:56:17,203 INFO scheduler Scheduled Job Complete: frappe.utils.global_search.sync_global_search for newbench.new
2021-12-23 14:56:17,364 INFO scheduler Scheduled Job Start: frappe.integrations.doctype.razorpay_settings.razorpay_settings.capture_payment for newbench.new
2021-12-23 14:56:18,093 INFO scheduler Scheduled Job Complete: frappe.integrations.doctype.razorpay_settings.razorpay_settings.capture_payment for newbench.new
2021-12-23 14:56:18,246 INFO scheduler Scheduled Job Start: frappe.email.doctype.email_account.email_account.notify_unreplied for newbench.new
2021-12-23 14:56:18,826 INFO scheduler Scheduled Job Complete: frappe.email.doctype.email_account.email_account.notify_unreplied for newbench.new
2021-12-23 14:56:18,981 INFO scheduler Scheduled Job Start: frappe.email.doctype.email_account.email_account.pull for newbench.new
2021-12-23 14:56:19,569 INFO scheduler Scheduled Job Complete: frappe.email.doctype.email_account.email_account.pull for newbench.new
2021-12-23 14:56:19,725 INFO scheduler Scheduled Job Start: frappe.email.queue.flush for newbench.new
2021-12-23 14:56:20,209 INFO scheduler Scheduled Job Complete: frappe.email.queue.flush for newbench.new
2021-12-23 14:57:13,911 DEBUG scheduler Queued events for site newbench.new
2021-12-23 14:58:14,616 DEBUG scheduler Queued events for site newbench.new
2021-12-23 14:59:15,290 DEBUG scheduler Queued events for site newbench.new
2021-12-23 15:00:15,686 INFO scheduler Scheduled Job Start: erpnext.stock.doctype.repost_item_valuation.repost_item_valuation.repost_entries for newbench.new
2021-12-23 15:00:15,891 INFO scheduler Scheduled Job Start: erpnext.erpnext_integrations.connectors.shopify_connection.sync_old_orders for newbench.new
2021-12-23 15:00:16,692 DEBUG scheduler Queued events for site newbench.new
2021-12-23 15:00:16,976 INFO scheduler Scheduled Job Complete: erpnext.stock.doctype.repost_item_valuation.repost_item_valuation.repost_entries for newbench.new
2021-12-23 15:00:17,274 INFO scheduler Scheduled Job Complete: erpnext.erpnext_integrations.connectors.shopify_connection.sync_old_orders for newbench.new
2021-12-23 15:00:17,660 INFO scheduler Scheduled Job Start: erpnext.support.doctype.issue.issue.set_service_level_agreement_variance for newbench.new
2021-12-23 15:00:18,456 INFO scheduler Scheduled Job Complete: erpnext.support.doctype.issue.issue.set_service_level_agreement_variance for newbench.new
2021-12-23 15:00:18,684 INFO scheduler Scheduled Job Start: erpnext.hr.doctype.shift_type.shift_type.process_auto_attendance_for_all_shifts for newbench.new
2021-12-23 15:00:19,545 INFO scheduler Scheduled Job Complete: erpnext.hr.doctype.shift_type.shift_type.process_auto_attendance_for_all_shifts for newbench.new
2021-12-23 15:00:19,775 INFO scheduler Scheduled Job Start: erpnext.projects.doctype.project.project.collect_project_status for newbench.new
2021-12-23 15:00:20,894 INFO scheduler Scheduled Job Complete: erpnext.projects.doctype.project.project.collect_project_status for newbench.new
2021-12-23 15:00:21,121 INFO scheduler Scheduled Job Start: erpnext.projects.doctype.project.project.hourly_reminder for newbench.new
2021-12-23 15:00:22,084 INFO scheduler Scheduled Job Complete: erpnext.projects.doctype.project.project.hourly_reminder for newbench.new
2021-12-23 15:00:22,307 INFO scheduler Scheduled Job Start: erpnext.erpnext_integrations.doctype.plaid_settings.plaid_settings.automatic_synchronization for newbench.new
2021-12-23 15:00:23,230 INFO scheduler Scheduled Job Complete: erpnext.erpnext_integrations.doctype.plaid_settings.plaid_settings.automatic_synchronization for newbench.new
2021-12-23 15:00:23,457 INFO scheduler Scheduled Job Start: erpnext.accounts.doctype.gl_entry.gl_entry.rename_gle_sle_docs for newbench.new
2021-12-23 15:00:24,221 INFO scheduler Scheduled Job Complete: erpnext.accounts.doctype.gl_entry.gl_entry.rename_gle_sle_docs for newbench.new
2021-12-23 15:00:24,442 INFO scheduler Scheduled Job Start: erpnext.erpnext_integrations.doctype.amazon_mws_settings.amazon_mws_settings.schedule_get_order_details for newbench.new
2021-12-23 15:00:25,208 INFO scheduler Scheduled Job Complete: erpnext.erpnext_integrations.doctype.amazon_mws_settings.amazon_mws_settings.schedule_get_order_details for newbench.new
2021-12-23 15:00:25,447 INFO scheduler Scheduled Job Start: erpnext.accounts.doctype.subscription.subscription.process_all for newbench.new
2021-12-23 15:00:26,235 INFO scheduler Scheduled Job Complete: erpnext.accounts.doctype.subscription.subscription.process_all for newbench.new
2021-12-23 15:00:26,574 INFO scheduler Scheduled Job Start: erpnext.hr.doctype.daily_work_summary_group.daily_work_summary_group.trigger_emails for newbench.new
2021-12-23 15:00:27,279 INFO scheduler Scheduled Job Complete: erpnext.hr.doctype.daily_work_summary_group.daily_work_summary_group.trigger_emails for newbench.new
2021-12-23 15:00:27,536 INFO scheduler Scheduled Job Start: erpnext.crm.doctype.social_media_post.social_media_post.process_scheduled_social_media_posts for newbench.new
2021-12-23 15:00:28,114 INFO scheduler Scheduled Job Complete: erpnext.crm.doctype.social_media_post.social_media_post.process_scheduled_social_media_posts for newbench.new
2021-12-23 15:00:28,293 INFO scheduler Scheduled Job Start: erpnext.hr.doctype.interview.interview.send_interview_reminder for newbench.new
2021-12-23 15:00:28,846 INFO scheduler Scheduled Job Complete: erpnext.hr.doctype.interview.interview.send_interview_reminder for newbench.new
2021-12-23 15:00:29,019 INFO scheduler Scheduled Job Start: erpnext.healthcare.doctype.patient_appointment.patient_appointment.send_appointment_reminder for newbench.new
2021-12-23 15:00:29,523 INFO scheduler Scheduled Job Complete: erpnext.healthcare.doctype.patient_appointment.patient_appointment.send_appointment_reminder for newbench.new
2021-12-23 15:00:29,679 INFO scheduler Scheduled Job Start: erpnext.projects.doctype.project.project.project_status_update_reminder for newbench.new
2021-12-23 15:00:30,488 INFO scheduler Scheduled Job Complete: erpnext.projects.doctype.project.project.project_status_update_reminder for newbench.new
2021-12-23 15:00:30,662 INFO scheduler Scheduled Job Start: erpnext.utilities.doctype.video.video.update_youtube_data for newbench.new
2021-12-23 15:00:31,632 INFO scheduler Scheduled Job Failed: erpnext.utilities.doctype.video.video.update_youtube_data for newbench.new
2021-12-23 15:00:31,896 INFO scheduler Scheduled Job Start: frappe.email.doctype.newsletter.newsletter.send_scheduled_email for newbench.new
2021-12-23 15:00:32,750 INFO scheduler Scheduled Job Complete: frappe.email.doctype.newsletter.newsletter.send_scheduled_email for newbench.new
2021-12-23 15:00:32,979 INFO scheduler Scheduled Job Start: frappe.integrations.doctype.google_calendar.google_calendar.sync for newbench.new
2021-12-23 15:00:35,238 INFO scheduler Scheduled Job Complete: frappe.integrations.doctype.google_calendar.google_calendar.sync for newbench.new
2021-12-23 15:00:35,482 INFO scheduler Scheduled Job Start: frappe.desk.form.document_follow.send_hourly_updates for newbench.new
2021-12-23 15:00:36,170 INFO scheduler Scheduled Job Complete: frappe.desk.form.document_follow.send_hourly_updates for newbench.new
2021-12-23 15:00:36,395 INFO scheduler Scheduled Job Start: frappe.deferred_insert.save_to_db for newbench.new
2021-12-23 15:00:37,415 INFO scheduler Scheduled Job Complete: frappe.deferred_insert.save_to_db for newbench.new
2021-12-23 15:00:37,637 INFO scheduler Scheduled Job Start: frappe.desk.page.backups.backups.delete_downloadable_backups for newbench.new
2021-12-23 15:00:38,319 INFO scheduler Scheduled Job Complete: frappe.desk.page.backups.backups.delete_downloadable_backups for newbench.new
2021-12-23 15:00:38,539 INFO scheduler Scheduled Job Start: frappe.utils.error.collect_error_snapshots for newbench.new
2021-12-23 15:00:39,337 INFO scheduler Scheduled Job Complete: frappe.utils.error.collect_error_snapshots for newbench.new
2021-12-23 15:00:39,593 INFO scheduler Scheduled Job Start: frappe.model.utils.user_settings.sync_user_settings for newbench.new
2021-12-23 15:00:40,287 INFO scheduler Scheduled Job Complete: frappe.model.utils.user_settings.sync_user_settings for newbench.new
2021-12-23 15:00:40,517 INFO scheduler Scheduled Job Start: frappe.model.utils.link_count.update_link_count for newbench.new
2021-12-23 15:00:41,280 INFO scheduler Scheduled Job Complete: frappe.model.utils.link_count.update_link_count for newbench.new
2021-12-23 15:00:41,494 INFO scheduler Scheduled Job Start: frappe.monitor.flush for newbench.new
2021-12-23 15:00:41,913 INFO scheduler Scheduled Job Complete: frappe.monitor.flush for newbench.new
2021-12-23 15:00:42,071 INFO scheduler Scheduled Job Start: frappe.utils.global_search.sync_global_search for newbench.new
2021-12-23 15:00:42,476 INFO scheduler Scheduled Job Complete: frappe.utils.global_search.sync_global_search for newbench.new
2021-12-23 15:00:42,632 INFO scheduler Scheduled Job Start: frappe.integrations.doctype.razorpay_settings.razorpay_settings.capture_payment for newbench.new
2021-12-23 15:00:43,369 INFO scheduler Scheduled Job Complete: frappe.integrations.doctype.razorpay_settings.razorpay_settings.capture_payment for newbench.new
2021-12-23 15:00:43,523 INFO scheduler Scheduled Job Start: frappe.email.doctype.email_account.email_account.notify_unreplied for newbench.new
2021-12-23 15:00:44,123 INFO scheduler Scheduled Job Complete: frappe.email.doctype.email_account.email_account.notify_unreplied for newbench.new
2021-12-23 15:00:44,274 INFO scheduler Scheduled Job Start: frappe.email.doctype.email_account.email_account.pull for newbench.new
2021-12-23 15:00:44,888 INFO scheduler Scheduled Job Complete: frappe.email.doctype.email_account.email_account.pull for newbench.new
2021-12-23 15:00:45,040 INFO scheduler Scheduled Job Start: frappe.email.queue.flush for newbench.new
2021-12-23 15:00:45,491 INFO scheduler Scheduled Job Complete: frappe.email.queue.flush for newbench.new
2021-12-23 15:00:45,650 INFO scheduler Scheduled Job Start: frappe.twofactor.delete_all_barcodes_for_users for newbench.new
2021-12-23 15:00:46,505 INFO scheduler Scheduled Job Complete: frappe.twofactor.delete_all_barcodes_for_users for newbench.new
2021-12-23 15:00:46,719 INFO scheduler Scheduled Job Start: frappe.website.doctype.web_page.web_page.check_publish_status for newbench.new
2021-12-23 15:00:47,557 INFO scheduler Scheduled Job Complete: frappe.website.doctype.web_page.web_page.check_publish_status for newbench.new
2021-12-23 15:00:47,793 INFO scheduler Scheduled Job Start: frappe.oauth.delete_oauth2_data for newbench.new
2021-12-23 15:00:48,500 INFO scheduler Scheduled Job Complete: frappe.oauth.delete_oauth2_data for newbench.new
2021-12-23 15:01:17,355 DEBUG scheduler Queued events for site newbench.new
2021-12-23 15:02:18,024 DEBUG scheduler Queued events for site newbench.new
2021-12-23 15:03:18,698 DEBUG scheduler Queued events for site newbench.new
2021-12-23 15:04:19,297 INFO scheduler Scheduled Job Start: erpnext.crm.doctype.social_media_post.social_media_post.process_scheduled_social_media_posts for newbench.new
2021-12-23 15:04:19,482 DEBUG scheduler Queued events for site newbench.new
2021-12-23 15:04:20,098 INFO scheduler Scheduled Job Complete: erpnext.crm.doctype.social_media_post.social_media_post.process_scheduled_social_media_posts for newbench.new
2021-12-23 15:04:20,254 INFO scheduler Scheduled Job Start: erpnext.hr.doctype.interview.interview.send_interview_reminder for newbench.new
2021-12-23 15:04:20,874 INFO scheduler Scheduled Job Complete: erpnext.hr.doctype.interview.interview.send_interview_reminder for newbench.new
2021-12-23 15:04:21,027 INFO scheduler Scheduled Job Start: erpnext.healthcare.doctype.patient_appointment.patient_appointment.send_appointment_reminder for newbench.new
2021-12-23 15:04:21,482 INFO scheduler Scheduled Job Complete: erpnext.healthcare.doctype.patient_appointment.patient_appointment.send_appointment_reminder for newbench.new
2021-12-23 15:04:21,638 INFO scheduler Scheduled Job Start: erpnext.projects.doctype.project.project.project_status_update_reminder for newbench.new
2021-12-23 15:04:22,433 INFO scheduler Scheduled Job Complete: erpnext.projects.doctype.project.project.project_status_update_reminder for newbench.new
2021-12-23 15:04:22,588 INFO scheduler Scheduled Job Start: frappe.monitor.flush for newbench.new
2021-12-23 15:04:23,124 INFO scheduler Scheduled Job Complete: frappe.monitor.flush for newbench.new
2021-12-23 15:04:23,280 INFO scheduler Scheduled Job Start: frappe.utils.global_search.sync_global_search for newbench.new
2021-12-23 15:04:23,725 INFO scheduler Scheduled Job Complete: frappe.utils.global_search.sync_global_search for newbench.new
2021-12-23 15:04:23,880 INFO scheduler Scheduled Job Start: frappe.integrations.doctype.razorpay_settings.razorpay_settings.capture_payment for newbench.new
2021-12-23 15:04:24,586 INFO scheduler Scheduled Job Complete: frappe.integrations.doctype.razorpay_settings.razorpay_settings.capture_payment for newbench.new
2021-12-23 15:04:24,739 INFO scheduler Scheduled Job Start: frappe.email.doctype.email_account.email_account.notify_unreplied for newbench.new
2021-12-23 15:04:25,292 INFO scheduler Scheduled Job Complete: frappe.email.doctype.email_account.email_account.notify_unreplied for newbench.new
2021-12-23 15:04:25,442 INFO scheduler Scheduled Job Start: frappe.email.doctype.email_account.email_account.pull for newbench.new
2021-12-23 15:04:26,031 INFO scheduler Scheduled Job Complete: frappe.email.doctype.email_account.email_account.pull for newbench.new
2021-12-23 15:04:26,186 INFO scheduler Scheduled Job Start: frappe.email.queue.flush for newbench.new
2021-12-23 15:04:26,631 INFO scheduler Scheduled Job Complete: frappe.email.queue.flush for newbench.new
2021-12-23 15:05:20,156 DEBUG scheduler Queued events for site newbench.new
2021-12-23 15:40:49,370 INFO scheduler Scheduled Job Start: erpnext.crm.doctype.social_media_post.social_media_post.process_scheduled_social_media_posts for newbench.new
2021-12-23 15:40:49,370 DEBUG scheduler Queued events for site newbench.new
2021-12-23 15:40:52,929 INFO scheduler Scheduled Job Complete: erpnext.crm.doctype.social_media_post.social_media_post.process_scheduled_social_media_posts for newbench.new
2021-12-23 15:40:53,138 INFO scheduler Scheduled Job Start: erpnext.hr.doctype.interview.interview.send_interview_reminder for newbench.new
2021-12-23 15:40:54,337 INFO scheduler Scheduled Job Complete: erpnext.hr.doctype.interview.interview.send_interview_reminder for newbench.new
2021-12-23 15:40:54,609 INFO scheduler Scheduled Job Start: erpnext.healthcare.doctype.patient_appointment.patient_appointment.send_appointment_reminder for newbench.new
2021-12-23 15:40:55,712 INFO scheduler Scheduled Job Complete: erpnext.healthcare.doctype.patient_appointment.patient_appointment.send_appointment_reminder for newbench.new
2021-12-23 15:40:55,860 INFO scheduler Scheduled Job Start: erpnext.projects.doctype.project.project.project_status_update_reminder for newbench.new
2021-12-23 15:40:59,588 INFO scheduler Scheduled Job Complete: erpnext.projects.doctype.project.project.project_status_update_reminder for newbench.new
2021-12-23 15:41:00,935 INFO scheduler Scheduled Job Start: erpnext.utilities.doctype.video.video.update_youtube_data for newbench.new
2021-12-23 15:41:22,096 INFO scheduler Scheduled Job Complete: erpnext.utilities.doctype.video.video.update_youtube_data for newbench.new
2021-12-23 15:41:25,615 INFO scheduler Scheduled Job Start: frappe.monitor.flush for newbench.new
2021-12-23 15:41:28,404 INFO scheduler Scheduled Job Complete: frappe.monitor.flush for newbench.new
2021-12-23 15:41:28,562 INFO scheduler Scheduled Job Start: frappe.utils.global_search.sync_global_search for newbench.new
2021-12-23 15:41:28,997 INFO scheduler Scheduled Job Complete: frappe.utils.global_search.sync_global_search for newbench.new
2021-12-23 15:41:29,152 INFO scheduler Scheduled Job Start: frappe.integrations.doctype.razorpay_settings.razorpay_settings.capture_payment for newbench.new
2021-12-23 15:41:32,029 INFO scheduler Scheduled Job Complete: frappe.integrations.doctype.razorpay_settings.razorpay_settings.capture_payment for newbench.new
2021-12-23 15:41:32,181 INFO scheduler Scheduled Job Start: frappe.email.doctype.email_account.email_account.notify_unreplied for newbench.new
2021-12-23 15:41:34,126 INFO scheduler Scheduled Job Complete: frappe.email.doctype.email_account.email_account.notify_unreplied for newbench.new
2021-12-23 15:41:34,290 INFO scheduler Scheduled Job Start: frappe.email.doctype.email_account.email_account.pull for newbench.new
2021-12-23 15:41:35,157 INFO scheduler Scheduled Job Complete: frappe.email.doctype.email_account.email_account.pull for newbench.new
2021-12-23 15:41:35,305 INFO scheduler Scheduled Job Start: frappe.email.queue.flush for newbench.new
2021-12-23 15:41:35,860 INFO scheduler Scheduled Job Complete: frappe.email.queue.flush for newbench.new
2021-12-23 15:41:36,013 INFO scheduler Scheduled Job Start: frappe.twofactor.delete_all_barcodes_for_users for newbench.new
2021-12-23 15:41:37,380 INFO scheduler Scheduled Job Complete: frappe.twofactor.delete_all_barcodes_for_users for newbench.new
2021-12-23 15:41:37,740 INFO scheduler Scheduled Job Start: frappe.website.doctype.web_page.web_page.check_publish_status for newbench.new
2021-12-23 15:41:39,874 INFO scheduler Scheduled Job Complete: frappe.website.doctype.web_page.web_page.check_publish_status for newbench.new
2021-12-23 15:41:40,094 INFO scheduler Scheduled Job Start: frappe.oauth.delete_oauth2_data for newbench.new
2021-12-23 15:41:41,229 INFO scheduler Scheduled Job Complete: frappe.oauth.delete_oauth2_data for newbench.new
2021-12-23 15:41:52,671 DEBUG scheduler Queued events for site newbench.new
2021-12-23 15:43:02,961 DEBUG scheduler Queued events for site newbench.new
2021-12-23 15:44:04,608 DEBUG scheduler Queued events for site newbench.new
2021-12-23 15:44:06,739 INFO scheduler Scheduled Job Start: erpnext.crm.doctype.social_media_post.social_media_post.process_scheduled_social_media_posts for newbench.new
2021-12-23 15:44:12,547 INFO scheduler Scheduled Job Complete: erpnext.crm.doctype.social_media_post.social_media_post.process_scheduled_social_media_posts for newbench.new
2021-12-23 15:44:12,702 INFO scheduler Scheduled Job Start: erpnext.hr.doctype.interview.interview.send_interview_reminder for newbench.new
2021-12-23 15:44:14,932 INFO scheduler Scheduled Job Complete: erpnext.hr.doctype.interview.interview.send_interview_reminder for newbench.new
2021-12-23 15:44:15,122 INFO scheduler Scheduled Job Start: erpnext.healthcare.doctype.patient_appointment.patient_appointment.send_appointment_reminder for newbench.new
2021-12-23 15:44:15,665 INFO scheduler Scheduled Job Complete: erpnext.healthcare.doctype.patient_appointment.patient_appointment.send_appointment_reminder for newbench.new
2021-12-23 15:44:15,945 INFO scheduler Scheduled Job Start: erpnext.projects.doctype.project.project.project_status_update_reminder for newbench.new
2021-12-23 15:44:17,548 INFO scheduler Scheduled Job Complete: erpnext.projects.doctype.project.project.project_status_update_reminder for newbench.new
2021-12-23 15:44:17,718 INFO scheduler Scheduled Job Start: frappe.monitor.flush for newbench.new
2021-12-23 15:44:18,312 INFO scheduler Scheduled Job Complete: frappe.monitor.flush for newbench.new
2021-12-23 15:44:18,490 INFO scheduler Scheduled Job Start: frappe.utils.global_search.sync_global_search for newbench.new
2021-12-23 15:44:19,280 INFO scheduler Scheduled Job Complete: frappe.utils.global_search.sync_global_search for newbench.new
2021-12-23 15:44:19,437 INFO scheduler Scheduled Job Start: frappe.integrations.doctype.razorpay_settings.razorpay_settings.capture_payment for newbench.new
2021-12-23 15:44:21,094 INFO scheduler Scheduled Job Complete: frappe.integrations.doctype.razorpay_settings.razorpay_settings.capture_payment for newbench.new
2021-12-23 15:44:21,250 INFO scheduler Scheduled Job Start: frappe.email.doctype.email_account.email_account.notify_unreplied for newbench.new
2021-12-23 15:44:23,285 INFO scheduler Scheduled Job Complete: frappe.email.doctype.email_account.email_account.notify_unreplied for newbench.new
2021-12-23 15:44:23,448 INFO scheduler Scheduled Job Start: frappe.email.doctype.email_account.email_account.pull for newbench.new
2021-12-23 15:44:24,119 INFO scheduler Scheduled Job Complete: frappe.email.doctype.email_account.email_account.pull for newbench.new
2021-12-23 15:44:24,268 INFO scheduler Scheduled Job Start: frappe.email.queue.flush for newbench.new
2021-12-23 15:44:24,744 INFO scheduler Scheduled Job Complete: frappe.email.queue.flush for newbench.new
2021-12-23 15:45:05,485 DEBUG scheduler Queued events for site newbench.new
2021-12-23 15:45:05,634 INFO scheduler Scheduled Job Start: frappe.twofactor.delete_all_barcodes_for_users for newbench.new
2021-12-23 15:45:07,444 INFO scheduler Scheduled Job Complete: frappe.twofactor.delete_all_barcodes_for_users for newbench.new
2021-12-23 15:45:07,770 INFO scheduler Scheduled Job Start: frappe.website.doctype.web_page.web_page.check_publish_status for newbench.new
2021-12-23 15:45:09,433 INFO scheduler Scheduled Job Complete: frappe.website.doctype.web_page.web_page.check_publish_status for newbench.new
2021-12-23 15:45:09,686 INFO scheduler Scheduled Job Start: frappe.oauth.delete_oauth2_data for newbench.new
2021-12-23 15:45:10,741 INFO scheduler Scheduled Job Complete: frappe.oauth.delete_oauth2_data for newbench.new
2021-12-23 15:46:06,181 DEBUG scheduler Queued events for site newbench.new
2021-12-23 15:47:06,865 DEBUG scheduler Queued events for site newbench.new
2021-12-23 15:48:07,496 INFO scheduler Scheduled Job Start: erpnext.crm.doctype.social_media_post.social_media_post.process_scheduled_social_media_posts for newbench.new
2021-12-23 15:48:07,738 DEBUG scheduler Queued events for site newbench.new
2021-12-23 15:48:08,161 INFO scheduler Scheduled Job Complete: erpnext.crm.doctype.social_media_post.social_media_post.process_scheduled_social_media_posts for newbench.new
2021-12-23 15:48:08,312 INFO scheduler Scheduled Job Start: erpnext.hr.doctype.interview.interview.send_interview_reminder for newbench.new
2021-12-23 15:48:08,973 INFO scheduler Scheduled Job Complete: erpnext.hr.doctype.interview.interview.send_interview_reminder for newbench.new
2021-12-23 15:48:09,119 INFO scheduler Scheduled Job Start: erpnext.healthcare.doctype.patient_appointment.patient_appointment.send_appointment_reminder for newbench.new
2021-12-23 15:48:09,666 INFO scheduler Scheduled Job Complete: erpnext.healthcare.doctype.patient_appointment.patient_appointment.send_appointment_reminder for newbench.new
2021-12-23 15:48:09,815 INFO scheduler Scheduled Job Start: erpnext.projects.doctype.project.project.project_status_update_reminder for newbench.new
2021-12-23 15:48:10,657 INFO scheduler Scheduled Job Complete: erpnext.projects.doctype.project.project.project_status_update_reminder for newbench.new
2021-12-23 15:48:10,804 INFO scheduler Scheduled Job Start: frappe.monitor.flush for newbench.new
2021-12-23 15:48:11,200 INFO scheduler Scheduled Job Complete: frappe.monitor.flush for newbench.new
2021-12-23 15:48:11,352 INFO scheduler Scheduled Job Start: frappe.utils.global_search.sync_global_search for newbench.new
2021-12-23 15:48:11,754 INFO scheduler Scheduled Job Complete: frappe.utils.global_search.sync_global_search for newbench.new
2021-12-23 15:48:11,904 INFO scheduler Scheduled Job Start: frappe.integrations.doctype.razorpay_settings.razorpay_settings.capture_payment for newbench.new
2021-12-23 15:48:12,610 INFO scheduler Scheduled Job Complete: frappe.integrations.doctype.razorpay_settings.razorpay_settings.capture_payment for newbench.new
2021-12-23 15:48:12,755 INFO scheduler Scheduled Job Start: frappe.email.doctype.email_account.email_account.notify_unreplied for newbench.new
2021-12-23 15:48:13,320 INFO scheduler Scheduled Job Complete: frappe.email.doctype.email_account.email_account.notify_unreplied for newbench.new
2021-12-23 15:48:13,467 INFO scheduler Scheduled Job Start: frappe.email.doctype.email_account.email_account.pull for newbench.new
2021-12-23 15:48:14,052 INFO scheduler Scheduled Job Complete: frappe.email.doctype.email_account.email_account.pull for newbench.new
2021-12-23 15:48:14,203 INFO scheduler Scheduled Job Start: frappe.email.queue.flush for newbench.new
2021-12-23 15:48:14,641 INFO scheduler Scheduled Job Complete: frappe.email.queue.flush for newbench.new
2021-12-23 15:49:08,451 DEBUG scheduler Queued events for site newbench.new
2021-12-23 15:50:09,137 DEBUG scheduler Queued events for site newbench.new
2021-12-23 15:51:09,795 DEBUG scheduler Queued events for site newbench.new
2021-12-23 15:52:10,391 INFO scheduler Scheduled Job Start: erpnext.crm.doctype.social_media_post.social_media_post.process_scheduled_social_media_posts for newbench.new
2021-12-23 15:52:10,572 DEBUG scheduler Queued events for site newbench.new
2021-12-23 15:52:10,897 INFO scheduler Scheduled Job Complete: erpnext.crm.doctype.social_media_post.social_media_post.process_scheduled_social_media_posts for newbench.new
2021-12-23 15:52:11,044 INFO scheduler Scheduled Job Start: erpnext.hr.doctype.interview.interview.send_interview_reminder for newbench.new
2021-12-23 15:52:11,610 INFO scheduler Scheduled Job Complete: erpnext.hr.doctype.interview.interview.send_interview_reminder for newbench.new
2021-12-23 15:52:11,765 INFO scheduler Scheduled Job Start: erpnext.healthcare.doctype.patient_appointment.patient_appointment.send_appointment_reminder for newbench.new
2021-12-23 15:52:12,216 INFO scheduler Scheduled Job Complete: erpnext.healthcare.doctype.patient_appointment.patient_appointment.send_appointment_reminder for newbench.new
2021-12-23 15:52:12,369 INFO scheduler Scheduled Job Start: erpnext.projects.doctype.project.project.project_status_update_reminder for newbench.new
2021-12-23 15:52:13,071 INFO scheduler Scheduled Job Complete: erpnext.projects.doctype.project.project.project_status_update_reminder for newbench.new
2021-12-23 15:52:13,217 INFO scheduler Scheduled Job Start: frappe.monitor.flush for newbench.new
2021-12-23 15:52:13,692 INFO scheduler Scheduled Job Complete: frappe.monitor.flush for newbench.new
2021-12-23 15:52:13,844 INFO scheduler Scheduled Job Start: frappe.utils.global_search.sync_global_search for newbench.new
2021-12-23 15:52:14,242 INFO scheduler Scheduled Job Complete: frappe.utils.global_search.sync_global_search for newbench.new
2021-12-23 15:52:14,396 INFO scheduler Scheduled Job Start: frappe.integrations.doctype.razorpay_settings.razorpay_settings.capture_payment for newbench.new
2021-12-23 15:52:15,087 INFO scheduler Scheduled Job Complete: frappe.integrations.doctype.razorpay_settings.razorpay_settings.capture_payment for newbench.new
2021-12-23 15:52:15,238 INFO scheduler Scheduled Job Start: frappe.email.doctype.email_account.email_account.notify_unreplied for newbench.new
2021-12-23 15:52:15,927 INFO scheduler Scheduled Job Complete: frappe.email.doctype.email_account.email_account.notify_unreplied for newbench.new
2021-12-23 15:52:16,072 INFO scheduler Scheduled Job Start: frappe.email.doctype.email_account.email_account.pull for newbench.new
2021-12-23 15:52:16,666 INFO scheduler Scheduled Job Complete: frappe.email.doctype.email_account.email_account.pull for newbench.new
2021-12-23 15:52:16,816 INFO scheduler Scheduled Job Start: frappe.email.queue.flush for newbench.new
2021-12-23 15:52:17,254 INFO scheduler Scheduled Job Complete: frappe.email.queue.flush for newbench.new
2021-12-23 15:53:11,247 DEBUG scheduler Queued events for site newbench.new
2021-12-23 15:54:11,922 DEBUG scheduler Queued events for site newbench.new
2021-12-23 15:55:12,593 DEBUG scheduler Queued events for site newbench.new
2021-12-23 15:56:13,204 INFO scheduler Scheduled Job Start: erpnext.crm.doctype.social_media_post.social_media_post.process_scheduled_social_media_posts for newbench.new
2021-12-23 15:56:13,405 DEBUG scheduler Queued events for site newbench.new
2021-12-23 15:56:13,777 INFO scheduler Scheduled Job Complete: erpnext.crm.doctype.social_media_post.social_media_post.process_scheduled_social_media_posts for newbench.new
2021-12-23 15:56:13,926 INFO scheduler Scheduled Job Start: erpnext.hr.doctype.interview.interview.send_interview_reminder for newbench.new
2021-12-23 15:56:14,455 INFO scheduler Scheduled Job Complete: erpnext.hr.doctype.interview.interview.send_interview_reminder for newbench.new
2021-12-23 15:56:14,600 INFO scheduler Scheduled Job Start: erpnext.healthcare.doctype.patient_appointment.patient_appointment.send_appointment_reminder for newbench.new
2021-12-23 15:56:15,061 INFO scheduler Scheduled Job Complete: erpnext.healthcare.doctype.patient_appointment.patient_appointment.send_appointment_reminder for newbench.new
2021-12-23 15:56:15,210 INFO scheduler Scheduled Job Start: erpnext.projects.doctype.project.project.project_status_update_reminder for newbench.new
2021-12-23 15:56:15,930 INFO scheduler Scheduled Job Complete: erpnext.projects.doctype.project.project.project_status_update_reminder for newbench.new
2021-12-23 15:56:16,076 INFO scheduler Scheduled Job Start: frappe.monitor.flush for newbench.new
2021-12-23 15:56:16,581 INFO scheduler Scheduled Job Complete: frappe.monitor.flush for newbench.new
2021-12-23 15:56:16,735 INFO scheduler Scheduled Job Start: frappe.utils.global_search.sync_global_search for newbench.new
2021-12-23 15:56:17,174 INFO scheduler Scheduled Job Complete: frappe.utils.global_search.sync_global_search for newbench.new
2021-12-23 15:56:17,326 INFO scheduler Scheduled Job Start: frappe.integrations.doctype.razorpay_settings.razorpay_settings.capture_payment for newbench.new
2021-12-23 15:56:18,040 INFO scheduler Scheduled Job Complete: frappe.integrations.doctype.razorpay_settings.razorpay_settings.capture_payment for newbench.new
2021-12-23 15:56:18,188 INFO scheduler Scheduled Job Start: frappe.email.doctype.email_account.email_account.notify_unreplied for newbench.new
2021-12-23 15:56:18,811 INFO scheduler Scheduled Job Complete: frappe.email.doctype.email_account.email_account.notify_unreplied for newbench.new
2021-12-23 15:56:18,956 INFO scheduler Scheduled Job Start: frappe.email.doctype.email_account.email_account.pull for newbench.new
2021-12-23 15:56:19,560 INFO scheduler Scheduled Job Complete: frappe.email.doctype.email_account.email_account.pull for newbench.new
2021-12-23 15:56:19,711 INFO scheduler Scheduled Job Start: frappe.email.queue.flush for newbench.new
2021-12-23 15:56:20,261 INFO scheduler Scheduled Job Complete: frappe.email.queue.flush for newbench.new
2021-12-23 15:57:14,073 DEBUG scheduler Queued events for site newbench.new
2021-12-23 15:58:14,760 DEBUG scheduler Queued events for site newbench.new
2021-12-23 15:59:15,516 DEBUG scheduler Queued events for site newbench.new
2021-12-23 16:00:16,134 INFO scheduler Scheduled Job Start: erpnext.stock.doctype.repost_item_valuation.repost_item_valuation.repost_entries for newbench.new
2021-12-23 16:00:16,248 INFO scheduler Scheduled Job Start: erpnext.erpnext_integrations.connectors.shopify_connection.sync_old_orders for newbench.new
2021-12-23 16:00:17,139 DEBUG scheduler Queued events for site newbench.new
2021-12-23 16:00:22,068 INFO scheduler Scheduled Job Complete: erpnext.stock.doctype.repost_item_valuation.repost_item_valuation.repost_entries for newbench.new
2021-12-23 16:00:22,602 INFO scheduler Scheduled Job Complete: erpnext.erpnext_integrations.connectors.shopify_connection.sync_old_orders for newbench.new
2021-12-23 16:00:23,067 INFO scheduler Scheduled Job Start: erpnext.support.doctype.issue.issue.set_service_level_agreement_variance for newbench.new
2021-12-23 16:00:24,058 INFO scheduler Scheduled Job Complete: erpnext.support.doctype.issue.issue.set_service_level_agreement_variance for newbench.new
2021-12-23 16:00:24,277 INFO scheduler Scheduled Job Start: erpnext.hr.doctype.shift_type.shift_type.process_auto_attendance_for_all_shifts for newbench.new
2021-12-23 16:00:25,742 INFO scheduler Scheduled Job Complete: erpnext.hr.doctype.shift_type.shift_type.process_auto_attendance_for_all_shifts for newbench.new
2021-12-23 16:00:26,162 INFO scheduler Scheduled Job Start: erpnext.projects.doctype.project.project.collect_project_status for newbench.new
2021-12-23 16:00:27,054 INFO scheduler Scheduled Job Complete: erpnext.projects.doctype.project.project.collect_project_status for newbench.new
2021-12-23 16:00:27,393 INFO scheduler Scheduled Job Start: erpnext.projects.doctype.project.project.hourly_reminder for newbench.new
2021-12-23 16:00:28,535 INFO scheduler Scheduled Job Complete: erpnext.projects.doctype.project.project.hourly_reminder for newbench.new
2021-12-23 16:00:28,758 INFO scheduler Scheduled Job Start: erpnext.erpnext_integrations.doctype.plaid_settings.plaid_settings.automatic_synchronization for newbench.new
2021-12-23 16:00:30,277 INFO scheduler Scheduled Job Complete: erpnext.erpnext_integrations.doctype.plaid_settings.plaid_settings.automatic_synchronization for newbench.new
2021-12-23 16:00:30,779 INFO scheduler Scheduled Job Start: erpnext.accounts.doctype.gl_entry.gl_entry.rename_gle_sle_docs for newbench.new
2021-12-23 16:00:32,287 INFO scheduler Scheduled Job Complete: erpnext.accounts.doctype.gl_entry.gl_entry.rename_gle_sle_docs for newbench.new
2021-12-23 16:00:32,544 INFO scheduler Scheduled Job Start: erpnext.erpnext_integrations.doctype.amazon_mws_settings.amazon_mws_settings.schedule_get_order_details for newbench.new
2021-12-23 16:00:33,490 INFO scheduler Scheduled Job Complete: erpnext.erpnext_integrations.doctype.amazon_mws_settings.amazon_mws_settings.schedule_get_order_details for newbench.new
2021-12-23 16:00:33,751 INFO scheduler Scheduled Job Start: erpnext.accounts.doctype.subscription.subscription.process_all for newbench.new
2021-12-23 16:00:34,749 INFO scheduler Scheduled Job Complete: erpnext.accounts.doctype.subscription.subscription.process_all for newbench.new
2021-12-23 16:00:35,000 INFO scheduler Scheduled Job Start: erpnext.hr.doctype.daily_work_summary_group.daily_work_summary_group.trigger_emails for newbench.new
2021-12-23 16:00:36,136 INFO scheduler Scheduled Job Complete: erpnext.hr.doctype.daily_work_summary_group.daily_work_summary_group.trigger_emails for newbench.new
2021-12-23 16:00:36,382 INFO scheduler Scheduled Job Start: erpnext.crm.doctype.social_media_post.social_media_post.process_scheduled_social_media_posts for newbench.new
2021-12-23 16:00:36,946 INFO scheduler Scheduled Job Complete: erpnext.crm.doctype.social_media_post.social_media_post.process_scheduled_social_media_posts for newbench.new
2021-12-23 16:00:37,101 INFO scheduler Scheduled Job Start: erpnext.hr.doctype.interview.interview.send_interview_reminder for newbench.new
2021-12-23 16:00:37,746 INFO scheduler Scheduled Job Complete: erpnext.hr.doctype.interview.interview.send_interview_reminder for newbench.new
2021-12-23 16:00:37,922 INFO scheduler Scheduled Job Start: erpnext.healthcare.doctype.patient_appointment.patient_appointment.send_appointment_reminder for newbench.new
2021-12-23 16:00:38,429 INFO scheduler Scheduled Job Complete: erpnext.healthcare.doctype.patient_appointment.patient_appointment.send_appointment_reminder for newbench.new
2021-12-23 16:00:38,600 INFO scheduler Scheduled Job Start: erpnext.projects.doctype.project.project.project_status_update_reminder for newbench.new
2021-12-23 16:00:39,413 INFO scheduler Scheduled Job Complete: erpnext.projects.doctype.project.project.project_status_update_reminder for newbench.new
2021-12-23 16:00:39,573 INFO scheduler Scheduled Job Start: erpnext.utilities.doctype.video.video.update_youtube_data for newbench.new
2021-12-23 16:00:41,935 INFO scheduler Scheduled Job Failed: erpnext.utilities.doctype.video.video.update_youtube_data for newbench.new
2021-12-23 16:00:42,204 INFO scheduler Scheduled Job Start: frappe.email.doctype.newsletter.newsletter.send_scheduled_email for newbench.new
2021-12-23 16:00:43,289 INFO scheduler Scheduled Job Complete: frappe.email.doctype.newsletter.newsletter.send_scheduled_email for newbench.new
2021-12-23 16:00:43,541 INFO scheduler Scheduled Job Start: frappe.integrations.doctype.google_calendar.google_calendar.sync for newbench.new
2021-12-23 16:00:46,634 INFO scheduler Scheduled Job Complete: frappe.integrations.doctype.google_calendar.google_calendar.sync for newbench.new
2021-12-23 16:00:46,865 INFO scheduler Scheduled Job Start: frappe.desk.form.document_follow.send_hourly_updates for newbench.new
2021-12-23 16:00:47,711 INFO scheduler Scheduled Job Complete: frappe.desk.form.document_follow.send_hourly_updates for newbench.new
2021-12-23 16:00:47,929 INFO scheduler Scheduled Job Start: frappe.deferred_insert.save_to_db for newbench.new
2021-12-23 16:00:49,401 INFO scheduler Scheduled Job Complete: frappe.deferred_insert.save_to_db for newbench.new
2021-12-23 16:00:49,610 INFO scheduler Scheduled Job Start: frappe.desk.page.backups.backups.delete_downloadable_backups for newbench.new
2021-12-23 16:00:50,435 INFO scheduler Scheduled Job Complete: frappe.desk.page.backups.backups.delete_downloadable_backups for newbench.new
2021-12-23 16:00:50,687 INFO scheduler Scheduled Job Start: frappe.utils.error.collect_error_snapshots for newbench.new
2021-12-23 16:00:51,718 INFO scheduler Scheduled Job Complete: frappe.utils.error.collect_error_snapshots for newbench.new
2021-12-23 16:00:51,977 INFO scheduler Scheduled Job Start: frappe.model.utils.user_settings.sync_user_settings for newbench.new
2021-12-23 16:00:52,868 INFO scheduler Scheduled Job Complete: frappe.model.utils.user_settings.sync_user_settings for newbench.new
2021-12-23 16:00:53,137 INFO scheduler Scheduled Job Start: frappe.model.utils.link_count.update_link_count for newbench.new
2021-12-23 16:00:53,921 INFO scheduler Scheduled Job Complete: frappe.model.utils.link_count.update_link_count for newbench.new
2021-12-23 16:00:54,142 INFO scheduler Scheduled Job Start: frappe.monitor.flush for newbench.new
2021-12-23 16:00:54,585 INFO scheduler Scheduled Job Complete: frappe.monitor.flush for newbench.new
2021-12-23 16:00:54,751 INFO scheduler Scheduled Job Start: frappe.utils.global_search.sync_global_search for newbench.new
2021-12-23 16:00:55,184 INFO scheduler Scheduled Job Complete: frappe.utils.global_search.sync_global_search for newbench.new
2021-12-23 16:00:55,370 INFO scheduler Scheduled Job Start: frappe.integrations.doctype.razorpay_settings.razorpay_settings.capture_payment for newbench.new
2021-12-23 16:00:56,359 INFO scheduler Scheduled Job Complete: frappe.integrations.doctype.razorpay_settings.razorpay_settings.capture_payment for newbench.new
2021-12-23 16:00:56,515 INFO scheduler Scheduled Job Start: frappe.email.doctype.email_account.email_account.notify_unreplied for newbench.new
2021-12-23 16:00:57,258 INFO scheduler Scheduled Job Complete: frappe.email.doctype.email_account.email_account.notify_unreplied for newbench.new
2021-12-23 16:00:57,462 INFO scheduler Scheduled Job Start: frappe.email.doctype.email_account.email_account.pull for newbench.new
2021-12-23 16:00:58,129 INFO scheduler Scheduled Job Complete: frappe.email.doctype.email_account.email_account.pull for newbench.new
2021-12-23 16:00:58,322 INFO scheduler Scheduled Job Start: frappe.email.queue.flush for newbench.new
2021-12-23 16:00:58,924 INFO scheduler Scheduled Job Complete: frappe.email.queue.flush for newbench.new
2021-12-23 16:00:59,102 INFO scheduler Scheduled Job Start: frappe.twofactor.delete_all_barcodes_for_users for newbench.new
2021-12-23 16:01:00,247 INFO scheduler Scheduled Job Complete: frappe.twofactor.delete_all_barcodes_for_users for newbench.new
2021-12-23 16:01:00,740 INFO scheduler Scheduled Job Start: frappe.website.doctype.web_page.web_page.check_publish_status for newbench.new
2021-12-23 16:01:01,713 INFO scheduler Scheduled Job Complete: frappe.website.doctype.web_page.web_page.check_publish_status for newbench.new
2021-12-23 16:01:01,969 INFO scheduler Scheduled Job Start: frappe.oauth.delete_oauth2_data for newbench.new
2021-12-23 16:01:02,872 INFO scheduler Scheduled Job Complete: frappe.oauth.delete_oauth2_data for newbench.new
2021-12-23 16:01:17,820 DEBUG scheduler Queued events for site newbench.new
2021-12-23 16:02:18,481 DEBUG scheduler Queued events for site newbench.new
2021-12-23 16:03:19,141 DEBUG scheduler Queued events for site newbench.new
2021-12-23 16:04:19,744 INFO scheduler Scheduled Job Start: erpnext.crm.doctype.social_media_post.social_media_post.process_scheduled_social_media_posts for newbench.new
2021-12-23 16:04:19,925 DEBUG scheduler Queued events for site newbench.new
2021-12-23 16:04:20,235 INFO scheduler Scheduled Job Complete: erpnext.crm.doctype.social_media_post.social_media_post.process_scheduled_social_media_posts for newbench.new
2021-12-23 16:04:20,411 INFO scheduler Scheduled Job Start: erpnext.hr.doctype.interview.interview.send_interview_reminder for newbench.new
2021-12-23 16:04:20,929 INFO scheduler Scheduled Job Complete: erpnext.hr.doctype.interview.interview.send_interview_reminder for newbench.new
2021-12-23 16:04:21,078 INFO scheduler Scheduled Job Start: erpnext.healthcare.doctype.patient_appointment.patient_appointment.send_appointment_reminder for newbench.new
2021-12-23 16:04:21,561 INFO scheduler Scheduled Job Complete: erpnext.healthcare.doctype.patient_appointment.patient_appointment.send_appointment_reminder for newbench.new
2021-12-23 16:04:21,713 INFO scheduler Scheduled Job Start: erpnext.projects.doctype.project.project.project_status_update_reminder for newbench.new
2021-12-23 16:04:22,446 INFO scheduler Scheduled Job Complete: erpnext.projects.doctype.project.project.project_status_update_reminder for newbench.new
2021-12-23 16:04:22,596 INFO scheduler Scheduled Job Start: frappe.monitor.flush for newbench.new
2021-12-23 16:04:23,014 INFO scheduler Scheduled Job Complete: frappe.monitor.flush for newbench.new
2021-12-23 16:04:23,163 INFO scheduler Scheduled Job Start: frappe.utils.global_search.sync_global_search for newbench.new
2021-12-23 16:04:23,574 INFO scheduler Scheduled Job Complete: frappe.utils.global_search.sync_global_search for newbench.new
2021-12-23 16:04:23,723 INFO scheduler Scheduled Job Start: frappe.integrations.doctype.razorpay_settings.razorpay_settings.capture_payment for newbench.new
2021-12-23 16:04:24,403 INFO scheduler Scheduled Job Complete: frappe.integrations.doctype.razorpay_settings.razorpay_settings.capture_payment for newbench.new
2021-12-23 16:04:24,550 INFO scheduler Scheduled Job Start: frappe.email.doctype.email_account.email_account.notify_unreplied for newbench.new
2021-12-23 16:04:25,169 INFO scheduler Scheduled Job Complete: frappe.email.doctype.email_account.email_account.notify_unreplied for newbench.new
2021-12-23 16:04:25,316 INFO scheduler Scheduled Job Start: frappe.email.doctype.email_account.email_account.pull for newbench.new
2021-12-23 16:04:25,898 INFO scheduler Scheduled Job Complete: frappe.email.doctype.email_account.email_account.pull for newbench.new
2021-12-23 16:04:26,048 INFO scheduler Scheduled Job Start: frappe.email.queue.flush for newbench.new
2021-12-23 16:04:26,481 INFO scheduler Scheduled Job Complete: frappe.email.queue.flush for newbench.new
2021-12-23 16:05:20,699 DEBUG scheduler Queued events for site newbench.new
2021-12-23 16:06:21,377 DEBUG scheduler Queued events for site newbench.new
2021-12-23 16:07:22,169 DEBUG scheduler Queued events for site newbench.new
2021-12-23 16:08:22,788 INFO scheduler Scheduled Job Start: erpnext.crm.doctype.social_media_post.social_media_post.process_scheduled_social_media_posts for newbench.new
2021-12-23 16:08:22,953 DEBUG scheduler Queued events for site newbench.new
2021-12-23 16:08:23,416 INFO scheduler Scheduled Job Complete: erpnext.crm.doctype.social_media_post.social_media_post.process_scheduled_social_media_posts for newbench.new
2021-12-23 16:08:23,574 INFO scheduler Scheduled Job Start: erpnext.hr.doctype.interview.interview.send_interview_reminder for newbench.new
2021-12-23 16:08:24,176 INFO scheduler Scheduled Job Complete: erpnext.hr.doctype.interview.interview.send_interview_reminder for newbench.new
2021-12-23 16:08:24,334 INFO scheduler Scheduled Job Start: erpnext.healthcare.doctype.patient_appointment.patient_appointment.send_appointment_reminder for newbench.new
2021-12-23 16:08:24,833 INFO scheduler Scheduled Job Complete: erpnext.healthcare.doctype.patient_appointment.patient_appointment.send_appointment_reminder for newbench.new
2021-12-23 16:08:24,989 INFO scheduler Scheduled Job Start: erpnext.projects.doctype.project.project.project_status_update_reminder for newbench.new
2021-12-23 16:08:25,690 INFO scheduler Scheduled Job Complete: erpnext.projects.doctype.project.project.project_status_update_reminder for newbench.new
2021-12-23 16:08:25,850 INFO scheduler Scheduled Job Start: frappe.monitor.flush for newbench.new
2021-12-23 16:08:26,286 INFO scheduler Scheduled Job Complete: frappe.monitor.flush for newbench.new
2021-12-23 16:08:26,440 INFO scheduler Scheduled Job Start: frappe.utils.global_search.sync_global_search for newbench.new
2021-12-23 16:08:26,941 INFO scheduler Scheduled Job Complete: frappe.utils.global_search.sync_global_search for newbench.new
2021-12-23 16:08:27,092 INFO scheduler Scheduled Job Start: frappe.integrations.doctype.razorpay_settings.razorpay_settings.capture_payment for newbench.new
2021-12-23 16:08:27,784 INFO scheduler Scheduled Job Complete: frappe.integrations.doctype.razorpay_settings.razorpay_settings.capture_payment for newbench.new
2021-12-23 16:08:27,930 INFO scheduler Scheduled Job Start: frappe.email.doctype.email_account.email_account.notify_unreplied for newbench.new
2021-12-23 16:08:28,536 INFO scheduler Scheduled Job Complete: frappe.email.doctype.email_account.email_account.notify_unreplied for newbench.new
2021-12-23 16:08:28,686 INFO scheduler Scheduled Job Start: frappe.email.doctype.email_account.email_account.pull for newbench.new
2021-12-23 16:08:29,283 INFO scheduler Scheduled Job Complete: frappe.email.doctype.email_account.email_account.pull for newbench.new
2021-12-23 16:08:29,438 INFO scheduler Scheduled Job Start: frappe.email.queue.flush for newbench.new
2021-12-23 16:08:30,012 INFO scheduler Scheduled Job Complete: frappe.email.queue.flush for newbench.new
2021-12-23 16:09:23,612 DEBUG scheduler Queued events for site newbench.new
2021-12-23 16:10:24,282 DEBUG scheduler Queued events for site newbench.new
2021-12-23 16:11:24,966 DEBUG scheduler Queued events for site newbench.new
2021-12-23 16:12:25,555 INFO scheduler Scheduled Job Start: erpnext.crm.doctype.social_media_post.social_media_post.process_scheduled_social_media_posts for newbench.new
2021-12-23 16:12:25,751 DEBUG scheduler Queued events for site newbench.new
2021-12-23 16:12:26,091 INFO scheduler Scheduled Job Complete: erpnext.crm.doctype.social_media_post.social_media_post.process_scheduled_social_media_posts for newbench.new
2021-12-23 16:12:26,241 INFO scheduler Scheduled Job Start: erpnext.hr.doctype.interview.interview.send_interview_reminder for newbench.new
2021-12-23 16:12:26,758 INFO scheduler Scheduled Job Complete: erpnext.hr.doctype.interview.interview.send_interview_reminder for newbench.new
2021-12-23 16:12:26,906 INFO scheduler Scheduled Job Start: erpnext.healthcare.doctype.patient_appointment.patient_appointment.send_appointment_reminder for newbench.new
2021-12-23 16:12:27,363 INFO scheduler Scheduled Job Complete: erpnext.healthcare.doctype.patient_appointment.patient_appointment.send_appointment_reminder for newbench.new
2021-12-23 16:12:27,513 INFO scheduler Scheduled Job Start: erpnext.projects.doctype.project.project.project_status_update_reminder for newbench.new
2021-12-23 16:12:28,230 INFO scheduler Scheduled Job Complete: erpnext.projects.doctype.project.project.project_status_update_reminder for newbench.new
2021-12-23 16:12:28,380 INFO scheduler Scheduled Job Start: frappe.monitor.flush for newbench.new
2021-12-23 16:12:28,779 INFO scheduler Scheduled Job Complete: frappe.monitor.flush for newbench.new
2021-12-23 16:12:28,923 INFO scheduler Scheduled Job Start: frappe.utils.global_search.sync_global_search for newbench.new
2021-12-23 16:12:29,449 INFO scheduler Scheduled Job Complete: frappe.utils.global_search.sync_global_search for newbench.new
2021-12-23 16:12:29,599 INFO scheduler Scheduled Job Start: frappe.integrations.doctype.razorpay_settings.razorpay_settings.capture_payment for newbench.new
2021-12-23 16:12:30,367 INFO scheduler Scheduled Job Complete: frappe.integrations.doctype.razorpay_settings.razorpay_settings.capture_payment for newbench.new
2021-12-23 16:12:30,512 INFO scheduler Scheduled Job Start: frappe.email.doctype.email_account.email_account.notify_unreplied for newbench.new
2021-12-23 16:12:31,100 INFO scheduler Scheduled Job Complete: frappe.email.doctype.email_account.email_account.notify_unreplied for newbench.new
2021-12-23 16:12:31,246 INFO scheduler Scheduled Job Start: frappe.email.doctype.email_account.email_account.pull for newbench.new
2021-12-23 16:12:31,837 INFO scheduler Scheduled Job Complete: frappe.email.doctype.email_account.email_account.pull for newbench.new
2021-12-23 16:12:31,984 INFO scheduler Scheduled Job Start: frappe.email.queue.flush for newbench.new
2021-12-23 16:12:32,455 INFO scheduler Scheduled Job Complete: frappe.email.queue.flush for newbench.new
2021-12-23 16:13:26,466 DEBUG scheduler Queued events for site newbench.new
2021-12-23 16:14:27,115 DEBUG scheduler Queued events for site newbench.new
2021-12-23 16:15:27,835 DEBUG scheduler Queued events for site newbench.new
2021-12-23 16:15:27,943 INFO scheduler Scheduled Job Start: frappe.twofactor.delete_all_barcodes_for_users for newbench.new
2021-12-23 16:15:28,913 INFO scheduler Scheduled Job Complete: frappe.twofactor.delete_all_barcodes_for_users for newbench.new
2021-12-23 16:15:29,126 INFO scheduler Scheduled Job Start: frappe.website.doctype.web_page.web_page.check_publish_status for newbench.new
2021-12-23 16:15:29,883 INFO scheduler Scheduled Job Complete: frappe.website.doctype.web_page.web_page.check_publish_status for newbench.new
2021-12-23 16:15:30,100 INFO scheduler Scheduled Job Start: frappe.oauth.delete_oauth2_data for newbench.new
2021-12-23 16:15:30,805 INFO scheduler Scheduled Job Complete: frappe.oauth.delete_oauth2_data for newbench.new
2021-12-23 16:16:28,432 INFO scheduler Scheduled Job Start: erpnext.crm.doctype.social_media_post.social_media_post.process_scheduled_social_media_posts for newbench.new
2021-12-23 16:16:28,622 DEBUG scheduler Queued events for site newbench.new
2021-12-23 16:16:28,945 INFO scheduler Scheduled Job Complete: erpnext.crm.doctype.social_media_post.social_media_post.process_scheduled_social_media_posts for newbench.new
2021-12-23 16:16:29,111 INFO scheduler Scheduled Job Start: erpnext.hr.doctype.interview.interview.send_interview_reminder for newbench.new
2021-12-23 16:16:29,625 INFO scheduler Scheduled Job Complete: erpnext.hr.doctype.interview.interview.send_interview_reminder for newbench.new
2021-12-23 16:16:29,774 INFO scheduler Scheduled Job Start: erpnext.healthcare.doctype.patient_appointment.patient_appointment.send_appointment_reminder for newbench.new
2021-12-23 16:16:30,226 INFO scheduler Scheduled Job Complete: erpnext.healthcare.doctype.patient_appointment.patient_appointment.send_appointment_reminder for newbench.new
2021-12-23 16:16:30,376 INFO scheduler Scheduled Job Start: erpnext.projects.doctype.project.project.project_status_update_reminder for newbench.new
2021-12-23 16:16:31,098 INFO scheduler Scheduled Job Complete: erpnext.projects.doctype.project.project.project_status_update_reminder for newbench.new
2021-12-23 16:16:31,254 INFO scheduler Scheduled Job Start: frappe.monitor.flush for newbench.new
2021-12-23 16:16:31,704 INFO scheduler Scheduled Job Complete: frappe.monitor.flush for newbench.new
2021-12-23 16:16:31,853 INFO scheduler Scheduled Job Start: frappe.utils.global_search.sync_global_search for newbench.new
2021-12-23 16:16:32,267 INFO scheduler Scheduled Job Complete: frappe.utils.global_search.sync_global_search for newbench.new
2021-12-23 16:16:32,442 INFO scheduler Scheduled Job Start: frappe.integrations.doctype.razorpay_settings.razorpay_settings.capture_payment for newbench.new
2021-12-23 16:16:33,247 INFO scheduler Scheduled Job Complete: frappe.integrations.doctype.razorpay_settings.razorpay_settings.capture_payment for newbench.new
2021-12-23 16:16:33,395 INFO scheduler Scheduled Job Start: frappe.email.doctype.email_account.email_account.notify_unreplied for newbench.new
2021-12-23 16:16:33,948 INFO scheduler Scheduled Job Complete: frappe.email.doctype.email_account.email_account.notify_unreplied for newbench.new
2021-12-23 16:16:34,094 INFO scheduler Scheduled Job Start: frappe.email.doctype.email_account.email_account.pull for newbench.new
2021-12-23 16:16:34,668 INFO scheduler Scheduled Job Complete: frappe.email.doctype.email_account.email_account.pull for newbench.new
2021-12-23 16:16:34,815 INFO scheduler Scheduled Job Start: frappe.email.queue.flush for newbench.new
2021-12-23 16:16:35,249 INFO scheduler Scheduled Job Complete: frappe.email.queue.flush for newbench.new
2021-12-23 16:17:29,394 DEBUG scheduler Queued events for site newbench.new
2021-12-23 16:18:30,209 DEBUG scheduler Queued events for site newbench.new
2021-12-23 16:19:30,988 DEBUG scheduler Queued events for site newbench.new
2021-12-23 16:20:31,789 DEBUG scheduler Queued events for site newbench.new
2021-12-23 16:20:33,094 INFO scheduler Scheduled Job Start: erpnext.crm.doctype.social_media_post.social_media_post.process_scheduled_social_media_posts for newbench.new
2021-12-23 16:20:35,686 INFO scheduler Scheduled Job Complete: erpnext.crm.doctype.social_media_post.social_media_post.process_scheduled_social_media_posts for newbench.new
2021-12-23 16:20:35,863 INFO scheduler Scheduled Job Start: erpnext.hr.doctype.interview.interview.send_interview_reminder for newbench.new
2021-12-23 16:20:36,659 INFO scheduler Scheduled Job Complete: erpnext.hr.doctype.interview.interview.send_interview_reminder for newbench.new
2021-12-23 16:20:36,814 INFO scheduler Scheduled Job Start: erpnext.healthcare.doctype.patient_appointment.patient_appointment.send_appointment_reminder for newbench.new
2021-12-23 16:20:38,017 INFO scheduler Scheduled Job Complete: erpnext.healthcare.doctype.patient_appointment.patient_appointment.send_appointment_reminder for newbench.new
2021-12-23 16:20:38,174 INFO scheduler Scheduled Job Start: erpnext.projects.doctype.project.project.project_status_update_reminder for newbench.new
2021-12-23 16:20:40,290 INFO scheduler Scheduled Job Complete: erpnext.projects.doctype.project.project.project_status_update_reminder for newbench.new
2021-12-23 16:20:40,452 INFO scheduler Scheduled Job Start: frappe.monitor.flush for newbench.new
2021-12-23 16:20:41,009 INFO scheduler Scheduled Job Complete: frappe.monitor.flush for newbench.new
2021-12-23 16:20:41,256 INFO scheduler Scheduled Job Start: frappe.utils.global_search.sync_global_search for newbench.new
2021-12-23 16:20:41,761 INFO scheduler Scheduled Job Complete: frappe.utils.global_search.sync_global_search for newbench.new
2021-12-23 16:20:41,918 INFO scheduler Scheduled Job Start: frappe.integrations.doctype.razorpay_settings.razorpay_settings.capture_payment for newbench.new
2021-12-23 16:20:44,595 INFO scheduler Scheduled Job Complete: frappe.integrations.doctype.razorpay_settings.razorpay_settings.capture_payment for newbench.new
2021-12-23 16:20:44,742 INFO scheduler Scheduled Job Start: frappe.email.doctype.email_account.email_account.notify_unreplied for newbench.new
2021-12-23 16:20:45,624 INFO scheduler Scheduled Job Complete: frappe.email.doctype.email_account.email_account.notify_unreplied for newbench.new
2021-12-23 16:20:45,778 INFO scheduler Scheduled Job Start: frappe.email.doctype.email_account.email_account.pull for newbench.new
2021-12-23 16:20:46,486 INFO scheduler Scheduled Job Complete: frappe.email.doctype.email_account.email_account.pull for newbench.new
2021-12-23 16:20:46,637 INFO scheduler Scheduled Job Start: frappe.email.queue.flush for newbench.new
2021-12-23 16:20:47,184 INFO scheduler Scheduled Job Complete: frappe.email.queue.flush for newbench.new
2021-12-23 16:21:32,486 DEBUG scheduler Queued events for site newbench.new
2021-12-23 16:22:33,157 DEBUG scheduler Queued events for site newbench.new
2021-12-23 16:23:33,836 DEBUG scheduler Queued events for site newbench.new
2021-12-23 16:24:34,463 INFO scheduler Scheduled Job Start: erpnext.crm.doctype.social_media_post.social_media_post.process_scheduled_social_media_posts for newbench.new
2021-12-23 16:24:34,662 DEBUG scheduler Queued events for site newbench.new
2021-12-23 16:24:35,005 INFO scheduler Scheduled Job Complete: erpnext.crm.doctype.social_media_post.social_media_post.process_scheduled_social_media_posts for newbench.new
2021-12-23 16:24:35,160 INFO scheduler Scheduled Job Start: erpnext.hr.doctype.interview.interview.send_interview_reminder for newbench.new
2021-12-23 16:24:35,823 INFO scheduler Scheduled Job Complete: erpnext.hr.doctype.interview.interview.send_interview_reminder for newbench.new
2021-12-23 16:24:35,983 INFO scheduler Scheduled Job Start: erpnext.healthcare.doctype.patient_appointment.patient_appointment.send_appointment_reminder for newbench.new
2021-12-23 16:24:36,501 INFO scheduler Scheduled Job Complete: erpnext.healthcare.doctype.patient_appointment.patient_appointment.send_appointment_reminder for newbench.new
2021-12-23 16:24:36,653 INFO scheduler Scheduled Job Start: erpnext.projects.doctype.project.project.project_status_update_reminder for newbench.new
2021-12-23 16:24:37,570 INFO scheduler Scheduled Job Complete: erpnext.projects.doctype.project.project.project_status_update_reminder for newbench.new
2021-12-23 16:24:37,778 INFO scheduler Scheduled Job Start: frappe.monitor.flush for newbench.new
2021-12-23 16:24:38,267 INFO scheduler Scheduled Job Complete: frappe.monitor.flush for newbench.new
2021-12-23 16:24:38,442 INFO scheduler Scheduled Job Start: frappe.utils.global_search.sync_global_search for newbench.new
2021-12-23 16:24:39,378 INFO scheduler Scheduled Job Complete: frappe.utils.global_search.sync_global_search for newbench.new
2021-12-23 16:24:39,532 INFO scheduler Scheduled Job Start: frappe.integrations.doctype.razorpay_settings.razorpay_settings.capture_payment for newbench.new
2021-12-23 16:24:40,351 INFO scheduler Scheduled Job Complete: frappe.integrations.doctype.razorpay_settings.razorpay_settings.capture_payment for newbench.new
2021-12-23 16:24:40,498 INFO scheduler Scheduled Job Start: frappe.email.doctype.email_account.email_account.notify_unreplied for newbench.new
2021-12-23 16:24:41,253 INFO scheduler Scheduled Job Complete: frappe.email.doctype.email_account.email_account.notify_unreplied for newbench.new
2021-12-23 16:24:41,410 INFO scheduler Scheduled Job Start: frappe.email.doctype.email_account.email_account.pull for newbench.new
2021-12-23 16:24:42,034 INFO scheduler Scheduled Job Complete: frappe.email.doctype.email_account.email_account.pull for newbench.new
2021-12-23 16:24:42,189 INFO scheduler Scheduled Job Start: frappe.email.queue.flush for newbench.new
2021-12-23 16:24:42,653 INFO scheduler Scheduled Job Complete: frappe.email.queue.flush for newbench.new
2021-12-23 16:25:35,339 DEBUG scheduler Queued events for site newbench.new
2021-12-23 16:26:36,000 DEBUG scheduler Queued events for site newbench.new
2021-12-23 16:27:36,687 DEBUG scheduler Queued events for site newbench.new
2021-12-23 16:28:37,286 INFO scheduler Scheduled Job Start: erpnext.crm.doctype.social_media_post.social_media_post.process_scheduled_social_media_posts for newbench.new
2021-12-23 16:28:37,478 DEBUG scheduler Queued events for site newbench.new
2021-12-23 16:28:37,796 INFO scheduler Scheduled Job Complete: erpnext.crm.doctype.social_media_post.social_media_post.process_scheduled_social_media_posts for newbench.new
2021-12-23 16:28:37,960 INFO scheduler Scheduled Job Start: erpnext.hr.doctype.interview.interview.send_interview_reminder for newbench.new
2021-12-23 16:28:38,480 INFO scheduler Scheduled Job Complete: erpnext.hr.doctype.interview.interview.send_interview_reminder for newbench.new
2021-12-23 16:28:38,635 INFO scheduler Scheduled Job Start: erpnext.healthcare.doctype.patient_appointment.patient_appointment.send_appointment_reminder for newbench.new
2021-12-23 16:28:39,120 INFO scheduler Scheduled Job Complete: erpnext.healthcare.doctype.patient_appointment.patient_appointment.send_appointment_reminder for newbench.new
2021-12-23 16:28:39,265 INFO scheduler Scheduled Job Start: erpnext.projects.doctype.project.project.project_status_update_reminder for newbench.new
2021-12-23 16:28:39,974 INFO scheduler Scheduled Job Complete: erpnext.projects.doctype.project.project.project_status_update_reminder for newbench.new
2021-12-23 16:28:40,122 INFO scheduler Scheduled Job Start: frappe.monitor.flush for newbench.new
2021-12-23 16:28:40,521 INFO scheduler Scheduled Job Complete: frappe.monitor.flush for newbench.new
2021-12-23 16:28:40,668 INFO scheduler Scheduled Job Start: frappe.utils.global_search.sync_global_search for newbench.new
2021-12-23 16:28:41,065 INFO scheduler Scheduled Job Complete: frappe.utils.global_search.sync_global_search for newbench.new
2021-12-23 16:28:41,217 INFO scheduler Scheduled Job Start: frappe.integrations.doctype.razorpay_settings.razorpay_settings.capture_payment for newbench.new
2021-12-23 16:28:41,917 INFO scheduler Scheduled Job Complete: frappe.integrations.doctype.razorpay_settings.razorpay_settings.capture_payment for newbench.new
2021-12-23 16:28:42,066 INFO scheduler Scheduled Job Start: frappe.email.doctype.email_account.email_account.notify_unreplied for newbench.new
2021-12-23 16:28:42,646 INFO scheduler Scheduled Job Complete: frappe.email.doctype.email_account.email_account.notify_unreplied for newbench.new
2021-12-23 16:28:42,799 INFO scheduler Scheduled Job Start: frappe.email.doctype.email_account.email_account.pull for newbench.new
2021-12-23 16:28:43,398 INFO scheduler Scheduled Job Complete: frappe.email.doctype.email_account.email_account.pull for newbench.new
2021-12-23 16:28:43,548 INFO scheduler Scheduled Job Start: frappe.email.queue.flush for newbench.new
2021-12-23 16:28:44,074 INFO scheduler Scheduled Job Complete: frappe.email.queue.flush for newbench.new
2021-12-23 16:29:38,143 DEBUG scheduler Queued events for site newbench.new
2021-12-23 16:30:38,761 INFO scheduler Scheduled Job Start: erpnext.utilities.doctype.video.video.update_youtube_data for newbench.new
2021-12-23 16:30:38,866 DEBUG scheduler Queued events for site newbench.new
2021-12-23 16:30:40,884 INFO scheduler Scheduled Job Complete: erpnext.utilities.doctype.video.video.update_youtube_data for newbench.new
2021-12-23 16:30:41,139 INFO scheduler Scheduled Job Start: frappe.twofactor.delete_all_barcodes_for_users for newbench.new
2021-12-23 16:30:42,032 INFO scheduler Scheduled Job Complete: frappe.twofactor.delete_all_barcodes_for_users for newbench.new
2021-12-23 16:30:42,251 INFO scheduler Scheduled Job Start: frappe.website.doctype.web_page.web_page.check_publish_status for newbench.new
2021-12-23 16:30:43,219 INFO scheduler Scheduled Job Complete: frappe.website.doctype.web_page.web_page.check_publish_status for newbench.new
2021-12-23 16:30:43,442 INFO scheduler Scheduled Job Start: frappe.oauth.delete_oauth2_data for newbench.new
2021-12-23 16:30:44,192 INFO scheduler Scheduled Job Complete: frappe.oauth.delete_oauth2_data for newbench.new
2021-12-23 16:31:39,570 DEBUG scheduler Queued events for site newbench.new
2021-12-23 16:32:40,206 INFO scheduler Scheduled Job Start: erpnext.crm.doctype.social_media_post.social_media_post.process_scheduled_social_media_posts for newbench.new
2021-12-23 16:32:40,455 DEBUG scheduler Queued events for site newbench.new
2021-12-23 16:32:40,785 INFO scheduler Scheduled Job Complete: erpnext.crm.doctype.social_media_post.social_media_post.process_scheduled_social_media_posts for newbench.new
2021-12-23 16:32:40,935 INFO scheduler Scheduled Job Start: erpnext.hr.doctype.interview.interview.send_interview_reminder for newbench.new
2021-12-23 16:32:41,553 INFO scheduler Scheduled Job Complete: erpnext.hr.doctype.interview.interview.send_interview_reminder for newbench.new
2021-12-23 16:32:41,734 INFO scheduler Scheduled Job Start: erpnext.healthcare.doctype.patient_appointment.patient_appointment.send_appointment_reminder for newbench.new
2021-12-23 16:32:42,229 INFO scheduler Scheduled Job Complete: erpnext.healthcare.doctype.patient_appointment.patient_appointment.send_appointment_reminder for newbench.new
2021-12-23 16:32:42,416 INFO scheduler Scheduled Job Start: erpnext.projects.doctype.project.project.project_status_update_reminder for newbench.new
2021-12-23 16:32:43,212 INFO scheduler Scheduled Job Complete: erpnext.projects.doctype.project.project.project_status_update_reminder for newbench.new
2021-12-23 16:32:43,384 INFO scheduler Scheduled Job Start: frappe.monitor.flush for newbench.new
2021-12-23 16:32:43,873 INFO scheduler Scheduled Job Complete: frappe.monitor.flush for newbench.new
2021-12-23 16:32:44,071 INFO scheduler Scheduled Job Start: frappe.utils.global_search.sync_global_search for newbench.new
2021-12-23 16:32:44,517 INFO scheduler Scheduled Job Complete: frappe.utils.global_search.sync_global_search for newbench.new
2021-12-23 16:32:44,675 INFO scheduler Scheduled Job Start: frappe.integrations.doctype.razorpay_settings.razorpay_settings.capture_payment for newbench.new
2021-12-23 16:32:45,420 INFO scheduler Scheduled Job Complete: frappe.integrations.doctype.razorpay_settings.razorpay_settings.capture_payment for newbench.new
2021-12-23 16:32:45,570 INFO scheduler Scheduled Job Start: frappe.email.doctype.email_account.email_account.notify_unreplied for newbench.new
2021-12-23 16:32:46,258 INFO scheduler Scheduled Job Complete: frappe.email.doctype.email_account.email_account.notify_unreplied for newbench.new
2021-12-23 16:32:46,416 INFO scheduler Scheduled Job Start: frappe.email.doctype.email_account.email_account.pull for newbench.new
2021-12-23 16:32:47,011 INFO scheduler Scheduled Job Complete: frappe.email.doctype.email_account.email_account.pull for newbench.new
2021-12-23 16:32:47,163 INFO scheduler Scheduled Job Start: frappe.email.queue.flush for newbench.new
2021-12-23 16:32:47,624 INFO scheduler Scheduled Job Complete: frappe.email.queue.flush for newbench.new
2021-12-23 16:33:41,102 DEBUG scheduler Queued events for site newbench.new
2021-12-23 16:34:41,801 DEBUG scheduler Queued events for site newbench.new
2021-12-23 16:35:42,464 DEBUG scheduler Queued events for site newbench.new
2021-12-23 16:36:43,066 INFO scheduler Scheduled Job Start: erpnext.crm.doctype.social_media_post.social_media_post.process_scheduled_social_media_posts for newbench.new
2021-12-23 16:36:43,331 DEBUG scheduler Queued events for site newbench.new
2021-12-23 16:36:43,614 INFO scheduler Scheduled Job Complete: erpnext.crm.doctype.social_media_post.social_media_post.process_scheduled_social_media_posts for newbench.new
2021-12-23 16:36:43,772 INFO scheduler Scheduled Job Start: erpnext.hr.doctype.interview.interview.send_interview_reminder for newbench.new
2021-12-23 16:36:44,356 INFO scheduler Scheduled Job Complete: erpnext.hr.doctype.interview.interview.send_interview_reminder for newbench.new
2021-12-23 16:36:44,505 INFO scheduler Scheduled Job Start: erpnext.healthcare.doctype.patient_appointment.patient_appointment.send_appointment_reminder for newbench.new
2021-12-23 16:36:45,005 INFO scheduler Scheduled Job Complete: erpnext.healthcare.doctype.patient_appointment.patient_appointment.send_appointment_reminder for newbench.new
2021-12-23 16:36:45,151 INFO scheduler Scheduled Job Start: erpnext.projects.doctype.project.project.project_status_update_reminder for newbench.new
2021-12-23 16:36:45,932 INFO scheduler Scheduled Job Complete: erpnext.projects.doctype.project.project.project_status_update_reminder for newbench.new
2021-12-23 16:36:46,103 INFO scheduler Scheduled Job Start: frappe.monitor.flush for newbench.new
2021-12-23 16:36:46,560 INFO scheduler Scheduled Job Complete: frappe.monitor.flush for newbench.new
2021-12-23 16:36:46,714 INFO scheduler Scheduled Job Start: frappe.utils.global_search.sync_global_search for newbench.new
2021-12-23 16:36:47,284 INFO scheduler Scheduled Job Complete: frappe.utils.global_search.sync_global_search for newbench.new
2021-12-23 16:36:47,440 INFO scheduler Scheduled Job Start: frappe.integrations.doctype.razorpay_settings.razorpay_settings.capture_payment for newbench.new
2021-12-23 16:36:48,283 INFO scheduler Scheduled Job Complete: frappe.integrations.doctype.razorpay_settings.razorpay_settings.capture_payment for newbench.new
2021-12-23 16:36:48,473 INFO scheduler Scheduled Job Start: frappe.email.doctype.email_account.email_account.notify_unreplied for newbench.new
2021-12-23 16:36:49,203 INFO scheduler Scheduled Job Complete: frappe.email.doctype.email_account.email_account.notify_unreplied for newbench.new
2021-12-23 16:36:49,373 INFO scheduler Scheduled Job Start: frappe.email.doctype.email_account.email_account.pull for newbench.new
2021-12-23 16:36:50,104 INFO scheduler Scheduled Job Complete: frappe.email.doctype.email_account.email_account.pull for newbench.new
2021-12-23 16:36:50,303 INFO scheduler Scheduled Job Start: frappe.email.queue.flush for newbench.new
2021-12-23 16:36:50,799 INFO scheduler Scheduled Job Complete: frappe.email.queue.flush for newbench.new
2021-12-23 16:37:44,098 DEBUG scheduler Queued events for site newbench.new
2021-12-23 16:38:44,771 DEBUG scheduler Queued events for site newbench.new
2021-12-23 16:39:45,465 DEBUG scheduler Queued events for site newbench.new
2021-12-23 16:40:46,141 INFO scheduler Scheduled Job Start: erpnext.crm.doctype.social_media_post.social_media_post.process_scheduled_social_media_posts for newbench.new
2021-12-23 16:40:46,356 DEBUG scheduler Queued events for site newbench.new
2021-12-23 16:40:46,702 INFO scheduler Scheduled Job Complete: erpnext.crm.doctype.social_media_post.social_media_post.process_scheduled_social_media_posts for newbench.new
2021-12-23 16:40:46,859 INFO scheduler Scheduled Job Start: erpnext.hr.doctype.interview.interview.send_interview_reminder for newbench.new
2021-12-23 16:40:47,412 INFO scheduler Scheduled Job Complete: erpnext.hr.doctype.interview.interview.send_interview_reminder for newbench.new
2021-12-23 16:40:47,563 INFO scheduler Scheduled Job Start: erpnext.healthcare.doctype.patient_appointment.patient_appointment.send_appointment_reminder for newbench.new
2021-12-23 16:40:48,051 INFO scheduler Scheduled Job Complete: erpnext.healthcare.doctype.patient_appointment.patient_appointment.send_appointment_reminder for newbench.new
2021-12-23 16:40:48,225 INFO scheduler Scheduled Job Start: erpnext.projects.doctype.project.project.project_status_update_reminder for newbench.new
2021-12-23 16:40:49,055 INFO scheduler Scheduled Job Complete: erpnext.projects.doctype.project.project.project_status_update_reminder for newbench.new
2021-12-23 16:40:49,242 INFO scheduler Scheduled Job Start: frappe.monitor.flush for newbench.new
2021-12-23 16:40:49,698 INFO scheduler Scheduled Job Complete: frappe.monitor.flush for newbench.new
2021-12-23 16:40:49,851 INFO scheduler Scheduled Job Start: frappe.utils.global_search.sync_global_search for newbench.new
2021-12-23 16:40:50,349 INFO scheduler Scheduled Job Complete: frappe.utils.global_search.sync_global_search for newbench.new
2021-12-23 16:40:50,503 INFO scheduler Scheduled Job Start: frappe.integrations.doctype.razorpay_settings.razorpay_settings.capture_payment for newbench.new
2021-12-23 16:40:51,237 INFO scheduler Scheduled Job Complete: frappe.integrations.doctype.razorpay_settings.razorpay_settings.capture_payment for newbench.new
2021-12-23 16:40:51,382 INFO scheduler Scheduled Job Start: frappe.email.doctype.email_account.email_account.notify_unreplied for newbench.new
2021-12-23 16:40:51,957 INFO scheduler Scheduled Job Complete: frappe.email.doctype.email_account.email_account.notify_unreplied for newbench.new
2021-12-23 16:40:52,101 INFO scheduler Scheduled Job Start: frappe.email.doctype.email_account.email_account.pull for newbench.new
2021-12-23 16:40:52,769 INFO scheduler Scheduled Job Complete: frappe.email.doctype.email_account.email_account.pull for newbench.new
2021-12-23 16:40:52,919 INFO scheduler Scheduled Job Start: frappe.email.queue.flush for newbench.new
2021-12-23 16:40:53,363 INFO scheduler Scheduled Job Complete: frappe.email.queue.flush for newbench.new
2021-12-23 16:41:47,010 DEBUG scheduler Queued events for site newbench.new
2021-12-23 16:42:47,695 DEBUG scheduler Queued events for site newbench.new
2021-12-23 16:43:48,346 DEBUG scheduler Queued events for site newbench.new
2021-12-23 16:44:48,935 INFO scheduler Scheduled Job Start: erpnext.crm.doctype.social_media_post.social_media_post.process_scheduled_social_media_posts for newbench.new
2021-12-23 16:44:49,143 DEBUG scheduler Queued events for site newbench.new
2021-12-23 16:44:49,515 INFO scheduler Scheduled Job Complete: erpnext.crm.doctype.social_media_post.social_media_post.process_scheduled_social_media_posts for newbench.new
2021-12-23 16:44:49,670 INFO scheduler Scheduled Job Start: erpnext.hr.doctype.interview.interview.send_interview_reminder for newbench.new
2021-12-23 16:44:50,254 INFO scheduler Scheduled Job Complete: erpnext.hr.doctype.interview.interview.send_interview_reminder for newbench.new
2021-12-23 16:44:50,404 INFO scheduler Scheduled Job Start: erpnext.healthcare.doctype.patient_appointment.patient_appointment.send_appointment_reminder for newbench.new
2021-12-23 16:44:50,946 INFO scheduler Scheduled Job Complete: erpnext.healthcare.doctype.patient_appointment.patient_appointment.send_appointment_reminder for newbench.new
2021-12-23 16:44:51,095 INFO scheduler Scheduled Job Start: erpnext.projects.doctype.project.project.project_status_update_reminder for newbench.new
2021-12-23 16:44:51,842 INFO scheduler Scheduled Job Complete: erpnext.projects.doctype.project.project.project_status_update_reminder for newbench.new
2021-12-23 16:44:51,992 INFO scheduler Scheduled Job Start: frappe.monitor.flush for newbench.new
2021-12-23 16:44:52,430 INFO scheduler Scheduled Job Complete: frappe.monitor.flush for newbench.new
2021-12-23 16:44:52,583 INFO scheduler Scheduled Job Start: frappe.utils.global_search.sync_global_search for newbench.new
2021-12-23 16:44:53,040 INFO scheduler Scheduled Job Complete: frappe.utils.global_search.sync_global_search for newbench.new
2021-12-23 16:44:53,193 INFO scheduler Scheduled Job Start: frappe.integrations.doctype.razorpay_settings.razorpay_settings.capture_payment for newbench.new
2021-12-23 16:44:53,928 INFO scheduler Scheduled Job Complete: frappe.integrations.doctype.razorpay_settings.razorpay_settings.capture_payment for newbench.new
2021-12-23 16:44:54,078 INFO scheduler Scheduled Job Start: frappe.email.doctype.email_account.email_account.notify_unreplied for newbench.new
2021-12-23 16:44:54,677 INFO scheduler Scheduled Job Complete: frappe.email.doctype.email_account.email_account.notify_unreplied for newbench.new
2021-12-23 16:44:54,824 INFO scheduler Scheduled Job Start: frappe.email.doctype.email_account.email_account.pull for newbench.new
2021-12-23 16:44:55,427 INFO scheduler Scheduled Job Complete: frappe.email.doctype.email_account.email_account.pull for newbench.new
2021-12-23 16:44:55,576 INFO scheduler Scheduled Job Start: frappe.email.queue.flush for newbench.new
2021-12-23 16:44:56,020 INFO scheduler Scheduled Job Complete: frappe.email.queue.flush for newbench.new
2021-12-23 16:45:49,855 DEBUG scheduler Queued events for site newbench.new
2021-12-23 16:45:49,970 INFO scheduler Scheduled Job Start: frappe.twofactor.delete_all_barcodes_for_users for newbench.new
2021-12-23 16:45:50,750 INFO scheduler Scheduled Job Complete: frappe.twofactor.delete_all_barcodes_for_users for newbench.new
2021-12-23 16:45:50,987 INFO scheduler Scheduled Job Start: frappe.website.doctype.web_page.web_page.check_publish_status for newbench.new
2021-12-23 16:45:51,791 INFO scheduler Scheduled Job Complete: frappe.website.doctype.web_page.web_page.check_publish_status for newbench.new
2021-12-23 16:45:52,091 INFO scheduler Scheduled Job Start: frappe.oauth.delete_oauth2_data for newbench.new
2021-12-23 16:45:52,791 INFO scheduler Scheduled Job Complete: frappe.oauth.delete_oauth2_data for newbench.new
2021-12-23 16:46:50,515 DEBUG scheduler Queued events for site newbench.new
2021-12-23 16:47:51,200 DEBUG scheduler Queued events for site newbench.new
2021-12-23 16:48:51,789 INFO scheduler Scheduled Job Start: erpnext.crm.doctype.social_media_post.social_media_post.process_scheduled_social_media_posts for newbench.new
2021-12-23 16:48:51,991 DEBUG scheduler Queued events for site newbench.new
2021-12-23 16:48:52,327 INFO scheduler Scheduled Job Complete: erpnext.crm.doctype.social_media_post.social_media_post.process_scheduled_social_media_posts for newbench.new
2021-12-23 16:48:52,472 INFO scheduler Scheduled Job Start: erpnext.hr.doctype.interview.interview.send_interview_reminder for newbench.new
2021-12-23 16:48:53,116 INFO scheduler Scheduled Job Complete: erpnext.hr.doctype.interview.interview.send_interview_reminder for newbench.new
2021-12-23 16:48:53,265 INFO scheduler Scheduled Job Start: erpnext.healthcare.doctype.patient_appointment.patient_appointment.send_appointment_reminder for newbench.new
2021-12-23 16:48:53,750 INFO scheduler Scheduled Job Complete: erpnext.healthcare.doctype.patient_appointment.patient_appointment.send_appointment_reminder for newbench.new
2021-12-23 16:48:53,904 INFO scheduler Scheduled Job Start: erpnext.projects.doctype.project.project.project_status_update_reminder for newbench.new
2021-12-23 16:48:54,798 INFO scheduler Scheduled Job Complete: erpnext.projects.doctype.project.project.project_status_update_reminder for newbench.new
2021-12-23 16:48:54,947 INFO scheduler Scheduled Job Start: frappe.monitor.flush for newbench.new
2021-12-23 16:48:55,584 INFO scheduler Scheduled Job Complete: frappe.monitor.flush for newbench.new
2021-12-23 16:48:55,738 INFO scheduler Scheduled Job Start: frappe.utils.global_search.sync_global_search for newbench.new
2021-12-23 16:48:56,205 INFO scheduler Scheduled Job Complete: frappe.utils.global_search.sync_global_search for newbench.new
2021-12-23 16:48:56,359 INFO scheduler Scheduled Job Start: frappe.integrations.doctype.razorpay_settings.razorpay_settings.capture_payment for newbench.new
2021-12-23 16:48:57,076 INFO scheduler Scheduled Job Complete: frappe.integrations.doctype.razorpay_settings.razorpay_settings.capture_payment for newbench.new
2021-12-23 16:48:57,226 INFO scheduler Scheduled Job Start: frappe.email.doctype.email_account.email_account.notify_unreplied for newbench.new
2021-12-23 16:48:57,803 INFO scheduler Scheduled Job Complete: frappe.email.doctype.email_account.email_account.notify_unreplied for newbench.new
2021-12-23 16:48:57,951 INFO scheduler Scheduled Job Start: frappe.email.doctype.email_account.email_account.pull for newbench.new
2021-12-23 16:48:58,724 INFO scheduler Scheduled Job Complete: frappe.email.doctype.email_account.email_account.pull for newbench.new
2021-12-23 16:48:58,874 INFO scheduler Scheduled Job Start: frappe.email.queue.flush for newbench.new
2021-12-23 16:48:59,343 INFO scheduler Scheduled Job Complete: frappe.email.queue.flush for newbench.new
2021-12-23 16:49:52,648 DEBUG scheduler Queued events for site newbench.new
2021-12-23 16:50:53,359 DEBUG scheduler Queued events for site newbench.new
2021-12-23 16:51:54,082 DEBUG scheduler Queued events for site newbench.new
2021-12-23 16:52:54,729 INFO scheduler Scheduled Job Start: erpnext.crm.doctype.social_media_post.social_media_post.process_scheduled_social_media_posts for newbench.new
2021-12-23 16:52:54,895 DEBUG scheduler Queued events for site newbench.new
2021-12-23 16:52:55,367 INFO scheduler Scheduled Job Complete: erpnext.crm.doctype.social_media_post.social_media_post.process_scheduled_social_media_posts for newbench.new
2021-12-23 16:52:55,550 INFO scheduler Scheduled Job Start: erpnext.hr.doctype.interview.interview.send_interview_reminder for newbench.new
2021-12-23 16:52:56,140 INFO scheduler Scheduled Job Complete: erpnext.hr.doctype.interview.interview.send_interview_reminder for newbench.new
2021-12-23 16:52:56,288 INFO scheduler Scheduled Job Start: erpnext.healthcare.doctype.patient_appointment.patient_appointment.send_appointment_reminder for newbench.new
2021-12-23 16:52:56,774 INFO scheduler Scheduled Job Complete: erpnext.healthcare.doctype.patient_appointment.patient_appointment.send_appointment_reminder for newbench.new
2021-12-23 16:52:56,925 INFO scheduler Scheduled Job Start: erpnext.projects.doctype.project.project.project_status_update_reminder for newbench.new
2021-12-23 16:52:57,780 INFO scheduler Scheduled Job Complete: erpnext.projects.doctype.project.project.project_status_update_reminder for newbench.new
2021-12-23 16:52:57,944 INFO scheduler Scheduled Job Start: frappe.monitor.flush for newbench.new
2021-12-23 16:52:58,476 INFO scheduler Scheduled Job Complete: frappe.monitor.flush for newbench.new
2021-12-23 16:52:58,628 INFO scheduler Scheduled Job Start: frappe.utils.global_search.sync_global_search for newbench.new
2021-12-23 16:52:59,168 INFO scheduler Scheduled Job Complete: frappe.utils.global_search.sync_global_search for newbench.new
2021-12-23 16:52:59,320 INFO scheduler Scheduled Job Start: frappe.integrations.doctype.razorpay_settings.razorpay_settings.capture_payment for newbench.new
2021-12-23 16:53:00,054 INFO scheduler Scheduled Job Complete: frappe.integrations.doctype.razorpay_settings.razorpay_settings.capture_payment for newbench.new
2021-12-23 16:53:00,202 INFO scheduler Scheduled Job Start: frappe.email.doctype.email_account.email_account.notify_unreplied for newbench.new
2021-12-23 16:53:00,775 INFO scheduler Scheduled Job Complete: frappe.email.doctype.email_account.email_account.notify_unreplied for newbench.new
2021-12-23 16:53:00,932 INFO scheduler Scheduled Job Start: frappe.email.doctype.email_account.email_account.pull for newbench.new
2021-12-23 16:53:01,546 INFO scheduler Scheduled Job Complete: frappe.email.doctype.email_account.email_account.pull for newbench.new
2021-12-23 16:53:01,702 INFO scheduler Scheduled Job Start: frappe.email.queue.flush for newbench.new
2021-12-23 16:53:02,184 INFO scheduler Scheduled Job Complete: frappe.email.queue.flush for newbench.new
2021-12-23 16:53:55,621 DEBUG scheduler Queued events for site newbench.new
2021-12-23 16:54:56,343 DEBUG scheduler Queued events for site newbench.new
2021-12-23 16:55:57,029 DEBUG scheduler Queued events for site newbench.new
2021-12-23 16:56:57,853 DEBUG scheduler Queued events for site newbench.new
2021-12-23 16:56:57,883 INFO scheduler Scheduled Job Start: erpnext.crm.doctype.social_media_post.social_media_post.process_scheduled_social_media_posts for newbench.new
2021-12-23 16:56:59,010 INFO scheduler Scheduled Job Complete: erpnext.crm.doctype.social_media_post.social_media_post.process_scheduled_social_media_posts for newbench.new
2021-12-23 16:56:59,166 INFO scheduler Scheduled Job Start: erpnext.hr.doctype.interview.interview.send_interview_reminder for newbench.new
2021-12-23 16:56:59,804 INFO scheduler Scheduled Job Complete: erpnext.hr.doctype.interview.interview.send_interview_reminder for newbench.new
2021-12-23 16:57:00,021 INFO scheduler Scheduled Job Start: erpnext.healthcare.doctype.patient_appointment.patient_appointment.send_appointment_reminder for newbench.new
2021-12-23 16:57:00,696 INFO scheduler Scheduled Job Complete: erpnext.healthcare.doctype.patient_appointment.patient_appointment.send_appointment_reminder for newbench.new
2021-12-23 16:57:00,854 INFO scheduler Scheduled Job Start: erpnext.projects.doctype.project.project.project_status_update_reminder for newbench.new
2021-12-23 16:57:01,735 INFO scheduler Scheduled Job Complete: erpnext.projects.doctype.project.project.project_status_update_reminder for newbench.new
2021-12-23 16:57:01,892 INFO scheduler Scheduled Job Start: frappe.monitor.flush for newbench.new
2021-12-23 16:57:02,376 INFO scheduler Scheduled Job Complete: frappe.monitor.flush for newbench.new
2021-12-23 16:57:02,545 INFO scheduler Scheduled Job Start: frappe.utils.global_search.sync_global_search for newbench.new
2021-12-23 16:57:02,985 INFO scheduler Scheduled Job Complete: frappe.utils.global_search.sync_global_search for newbench.new
2021-12-23 16:57:03,141 INFO scheduler Scheduled Job Start: frappe.integrations.doctype.razorpay_settings.razorpay_settings.capture_payment for newbench.new
2021-12-23 16:57:04,029 INFO scheduler Scheduled Job Complete: frappe.integrations.doctype.razorpay_settings.razorpay_settings.capture_payment for newbench.new
2021-12-23 16:57:04,187 INFO scheduler Scheduled Job Start: frappe.email.doctype.email_account.email_account.notify_unreplied for newbench.new
2021-12-23 16:57:04,996 INFO scheduler Scheduled Job Complete: frappe.email.doctype.email_account.email_account.notify_unreplied for newbench.new
2021-12-23 16:57:05,151 INFO scheduler Scheduled Job Start: frappe.email.doctype.email_account.email_account.pull for newbench.new
2021-12-23 16:57:05,816 INFO scheduler Scheduled Job Complete: frappe.email.doctype.email_account.email_account.pull for newbench.new
2021-12-23 16:57:05,972 INFO scheduler Scheduled Job Start: frappe.email.queue.flush for newbench.new
2021-12-23 16:57:06,533 INFO scheduler Scheduled Job Complete: frappe.email.queue.flush for newbench.new
2021-12-23 16:57:58,525 DEBUG scheduler Queued events for site newbench.new
2021-12-23 16:58:59,182 DEBUG scheduler Queued events for site newbench.new
2021-12-23 16:59:59,870 DEBUG scheduler Queued events for site newbench.new
2021-12-23 17:01:00,280 INFO scheduler Scheduled Job Start: erpnext.stock.doctype.repost_item_valuation.repost_item_valuation.repost_entries for newbench.new
2021-12-23 17:01:00,489 INFO scheduler Scheduled Job Start: erpnext.erpnext_integrations.connectors.shopify_connection.sync_old_orders for newbench.new
2021-12-23 17:01:01,292 DEBUG scheduler Queued events for site newbench.new
2021-12-23 17:01:03,104 INFO scheduler Scheduled Job Complete: erpnext.stock.doctype.repost_item_valuation.repost_item_valuation.repost_entries for newbench.new
2021-12-23 17:01:04,277 INFO scheduler Scheduled Job Complete: erpnext.erpnext_integrations.connectors.shopify_connection.sync_old_orders for newbench.new
2021-12-23 17:01:04,557 INFO scheduler Scheduled Job Start: erpnext.support.doctype.issue.issue.set_service_level_agreement_variance for newbench.new
2021-12-23 17:01:05,329 INFO scheduler Scheduled Job Complete: erpnext.support.doctype.issue.issue.set_service_level_agreement_variance for newbench.new
2021-12-23 17:01:05,596 INFO scheduler Scheduled Job Start: erpnext.hr.doctype.shift_type.shift_type.process_auto_attendance_for_all_shifts for newbench.new
2021-12-23 17:02:01,965 DEBUG scheduler Queued events for site newbench.new
