2021-12-23 10:58:26,688 DEBUG scheduler Queued events for site newbench.new
2021-12-23 10:59:27,522 DEBUG scheduler Queued events for site newbench.new
2021-12-23 11:00:28,082 INFO scheduler Scheduled Job Start: erpnext.erpnext_integrations.connectors.shopify_connection.sync_old_orders for newbench.new
2021-12-23 11:00:28,689 DEBUG scheduler Queued events for site newbench.new
2021-12-23 11:00:30,469 INFO scheduler Scheduled Job Start: erpnext.stock.doctype.repost_item_valuation.repost_item_valuation.repost_entries for newbench.new
2021-12-23 11:00:30,599 INFO scheduler Scheduled Job Complete: erpnext.erpnext_integrations.connectors.shopify_connection.sync_old_orders for newbench.new
2021-12-23 11:00:30,840 INFO scheduler Scheduled Job Start: erpnext.support.doctype.issue.issue.set_service_level_agreement_variance for newbench.new
2021-12-23 11:00:31,691 INFO scheduler Scheduled Job Complete: erpnext.support.doctype.issue.issue.set_service_level_agreement_variance for newbench.new
2021-12-23 11:00:31,990 INFO scheduler Scheduled Job Start: erpnext.hr.doctype.shift_type.shift_type.process_auto_attendance_for_all_shifts for newbench.new
2021-12-23 11:00:32,215 INFO scheduler Scheduled Job Complete: erpnext.stock.doctype.repost_item_valuation.repost_item_valuation.repost_entries for newbench.new
2021-12-23 11:00:32,784 INFO scheduler Scheduled Job Complete: erpnext.hr.doctype.shift_type.shift_type.process_auto_attendance_for_all_shifts for newbench.new
2021-12-23 11:00:33,080 INFO scheduler Scheduled Job Start: erpnext.projects.doctype.project.project.collect_project_status for newbench.new
2021-12-23 11:00:33,862 INFO scheduler Scheduled Job Complete: erpnext.projects.doctype.project.project.collect_project_status for newbench.new
2021-12-23 11:00:34,119 INFO scheduler Scheduled Job Start: erpnext.projects.doctype.project.project.hourly_reminder for newbench.new
2021-12-23 11:00:35,013 INFO scheduler Scheduled Job Complete: erpnext.projects.doctype.project.project.hourly_reminder for newbench.new
2021-12-23 11:00:35,270 INFO scheduler Scheduled Job Start: erpnext.erpnext_integrations.doctype.plaid_settings.plaid_settings.automatic_synchronization for newbench.new
2021-12-23 11:00:36,282 INFO scheduler Scheduled Job Complete: erpnext.erpnext_integrations.doctype.plaid_settings.plaid_settings.automatic_synchronization for newbench.new
2021-12-23 11:00:36,525 INFO scheduler Scheduled Job Start: erpnext.accounts.doctype.gl_entry.gl_entry.rename_gle_sle_docs for newbench.new
2021-12-23 11:00:37,397 INFO scheduler Scheduled Job Complete: erpnext.accounts.doctype.gl_entry.gl_entry.rename_gle_sle_docs for newbench.new
2021-12-23 11:00:37,645 INFO scheduler Scheduled Job Start: erpnext.erpnext_integrations.doctype.amazon_mws_settings.amazon_mws_settings.schedule_get_order_details for newbench.new
2021-12-23 11:00:38,304 INFO scheduler Scheduled Job Complete: erpnext.erpnext_integrations.doctype.amazon_mws_settings.amazon_mws_settings.schedule_get_order_details for newbench.new
2021-12-23 11:00:38,536 INFO scheduler Scheduled Job Start: erpnext.accounts.doctype.subscription.subscription.process_all for newbench.new
2021-12-23 11:00:39,508 INFO scheduler Scheduled Job Complete: erpnext.accounts.doctype.subscription.subscription.process_all for newbench.new
2021-12-23 11:00:39,790 INFO scheduler Scheduled Job Start: erpnext.hr.doctype.daily_work_summary_group.daily_work_summary_group.trigger_emails for newbench.new
2021-12-23 11:00:40,397 INFO scheduler Scheduled Job Complete: erpnext.hr.doctype.daily_work_summary_group.daily_work_summary_group.trigger_emails for newbench.new
2021-12-23 11:00:40,643 INFO scheduler Scheduled Job Start: erpnext.crm.doctype.social_media_post.social_media_post.process_scheduled_social_media_posts for newbench.new
2021-12-23 11:00:41,138 INFO scheduler Scheduled Job Complete: erpnext.crm.doctype.social_media_post.social_media_post.process_scheduled_social_media_posts for newbench.new
2021-12-23 11:00:41,289 INFO scheduler Scheduled Job Start: erpnext.hr.doctype.interview.interview.send_interview_reminder for newbench.new
2021-12-23 11:00:41,897 INFO scheduler Scheduled Job Complete: erpnext.hr.doctype.interview.interview.send_interview_reminder for newbench.new
2021-12-23 11:00:42,048 INFO scheduler Scheduled Job Start: erpnext.healthcare.doctype.patient_appointment.patient_appointment.send_appointment_reminder for newbench.new
2021-12-23 11:00:42,510 INFO scheduler Scheduled Job Complete: erpnext.healthcare.doctype.patient_appointment.patient_appointment.send_appointment_reminder for newbench.new
2021-12-23 11:00:42,667 INFO scheduler Scheduled Job Start: erpnext.projects.doctype.project.project.project_status_update_reminder for newbench.new
2021-12-23 11:00:43,475 INFO scheduler Scheduled Job Complete: erpnext.projects.doctype.project.project.project_status_update_reminder for newbench.new
2021-12-23 11:00:43,628 INFO scheduler Scheduled Job Start: erpnext.utilities.doctype.video.video.update_youtube_data for newbench.new
2021-12-23 11:00:45,756 INFO scheduler Scheduled Job Failed: erpnext.utilities.doctype.video.video.update_youtube_data for newbench.new
2021-12-23 11:00:46,042 INFO scheduler Scheduled Job Start: frappe.email.doctype.newsletter.newsletter.send_scheduled_email for newbench.new
2021-12-23 11:00:46,796 INFO scheduler Scheduled Job Complete: frappe.email.doctype.newsletter.newsletter.send_scheduled_email for newbench.new
2021-12-23 11:00:47,012 INFO scheduler Scheduled Job Start: frappe.integrations.doctype.google_calendar.google_calendar.sync for newbench.new
2021-12-23 11:00:49,527 INFO scheduler Scheduled Job Complete: frappe.integrations.doctype.google_calendar.google_calendar.sync for newbench.new
2021-12-23 11:00:49,750 INFO scheduler Scheduled Job Start: frappe.desk.form.document_follow.send_hourly_updates for newbench.new
2021-12-23 11:00:50,536 INFO scheduler Scheduled Job Complete: frappe.desk.form.document_follow.send_hourly_updates for newbench.new
2021-12-23 11:00:50,792 INFO scheduler Scheduled Job Start: frappe.deferred_insert.save_to_db for newbench.new
2021-12-23 11:00:51,444 INFO scheduler Scheduled Job Complete: frappe.deferred_insert.save_to_db for newbench.new
2021-12-23 11:00:51,709 INFO scheduler Scheduled Job Start: frappe.desk.page.backups.backups.delete_downloadable_backups for newbench.new
2021-12-23 11:00:52,595 INFO scheduler Scheduled Job Complete: frappe.desk.page.backups.backups.delete_downloadable_backups for newbench.new
2021-12-23 11:00:52,854 INFO scheduler Scheduled Job Start: frappe.utils.error.collect_error_snapshots for newbench.new
2021-12-23 11:00:53,779 INFO scheduler Scheduled Job Complete: frappe.utils.error.collect_error_snapshots for newbench.new
2021-12-23 11:00:54,064 INFO scheduler Scheduled Job Start: frappe.model.utils.user_settings.sync_user_settings for newbench.new
2021-12-23 11:00:54,892 INFO scheduler Scheduled Job Complete: frappe.model.utils.user_settings.sync_user_settings for newbench.new
2021-12-23 11:00:55,227 INFO scheduler Scheduled Job Start: frappe.model.utils.link_count.update_link_count for newbench.new
2021-12-23 11:00:56,097 INFO scheduler Scheduled Job Complete: frappe.model.utils.link_count.update_link_count for newbench.new
2021-12-23 11:00:56,401 INFO scheduler Scheduled Job Start: frappe.monitor.flush for newbench.new
2021-12-23 11:00:56,886 INFO scheduler Scheduled Job Complete: frappe.monitor.flush for newbench.new
2021-12-23 11:00:57,045 INFO scheduler Scheduled Job Start: frappe.utils.global_search.sync_global_search for newbench.new
2021-12-23 11:00:57,486 INFO scheduler Scheduled Job Complete: frappe.utils.global_search.sync_global_search for newbench.new
2021-12-23 11:00:57,651 INFO scheduler Scheduled Job Start: frappe.integrations.doctype.razorpay_settings.razorpay_settings.capture_payment for newbench.new
2021-12-23 11:00:58,412 INFO scheduler Scheduled Job Complete: frappe.integrations.doctype.razorpay_settings.razorpay_settings.capture_payment for newbench.new
2021-12-23 11:00:58,564 INFO scheduler Scheduled Job Start: frappe.email.doctype.email_account.email_account.notify_unreplied for newbench.new
2021-12-23 11:00:59,262 INFO scheduler Scheduled Job Complete: frappe.email.doctype.email_account.email_account.notify_unreplied for newbench.new
2021-12-23 11:00:59,461 INFO scheduler Scheduled Job Start: frappe.email.doctype.email_account.email_account.pull for newbench.new
2021-12-23 11:01:00,217 INFO scheduler Scheduled Job Complete: frappe.email.doctype.email_account.email_account.pull for newbench.new
2021-12-23 11:01:00,639 INFO scheduler Scheduled Job Start: frappe.email.queue.flush for newbench.new
2021-12-23 11:01:01,140 INFO scheduler Scheduled Job Complete: frappe.email.queue.flush for newbench.new
2021-12-23 11:01:01,288 INFO scheduler Scheduled Job Start: frappe.twofactor.delete_all_barcodes_for_users for newbench.new
2021-12-23 11:01:02,183 INFO scheduler Scheduled Job Complete: frappe.twofactor.delete_all_barcodes_for_users for newbench.new
2021-12-23 11:01:02,400 INFO scheduler Scheduled Job Start: frappe.website.doctype.web_page.web_page.check_publish_status for newbench.new
2021-12-23 11:01:03,287 INFO scheduler Scheduled Job Complete: frappe.website.doctype.web_page.web_page.check_publish_status for newbench.new
2021-12-23 11:01:03,556 INFO scheduler Scheduled Job Start: frappe.oauth.delete_oauth2_data for newbench.new
2021-12-23 11:01:04,426 INFO scheduler Scheduled Job Complete: frappe.oauth.delete_oauth2_data for newbench.new
2021-12-23 11:01:30,126 DEBUG scheduler Queued events for site newbench.new
2021-12-23 11:02:30,786 DEBUG scheduler Queued events for site newbench.new
2021-12-23 11:03:31,995 DEBUG scheduler Queued events for site newbench.new
2021-12-23 11:04:32,752 DEBUG scheduler Queued events for site newbench.new
2021-12-23 11:04:33,183 INFO scheduler Scheduled Job Start: erpnext.crm.doctype.social_media_post.social_media_post.process_scheduled_social_media_posts for newbench.new
2021-12-23 11:04:34,220 INFO scheduler Scheduled Job Complete: erpnext.crm.doctype.social_media_post.social_media_post.process_scheduled_social_media_posts for newbench.new
2021-12-23 11:04:34,374 INFO scheduler Scheduled Job Start: erpnext.hr.doctype.interview.interview.send_interview_reminder for newbench.new
2021-12-23 11:04:35,235 INFO scheduler Scheduled Job Complete: erpnext.hr.doctype.interview.interview.send_interview_reminder for newbench.new
2021-12-23 11:04:35,394 INFO scheduler Scheduled Job Start: erpnext.healthcare.doctype.patient_appointment.patient_appointment.send_appointment_reminder for newbench.new
2021-12-23 11:04:36,225 INFO scheduler Scheduled Job Complete: erpnext.healthcare.doctype.patient_appointment.patient_appointment.send_appointment_reminder for newbench.new
2021-12-23 11:04:36,376 INFO scheduler Scheduled Job Start: erpnext.projects.doctype.project.project.project_status_update_reminder for newbench.new
2021-12-23 11:04:37,254 INFO scheduler Scheduled Job Complete: erpnext.projects.doctype.project.project.project_status_update_reminder for newbench.new
2021-12-23 11:04:37,404 INFO scheduler Scheduled Job Start: frappe.monitor.flush for newbench.new
2021-12-23 11:04:37,920 INFO scheduler Scheduled Job Complete: frappe.monitor.flush for newbench.new
2021-12-23 11:04:38,077 INFO scheduler Scheduled Job Start: frappe.utils.global_search.sync_global_search for newbench.new
2021-12-23 11:04:38,499 INFO scheduler Scheduled Job Complete: frappe.utils.global_search.sync_global_search for newbench.new
2021-12-23 11:04:38,660 INFO scheduler Scheduled Job Start: frappe.integrations.doctype.razorpay_settings.razorpay_settings.capture_payment for newbench.new
2021-12-23 11:04:39,703 INFO scheduler Scheduled Job Complete: frappe.integrations.doctype.razorpay_settings.razorpay_settings.capture_payment for newbench.new
2021-12-23 11:04:39,857 INFO scheduler Scheduled Job Start: frappe.email.doctype.email_account.email_account.notify_unreplied for newbench.new
2021-12-23 11:04:40,838 INFO scheduler Scheduled Job Complete: frappe.email.doctype.email_account.email_account.notify_unreplied for newbench.new
2021-12-23 11:04:40,991 INFO scheduler Scheduled Job Start: frappe.email.doctype.email_account.email_account.pull for newbench.new
2021-12-23 11:04:41,652 INFO scheduler Scheduled Job Complete: frappe.email.doctype.email_account.email_account.pull for newbench.new
2021-12-23 11:04:41,807 INFO scheduler Scheduled Job Start: frappe.email.queue.flush for newbench.new
2021-12-23 11:04:42,357 INFO scheduler Scheduled Job Complete: frappe.email.queue.flush for newbench.new
2021-12-23 11:05:33,435 DEBUG scheduler Queued events for site newbench.new
2021-12-23 11:06:34,109 DEBUG scheduler Queued events for site newbench.new
2021-12-23 11:07:34,822 DEBUG scheduler Queued events for site newbench.new
2021-12-23 11:08:35,534 INFO scheduler Scheduled Job Start: erpnext.crm.doctype.social_media_post.social_media_post.process_scheduled_social_media_posts for newbench.new
2021-12-23 11:08:35,607 DEBUG scheduler Queued events for site newbench.new
2021-12-23 11:08:36,157 INFO scheduler Scheduled Job Complete: erpnext.crm.doctype.social_media_post.social_media_post.process_scheduled_social_media_posts for newbench.new
2021-12-23 11:08:36,309 INFO scheduler Scheduled Job Start: erpnext.hr.doctype.interview.interview.send_interview_reminder for newbench.new
2021-12-23 11:08:36,853 INFO scheduler Scheduled Job Complete: erpnext.hr.doctype.interview.interview.send_interview_reminder for newbench.new
2021-12-23 11:08:37,012 INFO scheduler Scheduled Job Start: erpnext.healthcare.doctype.patient_appointment.patient_appointment.send_appointment_reminder for newbench.new
2021-12-23 11:08:37,508 INFO scheduler Scheduled Job Complete: erpnext.healthcare.doctype.patient_appointment.patient_appointment.send_appointment_reminder for newbench.new
2021-12-23 11:08:37,667 INFO scheduler Scheduled Job Start: erpnext.projects.doctype.project.project.project_status_update_reminder for newbench.new
2021-12-23 11:08:38,453 INFO scheduler Scheduled Job Complete: erpnext.projects.doctype.project.project.project_status_update_reminder for newbench.new
2021-12-23 11:08:38,607 INFO scheduler Scheduled Job Start: frappe.monitor.flush for newbench.new
2021-12-23 11:08:39,125 INFO scheduler Scheduled Job Complete: frappe.monitor.flush for newbench.new
2021-12-23 11:08:39,286 INFO scheduler Scheduled Job Start: frappe.utils.global_search.sync_global_search for newbench.new
2021-12-23 11:08:39,702 INFO scheduler Scheduled Job Complete: frappe.utils.global_search.sync_global_search for newbench.new
2021-12-23 11:08:39,859 INFO scheduler Scheduled Job Start: frappe.integrations.doctype.razorpay_settings.razorpay_settings.capture_payment for newbench.new
2021-12-23 11:08:40,557 INFO scheduler Scheduled Job Complete: frappe.integrations.doctype.razorpay_settings.razorpay_settings.capture_payment for newbench.new
2021-12-23 11:08:40,712 INFO scheduler Scheduled Job Start: frappe.email.doctype.email_account.email_account.notify_unreplied for newbench.new
2021-12-23 11:08:41,486 INFO scheduler Scheduled Job Complete: frappe.email.doctype.email_account.email_account.notify_unreplied for newbench.new
2021-12-23 11:08:41,638 INFO scheduler Scheduled Job Start: frappe.email.doctype.email_account.email_account.pull for newbench.new
2021-12-23 11:08:42,241 INFO scheduler Scheduled Job Complete: frappe.email.doctype.email_account.email_account.pull for newbench.new
2021-12-23 11:08:42,402 INFO scheduler Scheduled Job Start: frappe.email.queue.flush for newbench.new
2021-12-23 11:08:42,946 INFO scheduler Scheduled Job Complete: frappe.email.queue.flush for newbench.new
2021-12-23 11:09:36,271 DEBUG scheduler Queued events for site newbench.new
2021-12-23 11:10:36,980 DEBUG scheduler Queued events for site newbench.new
2021-12-23 11:11:37,662 DEBUG scheduler Queued events for site newbench.new
2021-12-23 11:12:38,271 INFO scheduler Scheduled Job Start: erpnext.crm.doctype.social_media_post.social_media_post.process_scheduled_social_media_posts for newbench.new
2021-12-23 11:12:38,547 DEBUG scheduler Queued events for site newbench.new
2021-12-23 11:12:38,878 INFO scheduler Scheduled Job Complete: erpnext.crm.doctype.social_media_post.social_media_post.process_scheduled_social_media_posts for newbench.new
2021-12-23 11:12:39,036 INFO scheduler Scheduled Job Start: erpnext.hr.doctype.interview.interview.send_interview_reminder for newbench.new
2021-12-23 11:12:39,650 INFO scheduler Scheduled Job Complete: erpnext.hr.doctype.interview.interview.send_interview_reminder for newbench.new
2021-12-23 11:12:39,804 INFO scheduler Scheduled Job Start: erpnext.healthcare.doctype.patient_appointment.patient_appointment.send_appointment_reminder for newbench.new
2021-12-23 11:12:40,265 INFO scheduler Scheduled Job Complete: erpnext.healthcare.doctype.patient_appointment.patient_appointment.send_appointment_reminder for newbench.new
2021-12-23 11:12:40,420 INFO scheduler Scheduled Job Start: erpnext.projects.doctype.project.project.project_status_update_reminder for newbench.new
2021-12-23 11:12:41,134 INFO scheduler Scheduled Job Complete: erpnext.projects.doctype.project.project.project_status_update_reminder for newbench.new
2021-12-23 11:12:41,286 INFO scheduler Scheduled Job Start: frappe.monitor.flush for newbench.new
2021-12-23 11:12:41,739 INFO scheduler Scheduled Job Complete: frappe.monitor.flush for newbench.new
2021-12-23 11:12:41,895 INFO scheduler Scheduled Job Start: frappe.utils.global_search.sync_global_search for newbench.new
2021-12-23 11:12:42,328 INFO scheduler Scheduled Job Complete: frappe.utils.global_search.sync_global_search for newbench.new
2021-12-23 11:12:42,486 INFO scheduler Scheduled Job Start: frappe.integrations.doctype.razorpay_settings.razorpay_settings.capture_payment for newbench.new
2021-12-23 11:12:43,188 INFO scheduler Scheduled Job Complete: frappe.integrations.doctype.razorpay_settings.razorpay_settings.capture_payment for newbench.new
2021-12-23 11:12:43,340 INFO scheduler Scheduled Job Start: frappe.email.doctype.email_account.email_account.notify_unreplied for newbench.new
2021-12-23 11:12:43,902 INFO scheduler Scheduled Job Complete: frappe.email.doctype.email_account.email_account.notify_unreplied for newbench.new
2021-12-23 11:12:44,054 INFO scheduler Scheduled Job Start: frappe.email.doctype.email_account.email_account.pull for newbench.new
2021-12-23 11:12:44,664 INFO scheduler Scheduled Job Complete: frappe.email.doctype.email_account.email_account.pull for newbench.new
2021-12-23 11:12:44,814 INFO scheduler Scheduled Job Start: frappe.email.queue.flush for newbench.new
2021-12-23 11:12:45,269 INFO scheduler Scheduled Job Complete: frappe.email.queue.flush for newbench.new
2021-12-23 11:13:39,218 DEBUG scheduler Queued events for site newbench.new
2021-12-23 11:14:39,926 DEBUG scheduler Queued events for site newbench.new
2021-12-23 11:15:40,652 DEBUG scheduler Queued events for site newbench.new
2021-12-23 11:15:40,767 INFO scheduler Scheduled Job Start: frappe.twofactor.delete_all_barcodes_for_users for newbench.new
2021-12-23 11:15:42,256 INFO scheduler Scheduled Job Complete: frappe.twofactor.delete_all_barcodes_for_users for newbench.new
2021-12-23 11:15:42,559 INFO scheduler Scheduled Job Start: frappe.website.doctype.web_page.web_page.check_publish_status for newbench.new
2021-12-23 11:15:43,422 INFO scheduler Scheduled Job Complete: frappe.website.doctype.web_page.web_page.check_publish_status for newbench.new
2021-12-23 11:15:43,654 INFO scheduler Scheduled Job Start: frappe.oauth.delete_oauth2_data for newbench.new
2021-12-23 11:15:44,667 INFO scheduler Scheduled Job Complete: frappe.oauth.delete_oauth2_data for newbench.new
2021-12-23 11:16:41,247 INFO scheduler Scheduled Job Start: erpnext.crm.doctype.social_media_post.social_media_post.process_scheduled_social_media_posts for newbench.new
2021-12-23 11:16:41,421 DEBUG scheduler Queued events for site newbench.new
2021-12-23 11:16:41,852 INFO scheduler Scheduled Job Complete: erpnext.crm.doctype.social_media_post.social_media_post.process_scheduled_social_media_posts for newbench.new
2021-12-23 11:16:42,008 INFO scheduler Scheduled Job Start: erpnext.hr.doctype.interview.interview.send_interview_reminder for newbench.new
2021-12-23 11:16:42,550 INFO scheduler Scheduled Job Complete: erpnext.hr.doctype.interview.interview.send_interview_reminder for newbench.new
2021-12-23 11:16:42,702 INFO scheduler Scheduled Job Start: erpnext.healthcare.doctype.patient_appointment.patient_appointment.send_appointment_reminder for newbench.new
2021-12-23 11:16:43,253 INFO scheduler Scheduled Job Complete: erpnext.healthcare.doctype.patient_appointment.patient_appointment.send_appointment_reminder for newbench.new
2021-12-23 11:16:43,406 INFO scheduler Scheduled Job Start: erpnext.projects.doctype.project.project.project_status_update_reminder for newbench.new
2021-12-23 11:16:44,244 INFO scheduler Scheduled Job Complete: erpnext.projects.doctype.project.project.project_status_update_reminder for newbench.new
2021-12-23 11:16:44,397 INFO scheduler Scheduled Job Start: frappe.monitor.flush for newbench.new
2021-12-23 11:16:44,890 INFO scheduler Scheduled Job Complete: frappe.monitor.flush for newbench.new
2021-12-23 11:16:45,048 INFO scheduler Scheduled Job Start: frappe.utils.global_search.sync_global_search for newbench.new
2021-12-23 11:16:45,551 INFO scheduler Scheduled Job Complete: frappe.utils.global_search.sync_global_search for newbench.new
2021-12-23 11:16:45,711 INFO scheduler Scheduled Job Start: frappe.integrations.doctype.razorpay_settings.razorpay_settings.capture_payment for newbench.new
2021-12-23 11:16:46,400 INFO scheduler Scheduled Job Complete: frappe.integrations.doctype.razorpay_settings.razorpay_settings.capture_payment for newbench.new
2021-12-23 11:16:46,552 INFO scheduler Scheduled Job Start: frappe.email.doctype.email_account.email_account.notify_unreplied for newbench.new
2021-12-23 11:16:47,159 INFO scheduler Scheduled Job Complete: frappe.email.doctype.email_account.email_account.notify_unreplied for newbench.new
2021-12-23 11:16:47,312 INFO scheduler Scheduled Job Start: frappe.email.doctype.email_account.email_account.pull for newbench.new
2021-12-23 11:16:48,003 INFO scheduler Scheduled Job Complete: frappe.email.doctype.email_account.email_account.pull for newbench.new
2021-12-23 11:16:48,162 INFO scheduler Scheduled Job Start: frappe.email.queue.flush for newbench.new
2021-12-23 11:16:48,601 INFO scheduler Scheduled Job Complete: frappe.email.queue.flush for newbench.new
2021-12-23 11:17:42,108 DEBUG scheduler Queued events for site newbench.new
2021-12-23 11:18:42,783 DEBUG scheduler Queued events for site newbench.new
2021-12-23 11:19:43,448 DEBUG scheduler Queued events for site newbench.new
2021-12-23 11:20:44,146 INFO scheduler Scheduled Job Start: erpnext.crm.doctype.social_media_post.social_media_post.process_scheduled_social_media_posts for newbench.new
2021-12-23 11:20:44,335 DEBUG scheduler Queued events for site newbench.new
2021-12-23 11:20:44,665 INFO scheduler Scheduled Job Complete: erpnext.crm.doctype.social_media_post.social_media_post.process_scheduled_social_media_posts for newbench.new
2021-12-23 11:20:44,825 INFO scheduler Scheduled Job Start: erpnext.hr.doctype.interview.interview.send_interview_reminder for newbench.new
2021-12-23 11:20:45,443 INFO scheduler Scheduled Job Complete: erpnext.hr.doctype.interview.interview.send_interview_reminder for newbench.new
2021-12-23 11:20:45,654 INFO scheduler Scheduled Job Start: erpnext.healthcare.doctype.patient_appointment.patient_appointment.send_appointment_reminder for newbench.new
2021-12-23 11:20:46,235 INFO scheduler Scheduled Job Complete: erpnext.healthcare.doctype.patient_appointment.patient_appointment.send_appointment_reminder for newbench.new
2021-12-23 11:20:46,390 INFO scheduler Scheduled Job Start: erpnext.projects.doctype.project.project.project_status_update_reminder for newbench.new
2021-12-23 11:20:47,095 INFO scheduler Scheduled Job Complete: erpnext.projects.doctype.project.project.project_status_update_reminder for newbench.new
2021-12-23 11:20:47,250 INFO scheduler Scheduled Job Start: frappe.monitor.flush for newbench.new
2021-12-23 11:20:47,749 INFO scheduler Scheduled Job Complete: frappe.monitor.flush for newbench.new
2021-12-23 11:20:47,903 INFO scheduler Scheduled Job Start: frappe.utils.global_search.sync_global_search for newbench.new
2021-12-23 11:20:48,321 INFO scheduler Scheduled Job Complete: frappe.utils.global_search.sync_global_search for newbench.new
2021-12-23 11:20:48,482 INFO scheduler Scheduled Job Start: frappe.integrations.doctype.razorpay_settings.razorpay_settings.capture_payment for newbench.new
2021-12-23 11:20:49,289 INFO scheduler Scheduled Job Complete: frappe.integrations.doctype.razorpay_settings.razorpay_settings.capture_payment for newbench.new
2021-12-23 11:20:49,440 INFO scheduler Scheduled Job Start: frappe.email.doctype.email_account.email_account.notify_unreplied for newbench.new
2021-12-23 11:20:50,025 INFO scheduler Scheduled Job Complete: frappe.email.doctype.email_account.email_account.notify_unreplied for newbench.new
2021-12-23 11:20:50,176 INFO scheduler Scheduled Job Start: frappe.email.doctype.email_account.email_account.pull for newbench.new
2021-12-23 11:20:50,852 INFO scheduler Scheduled Job Complete: frappe.email.doctype.email_account.email_account.pull for newbench.new
2021-12-23 11:20:51,002 INFO scheduler Scheduled Job Start: frappe.email.queue.flush for newbench.new
2021-12-23 11:20:51,440 INFO scheduler Scheduled Job Complete: frappe.email.queue.flush for newbench.new
2021-12-23 11:21:47,004 DEBUG scheduler Queued events for site newbench.new
2021-12-23 11:22:47,682 DEBUG scheduler Queued events for site newbench.new
2021-12-23 11:23:48,360 DEBUG scheduler Queued events for site newbench.new
2021-12-23 11:24:48,957 INFO scheduler Scheduled Job Start: erpnext.crm.doctype.social_media_post.social_media_post.process_scheduled_social_media_posts for newbench.new
2021-12-23 11:24:49,146 DEBUG scheduler Queued events for site newbench.new
2021-12-23 11:24:49,550 INFO scheduler Scheduled Job Complete: erpnext.crm.doctype.social_media_post.social_media_post.process_scheduled_social_media_posts for newbench.new
2021-12-23 11:24:49,700 INFO scheduler Scheduled Job Start: erpnext.hr.doctype.interview.interview.send_interview_reminder for newbench.new
2021-12-23 11:24:50,355 INFO scheduler Scheduled Job Complete: erpnext.hr.doctype.interview.interview.send_interview_reminder for newbench.new
2021-12-23 11:24:50,510 INFO scheduler Scheduled Job Start: erpnext.healthcare.doctype.patient_appointment.patient_appointment.send_appointment_reminder for newbench.new
2021-12-23 11:24:50,974 INFO scheduler Scheduled Job Complete: erpnext.healthcare.doctype.patient_appointment.patient_appointment.send_appointment_reminder for newbench.new
2021-12-23 11:24:51,125 INFO scheduler Scheduled Job Start: erpnext.projects.doctype.project.project.project_status_update_reminder for newbench.new
2021-12-23 11:24:51,925 INFO scheduler Scheduled Job Complete: erpnext.projects.doctype.project.project.project_status_update_reminder for newbench.new
2021-12-23 11:24:52,078 INFO scheduler Scheduled Job Start: frappe.monitor.flush for newbench.new
2021-12-23 11:24:52,579 INFO scheduler Scheduled Job Complete: frappe.monitor.flush for newbench.new
2021-12-23 11:24:52,738 INFO scheduler Scheduled Job Start: frappe.utils.global_search.sync_global_search for newbench.new
2021-12-23 11:24:53,145 INFO scheduler Scheduled Job Complete: frappe.utils.global_search.sync_global_search for newbench.new
2021-12-23 11:24:53,301 INFO scheduler Scheduled Job Start: frappe.integrations.doctype.razorpay_settings.razorpay_settings.capture_payment for newbench.new
2021-12-23 11:24:53,997 INFO scheduler Scheduled Job Complete: frappe.integrations.doctype.razorpay_settings.razorpay_settings.capture_payment for newbench.new
2021-12-23 11:24:54,152 INFO scheduler Scheduled Job Start: frappe.email.doctype.email_account.email_account.notify_unreplied for newbench.new
2021-12-23 11:24:54,790 INFO scheduler Scheduled Job Complete: frappe.email.doctype.email_account.email_account.notify_unreplied for newbench.new
2021-12-23 11:24:54,942 INFO scheduler Scheduled Job Start: frappe.email.doctype.email_account.email_account.pull for newbench.new
2021-12-23 11:24:55,551 INFO scheduler Scheduled Job Complete: frappe.email.doctype.email_account.email_account.pull for newbench.new
2021-12-23 11:24:55,704 INFO scheduler Scheduled Job Start: frappe.email.queue.flush for newbench.new
2021-12-23 11:24:56,148 INFO scheduler Scheduled Job Complete: frappe.email.queue.flush for newbench.new
2021-12-23 11:25:49,809 DEBUG scheduler Queued events for site newbench.new
2021-12-23 11:26:50,509 DEBUG scheduler Queued events for site newbench.new
2021-12-23 11:27:51,196 DEBUG scheduler Queued events for site newbench.new
2021-12-23 11:28:51,789 INFO scheduler Scheduled Job Start: erpnext.crm.doctype.social_media_post.social_media_post.process_scheduled_social_media_posts for newbench.new
2021-12-23 11:28:51,979 DEBUG scheduler Queued events for site newbench.new
2021-12-23 11:28:52,379 INFO scheduler Scheduled Job Complete: erpnext.crm.doctype.social_media_post.social_media_post.process_scheduled_social_media_posts for newbench.new
2021-12-23 11:28:52,533 INFO scheduler Scheduled Job Start: erpnext.hr.doctype.interview.interview.send_interview_reminder for newbench.new
2021-12-23 11:28:53,055 INFO scheduler Scheduled Job Complete: erpnext.hr.doctype.interview.interview.send_interview_reminder for newbench.new
2021-12-23 11:28:53,208 INFO scheduler Scheduled Job Start: erpnext.healthcare.doctype.patient_appointment.patient_appointment.send_appointment_reminder for newbench.new
2021-12-23 11:28:53,765 INFO scheduler Scheduled Job Complete: erpnext.healthcare.doctype.patient_appointment.patient_appointment.send_appointment_reminder for newbench.new
2021-12-23 11:28:53,917 INFO scheduler Scheduled Job Start: erpnext.projects.doctype.project.project.project_status_update_reminder for newbench.new
2021-12-23 11:28:54,718 INFO scheduler Scheduled Job Complete: erpnext.projects.doctype.project.project.project_status_update_reminder for newbench.new
2021-12-23 11:28:54,871 INFO scheduler Scheduled Job Start: frappe.monitor.flush for newbench.new
2021-12-23 11:28:55,385 INFO scheduler Scheduled Job Complete: frappe.monitor.flush for newbench.new
2021-12-23 11:28:55,543 INFO scheduler Scheduled Job Start: frappe.utils.global_search.sync_global_search for newbench.new
2021-12-23 11:28:55,996 INFO scheduler Scheduled Job Complete: frappe.utils.global_search.sync_global_search for newbench.new
2021-12-23 11:28:56,154 INFO scheduler Scheduled Job Start: frappe.integrations.doctype.razorpay_settings.razorpay_settings.capture_payment for newbench.new
2021-12-23 11:28:56,947 INFO scheduler Scheduled Job Complete: frappe.integrations.doctype.razorpay_settings.razorpay_settings.capture_payment for newbench.new
2021-12-23 11:28:57,097 INFO scheduler Scheduled Job Start: frappe.email.doctype.email_account.email_account.notify_unreplied for newbench.new
2021-12-23 11:28:57,749 INFO scheduler Scheduled Job Complete: frappe.email.doctype.email_account.email_account.notify_unreplied for newbench.new
2021-12-23 11:28:57,905 INFO scheduler Scheduled Job Start: frappe.email.doctype.email_account.email_account.pull for newbench.new
2021-12-23 11:28:58,543 INFO scheduler Scheduled Job Complete: frappe.email.doctype.email_account.email_account.pull for newbench.new
2021-12-23 11:28:58,699 INFO scheduler Scheduled Job Start: frappe.email.queue.flush for newbench.new
2021-12-23 11:28:59,133 INFO scheduler Scheduled Job Complete: frappe.email.queue.flush for newbench.new
2021-12-23 11:29:52,660 DEBUG scheduler Queued events for site newbench.new
2021-12-23 11:30:53,272 INFO scheduler Scheduled Job Start: erpnext.utilities.doctype.video.video.update_youtube_data for newbench.new
2021-12-23 11:30:53,365 DEBUG scheduler Queued events for site newbench.new
2021-12-23 11:30:54,722 INFO scheduler Scheduled Job Complete: erpnext.utilities.doctype.video.video.update_youtube_data for newbench.new
2021-12-23 11:30:54,941 INFO scheduler Scheduled Job Start: frappe.twofactor.delete_all_barcodes_for_users for newbench.new
2021-12-23 11:30:55,805 INFO scheduler Scheduled Job Complete: frappe.twofactor.delete_all_barcodes_for_users for newbench.new
2021-12-23 11:30:56,022 INFO scheduler Scheduled Job Start: frappe.website.doctype.web_page.web_page.check_publish_status for newbench.new
2021-12-23 11:30:56,883 INFO scheduler Scheduled Job Complete: frappe.website.doctype.web_page.web_page.check_publish_status for newbench.new
2021-12-23 11:30:57,111 INFO scheduler Scheduled Job Start: frappe.oauth.delete_oauth2_data for newbench.new
2021-12-23 11:30:57,965 INFO scheduler Scheduled Job Complete: frappe.oauth.delete_oauth2_data for newbench.new
2021-12-23 11:31:54,029 DEBUG scheduler Queued events for site newbench.new
2021-12-23 11:32:54,630 INFO scheduler Scheduled Job Start: erpnext.crm.doctype.social_media_post.social_media_post.process_scheduled_social_media_posts for newbench.new
2021-12-23 11:32:54,813 DEBUG scheduler Queued events for site newbench.new
2021-12-23 11:32:55,220 INFO scheduler Scheduled Job Complete: erpnext.crm.doctype.social_media_post.social_media_post.process_scheduled_social_media_posts for newbench.new
2021-12-23 11:32:55,372 INFO scheduler Scheduled Job Start: erpnext.hr.doctype.interview.interview.send_interview_reminder for newbench.new
2021-12-23 11:32:56,005 INFO scheduler Scheduled Job Complete: erpnext.hr.doctype.interview.interview.send_interview_reminder for newbench.new
2021-12-23 11:32:56,162 INFO scheduler Scheduled Job Start: erpnext.healthcare.doctype.patient_appointment.patient_appointment.send_appointment_reminder for newbench.new
2021-12-23 11:32:56,713 INFO scheduler Scheduled Job Complete: erpnext.healthcare.doctype.patient_appointment.patient_appointment.send_appointment_reminder for newbench.new
2021-12-23 11:32:56,867 INFO scheduler Scheduled Job Start: erpnext.projects.doctype.project.project.project_status_update_reminder for newbench.new
2021-12-23 11:32:57,592 INFO scheduler Scheduled Job Complete: erpnext.projects.doctype.project.project.project_status_update_reminder for newbench.new
2021-12-23 11:32:57,745 INFO scheduler Scheduled Job Start: frappe.monitor.flush for newbench.new
2021-12-23 11:32:58,373 INFO scheduler Scheduled Job Complete: frappe.monitor.flush for newbench.new
2021-12-23 11:32:58,532 INFO scheduler Scheduled Job Start: frappe.utils.global_search.sync_global_search for newbench.new
2021-12-23 11:32:59,060 INFO scheduler Scheduled Job Complete: frappe.utils.global_search.sync_global_search for newbench.new
2021-12-23 11:32:59,216 INFO scheduler Scheduled Job Start: frappe.integrations.doctype.razorpay_settings.razorpay_settings.capture_payment for newbench.new
2021-12-23 11:32:59,962 INFO scheduler Scheduled Job Complete: frappe.integrations.doctype.razorpay_settings.razorpay_settings.capture_payment for newbench.new
2021-12-23 11:33:00,123 INFO scheduler Scheduled Job Start: frappe.email.doctype.email_account.email_account.notify_unreplied for newbench.new
2021-12-23 11:33:00,671 INFO scheduler Scheduled Job Complete: frappe.email.doctype.email_account.email_account.notify_unreplied for newbench.new
2021-12-23 11:33:00,828 INFO scheduler Scheduled Job Start: frappe.email.doctype.email_account.email_account.pull for newbench.new
2021-12-23 11:33:01,446 INFO scheduler Scheduled Job Complete: frappe.email.doctype.email_account.email_account.pull for newbench.new
2021-12-23 11:33:01,597 INFO scheduler Scheduled Job Start: frappe.email.queue.flush for newbench.new
2021-12-23 11:33:02,131 INFO scheduler Scheduled Job Complete: frappe.email.queue.flush for newbench.new
2021-12-23 11:33:55,480 DEBUG scheduler Queued events for site newbench.new
2021-12-23 11:34:56,155 DEBUG scheduler Queued events for site newbench.new
2021-12-23 11:35:56,834 DEBUG scheduler Queued events for site newbench.new
2021-12-23 11:36:57,430 INFO scheduler Scheduled Job Start: erpnext.crm.doctype.social_media_post.social_media_post.process_scheduled_social_media_posts for newbench.new
2021-12-23 11:36:57,621 DEBUG scheduler Queued events for site newbench.new
2021-12-23 11:36:58,044 INFO scheduler Scheduled Job Complete: erpnext.crm.doctype.social_media_post.social_media_post.process_scheduled_social_media_posts for newbench.new
2021-12-23 11:36:58,208 INFO scheduler Scheduled Job Start: erpnext.hr.doctype.interview.interview.send_interview_reminder for newbench.new
2021-12-23 11:36:58,856 INFO scheduler Scheduled Job Complete: erpnext.hr.doctype.interview.interview.send_interview_reminder for newbench.new
2021-12-23 11:36:59,007 INFO scheduler Scheduled Job Start: erpnext.healthcare.doctype.patient_appointment.patient_appointment.send_appointment_reminder for newbench.new
2021-12-23 11:36:59,489 INFO scheduler Scheduled Job Complete: erpnext.healthcare.doctype.patient_appointment.patient_appointment.send_appointment_reminder for newbench.new
2021-12-23 11:36:59,648 INFO scheduler Scheduled Job Start: erpnext.projects.doctype.project.project.project_status_update_reminder for newbench.new
2021-12-23 11:37:00,374 INFO scheduler Scheduled Job Complete: erpnext.projects.doctype.project.project.project_status_update_reminder for newbench.new
2021-12-23 11:37:00,537 INFO scheduler Scheduled Job Start: frappe.monitor.flush for newbench.new
2021-12-23 11:37:01,177 INFO scheduler Scheduled Job Complete: frappe.monitor.flush for newbench.new
2021-12-23 11:37:01,342 INFO scheduler Scheduled Job Start: frappe.utils.global_search.sync_global_search for newbench.new
2021-12-23 11:37:01,805 INFO scheduler Scheduled Job Complete: frappe.utils.global_search.sync_global_search for newbench.new
2021-12-23 11:37:02,017 INFO scheduler Scheduled Job Start: frappe.integrations.doctype.razorpay_settings.razorpay_settings.capture_payment for newbench.new
2021-12-23 11:37:02,837 INFO scheduler Scheduled Job Complete: frappe.integrations.doctype.razorpay_settings.razorpay_settings.capture_payment for newbench.new
2021-12-23 11:37:03,009 INFO scheduler Scheduled Job Start: frappe.email.doctype.email_account.email_account.notify_unreplied for newbench.new
2021-12-23 11:37:03,721 INFO scheduler Scheduled Job Complete: frappe.email.doctype.email_account.email_account.notify_unreplied for newbench.new
2021-12-23 11:37:03,880 INFO scheduler Scheduled Job Start: frappe.email.doctype.email_account.email_account.pull for newbench.new
2021-12-23 11:37:04,659 INFO scheduler Scheduled Job Complete: frappe.email.doctype.email_account.email_account.pull for newbench.new
2021-12-23 11:37:04,810 INFO scheduler Scheduled Job Start: frappe.email.queue.flush for newbench.new
2021-12-23 11:37:05,273 INFO scheduler Scheduled Job Complete: frappe.email.queue.flush for newbench.new
2021-12-23 11:37:58,857 DEBUG scheduler Queued events for site newbench.new
2021-12-23 11:38:59,569 DEBUG scheduler Queued events for site newbench.new
2021-12-23 11:40:00,513 DEBUG scheduler Queued events for site newbench.new
2021-12-23 11:40:02,385 INFO scheduler Scheduled Job Start: erpnext.crm.doctype.social_media_post.social_media_post.process_scheduled_social_media_posts for newbench.new
2021-12-23 11:40:06,021 INFO scheduler Scheduled Job Complete: erpnext.crm.doctype.social_media_post.social_media_post.process_scheduled_social_media_posts for newbench.new
2021-12-23 11:40:06,194 INFO scheduler Scheduled Job Start: erpnext.hr.doctype.interview.interview.send_interview_reminder for newbench.new
2021-12-23 11:40:06,922 INFO scheduler Scheduled Job Complete: erpnext.hr.doctype.interview.interview.send_interview_reminder for newbench.new
2021-12-23 11:40:07,075 INFO scheduler Scheduled Job Start: erpnext.healthcare.doctype.patient_appointment.patient_appointment.send_appointment_reminder for newbench.new
2021-12-23 11:40:08,257 INFO scheduler Scheduled Job Complete: erpnext.healthcare.doctype.patient_appointment.patient_appointment.send_appointment_reminder for newbench.new
2021-12-23 11:40:08,410 INFO scheduler Scheduled Job Start: erpnext.projects.doctype.project.project.project_status_update_reminder for newbench.new
2021-12-23 11:40:10,388 INFO scheduler Scheduled Job Complete: erpnext.projects.doctype.project.project.project_status_update_reminder for newbench.new
2021-12-23 11:40:10,542 INFO scheduler Scheduled Job Start: frappe.monitor.flush for newbench.new
2021-12-23 11:40:11,019 INFO scheduler Scheduled Job Complete: frappe.monitor.flush for newbench.new
2021-12-23 11:40:11,175 INFO scheduler Scheduled Job Start: frappe.utils.global_search.sync_global_search for newbench.new
2021-12-23 11:40:11,583 INFO scheduler Scheduled Job Complete: frappe.utils.global_search.sync_global_search for newbench.new
2021-12-23 11:40:11,769 INFO scheduler Scheduled Job Start: frappe.integrations.doctype.razorpay_settings.razorpay_settings.capture_payment for newbench.new
2021-12-23 11:40:14,081 INFO scheduler Scheduled Job Complete: frappe.integrations.doctype.razorpay_settings.razorpay_settings.capture_payment for newbench.new
2021-12-23 11:40:14,240 INFO scheduler Scheduled Job Start: frappe.email.doctype.email_account.email_account.notify_unreplied for newbench.new
2021-12-23 11:40:15,700 INFO scheduler Scheduled Job Complete: frappe.email.doctype.email_account.email_account.notify_unreplied for newbench.new
2021-12-23 11:40:15,861 INFO scheduler Scheduled Job Start: frappe.email.doctype.email_account.email_account.pull for newbench.new
2021-12-23 11:40:16,489 INFO scheduler Scheduled Job Complete: frappe.email.doctype.email_account.email_account.pull for newbench.new
2021-12-23 11:40:16,643 INFO scheduler Scheduled Job Start: frappe.email.queue.flush for newbench.new
2021-12-23 11:40:17,175 INFO scheduler Scheduled Job Complete: frappe.email.queue.flush for newbench.new
2021-12-23 11:41:01,166 DEBUG scheduler Queued events for site newbench.new
2021-12-23 11:42:01,850 DEBUG scheduler Queued events for site newbench.new
2021-12-23 11:43:02,546 DEBUG scheduler Queued events for site newbench.new
2021-12-23 11:44:03,155 INFO scheduler Scheduled Job Start: erpnext.crm.doctype.social_media_post.social_media_post.process_scheduled_social_media_posts for newbench.new
2021-12-23 11:44:03,354 DEBUG scheduler Queued events for site newbench.new
2021-12-23 11:44:03,783 INFO scheduler Scheduled Job Complete: erpnext.crm.doctype.social_media_post.social_media_post.process_scheduled_social_media_posts for newbench.new
2021-12-23 11:44:03,935 INFO scheduler Scheduled Job Start: erpnext.hr.doctype.interview.interview.send_interview_reminder for newbench.new
2021-12-23 11:44:04,461 INFO scheduler Scheduled Job Complete: erpnext.hr.doctype.interview.interview.send_interview_reminder for newbench.new
2021-12-23 11:44:04,616 INFO scheduler Scheduled Job Start: erpnext.healthcare.doctype.patient_appointment.patient_appointment.send_appointment_reminder for newbench.new
2021-12-23 11:44:05,085 INFO scheduler Scheduled Job Complete: erpnext.healthcare.doctype.patient_appointment.patient_appointment.send_appointment_reminder for newbench.new
2021-12-23 11:44:05,244 INFO scheduler Scheduled Job Start: erpnext.projects.doctype.project.project.project_status_update_reminder for newbench.new
2021-12-23 11:44:06,051 INFO scheduler Scheduled Job Complete: erpnext.projects.doctype.project.project.project_status_update_reminder for newbench.new
2021-12-23 11:44:06,204 INFO scheduler Scheduled Job Start: frappe.monitor.flush for newbench.new
2021-12-23 11:44:06,615 INFO scheduler Scheduled Job Complete: frappe.monitor.flush for newbench.new
2021-12-23 11:44:06,772 INFO scheduler Scheduled Job Start: frappe.utils.global_search.sync_global_search for newbench.new
2021-12-23 11:44:07,180 INFO scheduler Scheduled Job Complete: frappe.utils.global_search.sync_global_search for newbench.new
2021-12-23 11:44:07,334 INFO scheduler Scheduled Job Start: frappe.integrations.doctype.razorpay_settings.razorpay_settings.capture_payment for newbench.new
2021-12-23 11:44:08,119 INFO scheduler Scheduled Job Complete: frappe.integrations.doctype.razorpay_settings.razorpay_settings.capture_payment for newbench.new
2021-12-23 11:44:08,271 INFO scheduler Scheduled Job Start: frappe.email.doctype.email_account.email_account.notify_unreplied for newbench.new
2021-12-23 11:44:08,835 INFO scheduler Scheduled Job Complete: frappe.email.doctype.email_account.email_account.notify_unreplied for newbench.new
2021-12-23 11:44:08,986 INFO scheduler Scheduled Job Start: frappe.email.doctype.email_account.email_account.pull for newbench.new
2021-12-23 11:44:09,690 INFO scheduler Scheduled Job Complete: frappe.email.doctype.email_account.email_account.pull for newbench.new
2021-12-23 11:44:09,843 INFO scheduler Scheduled Job Start: frappe.email.queue.flush for newbench.new
2021-12-23 11:44:10,353 INFO scheduler Scheduled Job Complete: frappe.email.queue.flush for newbench.new
2021-12-23 11:45:04,138 DEBUG scheduler Queued events for site newbench.new
2021-12-23 11:45:04,253 INFO scheduler Scheduled Job Start: frappe.twofactor.delete_all_barcodes_for_users for newbench.new
2021-12-23 11:45:05,832 INFO scheduler Scheduled Job Complete: frappe.twofactor.delete_all_barcodes_for_users for newbench.new
2021-12-23 11:45:06,131 INFO scheduler Scheduled Job Start: frappe.website.doctype.web_page.web_page.check_publish_status for newbench.new
2021-12-23 11:45:07,466 INFO scheduler Scheduled Job Complete: frappe.website.doctype.web_page.web_page.check_publish_status for newbench.new
2021-12-23 11:45:07,686 INFO scheduler Scheduled Job Start: frappe.oauth.delete_oauth2_data for newbench.new
2021-12-23 11:45:08,817 INFO scheduler Scheduled Job Complete: frappe.oauth.delete_oauth2_data for newbench.new
2021-12-23 11:46:04,830 DEBUG scheduler Queued events for site newbench.new
2021-12-23 11:47:05,696 DEBUG scheduler Queued events for site newbench.new
2021-12-23 11:48:06,648 DEBUG scheduler Queued events for site newbench.new
2021-12-23 11:48:09,544 INFO scheduler Scheduled Job Start: erpnext.crm.doctype.social_media_post.social_media_post.process_scheduled_social_media_posts for newbench.new
2021-12-23 11:48:13,083 INFO scheduler Scheduled Job Complete: erpnext.crm.doctype.social_media_post.social_media_post.process_scheduled_social_media_posts for newbench.new
2021-12-23 11:48:13,256 INFO scheduler Scheduled Job Start: erpnext.hr.doctype.interview.interview.send_interview_reminder for newbench.new
2021-12-23 11:48:14,652 INFO scheduler Scheduled Job Complete: erpnext.hr.doctype.interview.interview.send_interview_reminder for newbench.new
2021-12-23 11:48:14,812 INFO scheduler Scheduled Job Start: erpnext.healthcare.doctype.patient_appointment.patient_appointment.send_appointment_reminder for newbench.new
2021-12-23 11:48:15,895 INFO scheduler Scheduled Job Complete: erpnext.healthcare.doctype.patient_appointment.patient_appointment.send_appointment_reminder for newbench.new
2021-12-23 11:48:16,051 INFO scheduler Scheduled Job Start: erpnext.projects.doctype.project.project.project_status_update_reminder for newbench.new
2021-12-23 11:48:18,511 INFO scheduler Scheduled Job Complete: erpnext.projects.doctype.project.project.project_status_update_reminder for newbench.new
2021-12-23 11:48:18,689 INFO scheduler Scheduled Job Start: frappe.monitor.flush for newbench.new
2021-12-23 11:48:19,187 INFO scheduler Scheduled Job Complete: frappe.monitor.flush for newbench.new
2021-12-23 11:48:19,347 INFO scheduler Scheduled Job Start: frappe.utils.global_search.sync_global_search for newbench.new
2021-12-23 11:48:19,785 INFO scheduler Scheduled Job Complete: frappe.utils.global_search.sync_global_search for newbench.new
2021-12-23 11:48:19,965 INFO scheduler Scheduled Job Start: frappe.integrations.doctype.razorpay_settings.razorpay_settings.capture_payment for newbench.new
2021-12-23 11:48:22,311 INFO scheduler Scheduled Job Complete: frappe.integrations.doctype.razorpay_settings.razorpay_settings.capture_payment for newbench.new
2021-12-23 11:48:22,465 INFO scheduler Scheduled Job Start: frappe.email.doctype.email_account.email_account.notify_unreplied for newbench.new
2021-12-23 11:48:26,522 INFO scheduler Scheduled Job Complete: frappe.email.doctype.email_account.email_account.notify_unreplied for newbench.new
2021-12-23 11:48:26,687 INFO scheduler Scheduled Job Start: frappe.email.doctype.email_account.email_account.pull for newbench.new
2021-12-23 11:48:27,681 INFO scheduler Scheduled Job Complete: frappe.email.doctype.email_account.email_account.pull for newbench.new
2021-12-23 11:48:27,836 INFO scheduler Scheduled Job Start: frappe.email.queue.flush for newbench.new
2021-12-23 11:48:28,354 INFO scheduler Scheduled Job Complete: frappe.email.queue.flush for newbench.new
2021-12-23 11:49:07,317 DEBUG scheduler Queued events for site newbench.new
2021-12-23 11:50:14,425 DEBUG scheduler Queued events for site newbench.new
2021-12-23 11:51:15,585 DEBUG scheduler Queued events for site newbench.new
2021-12-23 11:52:16,676 DEBUG scheduler Queued events for site newbench.new
2021-12-23 11:52:17,263 INFO scheduler Scheduled Job Start: erpnext.crm.doctype.social_media_post.social_media_post.process_scheduled_social_media_posts for newbench.new
2021-12-23 11:52:19,547 INFO scheduler Scheduled Job Complete: erpnext.crm.doctype.social_media_post.social_media_post.process_scheduled_social_media_posts for newbench.new
2021-12-23 11:52:19,713 INFO scheduler Scheduled Job Start: erpnext.hr.doctype.interview.interview.send_interview_reminder for newbench.new
2021-12-23 11:52:20,299 INFO scheduler Scheduled Job Complete: erpnext.hr.doctype.interview.interview.send_interview_reminder for newbench.new
2021-12-23 11:52:20,458 INFO scheduler Scheduled Job Start: erpnext.healthcare.doctype.patient_appointment.patient_appointment.send_appointment_reminder for newbench.new
2021-12-23 11:52:21,071 INFO scheduler Scheduled Job Complete: erpnext.healthcare.doctype.patient_appointment.patient_appointment.send_appointment_reminder for newbench.new
2021-12-23 11:52:21,227 INFO scheduler Scheduled Job Start: erpnext.projects.doctype.project.project.project_status_update_reminder for newbench.new
2021-12-23 11:52:22,606 INFO scheduler Scheduled Job Complete: erpnext.projects.doctype.project.project.project_status_update_reminder for newbench.new
2021-12-23 11:52:22,759 INFO scheduler Scheduled Job Start: frappe.monitor.flush for newbench.new
2021-12-23 11:52:23,170 INFO scheduler Scheduled Job Complete: frappe.monitor.flush for newbench.new
2021-12-23 11:52:23,327 INFO scheduler Scheduled Job Start: frappe.utils.global_search.sync_global_search for newbench.new
2021-12-23 11:52:23,831 INFO scheduler Scheduled Job Complete: frappe.utils.global_search.sync_global_search for newbench.new
2021-12-23 11:52:23,989 INFO scheduler Scheduled Job Start: frappe.integrations.doctype.razorpay_settings.razorpay_settings.capture_payment for newbench.new
2021-12-23 11:52:25,202 INFO scheduler Scheduled Job Complete: frappe.integrations.doctype.razorpay_settings.razorpay_settings.capture_payment for newbench.new
2021-12-23 11:52:25,371 INFO scheduler Scheduled Job Start: frappe.email.doctype.email_account.email_account.notify_unreplied for newbench.new
2021-12-23 11:52:26,541 INFO scheduler Scheduled Job Complete: frappe.email.doctype.email_account.email_account.notify_unreplied for newbench.new
2021-12-23 11:52:26,705 INFO scheduler Scheduled Job Start: frappe.email.doctype.email_account.email_account.pull for newbench.new
2021-12-23 11:52:27,436 INFO scheduler Scheduled Job Complete: frappe.email.doctype.email_account.email_account.pull for newbench.new
2021-12-23 11:52:27,590 INFO scheduler Scheduled Job Start: frappe.email.queue.flush for newbench.new
2021-12-23 11:52:28,141 INFO scheduler Scheduled Job Complete: frappe.email.queue.flush for newbench.new
2021-12-23 11:53:17,452 DEBUG scheduler Queued events for site newbench.new
2021-12-23 11:54:18,262 DEBUG scheduler Queued events for site newbench.new
2021-12-23 11:55:19,033 DEBUG scheduler Queued events for site newbench.new
2021-12-23 11:56:19,730 INFO scheduler Scheduled Job Start: erpnext.crm.doctype.social_media_post.social_media_post.process_scheduled_social_media_posts for newbench.new
2021-12-23 11:56:20,045 DEBUG scheduler Queued events for site newbench.new
2021-12-23 11:56:20,265 INFO scheduler Scheduled Job Complete: erpnext.crm.doctype.social_media_post.social_media_post.process_scheduled_social_media_posts for newbench.new
2021-12-23 11:56:20,461 INFO scheduler Scheduled Job Start: erpnext.hr.doctype.interview.interview.send_interview_reminder for newbench.new
2021-12-23 11:56:21,186 INFO scheduler Scheduled Job Complete: erpnext.hr.doctype.interview.interview.send_interview_reminder for newbench.new
2021-12-23 11:56:21,355 INFO scheduler Scheduled Job Start: erpnext.healthcare.doctype.patient_appointment.patient_appointment.send_appointment_reminder for newbench.new
2021-12-23 11:56:21,905 INFO scheduler Scheduled Job Complete: erpnext.healthcare.doctype.patient_appointment.patient_appointment.send_appointment_reminder for newbench.new
2021-12-23 11:56:22,063 INFO scheduler Scheduled Job Start: erpnext.projects.doctype.project.project.project_status_update_reminder for newbench.new
2021-12-23 11:56:22,885 INFO scheduler Scheduled Job Complete: erpnext.projects.doctype.project.project.project_status_update_reminder for newbench.new
2021-12-23 11:56:23,053 INFO scheduler Scheduled Job Start: frappe.monitor.flush for newbench.new
2021-12-23 11:56:23,526 INFO scheduler Scheduled Job Complete: frappe.monitor.flush for newbench.new
2021-12-23 11:56:23,701 INFO scheduler Scheduled Job Start: frappe.utils.global_search.sync_global_search for newbench.new
2021-12-23 11:56:24,437 INFO scheduler Scheduled Job Complete: frappe.utils.global_search.sync_global_search for newbench.new
2021-12-23 11:56:24,616 INFO scheduler Scheduled Job Start: frappe.integrations.doctype.razorpay_settings.razorpay_settings.capture_payment for newbench.new
2021-12-23 11:56:25,381 INFO scheduler Scheduled Job Complete: frappe.integrations.doctype.razorpay_settings.razorpay_settings.capture_payment for newbench.new
2021-12-23 11:56:25,542 INFO scheduler Scheduled Job Start: frappe.email.doctype.email_account.email_account.notify_unreplied for newbench.new
2021-12-23 11:56:26,163 INFO scheduler Scheduled Job Complete: frappe.email.doctype.email_account.email_account.notify_unreplied for newbench.new
2021-12-23 11:56:26,331 INFO scheduler Scheduled Job Start: frappe.email.doctype.email_account.email_account.pull for newbench.new
2021-12-23 11:56:27,026 INFO scheduler Scheduled Job Complete: frappe.email.doctype.email_account.email_account.pull for newbench.new
2021-12-23 11:56:27,181 INFO scheduler Scheduled Job Start: frappe.email.queue.flush for newbench.new
2021-12-23 11:56:27,649 INFO scheduler Scheduled Job Complete: frappe.email.queue.flush for newbench.new
2021-12-23 11:57:20,882 DEBUG scheduler Queued events for site newbench.new
2021-12-23 11:58:21,684 DEBUG scheduler Queued events for site newbench.new
2021-12-23 11:59:22,369 DEBUG scheduler Queued events for site newbench.new
2021-12-23 12:00:23,127 INFO scheduler Scheduled Job Start: erpnext.erpnext_integrations.connectors.shopify_connection.sync_old_orders for newbench.new
2021-12-23 12:00:23,898 DEBUG scheduler Queued events for site newbench.new
2021-12-23 12:00:36,887 INFO scheduler Scheduled Job Complete: erpnext.erpnext_integrations.connectors.shopify_connection.sync_old_orders for newbench.new
2021-12-23 12:00:37,328 INFO scheduler Scheduled Job Start: erpnext.support.doctype.issue.issue.set_service_level_agreement_variance for newbench.new
2021-12-23 12:00:38,399 INFO scheduler Scheduled Job Complete: erpnext.support.doctype.issue.issue.set_service_level_agreement_variance for newbench.new
2021-12-23 12:00:38,744 INFO scheduler Scheduled Job Start: erpnext.hr.doctype.shift_type.shift_type.process_auto_attendance_for_all_shifts for newbench.new
2021-12-23 12:00:40,067 INFO scheduler Scheduled Job Complete: erpnext.hr.doctype.shift_type.shift_type.process_auto_attendance_for_all_shifts for newbench.new
2021-12-23 12:00:40,624 INFO scheduler Scheduled Job Start: erpnext.projects.doctype.project.project.collect_project_status for newbench.new
2021-12-23 12:00:41,574 INFO scheduler Scheduled Job Complete: erpnext.projects.doctype.project.project.collect_project_status for newbench.new
2021-12-23 12:00:41,942 INFO scheduler Scheduled Job Start: erpnext.projects.doctype.project.project.hourly_reminder for newbench.new
2021-12-23 12:00:42,917 INFO scheduler Scheduled Job Complete: erpnext.projects.doctype.project.project.hourly_reminder for newbench.new
2021-12-23 12:00:43,421 INFO scheduler Scheduled Job Start: erpnext.erpnext_integrations.doctype.plaid_settings.plaid_settings.automatic_synchronization for newbench.new
2021-12-23 12:00:46,282 INFO scheduler Scheduled Job Complete: erpnext.erpnext_integrations.doctype.plaid_settings.plaid_settings.automatic_synchronization for newbench.new
2021-12-23 12:00:46,633 INFO scheduler Scheduled Job Start: erpnext.accounts.doctype.gl_entry.gl_entry.rename_gle_sle_docs for newbench.new
2021-12-23 12:00:48,483 INFO scheduler Scheduled Job Complete: erpnext.accounts.doctype.gl_entry.gl_entry.rename_gle_sle_docs for newbench.new
2021-12-23 12:00:49,006 INFO scheduler Scheduled Job Start: erpnext.erpnext_integrations.doctype.amazon_mws_settings.amazon_mws_settings.schedule_get_order_details for newbench.new
2021-12-23 12:00:50,166 INFO scheduler Scheduled Job Complete: erpnext.erpnext_integrations.doctype.amazon_mws_settings.amazon_mws_settings.schedule_get_order_details for newbench.new
2021-12-23 12:00:50,493 INFO scheduler Scheduled Job Start: erpnext.accounts.doctype.subscription.subscription.process_all for newbench.new
2021-12-23 12:00:51,685 INFO scheduler Scheduled Job Complete: erpnext.accounts.doctype.subscription.subscription.process_all for newbench.new
2021-12-23 12:00:51,997 INFO scheduler Scheduled Job Start: erpnext.hr.doctype.daily_work_summary_group.daily_work_summary_group.trigger_emails for newbench.new
2021-12-23 12:00:53,275 INFO scheduler Scheduled Job Complete: erpnext.hr.doctype.daily_work_summary_group.daily_work_summary_group.trigger_emails for newbench.new
2021-12-23 12:00:53,593 INFO scheduler Scheduled Job Start: erpnext.crm.doctype.social_media_post.social_media_post.process_scheduled_social_media_posts for newbench.new
2021-12-23 12:00:54,176 INFO scheduler Scheduled Job Complete: erpnext.crm.doctype.social_media_post.social_media_post.process_scheduled_social_media_posts for newbench.new
2021-12-23 12:00:54,330 INFO scheduler Scheduled Job Start: erpnext.hr.doctype.interview.interview.send_interview_reminder for newbench.new
2021-12-23 12:00:55,236 INFO scheduler Scheduled Job Complete: erpnext.hr.doctype.interview.interview.send_interview_reminder for newbench.new
2021-12-23 12:00:55,391 INFO scheduler Scheduled Job Start: erpnext.healthcare.doctype.patient_appointment.patient_appointment.send_appointment_reminder for newbench.new
2021-12-23 12:00:56,252 INFO scheduler Scheduled Job Complete: erpnext.healthcare.doctype.patient_appointment.patient_appointment.send_appointment_reminder for newbench.new
2021-12-23 12:00:56,405 INFO scheduler Scheduled Job Start: erpnext.projects.doctype.project.project.project_status_update_reminder for newbench.new
2021-12-23 12:00:57,279 INFO scheduler Scheduled Job Complete: erpnext.projects.doctype.project.project.project_status_update_reminder for newbench.new
2021-12-23 12:00:57,627 INFO scheduler Scheduled Job Start: erpnext.utilities.doctype.video.video.update_youtube_data for newbench.new
2021-12-23 12:00:58,414 INFO scheduler Scheduled Job Start: erpnext.stock.doctype.repost_item_valuation.repost_item_valuation.repost_entries for newbench.new
2021-12-23 12:01:02,855 INFO scheduler Scheduled Job Failed: erpnext.utilities.doctype.video.video.update_youtube_data for newbench.new
2021-12-23 12:01:03,290 INFO scheduler Scheduled Job Start: frappe.email.doctype.newsletter.newsletter.send_scheduled_email for newbench.new
2021-12-23 12:01:04,295 INFO scheduler Scheduled Job Complete: frappe.email.doctype.newsletter.newsletter.send_scheduled_email for newbench.new
2021-12-23 12:01:04,763 INFO scheduler Scheduled Job Start: frappe.integrations.doctype.google_calendar.google_calendar.sync for newbench.new
2021-12-23 12:01:15,243 INFO scheduler Scheduled Job Complete: frappe.integrations.doctype.google_calendar.google_calendar.sync for newbench.new
2021-12-23 12:01:16,076 INFO scheduler Scheduled Job Start: frappe.desk.form.document_follow.send_hourly_updates for newbench.new
2021-12-23 12:01:17,668 INFO scheduler Scheduled Job Complete: frappe.desk.form.document_follow.send_hourly_updates for newbench.new
2021-12-23 12:01:18,041 INFO scheduler Scheduled Job Start: frappe.deferred_insert.save_to_db for newbench.new
2021-12-23 12:01:20,704 INFO scheduler Scheduled Job Complete: frappe.deferred_insert.save_to_db for newbench.new
2021-12-23 12:01:20,734 INFO scheduler Scheduled Job Complete: erpnext.stock.doctype.repost_item_valuation.repost_item_valuation.repost_entries for newbench.new
2021-12-23 12:01:21,245 INFO scheduler Scheduled Job Start: frappe.desk.page.backups.backups.delete_downloadable_backups for newbench.new
2021-12-23 12:01:22,722 INFO scheduler Scheduled Job Complete: frappe.desk.page.backups.backups.delete_downloadable_backups for newbench.new
2021-12-23 12:01:23,069 INFO scheduler Scheduled Job Start: frappe.utils.error.collect_error_snapshots for newbench.new
2021-12-23 12:01:24,070 INFO scheduler Scheduled Job Complete: frappe.utils.error.collect_error_snapshots for newbench.new
2021-12-23 12:01:24,671 INFO scheduler Scheduled Job Start: frappe.model.utils.user_settings.sync_user_settings for newbench.new
2021-12-23 12:01:25,554 INFO scheduler Scheduled Job Complete: frappe.model.utils.user_settings.sync_user_settings for newbench.new
2021-12-23 12:01:26,191 INFO scheduler Scheduled Job Start: frappe.model.utils.link_count.update_link_count for newbench.new
2021-12-23 12:01:27,185 INFO scheduler Scheduled Job Complete: frappe.model.utils.link_count.update_link_count for newbench.new
2021-12-23 12:01:27,498 DEBUG scheduler Queued events for site newbench.new
2021-12-23 12:01:27,698 INFO scheduler Scheduled Job Start: frappe.monitor.flush for newbench.new
2021-12-23 12:01:28,306 INFO scheduler Scheduled Job Complete: frappe.monitor.flush for newbench.new
2021-12-23 12:01:28,912 INFO scheduler Scheduled Job Start: frappe.utils.global_search.sync_global_search for newbench.new
2021-12-23 12:01:29,517 INFO scheduler Scheduled Job Complete: frappe.utils.global_search.sync_global_search for newbench.new
2021-12-23 12:01:29,892 INFO scheduler Scheduled Job Start: frappe.integrations.doctype.razorpay_settings.razorpay_settings.capture_payment for newbench.new
2021-12-23 12:01:30,958 INFO scheduler Scheduled Job Complete: frappe.integrations.doctype.razorpay_settings.razorpay_settings.capture_payment for newbench.new
2021-12-23 12:01:31,163 INFO scheduler Scheduled Job Start: frappe.email.doctype.email_account.email_account.notify_unreplied for newbench.new
2021-12-23 12:01:31,957 INFO scheduler Scheduled Job Complete: frappe.email.doctype.email_account.email_account.notify_unreplied for newbench.new
2021-12-23 12:01:32,119 INFO scheduler Scheduled Job Start: frappe.email.doctype.email_account.email_account.pull for newbench.new
2021-12-23 12:01:32,819 INFO scheduler Scheduled Job Complete: frappe.email.doctype.email_account.email_account.pull for newbench.new
2021-12-23 12:01:32,984 INFO scheduler Scheduled Job Start: frappe.email.queue.flush for newbench.new
2021-12-23 12:01:33,504 INFO scheduler Scheduled Job Complete: frappe.email.queue.flush for newbench.new
2021-12-23 12:01:33,986 INFO scheduler Scheduled Job Start: frappe.twofactor.delete_all_barcodes_for_users for newbench.new
2021-12-23 12:01:35,632 INFO scheduler Scheduled Job Complete: frappe.twofactor.delete_all_barcodes_for_users for newbench.new
2021-12-23 12:01:36,001 INFO scheduler Scheduled Job Start: frappe.website.doctype.web_page.web_page.check_publish_status for newbench.new
2021-12-23 12:01:37,576 INFO scheduler Scheduled Job Complete: frappe.website.doctype.web_page.web_page.check_publish_status for newbench.new
2021-12-23 12:01:38,006 INFO scheduler Scheduled Job Start: frappe.oauth.delete_oauth2_data for newbench.new
2021-12-23 12:01:39,805 INFO scheduler Scheduled Job Complete: frappe.oauth.delete_oauth2_data for newbench.new
2021-12-23 12:02:29,457 DEBUG scheduler Queued events for site newbench.new
2021-12-23 12:03:30,275 DEBUG scheduler Queued events for site newbench.new
2021-12-23 12:04:31,108 INFO scheduler Scheduled Job Start: erpnext.crm.doctype.social_media_post.social_media_post.process_scheduled_social_media_posts for newbench.new
2021-12-23 12:04:31,189 DEBUG scheduler Queued events for site newbench.new
2021-12-23 12:04:31,998 INFO scheduler Scheduled Job Complete: erpnext.crm.doctype.social_media_post.social_media_post.process_scheduled_social_media_posts for newbench.new
2021-12-23 12:04:32,158 INFO scheduler Scheduled Job Start: erpnext.hr.doctype.interview.interview.send_interview_reminder for newbench.new
2021-12-23 12:04:33,096 INFO scheduler Scheduled Job Complete: erpnext.hr.doctype.interview.interview.send_interview_reminder for newbench.new
2021-12-23 12:04:33,254 INFO scheduler Scheduled Job Start: erpnext.healthcare.doctype.patient_appointment.patient_appointment.send_appointment_reminder for newbench.new
2021-12-23 12:04:34,042 INFO scheduler Scheduled Job Complete: erpnext.healthcare.doctype.patient_appointment.patient_appointment.send_appointment_reminder for newbench.new
2021-12-23 12:04:34,196 INFO scheduler Scheduled Job Start: erpnext.projects.doctype.project.project.project_status_update_reminder for newbench.new
2021-12-23 12:04:35,523 INFO scheduler Scheduled Job Complete: erpnext.projects.doctype.project.project.project_status_update_reminder for newbench.new
2021-12-23 12:04:35,678 INFO scheduler Scheduled Job Start: frappe.monitor.flush for newbench.new
2021-12-23 12:04:36,182 INFO scheduler Scheduled Job Complete: frappe.monitor.flush for newbench.new
2021-12-23 12:04:36,338 INFO scheduler Scheduled Job Start: frappe.utils.global_search.sync_global_search for newbench.new
2021-12-23 12:04:37,035 INFO scheduler Scheduled Job Complete: frappe.utils.global_search.sync_global_search for newbench.new
2021-12-23 12:04:37,196 INFO scheduler Scheduled Job Start: frappe.integrations.doctype.razorpay_settings.razorpay_settings.capture_payment for newbench.new
2021-12-23 12:04:38,132 INFO scheduler Scheduled Job Complete: frappe.integrations.doctype.razorpay_settings.razorpay_settings.capture_payment for newbench.new
2021-12-23 12:04:38,293 INFO scheduler Scheduled Job Start: frappe.email.doctype.email_account.email_account.notify_unreplied for newbench.new
2021-12-23 12:04:38,943 INFO scheduler Scheduled Job Complete: frappe.email.doctype.email_account.email_account.notify_unreplied for newbench.new
2021-12-23 12:04:39,102 INFO scheduler Scheduled Job Start: frappe.email.doctype.email_account.email_account.pull for newbench.new
2021-12-23 12:04:39,764 INFO scheduler Scheduled Job Complete: frappe.email.doctype.email_account.email_account.pull for newbench.new
2021-12-23 12:04:39,919 INFO scheduler Scheduled Job Start: frappe.email.queue.flush for newbench.new
2021-12-23 12:04:40,486 INFO scheduler Scheduled Job Complete: frappe.email.queue.flush for newbench.new
2021-12-23 12:05:31,850 DEBUG scheduler Queued events for site newbench.new
2021-12-23 12:06:32,558 DEBUG scheduler Queued events for site newbench.new
2021-12-23 12:07:33,483 DEBUG scheduler Queued events for site newbench.new
2021-12-23 12:08:34,231 INFO scheduler Scheduled Job Start: erpnext.crm.doctype.social_media_post.social_media_post.process_scheduled_social_media_posts for newbench.new
2021-12-23 12:08:34,304 DEBUG scheduler Queued events for site newbench.new
2021-12-23 12:08:35,522 INFO scheduler Scheduled Job Complete: erpnext.crm.doctype.social_media_post.social_media_post.process_scheduled_social_media_posts for newbench.new
2021-12-23 12:08:35,679 INFO scheduler Scheduled Job Start: erpnext.hr.doctype.interview.interview.send_interview_reminder for newbench.new
2021-12-23 12:08:36,393 INFO scheduler Scheduled Job Complete: erpnext.hr.doctype.interview.interview.send_interview_reminder for newbench.new
2021-12-23 12:08:36,551 INFO scheduler Scheduled Job Start: erpnext.healthcare.doctype.patient_appointment.patient_appointment.send_appointment_reminder for newbench.new
2021-12-23 12:08:37,369 INFO scheduler Scheduled Job Complete: erpnext.healthcare.doctype.patient_appointment.patient_appointment.send_appointment_reminder for newbench.new
2021-12-23 12:08:37,524 INFO scheduler Scheduled Job Start: erpnext.projects.doctype.project.project.project_status_update_reminder for newbench.new
2021-12-23 12:08:39,133 INFO scheduler Scheduled Job Complete: erpnext.projects.doctype.project.project.project_status_update_reminder for newbench.new
2021-12-23 12:08:39,287 INFO scheduler Scheduled Job Start: frappe.monitor.flush for newbench.new
2021-12-23 12:08:39,744 INFO scheduler Scheduled Job Complete: frappe.monitor.flush for newbench.new
2021-12-23 12:08:39,900 INFO scheduler Scheduled Job Start: frappe.utils.global_search.sync_global_search for newbench.new
2021-12-23 12:08:40,360 INFO scheduler Scheduled Job Complete: frappe.utils.global_search.sync_global_search for newbench.new
2021-12-23 12:08:40,516 INFO scheduler Scheduled Job Start: frappe.integrations.doctype.razorpay_settings.razorpay_settings.capture_payment for newbench.new
2021-12-23 12:08:41,240 INFO scheduler Scheduled Job Complete: frappe.integrations.doctype.razorpay_settings.razorpay_settings.capture_payment for newbench.new
2021-12-23 12:08:41,409 INFO scheduler Scheduled Job Start: frappe.email.doctype.email_account.email_account.notify_unreplied for newbench.new
2021-12-23 12:08:42,232 INFO scheduler Scheduled Job Complete: frappe.email.doctype.email_account.email_account.notify_unreplied for newbench.new
2021-12-23 12:08:42,391 INFO scheduler Scheduled Job Start: frappe.email.doctype.email_account.email_account.pull for newbench.new
2021-12-23 12:08:43,013 INFO scheduler Scheduled Job Complete: frappe.email.doctype.email_account.email_account.pull for newbench.new
2021-12-23 12:08:43,169 INFO scheduler Scheduled Job Start: frappe.email.queue.flush for newbench.new
2021-12-23 12:08:43,692 INFO scheduler Scheduled Job Complete: frappe.email.queue.flush for newbench.new
2021-12-23 12:09:34,968 DEBUG scheduler Queued events for site newbench.new
2021-12-23 12:10:35,765 DEBUG scheduler Queued events for site newbench.new
2021-12-23 12:11:36,528 DEBUG scheduler Queued events for site newbench.new
2021-12-23 12:12:37,146 INFO scheduler Scheduled Job Start: erpnext.crm.doctype.social_media_post.social_media_post.process_scheduled_social_media_posts for newbench.new
2021-12-23 12:12:37,343 DEBUG scheduler Queued events for site newbench.new
2021-12-23 12:12:37,906 INFO scheduler Scheduled Job Complete: erpnext.crm.doctype.social_media_post.social_media_post.process_scheduled_social_media_posts for newbench.new
2021-12-23 12:12:38,061 INFO scheduler Scheduled Job Start: erpnext.hr.doctype.interview.interview.send_interview_reminder for newbench.new
2021-12-23 12:12:38,586 INFO scheduler Scheduled Job Complete: erpnext.hr.doctype.interview.interview.send_interview_reminder for newbench.new
2021-12-23 12:12:38,744 INFO scheduler Scheduled Job Start: erpnext.healthcare.doctype.patient_appointment.patient_appointment.send_appointment_reminder for newbench.new
2021-12-23 12:12:39,299 INFO scheduler Scheduled Job Complete: erpnext.healthcare.doctype.patient_appointment.patient_appointment.send_appointment_reminder for newbench.new
2021-12-23 12:12:39,453 INFO scheduler Scheduled Job Start: erpnext.projects.doctype.project.project.project_status_update_reminder for newbench.new
2021-12-23 12:12:40,169 INFO scheduler Scheduled Job Complete: erpnext.projects.doctype.project.project.project_status_update_reminder for newbench.new
2021-12-23 12:12:40,327 INFO scheduler Scheduled Job Start: frappe.monitor.flush for newbench.new
2021-12-23 12:12:40,741 INFO scheduler Scheduled Job Complete: frappe.monitor.flush for newbench.new
2021-12-23 12:12:40,904 INFO scheduler Scheduled Job Start: frappe.utils.global_search.sync_global_search for newbench.new
2021-12-23 12:12:41,461 INFO scheduler Scheduled Job Complete: frappe.utils.global_search.sync_global_search for newbench.new
2021-12-23 12:12:41,617 INFO scheduler Scheduled Job Start: frappe.integrations.doctype.razorpay_settings.razorpay_settings.capture_payment for newbench.new
2021-12-23 12:12:42,440 INFO scheduler Scheduled Job Complete: frappe.integrations.doctype.razorpay_settings.razorpay_settings.capture_payment for newbench.new
2021-12-23 12:12:42,594 INFO scheduler Scheduled Job Start: frappe.email.doctype.email_account.email_account.notify_unreplied for newbench.new
2021-12-23 12:12:43,153 INFO scheduler Scheduled Job Complete: frappe.email.doctype.email_account.email_account.notify_unreplied for newbench.new
2021-12-23 12:12:43,304 INFO scheduler Scheduled Job Start: frappe.email.doctype.email_account.email_account.pull for newbench.new
2021-12-23 12:12:43,901 INFO scheduler Scheduled Job Complete: frappe.email.doctype.email_account.email_account.pull for newbench.new
2021-12-23 12:12:44,057 INFO scheduler Scheduled Job Start: frappe.email.queue.flush for newbench.new
2021-12-23 12:12:44,596 INFO scheduler Scheduled Job Complete: frappe.email.queue.flush for newbench.new
2021-12-23 12:13:40,358 DEBUG scheduler Queued events for site newbench.new
2021-12-23 12:14:46,537 DEBUG scheduler Queued events for site newbench.new
2021-12-23 12:15:53,221 DEBUG scheduler Queued events for site newbench.new
2021-12-23 12:16:01,599 INFO scheduler Scheduled Job Start: frappe.twofactor.delete_all_barcodes_for_users for newbench.new
2021-12-23 12:16:26,389 INFO scheduler Scheduled Job Complete: frappe.twofactor.delete_all_barcodes_for_users for newbench.new
2021-12-23 12:16:33,611 INFO scheduler Scheduled Job Start: frappe.website.doctype.web_page.web_page.check_publish_status for newbench.new
2021-12-23 12:16:57,253 DEBUG scheduler Queued events for site newbench.new
2021-12-23 12:16:59,005 INFO scheduler Scheduled Job Complete: frappe.website.doctype.web_page.web_page.check_publish_status for newbench.new
2021-12-23 12:17:16,157 INFO scheduler Scheduled Job Start: frappe.oauth.delete_oauth2_data for newbench.new
2021-12-23 12:17:47,914 INFO scheduler Scheduled Job Complete: frappe.oauth.delete_oauth2_data for newbench.new
2021-12-23 12:18:05,880 DEBUG scheduler Queued events for site newbench.new
2021-12-23 12:18:06,824 INFO scheduler Scheduled Job Start: erpnext.crm.doctype.social_media_post.social_media_post.process_scheduled_social_media_posts for newbench.new
2021-12-23 12:18:28,614 INFO scheduler Scheduled Job Complete: erpnext.crm.doctype.social_media_post.social_media_post.process_scheduled_social_media_posts for newbench.new
2021-12-23 12:18:38,290 INFO scheduler Scheduled Job Start: erpnext.hr.doctype.interview.interview.send_interview_reminder for newbench.new
2021-12-23 12:18:58,326 INFO scheduler Scheduled Job Complete: erpnext.hr.doctype.interview.interview.send_interview_reminder for newbench.new
2021-12-23 12:19:07,443 DEBUG scheduler Queued events for site newbench.new
2021-12-23 12:19:08,536 INFO scheduler Scheduled Job Start: erpnext.healthcare.doctype.patient_appointment.patient_appointment.send_appointment_reminder for newbench.new
2021-12-23 12:19:30,022 INFO scheduler Scheduled Job Complete: erpnext.healthcare.doctype.patient_appointment.patient_appointment.send_appointment_reminder for newbench.new
2021-12-23 12:19:35,679 INFO scheduler Scheduled Job Start: erpnext.projects.doctype.project.project.project_status_update_reminder for newbench.new
2021-12-23 12:19:43,354 INFO scheduler Scheduled Job Complete: erpnext.projects.doctype.project.project.project_status_update_reminder for newbench.new
2021-12-23 12:19:43,512 INFO scheduler Scheduled Job Start: frappe.monitor.flush for newbench.new
2021-12-23 12:19:44,001 INFO scheduler Scheduled Job Complete: frappe.monitor.flush for newbench.new
2021-12-23 12:19:44,160 INFO scheduler Scheduled Job Start: frappe.utils.global_search.sync_global_search for newbench.new
2021-12-23 12:19:44,693 INFO scheduler Scheduled Job Complete: frappe.utils.global_search.sync_global_search for newbench.new
2021-12-23 12:19:44,872 INFO scheduler Scheduled Job Start: frappe.integrations.doctype.razorpay_settings.razorpay_settings.capture_payment for newbench.new
2021-12-23 12:20:07,215 INFO scheduler Scheduled Job Complete: frappe.integrations.doctype.razorpay_settings.razorpay_settings.capture_payment for newbench.new
2021-12-23 12:29:05,960 INFO scheduler Scheduled Job Start: erpnext.crm.doctype.social_media_post.social_media_post.process_scheduled_social_media_posts for newbench.new
2021-12-23 12:29:06,100 DEBUG scheduler Queued events for site newbench.new
2021-12-23 12:29:08,408 INFO scheduler Scheduled Job Complete: erpnext.crm.doctype.social_media_post.social_media_post.process_scheduled_social_media_posts for newbench.new
2021-12-23 12:29:08,613 INFO scheduler Scheduled Job Start: erpnext.hr.doctype.interview.interview.send_interview_reminder for newbench.new
2021-12-23 12:29:09,854 INFO scheduler Scheduled Job Complete: erpnext.hr.doctype.interview.interview.send_interview_reminder for newbench.new
2021-12-23 12:29:10,008 INFO scheduler Scheduled Job Start: erpnext.healthcare.doctype.patient_appointment.patient_appointment.send_appointment_reminder for newbench.new
2021-12-23 12:29:10,963 INFO scheduler Scheduled Job Complete: erpnext.healthcare.doctype.patient_appointment.patient_appointment.send_appointment_reminder for newbench.new
2021-12-23 12:29:11,129 INFO scheduler Scheduled Job Start: erpnext.projects.doctype.project.project.project_status_update_reminder for newbench.new
2021-12-23 12:29:13,089 INFO scheduler Scheduled Job Complete: erpnext.projects.doctype.project.project.project_status_update_reminder for newbench.new
2021-12-23 12:29:13,237 INFO scheduler Scheduled Job Start: frappe.monitor.flush for newbench.new
2021-12-23 12:29:13,664 INFO scheduler Scheduled Job Complete: frappe.monitor.flush for newbench.new
2021-12-23 12:29:13,808 INFO scheduler Scheduled Job Start: frappe.utils.global_search.sync_global_search for newbench.new
2021-12-23 12:29:14,234 INFO scheduler Scheduled Job Complete: frappe.utils.global_search.sync_global_search for newbench.new
2021-12-23 12:29:14,382 INFO scheduler Scheduled Job Start: frappe.integrations.doctype.razorpay_settings.razorpay_settings.capture_payment for newbench.new
2021-12-23 12:29:16,047 INFO scheduler Scheduled Job Complete: frappe.integrations.doctype.razorpay_settings.razorpay_settings.capture_payment for newbench.new
2021-12-23 12:29:16,192 INFO scheduler Scheduled Job Start: frappe.email.doctype.email_account.email_account.notify_unreplied for newbench.new
2021-12-23 12:29:19,365 INFO scheduler Scheduled Job Complete: frappe.email.doctype.email_account.email_account.notify_unreplied for newbench.new
2021-12-23 12:29:19,527 INFO scheduler Scheduled Job Start: frappe.email.doctype.email_account.email_account.pull for newbench.new
2021-12-23 12:29:20,389 INFO scheduler Scheduled Job Complete: frappe.email.doctype.email_account.email_account.pull for newbench.new
2021-12-23 12:29:20,534 INFO scheduler Scheduled Job Start: frappe.email.queue.flush for newbench.new
2021-12-23 12:29:21,011 INFO scheduler Scheduled Job Complete: frappe.email.queue.flush for newbench.new
2021-12-23 12:30:08,201 DEBUG scheduler Queued events for site newbench.new
2021-12-23 12:30:12,372 INFO scheduler Scheduled Job Start: erpnext.utilities.doctype.video.video.update_youtube_data for newbench.new
2021-12-23 12:30:21,572 INFO scheduler Scheduled Job Complete: erpnext.utilities.doctype.video.video.update_youtube_data for newbench.new
2021-12-23 12:30:21,806 INFO scheduler Scheduled Job Start: frappe.twofactor.delete_all_barcodes_for_users for newbench.new
2021-12-23 12:30:23,496 INFO scheduler Scheduled Job Complete: frappe.twofactor.delete_all_barcodes_for_users for newbench.new
2021-12-23 12:30:23,728 INFO scheduler Scheduled Job Start: frappe.website.doctype.web_page.web_page.check_publish_status for newbench.new
2021-12-23 12:30:25,999 INFO scheduler Scheduled Job Complete: frappe.website.doctype.web_page.web_page.check_publish_status for newbench.new
2021-12-23 12:30:26,223 INFO scheduler Scheduled Job Start: frappe.oauth.delete_oauth2_data for newbench.new
2021-12-23 12:30:27,311 INFO scheduler Scheduled Job Complete: frappe.oauth.delete_oauth2_data for newbench.new
2021-12-23 12:31:09,176 DEBUG scheduler Queued events for site newbench.new
2021-12-23 12:32:09,784 INFO scheduler Scheduled Job Start: erpnext.crm.doctype.social_media_post.social_media_post.process_scheduled_social_media_posts for newbench.new
2021-12-23 12:32:09,976 DEBUG scheduler Queued events for site newbench.new
2021-12-23 12:32:10,570 INFO scheduler Scheduled Job Complete: erpnext.crm.doctype.social_media_post.social_media_post.process_scheduled_social_media_posts for newbench.new
2021-12-23 12:32:10,739 INFO scheduler Scheduled Job Start: erpnext.hr.doctype.interview.interview.send_interview_reminder for newbench.new
2021-12-23 12:32:11,790 INFO scheduler Scheduled Job Complete: erpnext.hr.doctype.interview.interview.send_interview_reminder for newbench.new
2021-12-23 12:32:11,935 INFO scheduler Scheduled Job Start: erpnext.healthcare.doctype.patient_appointment.patient_appointment.send_appointment_reminder for newbench.new
2021-12-23 12:32:13,249 INFO scheduler Scheduled Job Complete: erpnext.healthcare.doctype.patient_appointment.patient_appointment.send_appointment_reminder for newbench.new
2021-12-23 12:32:13,396 INFO scheduler Scheduled Job Start: erpnext.projects.doctype.project.project.project_status_update_reminder for newbench.new
2021-12-23 12:32:15,052 INFO scheduler Scheduled Job Complete: erpnext.projects.doctype.project.project.project_status_update_reminder for newbench.new
2021-12-23 12:32:15,198 INFO scheduler Scheduled Job Start: frappe.monitor.flush for newbench.new
2021-12-23 12:32:15,723 INFO scheduler Scheduled Job Complete: frappe.monitor.flush for newbench.new
2021-12-23 12:32:15,873 INFO scheduler Scheduled Job Start: frappe.utils.global_search.sync_global_search for newbench.new
2021-12-23 12:32:16,314 INFO scheduler Scheduled Job Complete: frappe.utils.global_search.sync_global_search for newbench.new
2021-12-23 12:32:16,461 INFO scheduler Scheduled Job Start: frappe.integrations.doctype.razorpay_settings.razorpay_settings.capture_payment for newbench.new
2021-12-23 12:32:18,733 INFO scheduler Scheduled Job Complete: frappe.integrations.doctype.razorpay_settings.razorpay_settings.capture_payment for newbench.new
2021-12-23 12:32:18,882 INFO scheduler Scheduled Job Start: frappe.email.doctype.email_account.email_account.notify_unreplied for newbench.new
2021-12-23 12:32:19,779 INFO scheduler Scheduled Job Complete: frappe.email.doctype.email_account.email_account.notify_unreplied for newbench.new
2021-12-23 12:32:19,925 INFO scheduler Scheduled Job Start: frappe.email.doctype.email_account.email_account.pull for newbench.new
2021-12-23 12:32:20,539 INFO scheduler Scheduled Job Complete: frappe.email.doctype.email_account.email_account.pull for newbench.new
2021-12-23 12:32:20,689 INFO scheduler Scheduled Job Start: frappe.email.queue.flush for newbench.new
2021-12-23 12:32:21,212 INFO scheduler Scheduled Job Complete: frappe.email.queue.flush for newbench.new
2021-12-23 12:33:10,653 DEBUG scheduler Queued events for site newbench.new
2021-12-23 12:34:11,317 DEBUG scheduler Queued events for site newbench.new
2021-12-23 12:35:12,053 DEBUG scheduler Queued events for site newbench.new
2021-12-23 12:36:14,107 DEBUG scheduler Queued events for site newbench.new
2021-12-23 12:36:16,944 INFO scheduler Scheduled Job Start: erpnext.crm.doctype.social_media_post.social_media_post.process_scheduled_social_media_posts for newbench.new
2021-12-23 12:36:20,961 INFO scheduler Scheduled Job Complete: erpnext.crm.doctype.social_media_post.social_media_post.process_scheduled_social_media_posts for newbench.new
2021-12-23 12:36:21,111 INFO scheduler Scheduled Job Start: erpnext.hr.doctype.interview.interview.send_interview_reminder for newbench.new
2021-12-23 12:36:21,955 INFO scheduler Scheduled Job Complete: erpnext.hr.doctype.interview.interview.send_interview_reminder for newbench.new
2021-12-23 12:36:22,134 INFO scheduler Scheduled Job Start: erpnext.healthcare.doctype.patient_appointment.patient_appointment.send_appointment_reminder for newbench.new
2021-12-23 12:36:24,095 INFO scheduler Scheduled Job Complete: erpnext.healthcare.doctype.patient_appointment.patient_appointment.send_appointment_reminder for newbench.new
2021-12-23 12:36:24,289 INFO scheduler Scheduled Job Start: erpnext.projects.doctype.project.project.project_status_update_reminder for newbench.new
2021-12-23 12:36:31,711 INFO scheduler Scheduled Job Complete: erpnext.projects.doctype.project.project.project_status_update_reminder for newbench.new
2021-12-23 12:36:32,237 INFO scheduler Scheduled Job Start: frappe.monitor.flush for newbench.new
2021-12-23 12:36:32,948 INFO scheduler Scheduled Job Complete: frappe.monitor.flush for newbench.new
2021-12-23 12:36:33,130 INFO scheduler Scheduled Job Start: frappe.utils.global_search.sync_global_search for newbench.new
2021-12-23 12:36:33,734 INFO scheduler Scheduled Job Complete: frappe.utils.global_search.sync_global_search for newbench.new
2021-12-23 12:36:33,889 INFO scheduler Scheduled Job Start: frappe.integrations.doctype.razorpay_settings.razorpay_settings.capture_payment for newbench.new
2021-12-23 12:36:38,953 INFO scheduler Scheduled Job Complete: frappe.integrations.doctype.razorpay_settings.razorpay_settings.capture_payment for newbench.new
2021-12-23 12:36:39,114 INFO scheduler Scheduled Job Start: frappe.email.doctype.email_account.email_account.notify_unreplied for newbench.new
2021-12-23 12:36:43,270 INFO scheduler Scheduled Job Complete: frappe.email.doctype.email_account.email_account.notify_unreplied for newbench.new
2021-12-23 12:36:43,428 INFO scheduler Scheduled Job Start: frappe.email.doctype.email_account.email_account.pull for newbench.new
2021-12-23 12:36:44,221 INFO scheduler Scheduled Job Complete: frappe.email.doctype.email_account.email_account.pull for newbench.new
2021-12-23 12:36:44,377 INFO scheduler Scheduled Job Start: frappe.email.queue.flush for newbench.new
2021-12-23 12:36:45,053 INFO scheduler Scheduled Job Complete: frappe.email.queue.flush for newbench.new
2021-12-23 12:37:15,449 DEBUG scheduler Queued events for site newbench.new
2021-12-23 12:38:19,487 DEBUG scheduler Queued events for site newbench.new
2021-12-23 12:39:20,549 DEBUG scheduler Queued events for site newbench.new
2021-12-23 12:40:27,956 DEBUG scheduler Queued events for site newbench.new
2021-12-23 12:41:19,426 INFO scheduler Scheduled Job Start: erpnext.crm.doctype.social_media_post.social_media_post.process_scheduled_social_media_posts for newbench.new
2021-12-23 12:41:29,467 DEBUG scheduler Queued events for site newbench.new
2021-12-23 12:41:36,983 INFO scheduler Scheduled Job Complete: erpnext.crm.doctype.social_media_post.social_media_post.process_scheduled_social_media_posts for newbench.new
2021-12-23 12:41:39,507 INFO scheduler Scheduled Job Start: erpnext.hr.doctype.interview.interview.send_interview_reminder for newbench.new
2021-12-23 12:41:40,650 INFO scheduler Scheduled Job Complete: erpnext.hr.doctype.interview.interview.send_interview_reminder for newbench.new
2021-12-23 12:41:40,821 INFO scheduler Scheduled Job Start: erpnext.healthcare.doctype.patient_appointment.patient_appointment.send_appointment_reminder for newbench.new
2021-12-23 12:41:42,184 INFO scheduler Scheduled Job Complete: erpnext.healthcare.doctype.patient_appointment.patient_appointment.send_appointment_reminder for newbench.new
2021-12-23 12:41:42,360 INFO scheduler Scheduled Job Start: erpnext.projects.doctype.project.project.project_status_update_reminder for newbench.new
2021-12-23 12:41:44,840 INFO scheduler Scheduled Job Complete: erpnext.projects.doctype.project.project.project_status_update_reminder for newbench.new
2021-12-23 12:41:45,002 INFO scheduler Scheduled Job Start: frappe.monitor.flush for newbench.new
2021-12-23 12:41:45,581 INFO scheduler Scheduled Job Complete: frappe.monitor.flush for newbench.new
2021-12-23 12:41:45,747 INFO scheduler Scheduled Job Start: frappe.utils.global_search.sync_global_search for newbench.new
2021-12-23 12:41:46,277 INFO scheduler Scheduled Job Complete: frappe.utils.global_search.sync_global_search for newbench.new
2021-12-23 12:41:46,456 INFO scheduler Scheduled Job Start: frappe.integrations.doctype.razorpay_settings.razorpay_settings.capture_payment for newbench.new
2021-12-23 12:41:49,440 INFO scheduler Scheduled Job Complete: frappe.integrations.doctype.razorpay_settings.razorpay_settings.capture_payment for newbench.new
2021-12-23 12:41:49,604 INFO scheduler Scheduled Job Start: frappe.email.doctype.email_account.email_account.notify_unreplied for newbench.new
2021-12-23 12:41:51,505 INFO scheduler Scheduled Job Complete: frappe.email.doctype.email_account.email_account.notify_unreplied for newbench.new
2021-12-23 12:41:51,677 INFO scheduler Scheduled Job Start: frappe.email.doctype.email_account.email_account.pull for newbench.new
2021-12-23 12:41:52,649 INFO scheduler Scheduled Job Complete: frappe.email.doctype.email_account.email_account.pull for newbench.new
2021-12-23 12:41:52,820 INFO scheduler Scheduled Job Start: frappe.email.queue.flush for newbench.new
2021-12-23 12:41:53,353 INFO scheduler Scheduled Job Complete: frappe.email.queue.flush for newbench.new
2021-12-23 12:42:31,482 DEBUG scheduler Queued events for site newbench.new
2021-12-23 12:43:32,309 DEBUG scheduler Queued events for site newbench.new
2021-12-23 12:44:32,934 INFO scheduler Scheduled Job Start: erpnext.crm.doctype.social_media_post.social_media_post.process_scheduled_social_media_posts for newbench.new
2021-12-23 12:44:33,128 DEBUG scheduler Queued events for site newbench.new
2021-12-23 12:44:33,468 INFO scheduler Scheduled Job Complete: erpnext.crm.doctype.social_media_post.social_media_post.process_scheduled_social_media_posts for newbench.new
2021-12-23 12:44:33,627 INFO scheduler Scheduled Job Start: erpnext.hr.doctype.interview.interview.send_interview_reminder for newbench.new
2021-12-23 12:44:34,184 INFO scheduler Scheduled Job Complete: erpnext.hr.doctype.interview.interview.send_interview_reminder for newbench.new
2021-12-23 12:44:34,427 INFO scheduler Scheduled Job Start: erpnext.healthcare.doctype.patient_appointment.patient_appointment.send_appointment_reminder for newbench.new
2021-12-23 12:44:34,917 INFO scheduler Scheduled Job Complete: erpnext.healthcare.doctype.patient_appointment.patient_appointment.send_appointment_reminder for newbench.new
2021-12-23 12:44:35,086 INFO scheduler Scheduled Job Start: erpnext.projects.doctype.project.project.project_status_update_reminder for newbench.new
2021-12-23 12:44:35,851 INFO scheduler Scheduled Job Complete: erpnext.projects.doctype.project.project.project_status_update_reminder for newbench.new
2021-12-23 12:44:36,005 INFO scheduler Scheduled Job Start: frappe.monitor.flush for newbench.new
2021-12-23 12:44:36,403 INFO scheduler Scheduled Job Complete: frappe.monitor.flush for newbench.new
2021-12-23 12:44:36,556 INFO scheduler Scheduled Job Start: frappe.utils.global_search.sync_global_search for newbench.new
2021-12-23 12:44:37,361 INFO scheduler Scheduled Job Complete: frappe.utils.global_search.sync_global_search for newbench.new
2021-12-23 12:44:37,520 INFO scheduler Scheduled Job Start: frappe.integrations.doctype.razorpay_settings.razorpay_settings.capture_payment for newbench.new
2021-12-23 12:44:38,271 INFO scheduler Scheduled Job Complete: frappe.integrations.doctype.razorpay_settings.razorpay_settings.capture_payment for newbench.new
2021-12-23 12:44:38,465 INFO scheduler Scheduled Job Start: frappe.email.doctype.email_account.email_account.notify_unreplied for newbench.new
2021-12-23 12:44:39,121 INFO scheduler Scheduled Job Complete: frappe.email.doctype.email_account.email_account.notify_unreplied for newbench.new
2021-12-23 12:44:39,296 INFO scheduler Scheduled Job Start: frappe.email.doctype.email_account.email_account.pull for newbench.new
2021-12-23 12:44:39,975 INFO scheduler Scheduled Job Complete: frappe.email.doctype.email_account.email_account.pull for newbench.new
2021-12-23 12:44:40,133 INFO scheduler Scheduled Job Start: frappe.email.queue.flush for newbench.new
2021-12-23 12:44:40,610 INFO scheduler Scheduled Job Complete: frappe.email.queue.flush for newbench.new
2021-12-23 12:45:33,863 DEBUG scheduler Queued events for site newbench.new
2021-12-23 12:45:33,976 INFO scheduler Scheduled Job Start: frappe.twofactor.delete_all_barcodes_for_users for newbench.new
2021-12-23 12:45:35,073 INFO scheduler Scheduled Job Complete: frappe.twofactor.delete_all_barcodes_for_users for newbench.new
2021-12-23 12:45:35,349 INFO scheduler Scheduled Job Start: frappe.website.doctype.web_page.web_page.check_publish_status for newbench.new
2021-12-23 12:45:36,593 INFO scheduler Scheduled Job Complete: frappe.website.doctype.web_page.web_page.check_publish_status for newbench.new
2021-12-23 12:45:36,810 INFO scheduler Scheduled Job Start: frappe.oauth.delete_oauth2_data for newbench.new
2021-12-23 12:45:38,040 INFO scheduler Scheduled Job Complete: frappe.oauth.delete_oauth2_data for newbench.new
2021-12-23 12:46:34,534 DEBUG scheduler Queued events for site newbench.new
2021-12-23 12:47:35,239 DEBUG scheduler Queued events for site newbench.new
2021-12-23 12:48:35,842 INFO scheduler Scheduled Job Start: erpnext.crm.doctype.social_media_post.social_media_post.process_scheduled_social_media_posts for newbench.new
2021-12-23 12:48:36,062 DEBUG scheduler Queued events for site newbench.new
2021-12-23 12:48:36,395 INFO scheduler Scheduled Job Complete: erpnext.crm.doctype.social_media_post.social_media_post.process_scheduled_social_media_posts for newbench.new
2021-12-23 12:48:36,581 INFO scheduler Scheduled Job Start: erpnext.hr.doctype.interview.interview.send_interview_reminder for newbench.new
2021-12-23 12:48:37,138 INFO scheduler Scheduled Job Complete: erpnext.hr.doctype.interview.interview.send_interview_reminder for newbench.new
2021-12-23 12:48:37,327 INFO scheduler Scheduled Job Start: erpnext.healthcare.doctype.patient_appointment.patient_appointment.send_appointment_reminder for newbench.new
2021-12-23 12:48:37,824 INFO scheduler Scheduled Job Complete: erpnext.healthcare.doctype.patient_appointment.patient_appointment.send_appointment_reminder for newbench.new
2021-12-23 12:48:37,980 INFO scheduler Scheduled Job Start: erpnext.projects.doctype.project.project.project_status_update_reminder for newbench.new
2021-12-23 12:48:38,797 INFO scheduler Scheduled Job Complete: erpnext.projects.doctype.project.project.project_status_update_reminder for newbench.new
2021-12-23 12:48:38,971 INFO scheduler Scheduled Job Start: frappe.monitor.flush for newbench.new
2021-12-23 12:48:39,481 INFO scheduler Scheduled Job Complete: frappe.monitor.flush for newbench.new
2021-12-23 12:48:39,652 INFO scheduler Scheduled Job Start: frappe.utils.global_search.sync_global_search for newbench.new
2021-12-23 12:48:40,130 INFO scheduler Scheduled Job Complete: frappe.utils.global_search.sync_global_search for newbench.new
2021-12-23 12:48:40,320 INFO scheduler Scheduled Job Start: frappe.integrations.doctype.razorpay_settings.razorpay_settings.capture_payment for newbench.new
2021-12-23 12:48:41,150 INFO scheduler Scheduled Job Complete: frappe.integrations.doctype.razorpay_settings.razorpay_settings.capture_payment for newbench.new
2021-12-23 12:48:41,325 INFO scheduler Scheduled Job Start: frappe.email.doctype.email_account.email_account.notify_unreplied for newbench.new
2021-12-23 12:48:41,991 INFO scheduler Scheduled Job Complete: frappe.email.doctype.email_account.email_account.notify_unreplied for newbench.new
2021-12-23 12:48:42,185 INFO scheduler Scheduled Job Start: frappe.email.doctype.email_account.email_account.pull for newbench.new
2021-12-23 12:48:43,088 INFO scheduler Scheduled Job Complete: frappe.email.doctype.email_account.email_account.pull for newbench.new
2021-12-23 12:48:43,325 INFO scheduler Scheduled Job Start: frappe.email.queue.flush for newbench.new
2021-12-23 12:48:43,925 INFO scheduler Scheduled Job Complete: frappe.email.queue.flush for newbench.new
2021-12-23 12:49:36,755 DEBUG scheduler Queued events for site newbench.new
2021-12-23 12:50:37,511 DEBUG scheduler Queued events for site newbench.new
2021-12-23 12:51:38,225 DEBUG scheduler Queued events for site newbench.new
2021-12-23 12:52:39,030 DEBUG scheduler Queued events for site newbench.new
2021-12-23 12:52:39,759 INFO scheduler Scheduled Job Start: erpnext.crm.doctype.social_media_post.social_media_post.process_scheduled_social_media_posts for newbench.new
2021-12-23 12:52:41,440 INFO scheduler Scheduled Job Complete: erpnext.crm.doctype.social_media_post.social_media_post.process_scheduled_social_media_posts for newbench.new
2021-12-23 12:52:41,610 INFO scheduler Scheduled Job Start: erpnext.hr.doctype.interview.interview.send_interview_reminder for newbench.new
2021-12-23 12:52:42,324 INFO scheduler Scheduled Job Complete: erpnext.hr.doctype.interview.interview.send_interview_reminder for newbench.new
2021-12-23 12:52:42,479 INFO scheduler Scheduled Job Start: erpnext.healthcare.doctype.patient_appointment.patient_appointment.send_appointment_reminder for newbench.new
2021-12-23 12:52:43,277 INFO scheduler Scheduled Job Complete: erpnext.healthcare.doctype.patient_appointment.patient_appointment.send_appointment_reminder for newbench.new
2021-12-23 12:52:43,439 INFO scheduler Scheduled Job Start: erpnext.projects.doctype.project.project.project_status_update_reminder for newbench.new
2021-12-23 12:52:45,015 INFO scheduler Scheduled Job Complete: erpnext.projects.doctype.project.project.project_status_update_reminder for newbench.new
2021-12-23 12:52:45,214 INFO scheduler Scheduled Job Start: frappe.monitor.flush for newbench.new
2021-12-23 12:52:45,753 INFO scheduler Scheduled Job Complete: frappe.monitor.flush for newbench.new
2021-12-23 12:52:45,925 INFO scheduler Scheduled Job Start: frappe.utils.global_search.sync_global_search for newbench.new
2021-12-23 12:52:46,361 INFO scheduler Scheduled Job Complete: frappe.utils.global_search.sync_global_search for newbench.new
2021-12-23 12:52:46,522 INFO scheduler Scheduled Job Start: frappe.integrations.doctype.razorpay_settings.razorpay_settings.capture_payment for newbench.new
2021-12-23 12:52:47,517 INFO scheduler Scheduled Job Complete: frappe.integrations.doctype.razorpay_settings.razorpay_settings.capture_payment for newbench.new
