2021-12-24 16:05:15,298 DEBUG scheduler Queued events for site newbench.new
2021-12-24 16:06:16,239 DEBUG scheduler Queued events for site newbench.new
2021-12-24 16:07:17,435 DEBUG scheduler Queued events for site newbench.new
2021-12-24 16:08:18,497 DEBUG scheduler Queued events for site newbench.new
2021-12-24 16:08:22,311 INFO scheduler Scheduled Job Start: erpnext.crm.doctype.social_media_post.social_media_post.process_scheduled_social_media_posts for newbench.new
2021-12-24 16:08:30,530 INFO scheduler Scheduled Job Complete: erpnext.crm.doctype.social_media_post.social_media_post.process_scheduled_social_media_posts for newbench.new
2021-12-24 16:08:30,722 INFO scheduler Scheduled Job Start: erpnext.hr.doctype.interview.interview.send_interview_reminder for newbench.new
2021-12-24 16:08:31,996 INFO scheduler Scheduled Job Complete: erpnext.hr.doctype.interview.interview.send_interview_reminder for newbench.new
2021-12-24 16:08:32,211 INFO scheduler Scheduled Job Start: erpnext.healthcare.doctype.patient_appointment.patient_appointment.send_appointment_reminder for newbench.new
2021-12-24 16:08:33,957 INFO scheduler Scheduled Job Complete: erpnext.healthcare.doctype.patient_appointment.patient_appointment.send_appointment_reminder for newbench.new
2021-12-24 16:08:34,154 INFO scheduler Scheduled Job Start: erpnext.projects.doctype.project.project.project_status_update_reminder for newbench.new
2021-12-24 16:08:38,369 INFO scheduler Scheduled Job Complete: erpnext.projects.doctype.project.project.project_status_update_reminder for newbench.new
2021-12-24 16:08:38,597 INFO scheduler Scheduled Job Start: frappe.monitor.flush for newbench.new
2021-12-24 16:08:39,171 INFO scheduler Scheduled Job Complete: frappe.monitor.flush for newbench.new
2021-12-24 16:08:39,394 INFO scheduler Scheduled Job Start: frappe.utils.global_search.sync_global_search for newbench.new
2021-12-24 16:08:40,008 INFO scheduler Scheduled Job Complete: frappe.utils.global_search.sync_global_search for newbench.new
2021-12-24 16:08:40,208 INFO scheduler Scheduled Job Start: frappe.integrations.doctype.razorpay_settings.razorpay_settings.capture_payment for newbench.new
2021-12-24 16:08:44,846 INFO scheduler Scheduled Job Complete: frappe.integrations.doctype.razorpay_settings.razorpay_settings.capture_payment for newbench.new
2021-12-24 16:08:45,074 INFO scheduler Scheduled Job Start: frappe.email.doctype.email_account.email_account.notify_unreplied for newbench.new
2021-12-24 16:08:47,829 INFO scheduler Scheduled Job Complete: frappe.email.doctype.email_account.email_account.notify_unreplied for newbench.new
2021-12-24 16:08:48,042 INFO scheduler Scheduled Job Start: frappe.email.doctype.email_account.email_account.pull for newbench.new
2021-12-24 16:08:48,979 INFO scheduler Scheduled Job Complete: frappe.email.doctype.email_account.email_account.pull for newbench.new
2021-12-24 16:08:49,157 INFO scheduler Scheduled Job Start: frappe.email.queue.flush for newbench.new
2021-12-24 16:08:49,801 INFO scheduler Scheduled Job Complete: frappe.email.queue.flush for newbench.new
2021-12-24 16:09:19,405 DEBUG scheduler Queued events for site newbench.new
2021-12-24 16:10:21,378 DEBUG scheduler Queued events for site newbench.new
2021-12-24 16:11:22,483 DEBUG scheduler Queued events for site newbench.new
2021-12-24 16:12:23,585 DEBUG scheduler Queued events for site newbench.new
2021-12-24 16:12:24,971 INFO scheduler Scheduled Job Start: erpnext.crm.doctype.social_media_post.social_media_post.process_scheduled_social_media_posts for newbench.new
2021-12-24 16:12:28,658 INFO scheduler Scheduled Job Complete: erpnext.crm.doctype.social_media_post.social_media_post.process_scheduled_social_media_posts for newbench.new
2021-12-24 16:12:28,900 INFO scheduler Scheduled Job Start: erpnext.hr.doctype.interview.interview.send_interview_reminder for newbench.new
2021-12-24 16:12:29,801 INFO scheduler Scheduled Job Complete: erpnext.hr.doctype.interview.interview.send_interview_reminder for newbench.new
2021-12-24 16:12:30,012 INFO scheduler Scheduled Job Start: erpnext.healthcare.doctype.patient_appointment.patient_appointment.send_appointment_reminder for newbench.new
2021-12-24 16:12:31,274 INFO scheduler Scheduled Job Complete: erpnext.healthcare.doctype.patient_appointment.patient_appointment.send_appointment_reminder for newbench.new
2021-12-24 16:12:31,494 INFO scheduler Scheduled Job Start: erpnext.projects.doctype.project.project.project_status_update_reminder for newbench.new
2021-12-24 16:12:33,795 INFO scheduler Scheduled Job Complete: erpnext.projects.doctype.project.project.project_status_update_reminder for newbench.new
2021-12-24 16:12:34,030 INFO scheduler Scheduled Job Start: frappe.monitor.flush for newbench.new
2021-12-24 16:12:34,590 INFO scheduler Scheduled Job Complete: frappe.monitor.flush for newbench.new
2021-12-24 16:12:34,811 INFO scheduler Scheduled Job Start: frappe.utils.global_search.sync_global_search for newbench.new
2021-12-24 16:12:35,445 INFO scheduler Scheduled Job Complete: frappe.utils.global_search.sync_global_search for newbench.new
2021-12-24 16:12:35,661 INFO scheduler Scheduled Job Start: frappe.integrations.doctype.razorpay_settings.razorpay_settings.capture_payment for newbench.new
2021-12-24 16:12:38,266 INFO scheduler Scheduled Job Complete: frappe.integrations.doctype.razorpay_settings.razorpay_settings.capture_payment for newbench.new
2021-12-24 16:12:38,493 INFO scheduler Scheduled Job Start: frappe.email.doctype.email_account.email_account.notify_unreplied for newbench.new
2021-12-24 16:12:40,046 INFO scheduler Scheduled Job Complete: frappe.email.doctype.email_account.email_account.notify_unreplied for newbench.new
2021-12-24 16:12:40,287 INFO scheduler Scheduled Job Start: frappe.email.doctype.email_account.email_account.pull for newbench.new
2021-12-24 16:12:41,299 INFO scheduler Scheduled Job Complete: frappe.email.doctype.email_account.email_account.pull for newbench.new
2021-12-24 16:12:41,552 INFO scheduler Scheduled Job Start: frappe.email.queue.flush for newbench.new
2021-12-24 16:12:42,255 INFO scheduler Scheduled Job Complete: frappe.email.queue.flush for newbench.new
2021-12-24 16:13:24,526 DEBUG scheduler Queued events for site newbench.new
2021-12-24 16:14:25,378 DEBUG scheduler Queued events for site newbench.new
2021-12-24 16:15:26,292 DEBUG scheduler Queued events for site newbench.new
2021-12-24 16:15:26,448 INFO scheduler Scheduled Job Start: frappe.twofactor.delete_all_barcodes_for_users for newbench.new
2021-12-24 16:15:28,477 INFO scheduler Scheduled Job Complete: frappe.twofactor.delete_all_barcodes_for_users for newbench.new
2021-12-24 16:15:28,786 INFO scheduler Scheduled Job Start: frappe.website.doctype.web_page.web_page.check_publish_status for newbench.new
2021-12-24 16:15:30,409 INFO scheduler Scheduled Job Complete: frappe.website.doctype.web_page.web_page.check_publish_status for newbench.new
2021-12-24 16:15:30,682 INFO scheduler Scheduled Job Start: frappe.oauth.delete_oauth2_data for newbench.new
2021-12-24 16:15:33,317 INFO scheduler Scheduled Job Complete: frappe.oauth.delete_oauth2_data for newbench.new
2021-12-24 16:16:27,060 INFO scheduler Scheduled Job Start: erpnext.crm.doctype.social_media_post.social_media_post.process_scheduled_social_media_posts for newbench.new
2021-12-24 16:16:27,360 DEBUG scheduler Queued events for site newbench.new
2021-12-24 16:16:27,713 INFO scheduler Scheduled Job Complete: erpnext.crm.doctype.social_media_post.social_media_post.process_scheduled_social_media_posts for newbench.new
2021-12-24 16:16:27,884 INFO scheduler Scheduled Job Start: erpnext.hr.doctype.interview.interview.send_interview_reminder for newbench.new
2021-12-24 16:16:28,582 INFO scheduler Scheduled Job Complete: erpnext.hr.doctype.interview.interview.send_interview_reminder for newbench.new
2021-12-24 16:16:28,789 INFO scheduler Scheduled Job Start: erpnext.healthcare.doctype.patient_appointment.patient_appointment.send_appointment_reminder for newbench.new
2021-12-24 16:16:29,454 INFO scheduler Scheduled Job Complete: erpnext.healthcare.doctype.patient_appointment.patient_appointment.send_appointment_reminder for newbench.new
2021-12-24 16:16:29,717 INFO scheduler Scheduled Job Start: erpnext.projects.doctype.project.project.project_status_update_reminder for newbench.new
2021-12-24 16:16:30,816 INFO scheduler Scheduled Job Complete: erpnext.projects.doctype.project.project.project_status_update_reminder for newbench.new
2021-12-24 16:16:31,087 INFO scheduler Scheduled Job Start: frappe.monitor.flush for newbench.new
2021-12-24 16:16:31,981 INFO scheduler Scheduled Job Complete: frappe.monitor.flush for newbench.new
2021-12-24 16:16:32,200 INFO scheduler Scheduled Job Start: frappe.utils.global_search.sync_global_search for newbench.new
2021-12-24 16:16:33,369 INFO scheduler Scheduled Job Complete: frappe.utils.global_search.sync_global_search for newbench.new
2021-12-24 16:16:33,653 INFO scheduler Scheduled Job Start: frappe.integrations.doctype.razorpay_settings.razorpay_settings.capture_payment for newbench.new
2021-12-24 16:16:34,769 INFO scheduler Scheduled Job Complete: frappe.integrations.doctype.razorpay_settings.razorpay_settings.capture_payment for newbench.new
2021-12-24 16:16:35,031 INFO scheduler Scheduled Job Start: frappe.email.doctype.email_account.email_account.notify_unreplied for newbench.new
2021-12-24 16:16:35,924 INFO scheduler Scheduled Job Complete: frappe.email.doctype.email_account.email_account.notify_unreplied for newbench.new
2021-12-24 16:16:36,176 INFO scheduler Scheduled Job Start: frappe.email.doctype.email_account.email_account.pull for newbench.new
2021-12-24 16:16:37,160 INFO scheduler Scheduled Job Complete: frappe.email.doctype.email_account.email_account.pull for newbench.new
2021-12-24 16:16:37,373 INFO scheduler Scheduled Job Start: frappe.email.queue.flush for newbench.new
2021-12-24 16:16:38,017 INFO scheduler Scheduled Job Complete: frappe.email.queue.flush for newbench.new
2021-12-24 16:17:28,161 DEBUG scheduler Queued events for site newbench.new
2021-12-24 16:18:29,053 DEBUG scheduler Queued events for site newbench.new
2021-12-24 16:19:30,067 DEBUG scheduler Queued events for site newbench.new
2021-12-24 16:20:30,939 INFO scheduler Scheduled Job Start: erpnext.crm.doctype.social_media_post.social_media_post.process_scheduled_social_media_posts for newbench.new
2021-12-24 16:20:31,092 DEBUG scheduler Queued events for site newbench.new
2021-12-24 16:20:31,592 INFO scheduler Scheduled Job Complete: erpnext.crm.doctype.social_media_post.social_media_post.process_scheduled_social_media_posts for newbench.new
2021-12-24 16:20:31,788 INFO scheduler Scheduled Job Start: erpnext.hr.doctype.interview.interview.send_interview_reminder for newbench.new
2021-12-24 16:20:32,441 INFO scheduler Scheduled Job Complete: erpnext.hr.doctype.interview.interview.send_interview_reminder for newbench.new
2021-12-24 16:20:32,636 INFO scheduler Scheduled Job Start: erpnext.healthcare.doctype.patient_appointment.patient_appointment.send_appointment_reminder for newbench.new
2021-12-24 16:20:33,219 INFO scheduler Scheduled Job Complete: erpnext.healthcare.doctype.patient_appointment.patient_appointment.send_appointment_reminder for newbench.new
2021-12-24 16:20:33,424 INFO scheduler Scheduled Job Start: erpnext.projects.doctype.project.project.project_status_update_reminder for newbench.new
2021-12-24 16:20:34,495 INFO scheduler Scheduled Job Complete: erpnext.projects.doctype.project.project.project_status_update_reminder for newbench.new
2021-12-24 16:20:34,718 INFO scheduler Scheduled Job Start: frappe.monitor.flush for newbench.new
2021-12-24 16:20:35,274 INFO scheduler Scheduled Job Complete: frappe.monitor.flush for newbench.new
2021-12-24 16:20:35,491 INFO scheduler Scheduled Job Start: frappe.utils.global_search.sync_global_search for newbench.new
2021-12-24 16:20:36,091 INFO scheduler Scheduled Job Complete: frappe.utils.global_search.sync_global_search for newbench.new
2021-12-24 16:20:36,305 INFO scheduler Scheduled Job Start: frappe.integrations.doctype.razorpay_settings.razorpay_settings.capture_payment for newbench.new
2021-12-24 16:20:37,308 INFO scheduler Scheduled Job Complete: frappe.integrations.doctype.razorpay_settings.razorpay_settings.capture_payment for newbench.new
2021-12-24 16:20:37,504 INFO scheduler Scheduled Job Start: frappe.email.doctype.email_account.email_account.notify_unreplied for newbench.new
2021-12-24 16:20:38,262 INFO scheduler Scheduled Job Complete: frappe.email.doctype.email_account.email_account.notify_unreplied for newbench.new
2021-12-24 16:20:38,470 INFO scheduler Scheduled Job Start: frappe.email.doctype.email_account.email_account.pull for newbench.new
2021-12-24 16:20:39,320 INFO scheduler Scheduled Job Complete: frappe.email.doctype.email_account.email_account.pull for newbench.new
2021-12-24 16:20:39,549 INFO scheduler Scheduled Job Start: frappe.email.queue.flush for newbench.new
2021-12-24 16:20:40,234 INFO scheduler Scheduled Job Complete: frappe.email.queue.flush for newbench.new
2021-12-24 16:21:32,013 DEBUG scheduler Queued events for site newbench.new
2021-12-24 16:22:32,825 DEBUG scheduler Queued events for site newbench.new
2021-12-24 16:23:33,772 DEBUG scheduler Queued events for site newbench.new
2021-12-24 16:24:34,740 DEBUG scheduler Queued events for site newbench.new
2021-12-24 16:24:34,877 INFO scheduler Scheduled Job Start: erpnext.crm.doctype.social_media_post.social_media_post.process_scheduled_social_media_posts for newbench.new
2021-12-24 16:24:35,612 INFO scheduler Scheduled Job Complete: erpnext.crm.doctype.social_media_post.social_media_post.process_scheduled_social_media_posts for newbench.new
2021-12-24 16:24:35,822 INFO scheduler Scheduled Job Start: erpnext.hr.doctype.interview.interview.send_interview_reminder for newbench.new
2021-12-24 16:24:36,485 INFO scheduler Scheduled Job Complete: erpnext.hr.doctype.interview.interview.send_interview_reminder for newbench.new
2021-12-24 16:24:36,715 INFO scheduler Scheduled Job Start: erpnext.healthcare.doctype.patient_appointment.patient_appointment.send_appointment_reminder for newbench.new
2021-12-24 16:24:37,356 INFO scheduler Scheduled Job Complete: erpnext.healthcare.doctype.patient_appointment.patient_appointment.send_appointment_reminder for newbench.new
2021-12-24 16:24:37,559 INFO scheduler Scheduled Job Start: erpnext.projects.doctype.project.project.project_status_update_reminder for newbench.new
2021-12-24 16:24:38,556 INFO scheduler Scheduled Job Complete: erpnext.projects.doctype.project.project.project_status_update_reminder for newbench.new
2021-12-24 16:24:38,778 INFO scheduler Scheduled Job Start: frappe.monitor.flush for newbench.new
2021-12-24 16:24:39,371 INFO scheduler Scheduled Job Complete: frappe.monitor.flush for newbench.new
2021-12-24 16:24:39,589 INFO scheduler Scheduled Job Start: frappe.utils.global_search.sync_global_search for newbench.new
2021-12-24 16:24:40,199 INFO scheduler Scheduled Job Complete: frappe.utils.global_search.sync_global_search for newbench.new
2021-12-24 16:24:40,402 INFO scheduler Scheduled Job Start: frappe.integrations.doctype.razorpay_settings.razorpay_settings.capture_payment for newbench.new
2021-12-24 16:24:41,455 INFO scheduler Scheduled Job Complete: frappe.integrations.doctype.razorpay_settings.razorpay_settings.capture_payment for newbench.new
2021-12-24 16:24:41,661 INFO scheduler Scheduled Job Start: frappe.email.doctype.email_account.email_account.notify_unreplied for newbench.new
2021-12-24 16:24:42,413 INFO scheduler Scheduled Job Complete: frappe.email.doctype.email_account.email_account.notify_unreplied for newbench.new
2021-12-24 16:24:42,604 INFO scheduler Scheduled Job Start: frappe.email.doctype.email_account.email_account.pull for newbench.new
2021-12-24 16:24:43,470 INFO scheduler Scheduled Job Complete: frappe.email.doctype.email_account.email_account.pull for newbench.new
2021-12-24 16:24:43,687 INFO scheduler Scheduled Job Start: frappe.email.queue.flush for newbench.new
2021-12-24 16:24:44,230 INFO scheduler Scheduled Job Complete: frappe.email.queue.flush for newbench.new
2021-12-24 16:25:35,538 DEBUG scheduler Queued events for site newbench.new
2021-12-24 16:26:36,431 DEBUG scheduler Queued events for site newbench.new
2021-12-24 16:27:37,257 DEBUG scheduler Queued events for site newbench.new
2021-12-24 16:28:37,978 INFO scheduler Scheduled Job Start: erpnext.crm.doctype.social_media_post.social_media_post.process_scheduled_social_media_posts for newbench.new
2021-12-24 16:28:38,248 DEBUG scheduler Queued events for site newbench.new
2021-12-24 16:28:38,638 INFO scheduler Scheduled Job Complete: erpnext.crm.doctype.social_media_post.social_media_post.process_scheduled_social_media_posts for newbench.new
2021-12-24 16:28:38,873 INFO scheduler Scheduled Job Start: erpnext.hr.doctype.interview.interview.send_interview_reminder for newbench.new
2021-12-24 16:28:39,745 INFO scheduler Scheduled Job Complete: erpnext.hr.doctype.interview.interview.send_interview_reminder for newbench.new
2021-12-24 16:28:39,956 INFO scheduler Scheduled Job Start: erpnext.healthcare.doctype.patient_appointment.patient_appointment.send_appointment_reminder for newbench.new
2021-12-24 16:28:40,624 INFO scheduler Scheduled Job Complete: erpnext.healthcare.doctype.patient_appointment.patient_appointment.send_appointment_reminder for newbench.new
2021-12-24 16:28:40,847 INFO scheduler Scheduled Job Start: erpnext.projects.doctype.project.project.project_status_update_reminder for newbench.new
2021-12-24 16:28:41,900 INFO scheduler Scheduled Job Complete: erpnext.projects.doctype.project.project.project_status_update_reminder for newbench.new
2021-12-24 16:28:42,146 INFO scheduler Scheduled Job Start: frappe.monitor.flush for newbench.new
2021-12-24 16:28:42,791 INFO scheduler Scheduled Job Complete: frappe.monitor.flush for newbench.new
2021-12-24 16:28:43,012 INFO scheduler Scheduled Job Start: frappe.utils.global_search.sync_global_search for newbench.new
2021-12-24 16:28:43,613 INFO scheduler Scheduled Job Complete: frappe.utils.global_search.sync_global_search for newbench.new
2021-12-24 16:28:43,822 INFO scheduler Scheduled Job Start: frappe.integrations.doctype.razorpay_settings.razorpay_settings.capture_payment for newbench.new
2021-12-24 16:28:44,784 INFO scheduler Scheduled Job Complete: frappe.integrations.doctype.razorpay_settings.razorpay_settings.capture_payment for newbench.new
2021-12-24 16:28:44,987 INFO scheduler Scheduled Job Start: frappe.email.doctype.email_account.email_account.notify_unreplied for newbench.new
2021-12-24 16:28:45,725 INFO scheduler Scheduled Job Complete: frappe.email.doctype.email_account.email_account.notify_unreplied for newbench.new
2021-12-24 16:28:45,928 INFO scheduler Scheduled Job Start: frappe.email.doctype.email_account.email_account.pull for newbench.new
2021-12-24 16:28:46,729 INFO scheduler Scheduled Job Complete: frappe.email.doctype.email_account.email_account.pull for newbench.new
2021-12-24 16:28:46,941 INFO scheduler Scheduled Job Start: frappe.email.queue.flush for newbench.new
2021-12-24 16:28:47,545 INFO scheduler Scheduled Job Complete: frappe.email.queue.flush for newbench.new
2021-12-24 16:29:39,042 DEBUG scheduler Queued events for site newbench.new
2021-12-24 16:30:39,837 INFO scheduler Scheduled Job Start: erpnext.utilities.doctype.video.video.update_youtube_data for newbench.new
2021-12-24 16:30:39,972 DEBUG scheduler Queued events for site newbench.new
2021-12-24 16:30:43,137 INFO scheduler Scheduled Job Complete: erpnext.utilities.doctype.video.video.update_youtube_data for newbench.new
2021-12-24 16:30:43,424 INFO scheduler Scheduled Job Start: frappe.twofactor.delete_all_barcodes_for_users for newbench.new
2021-12-24 16:30:44,677 INFO scheduler Scheduled Job Complete: frappe.twofactor.delete_all_barcodes_for_users for newbench.new
2021-12-24 16:30:44,942 INFO scheduler Scheduled Job Start: frappe.website.doctype.web_page.web_page.check_publish_status for newbench.new
2021-12-24 16:30:46,196 INFO scheduler Scheduled Job Complete: frappe.website.doctype.web_page.web_page.check_publish_status for newbench.new
2021-12-24 16:30:46,430 INFO scheduler Scheduled Job Start: frappe.oauth.delete_oauth2_data for newbench.new
2021-12-24 16:30:48,164 INFO scheduler Scheduled Job Complete: frappe.oauth.delete_oauth2_data for newbench.new
2021-12-24 16:31:40,682 DEBUG scheduler Queued events for site newbench.new
2021-12-24 16:32:41,441 INFO scheduler Scheduled Job Start: erpnext.crm.doctype.social_media_post.social_media_post.process_scheduled_social_media_posts for newbench.new
2021-12-24 16:32:41,680 DEBUG scheduler Queued events for site newbench.new
2021-12-24 16:32:42,156 INFO scheduler Scheduled Job Complete: erpnext.crm.doctype.social_media_post.social_media_post.process_scheduled_social_media_posts for newbench.new
2021-12-24 16:32:42,349 INFO scheduler Scheduled Job Start: erpnext.hr.doctype.interview.interview.send_interview_reminder for newbench.new
2021-12-24 16:32:43,051 INFO scheduler Scheduled Job Complete: erpnext.hr.doctype.interview.interview.send_interview_reminder for newbench.new
2021-12-24 16:32:43,272 INFO scheduler Scheduled Job Start: erpnext.healthcare.doctype.patient_appointment.patient_appointment.send_appointment_reminder for newbench.new
2021-12-24 16:32:43,906 INFO scheduler Scheduled Job Complete: erpnext.healthcare.doctype.patient_appointment.patient_appointment.send_appointment_reminder for newbench.new
2021-12-24 16:32:44,102 INFO scheduler Scheduled Job Start: erpnext.projects.doctype.project.project.project_status_update_reminder for newbench.new
2021-12-24 16:32:45,167 INFO scheduler Scheduled Job Complete: erpnext.projects.doctype.project.project.project_status_update_reminder for newbench.new
2021-12-24 16:32:45,358 INFO scheduler Scheduled Job Start: frappe.monitor.flush for newbench.new
2021-12-24 16:32:45,889 INFO scheduler Scheduled Job Complete: frappe.monitor.flush for newbench.new
2021-12-24 16:32:46,108 INFO scheduler Scheduled Job Start: frappe.utils.global_search.sync_global_search for newbench.new
2021-12-24 16:32:46,754 INFO scheduler Scheduled Job Complete: frappe.utils.global_search.sync_global_search for newbench.new
2021-12-24 16:32:46,964 INFO scheduler Scheduled Job Start: frappe.integrations.doctype.razorpay_settings.razorpay_settings.capture_payment for newbench.new
2021-12-24 16:32:47,881 INFO scheduler Scheduled Job Complete: frappe.integrations.doctype.razorpay_settings.razorpay_settings.capture_payment for newbench.new
2021-12-24 16:32:48,081 INFO scheduler Scheduled Job Start: frappe.email.doctype.email_account.email_account.notify_unreplied for newbench.new
2021-12-24 16:32:48,858 INFO scheduler Scheduled Job Complete: frappe.email.doctype.email_account.email_account.notify_unreplied for newbench.new
2021-12-24 16:32:49,068 INFO scheduler Scheduled Job Start: frappe.email.doctype.email_account.email_account.pull for newbench.new
2021-12-24 16:32:49,909 INFO scheduler Scheduled Job Complete: frappe.email.doctype.email_account.email_account.pull for newbench.new
2021-12-24 16:32:50,108 INFO scheduler Scheduled Job Start: frappe.email.queue.flush for newbench.new
2021-12-24 16:32:50,793 INFO scheduler Scheduled Job Complete: frappe.email.queue.flush for newbench.new
2021-12-24 16:33:42,495 DEBUG scheduler Queued events for site newbench.new
2021-12-24 16:34:43,314 DEBUG scheduler Queued events for site newbench.new
2021-12-24 16:35:44,138 DEBUG scheduler Queued events for site newbench.new
2021-12-24 16:36:44,842 INFO scheduler Scheduled Job Start: erpnext.crm.doctype.social_media_post.social_media_post.process_scheduled_social_media_posts for newbench.new
2021-12-24 16:36:45,132 DEBUG scheduler Queued events for site newbench.new
2021-12-24 16:36:45,500 INFO scheduler Scheduled Job Complete: erpnext.crm.doctype.social_media_post.social_media_post.process_scheduled_social_media_posts for newbench.new
2021-12-24 16:36:45,718 INFO scheduler Scheduled Job Start: erpnext.hr.doctype.interview.interview.send_interview_reminder for newbench.new
2021-12-24 16:36:46,532 INFO scheduler Scheduled Job Complete: erpnext.hr.doctype.interview.interview.send_interview_reminder for newbench.new
2021-12-24 16:36:46,721 INFO scheduler Scheduled Job Start: erpnext.healthcare.doctype.patient_appointment.patient_appointment.send_appointment_reminder for newbench.new
2021-12-24 16:36:47,294 INFO scheduler Scheduled Job Complete: erpnext.healthcare.doctype.patient_appointment.patient_appointment.send_appointment_reminder for newbench.new
2021-12-24 16:36:47,494 INFO scheduler Scheduled Job Start: erpnext.projects.doctype.project.project.project_status_update_reminder for newbench.new
2021-12-24 16:36:48,530 INFO scheduler Scheduled Job Complete: erpnext.projects.doctype.project.project.project_status_update_reminder for newbench.new
2021-12-24 16:36:48,722 INFO scheduler Scheduled Job Start: frappe.monitor.flush for newbench.new
2021-12-24 16:36:49,225 INFO scheduler Scheduled Job Complete: frappe.monitor.flush for newbench.new
2021-12-24 16:36:49,444 INFO scheduler Scheduled Job Start: frappe.utils.global_search.sync_global_search for newbench.new
2021-12-24 16:36:50,086 INFO scheduler Scheduled Job Complete: frappe.utils.global_search.sync_global_search for newbench.new
2021-12-24 16:36:50,302 INFO scheduler Scheduled Job Start: frappe.integrations.doctype.razorpay_settings.razorpay_settings.capture_payment for newbench.new
2021-12-24 16:36:51,310 INFO scheduler Scheduled Job Complete: frappe.integrations.doctype.razorpay_settings.razorpay_settings.capture_payment for newbench.new
2021-12-24 16:36:51,524 INFO scheduler Scheduled Job Start: frappe.email.doctype.email_account.email_account.notify_unreplied for newbench.new
2021-12-24 16:36:52,214 INFO scheduler Scheduled Job Complete: frappe.email.doctype.email_account.email_account.notify_unreplied for newbench.new
2021-12-24 16:36:52,407 INFO scheduler Scheduled Job Start: frappe.email.doctype.email_account.email_account.pull for newbench.new
2021-12-24 16:36:53,287 INFO scheduler Scheduled Job Complete: frappe.email.doctype.email_account.email_account.pull for newbench.new
2021-12-24 16:36:53,494 INFO scheduler Scheduled Job Start: frappe.email.queue.flush for newbench.new
2021-12-24 16:36:54,167 INFO scheduler Scheduled Job Complete: frappe.email.queue.flush for newbench.new
2021-12-24 16:37:46,023 DEBUG scheduler Queued events for site newbench.new
2021-12-24 16:38:46,866 DEBUG scheduler Queued events for site newbench.new
2021-12-24 16:39:47,526 DEBUG scheduler Queued events for site newbench.new
2021-12-24 16:40:48,117 INFO scheduler Scheduled Job Start: erpnext.crm.doctype.social_media_post.social_media_post.process_scheduled_social_media_posts for newbench.new
2021-12-24 16:40:48,304 DEBUG scheduler Queued events for site newbench.new
2021-12-24 16:40:48,706 INFO scheduler Scheduled Job Complete: erpnext.crm.doctype.social_media_post.social_media_post.process_scheduled_social_media_posts for newbench.new
2021-12-24 16:40:48,865 INFO scheduler Scheduled Job Start: erpnext.hr.doctype.interview.interview.send_interview_reminder for newbench.new
2021-12-24 16:40:49,386 INFO scheduler Scheduled Job Complete: erpnext.hr.doctype.interview.interview.send_interview_reminder for newbench.new
2021-12-24 16:40:49,544 INFO scheduler Scheduled Job Start: erpnext.healthcare.doctype.patient_appointment.patient_appointment.send_appointment_reminder for newbench.new
2021-12-24 16:40:50,264 INFO scheduler Scheduled Job Complete: erpnext.healthcare.doctype.patient_appointment.patient_appointment.send_appointment_reminder for newbench.new
2021-12-24 16:40:50,418 INFO scheduler Scheduled Job Start: erpnext.projects.doctype.project.project.project_status_update_reminder for newbench.new
2021-12-24 16:40:51,133 INFO scheduler Scheduled Job Complete: erpnext.projects.doctype.project.project.project_status_update_reminder for newbench.new
2021-12-24 16:40:51,289 INFO scheduler Scheduled Job Start: frappe.monitor.flush for newbench.new
2021-12-24 16:40:51,694 INFO scheduler Scheduled Job Complete: frappe.monitor.flush for newbench.new
2021-12-24 16:40:51,845 INFO scheduler Scheduled Job Start: frappe.utils.global_search.sync_global_search for newbench.new
2021-12-24 16:40:52,314 INFO scheduler Scheduled Job Complete: frappe.utils.global_search.sync_global_search for newbench.new
2021-12-24 16:40:52,468 INFO scheduler Scheduled Job Start: frappe.integrations.doctype.razorpay_settings.razorpay_settings.capture_payment for newbench.new
2021-12-24 16:40:53,169 INFO scheduler Scheduled Job Complete: frappe.integrations.doctype.razorpay_settings.razorpay_settings.capture_payment for newbench.new
2021-12-24 16:40:53,321 INFO scheduler Scheduled Job Start: frappe.email.doctype.email_account.email_account.notify_unreplied for newbench.new
2021-12-24 16:40:54,240 INFO scheduler Scheduled Job Complete: frappe.email.doctype.email_account.email_account.notify_unreplied for newbench.new
2021-12-24 16:40:54,394 INFO scheduler Scheduled Job Start: frappe.email.doctype.email_account.email_account.pull for newbench.new
2021-12-24 16:40:54,975 INFO scheduler Scheduled Job Complete: frappe.email.doctype.email_account.email_account.pull for newbench.new
2021-12-24 16:40:55,126 INFO scheduler Scheduled Job Start: frappe.email.queue.flush for newbench.new
2021-12-24 16:40:55,574 INFO scheduler Scheduled Job Complete: frappe.email.queue.flush for newbench.new
2021-12-24 16:41:49,011 DEBUG scheduler Queued events for site newbench.new
2021-12-24 16:42:49,696 DEBUG scheduler Queued events for site newbench.new
2021-12-24 16:43:50,370 DEBUG scheduler Queued events for site newbench.new
2021-12-24 16:44:50,987 INFO scheduler Scheduled Job Start: erpnext.crm.doctype.social_media_post.social_media_post.process_scheduled_social_media_posts for newbench.new
2021-12-24 16:44:51,191 DEBUG scheduler Queued events for site newbench.new
2021-12-24 16:44:51,604 INFO scheduler Scheduled Job Complete: erpnext.crm.doctype.social_media_post.social_media_post.process_scheduled_social_media_posts for newbench.new
2021-12-24 16:44:51,759 INFO scheduler Scheduled Job Start: erpnext.hr.doctype.interview.interview.send_interview_reminder for newbench.new
2021-12-24 16:44:52,381 INFO scheduler Scheduled Job Complete: erpnext.hr.doctype.interview.interview.send_interview_reminder for newbench.new
2021-12-24 16:44:52,535 INFO scheduler Scheduled Job Start: erpnext.healthcare.doctype.patient_appointment.patient_appointment.send_appointment_reminder for newbench.new
2021-12-24 16:44:53,093 INFO scheduler Scheduled Job Complete: erpnext.healthcare.doctype.patient_appointment.patient_appointment.send_appointment_reminder for newbench.new
2021-12-24 16:44:53,247 INFO scheduler Scheduled Job Start: erpnext.projects.doctype.project.project.project_status_update_reminder for newbench.new
2021-12-24 16:44:54,087 INFO scheduler Scheduled Job Complete: erpnext.projects.doctype.project.project.project_status_update_reminder for newbench.new
2021-12-24 16:44:54,244 INFO scheduler Scheduled Job Start: frappe.monitor.flush for newbench.new
2021-12-24 16:44:54,798 INFO scheduler Scheduled Job Complete: frappe.monitor.flush for newbench.new
2021-12-24 16:44:54,960 INFO scheduler Scheduled Job Start: frappe.utils.global_search.sync_global_search for newbench.new
2021-12-24 16:44:55,458 INFO scheduler Scheduled Job Complete: frappe.utils.global_search.sync_global_search for newbench.new
2021-12-24 16:44:55,619 INFO scheduler Scheduled Job Start: frappe.integrations.doctype.razorpay_settings.razorpay_settings.capture_payment for newbench.new
2021-12-24 16:44:56,415 INFO scheduler Scheduled Job Complete: frappe.integrations.doctype.razorpay_settings.razorpay_settings.capture_payment for newbench.new
2021-12-24 16:44:56,571 INFO scheduler Scheduled Job Start: frappe.email.doctype.email_account.email_account.notify_unreplied for newbench.new
2021-12-24 16:44:57,364 INFO scheduler Scheduled Job Complete: frappe.email.doctype.email_account.email_account.notify_unreplied for newbench.new
2021-12-24 16:44:57,516 INFO scheduler Scheduled Job Start: frappe.email.doctype.email_account.email_account.pull for newbench.new
2021-12-24 16:44:58,177 INFO scheduler Scheduled Job Complete: frappe.email.doctype.email_account.email_account.pull for newbench.new
2021-12-24 16:44:58,330 INFO scheduler Scheduled Job Start: frappe.email.queue.flush for newbench.new
2021-12-24 16:44:58,863 INFO scheduler Scheduled Job Complete: frappe.email.queue.flush for newbench.new
2021-12-24 16:45:51,905 DEBUG scheduler Queued events for site newbench.new
2021-12-24 16:45:52,011 INFO scheduler Scheduled Job Start: frappe.twofactor.delete_all_barcodes_for_users for newbench.new
2021-12-24 16:45:52,874 INFO scheduler Scheduled Job Complete: frappe.twofactor.delete_all_barcodes_for_users for newbench.new
2021-12-24 16:45:53,098 INFO scheduler Scheduled Job Start: frappe.website.doctype.web_page.web_page.check_publish_status for newbench.new
2021-12-24 16:45:53,980 INFO scheduler Scheduled Job Complete: frappe.website.doctype.web_page.web_page.check_publish_status for newbench.new
2021-12-24 16:45:54,310 INFO scheduler Scheduled Job Start: frappe.oauth.delete_oauth2_data for newbench.new
2021-12-24 16:45:55,072 INFO scheduler Scheduled Job Complete: frappe.oauth.delete_oauth2_data for newbench.new
2021-12-24 16:46:52,562 DEBUG scheduler Queued events for site newbench.new
2021-12-24 16:47:53,268 DEBUG scheduler Queued events for site newbench.new
2021-12-24 16:48:53,872 INFO scheduler Scheduled Job Start: erpnext.crm.doctype.social_media_post.social_media_post.process_scheduled_social_media_posts for newbench.new
2021-12-24 16:48:54,085 DEBUG scheduler Queued events for site newbench.new
2021-12-24 16:48:54,475 INFO scheduler Scheduled Job Complete: erpnext.crm.doctype.social_media_post.social_media_post.process_scheduled_social_media_posts for newbench.new
2021-12-24 16:48:54,629 INFO scheduler Scheduled Job Start: erpnext.hr.doctype.interview.interview.send_interview_reminder for newbench.new
2021-12-24 16:48:55,248 INFO scheduler Scheduled Job Complete: erpnext.hr.doctype.interview.interview.send_interview_reminder for newbench.new
2021-12-24 16:48:55,403 INFO scheduler Scheduled Job Start: erpnext.healthcare.doctype.patient_appointment.patient_appointment.send_appointment_reminder for newbench.new
2021-12-24 16:48:55,869 INFO scheduler Scheduled Job Complete: erpnext.healthcare.doctype.patient_appointment.patient_appointment.send_appointment_reminder for newbench.new
2021-12-24 16:48:56,029 INFO scheduler Scheduled Job Start: erpnext.projects.doctype.project.project.project_status_update_reminder for newbench.new
2021-12-24 16:48:56,842 INFO scheduler Scheduled Job Complete: erpnext.projects.doctype.project.project.project_status_update_reminder for newbench.new
2021-12-24 16:48:56,995 INFO scheduler Scheduled Job Start: frappe.monitor.flush for newbench.new
2021-12-24 16:48:57,516 INFO scheduler Scheduled Job Complete: frappe.monitor.flush for newbench.new
2021-12-24 16:48:57,674 INFO scheduler Scheduled Job Start: frappe.utils.global_search.sync_global_search for newbench.new
2021-12-24 16:48:58,082 INFO scheduler Scheduled Job Complete: frappe.utils.global_search.sync_global_search for newbench.new
2021-12-24 16:48:58,242 INFO scheduler Scheduled Job Start: frappe.integrations.doctype.razorpay_settings.razorpay_settings.capture_payment for newbench.new
2021-12-24 16:48:59,060 INFO scheduler Scheduled Job Complete: frappe.integrations.doctype.razorpay_settings.razorpay_settings.capture_payment for newbench.new
2021-12-24 16:48:59,219 INFO scheduler Scheduled Job Start: frappe.email.doctype.email_account.email_account.notify_unreplied for newbench.new
2021-12-24 16:48:59,799 INFO scheduler Scheduled Job Complete: frappe.email.doctype.email_account.email_account.notify_unreplied for newbench.new
2021-12-24 16:48:59,951 INFO scheduler Scheduled Job Start: frappe.email.doctype.email_account.email_account.pull for newbench.new
2021-12-24 16:49:00,647 INFO scheduler Scheduled Job Complete: frappe.email.doctype.email_account.email_account.pull for newbench.new
2021-12-24 16:49:00,803 INFO scheduler Scheduled Job Start: frappe.email.queue.flush for newbench.new
2021-12-24 16:49:01,242 INFO scheduler Scheduled Job Complete: frappe.email.queue.flush for newbench.new
2021-12-24 16:49:54,751 DEBUG scheduler Queued events for site newbench.new
2021-12-24 16:50:55,433 DEBUG scheduler Queued events for site newbench.new
2021-12-24 16:51:56,113 DEBUG scheduler Queued events for site newbench.new
2021-12-24 16:52:56,736 INFO scheduler Scheduled Job Start: erpnext.crm.doctype.social_media_post.social_media_post.process_scheduled_social_media_posts for newbench.new
2021-12-24 16:52:56,923 DEBUG scheduler Queued events for site newbench.new
2021-12-24 16:52:57,332 INFO scheduler Scheduled Job Complete: erpnext.crm.doctype.social_media_post.social_media_post.process_scheduled_social_media_posts for newbench.new
2021-12-24 16:52:57,485 INFO scheduler Scheduled Job Start: erpnext.hr.doctype.interview.interview.send_interview_reminder for newbench.new
2021-12-24 16:52:58,007 INFO scheduler Scheduled Job Complete: erpnext.hr.doctype.interview.interview.send_interview_reminder for newbench.new
2021-12-24 16:52:58,160 INFO scheduler Scheduled Job Start: erpnext.healthcare.doctype.patient_appointment.patient_appointment.send_appointment_reminder for newbench.new
2021-12-24 16:52:58,633 INFO scheduler Scheduled Job Complete: erpnext.healthcare.doctype.patient_appointment.patient_appointment.send_appointment_reminder for newbench.new
2021-12-24 16:52:58,795 INFO scheduler Scheduled Job Start: erpnext.projects.doctype.project.project.project_status_update_reminder for newbench.new
2021-12-24 16:52:59,516 INFO scheduler Scheduled Job Complete: erpnext.projects.doctype.project.project.project_status_update_reminder for newbench.new
2021-12-24 16:52:59,675 INFO scheduler Scheduled Job Start: frappe.monitor.flush for newbench.new
2021-12-24 16:53:00,269 INFO scheduler Scheduled Job Complete: frappe.monitor.flush for newbench.new
2021-12-24 16:53:00,423 INFO scheduler Scheduled Job Start: frappe.utils.global_search.sync_global_search for newbench.new
2021-12-24 16:53:00,839 INFO scheduler Scheduled Job Complete: frappe.utils.global_search.sync_global_search for newbench.new
2021-12-24 16:53:00,996 INFO scheduler Scheduled Job Start: frappe.integrations.doctype.razorpay_settings.razorpay_settings.capture_payment for newbench.new
2021-12-24 16:53:01,717 INFO scheduler Scheduled Job Complete: frappe.integrations.doctype.razorpay_settings.razorpay_settings.capture_payment for newbench.new
2021-12-24 16:53:01,868 INFO scheduler Scheduled Job Start: frappe.email.doctype.email_account.email_account.notify_unreplied for newbench.new
2021-12-24 16:53:02,443 INFO scheduler Scheduled Job Complete: frappe.email.doctype.email_account.email_account.notify_unreplied for newbench.new
2021-12-24 16:53:02,597 INFO scheduler Scheduled Job Start: frappe.email.doctype.email_account.email_account.pull for newbench.new
2021-12-24 16:53:03,281 INFO scheduler Scheduled Job Complete: frappe.email.doctype.email_account.email_account.pull for newbench.new
2021-12-24 16:53:03,439 INFO scheduler Scheduled Job Start: frappe.email.queue.flush for newbench.new
2021-12-24 16:53:03,892 INFO scheduler Scheduled Job Complete: frappe.email.queue.flush for newbench.new
2021-12-24 16:53:57,589 DEBUG scheduler Queued events for site newbench.new
2021-12-24 16:54:58,273 DEBUG scheduler Queued events for site newbench.new
2021-12-24 16:55:58,954 DEBUG scheduler Queued events for site newbench.new
2021-12-24 16:56:59,579 INFO scheduler Scheduled Job Start: erpnext.crm.doctype.social_media_post.social_media_post.process_scheduled_social_media_posts for newbench.new
2021-12-24 16:56:59,774 DEBUG scheduler Queued events for site newbench.new
2021-12-24 16:57:00,186 INFO scheduler Scheduled Job Complete: erpnext.crm.doctype.social_media_post.social_media_post.process_scheduled_social_media_posts for newbench.new
2021-12-24 16:57:00,348 INFO scheduler Scheduled Job Start: erpnext.hr.doctype.interview.interview.send_interview_reminder for newbench.new
2021-12-24 16:57:00,934 INFO scheduler Scheduled Job Complete: erpnext.hr.doctype.interview.interview.send_interview_reminder for newbench.new
2021-12-24 16:57:01,087 INFO scheduler Scheduled Job Start: erpnext.healthcare.doctype.patient_appointment.patient_appointment.send_appointment_reminder for newbench.new
2021-12-24 16:57:01,650 INFO scheduler Scheduled Job Complete: erpnext.healthcare.doctype.patient_appointment.patient_appointment.send_appointment_reminder for newbench.new
2021-12-24 16:57:01,812 INFO scheduler Scheduled Job Start: erpnext.projects.doctype.project.project.project_status_update_reminder for newbench.new
2021-12-24 16:57:02,640 INFO scheduler Scheduled Job Complete: erpnext.projects.doctype.project.project.project_status_update_reminder for newbench.new
2021-12-24 16:57:02,797 INFO scheduler Scheduled Job Start: frappe.monitor.flush for newbench.new
2021-12-24 16:57:03,197 INFO scheduler Scheduled Job Complete: frappe.monitor.flush for newbench.new
2021-12-24 16:57:03,354 INFO scheduler Scheduled Job Start: frappe.utils.global_search.sync_global_search for newbench.new
2021-12-24 16:57:03,858 INFO scheduler Scheduled Job Complete: frappe.utils.global_search.sync_global_search for newbench.new
2021-12-24 16:57:04,019 INFO scheduler Scheduled Job Start: frappe.integrations.doctype.razorpay_settings.razorpay_settings.capture_payment for newbench.new
2021-12-24 16:57:04,718 INFO scheduler Scheduled Job Complete: frappe.integrations.doctype.razorpay_settings.razorpay_settings.capture_payment for newbench.new
2021-12-24 16:57:04,872 INFO scheduler Scheduled Job Start: frappe.email.doctype.email_account.email_account.notify_unreplied for newbench.new
2021-12-24 16:57:05,459 INFO scheduler Scheduled Job Complete: frappe.email.doctype.email_account.email_account.notify_unreplied for newbench.new
2021-12-24 16:57:05,618 INFO scheduler Scheduled Job Start: frappe.email.doctype.email_account.email_account.pull for newbench.new
2021-12-24 16:57:06,225 INFO scheduler Scheduled Job Complete: frappe.email.doctype.email_account.email_account.pull for newbench.new
2021-12-24 16:57:06,386 INFO scheduler Scheduled Job Start: frappe.email.queue.flush for newbench.new
2021-12-24 16:57:06,832 INFO scheduler Scheduled Job Complete: frappe.email.queue.flush for newbench.new
2021-12-24 16:58:00,447 DEBUG scheduler Queued events for site newbench.new
2021-12-24 16:59:01,146 DEBUG scheduler Queued events for site newbench.new
2021-12-24 17:00:01,634 INFO scheduler Scheduled Job Start: erpnext.stock.doctype.repost_item_valuation.repost_item_valuation.repost_entries for newbench.new
2021-12-24 17:00:01,746 INFO scheduler Scheduled Job Start: erpnext.erpnext_integrations.connectors.shopify_connection.sync_old_orders for newbench.new
2021-12-24 17:00:02,382 DEBUG scheduler Queued events for site newbench.new
2021-12-24 17:00:03,911 INFO scheduler Scheduled Job Complete: erpnext.stock.doctype.repost_item_valuation.repost_item_valuation.repost_entries for newbench.new
2021-12-24 17:00:04,844 INFO scheduler Scheduled Job Complete: erpnext.erpnext_integrations.connectors.shopify_connection.sync_old_orders for newbench.new
2021-12-24 17:00:05,101 INFO scheduler Scheduled Job Start: erpnext.support.doctype.issue.issue.set_service_level_agreement_variance for newbench.new
2021-12-24 17:00:05,953 INFO scheduler Scheduled Job Complete: erpnext.support.doctype.issue.issue.set_service_level_agreement_variance for newbench.new
2021-12-24 17:00:06,286 INFO scheduler Scheduled Job Start: erpnext.hr.doctype.shift_type.shift_type.process_auto_attendance_for_all_shifts for newbench.new
2021-12-24 17:00:07,383 INFO scheduler Scheduled Job Complete: erpnext.hr.doctype.shift_type.shift_type.process_auto_attendance_for_all_shifts for newbench.new
2021-12-24 17:00:07,636 INFO scheduler Scheduled Job Start: erpnext.projects.doctype.project.project.collect_project_status for newbench.new
2021-12-24 17:00:08,476 INFO scheduler Scheduled Job Complete: erpnext.projects.doctype.project.project.collect_project_status for newbench.new
2021-12-24 17:00:08,817 INFO scheduler Scheduled Job Start: erpnext.projects.doctype.project.project.hourly_reminder for newbench.new
2021-12-24 17:00:09,732 INFO scheduler Scheduled Job Complete: erpnext.projects.doctype.project.project.hourly_reminder for newbench.new
2021-12-24 17:00:10,049 INFO scheduler Scheduled Job Start: erpnext.erpnext_integrations.doctype.plaid_settings.plaid_settings.automatic_synchronization for newbench.new
2021-12-24 17:00:11,252 INFO scheduler Scheduled Job Complete: erpnext.erpnext_integrations.doctype.plaid_settings.plaid_settings.automatic_synchronization for newbench.new
2021-12-24 17:00:11,467 INFO scheduler Scheduled Job Start: erpnext.accounts.doctype.gl_entry.gl_entry.rename_gle_sle_docs for newbench.new
2021-12-24 17:00:12,929 INFO scheduler Scheduled Job Complete: erpnext.accounts.doctype.gl_entry.gl_entry.rename_gle_sle_docs for newbench.new
2021-12-24 17:00:13,148 INFO scheduler Scheduled Job Start: erpnext.erpnext_integrations.doctype.amazon_mws_settings.amazon_mws_settings.schedule_get_order_details for newbench.new
2021-12-24 17:00:14,089 INFO scheduler Scheduled Job Complete: erpnext.erpnext_integrations.doctype.amazon_mws_settings.amazon_mws_settings.schedule_get_order_details for newbench.new
2021-12-24 17:00:14,312 INFO scheduler Scheduled Job Start: erpnext.accounts.doctype.subscription.subscription.process_all for newbench.new
2021-12-24 17:00:15,074 INFO scheduler Scheduled Job Complete: erpnext.accounts.doctype.subscription.subscription.process_all for newbench.new
2021-12-24 17:00:15,292 INFO scheduler Scheduled Job Start: erpnext.hr.doctype.daily_work_summary_group.daily_work_summary_group.trigger_emails for newbench.new
2021-12-24 17:00:16,100 INFO scheduler Scheduled Job Complete: erpnext.hr.doctype.daily_work_summary_group.daily_work_summary_group.trigger_emails for newbench.new
2021-12-24 17:00:16,316 INFO scheduler Scheduled Job Start: erpnext.crm.doctype.social_media_post.social_media_post.process_scheduled_social_media_posts for newbench.new
2021-12-24 17:00:16,920 INFO scheduler Scheduled Job Complete: erpnext.crm.doctype.social_media_post.social_media_post.process_scheduled_social_media_posts for newbench.new
2021-12-24 17:00:17,084 INFO scheduler Scheduled Job Start: erpnext.hr.doctype.interview.interview.send_interview_reminder for newbench.new
2021-12-24 17:00:17,693 INFO scheduler Scheduled Job Complete: erpnext.hr.doctype.interview.interview.send_interview_reminder for newbench.new
2021-12-24 17:00:17,869 INFO scheduler Scheduled Job Start: erpnext.healthcare.doctype.patient_appointment.patient_appointment.send_appointment_reminder for newbench.new
2021-12-24 17:00:18,328 INFO scheduler Scheduled Job Complete: erpnext.healthcare.doctype.patient_appointment.patient_appointment.send_appointment_reminder for newbench.new
2021-12-24 17:00:18,486 INFO scheduler Scheduled Job Start: erpnext.projects.doctype.project.project.project_status_update_reminder for newbench.new
2021-12-24 17:00:19,302 INFO scheduler Scheduled Job Complete: erpnext.projects.doctype.project.project.project_status_update_reminder for newbench.new
2021-12-24 17:00:19,454 INFO scheduler Scheduled Job Start: erpnext.utilities.doctype.video.video.update_youtube_data for newbench.new
2021-12-24 17:00:20,260 INFO scheduler Scheduled Job Failed: erpnext.utilities.doctype.video.video.update_youtube_data for newbench.new
2021-12-24 17:00:20,646 INFO scheduler Scheduled Job Start: frappe.email.doctype.newsletter.newsletter.send_scheduled_email for newbench.new
2021-12-24 17:00:21,529 INFO scheduler Scheduled Job Complete: frappe.email.doctype.newsletter.newsletter.send_scheduled_email for newbench.new
2021-12-24 17:00:21,741 INFO scheduler Scheduled Job Start: frappe.integrations.doctype.google_calendar.google_calendar.sync for newbench.new
2021-12-24 17:00:24,643 INFO scheduler Scheduled Job Complete: frappe.integrations.doctype.google_calendar.google_calendar.sync for newbench.new
2021-12-24 17:00:24,856 INFO scheduler Scheduled Job Start: frappe.desk.form.document_follow.send_hourly_updates for newbench.new
2021-12-24 17:00:25,507 INFO scheduler Scheduled Job Complete: frappe.desk.form.document_follow.send_hourly_updates for newbench.new
2021-12-24 17:00:25,721 INFO scheduler Scheduled Job Start: frappe.deferred_insert.save_to_db for newbench.new
2021-12-24 17:00:26,677 INFO scheduler Scheduled Job Complete: frappe.deferred_insert.save_to_db for newbench.new
2021-12-24 17:00:26,893 INFO scheduler Scheduled Job Start: frappe.desk.page.backups.backups.delete_downloadable_backups for newbench.new
2021-12-24 17:00:27,679 INFO scheduler Scheduled Job Complete: frappe.desk.page.backups.backups.delete_downloadable_backups for newbench.new
2021-12-24 17:00:27,907 INFO scheduler Scheduled Job Start: frappe.utils.error.collect_error_snapshots for newbench.new
2021-12-24 17:00:28,727 INFO scheduler Scheduled Job Complete: frappe.utils.error.collect_error_snapshots for newbench.new
2021-12-24 17:00:28,959 INFO scheduler Scheduled Job Start: frappe.model.utils.user_settings.sync_user_settings for newbench.new
2021-12-24 17:00:29,616 INFO scheduler Scheduled Job Complete: frappe.model.utils.user_settings.sync_user_settings for newbench.new
2021-12-24 17:00:29,841 INFO scheduler Scheduled Job Start: frappe.model.utils.link_count.update_link_count for newbench.new
2021-12-24 17:00:30,637 INFO scheduler Scheduled Job Complete: frappe.model.utils.link_count.update_link_count for newbench.new
2021-12-24 17:00:30,863 INFO scheduler Scheduled Job Start: frappe.monitor.flush for newbench.new
2021-12-24 17:00:31,293 INFO scheduler Scheduled Job Complete: frappe.monitor.flush for newbench.new
2021-12-24 17:00:31,468 INFO scheduler Scheduled Job Start: frappe.utils.global_search.sync_global_search for newbench.new
2021-12-24 17:00:31,940 INFO scheduler Scheduled Job Complete: frappe.utils.global_search.sync_global_search for newbench.new
2021-12-24 17:00:32,100 INFO scheduler Scheduled Job Start: frappe.integrations.doctype.razorpay_settings.razorpay_settings.capture_payment for newbench.new
2021-12-24 17:00:32,840 INFO scheduler Scheduled Job Complete: frappe.integrations.doctype.razorpay_settings.razorpay_settings.capture_payment for newbench.new
2021-12-24 17:00:33,002 INFO scheduler Scheduled Job Start: frappe.email.doctype.email_account.email_account.notify_unreplied for newbench.new
2021-12-24 17:00:33,609 INFO scheduler Scheduled Job Complete: frappe.email.doctype.email_account.email_account.notify_unreplied for newbench.new
2021-12-24 17:00:33,762 INFO scheduler Scheduled Job Start: frappe.email.doctype.email_account.email_account.pull for newbench.new
2021-12-24 17:00:34,359 INFO scheduler Scheduled Job Complete: frappe.email.doctype.email_account.email_account.pull for newbench.new
2021-12-24 17:00:34,511 INFO scheduler Scheduled Job Start: frappe.email.queue.flush for newbench.new
2021-12-24 17:00:34,965 INFO scheduler Scheduled Job Complete: frappe.email.queue.flush for newbench.new
2021-12-24 17:00:35,118 INFO scheduler Scheduled Job Start: frappe.twofactor.delete_all_barcodes_for_users for newbench.new
2021-12-24 17:00:36,042 INFO scheduler Scheduled Job Complete: frappe.twofactor.delete_all_barcodes_for_users for newbench.new
2021-12-24 17:00:36,258 INFO scheduler Scheduled Job Start: frappe.website.doctype.web_page.web_page.check_publish_status for newbench.new
2021-12-24 17:00:37,066 INFO scheduler Scheduled Job Complete: frappe.website.doctype.web_page.web_page.check_publish_status for newbench.new
2021-12-24 17:00:37,302 INFO scheduler Scheduled Job Start: frappe.oauth.delete_oauth2_data for newbench.new
2021-12-24 17:00:38,094 INFO scheduler Scheduled Job Complete: frappe.oauth.delete_oauth2_data for newbench.new
2021-12-24 17:01:03,062 DEBUG scheduler Queued events for site newbench.new
2021-12-24 17:02:03,768 DEBUG scheduler Queued events for site newbench.new
2021-12-24 17:03:04,476 DEBUG scheduler Queued events for site newbench.new
2021-12-24 17:04:05,082 INFO scheduler Scheduled Job Start: erpnext.crm.doctype.social_media_post.social_media_post.process_scheduled_social_media_posts for newbench.new
2021-12-24 17:04:05,295 DEBUG scheduler Queued events for site newbench.new
2021-12-24 17:04:05,599 INFO scheduler Scheduled Job Complete: erpnext.crm.doctype.social_media_post.social_media_post.process_scheduled_social_media_posts for newbench.new
2021-12-24 17:04:05,758 INFO scheduler Scheduled Job Start: erpnext.hr.doctype.interview.interview.send_interview_reminder for newbench.new
2021-12-24 17:04:06,390 INFO scheduler Scheduled Job Complete: erpnext.hr.doctype.interview.interview.send_interview_reminder for newbench.new
2021-12-24 17:04:06,545 INFO scheduler Scheduled Job Start: erpnext.healthcare.doctype.patient_appointment.patient_appointment.send_appointment_reminder for newbench.new
2021-12-24 17:04:07,000 INFO scheduler Scheduled Job Complete: erpnext.healthcare.doctype.patient_appointment.patient_appointment.send_appointment_reminder for newbench.new
2021-12-24 17:04:07,157 INFO scheduler Scheduled Job Start: erpnext.projects.doctype.project.project.project_status_update_reminder for newbench.new
2021-12-24 17:04:07,883 INFO scheduler Scheduled Job Complete: erpnext.projects.doctype.project.project.project_status_update_reminder for newbench.new
2021-12-24 17:04:08,037 INFO scheduler Scheduled Job Start: frappe.monitor.flush for newbench.new
2021-12-24 17:04:08,588 INFO scheduler Scheduled Job Complete: frappe.monitor.flush for newbench.new
2021-12-24 17:04:08,746 INFO scheduler Scheduled Job Start: frappe.utils.global_search.sync_global_search for newbench.new
2021-12-24 17:04:09,314 INFO scheduler Scheduled Job Complete: frappe.utils.global_search.sync_global_search for newbench.new
2021-12-24 17:04:09,472 INFO scheduler Scheduled Job Start: frappe.integrations.doctype.razorpay_settings.razorpay_settings.capture_payment for newbench.new
2021-12-24 17:04:10,177 INFO scheduler Scheduled Job Complete: frappe.integrations.doctype.razorpay_settings.razorpay_settings.capture_payment for newbench.new
2021-12-24 17:04:10,332 INFO scheduler Scheduled Job Start: frappe.email.doctype.email_account.email_account.notify_unreplied for newbench.new
2021-12-24 17:04:10,900 INFO scheduler Scheduled Job Complete: frappe.email.doctype.email_account.email_account.notify_unreplied for newbench.new
2021-12-24 17:04:11,055 INFO scheduler Scheduled Job Start: frappe.email.doctype.email_account.email_account.pull for newbench.new
2021-12-24 17:04:11,682 INFO scheduler Scheduled Job Complete: frappe.email.doctype.email_account.email_account.pull for newbench.new
2021-12-24 17:04:11,835 INFO scheduler Scheduled Job Start: frappe.email.queue.flush for newbench.new
2021-12-24 17:04:12,364 INFO scheduler Scheduled Job Complete: frappe.email.queue.flush for newbench.new
2021-12-24 17:05:05,996 DEBUG scheduler Queued events for site newbench.new
2021-12-24 17:06:06,671 DEBUG scheduler Queued events for site newbench.new
2021-12-24 17:07:07,352 DEBUG scheduler Queued events for site newbench.new
2021-12-24 17:08:07,941 INFO scheduler Scheduled Job Start: erpnext.crm.doctype.social_media_post.social_media_post.process_scheduled_social_media_posts for newbench.new
2021-12-24 17:08:08,148 DEBUG scheduler Queued events for site newbench.new
2021-12-24 17:08:08,550 INFO scheduler Scheduled Job Complete: erpnext.crm.doctype.social_media_post.social_media_post.process_scheduled_social_media_posts for newbench.new
2021-12-24 17:08:08,712 INFO scheduler Scheduled Job Start: erpnext.hr.doctype.interview.interview.send_interview_reminder for newbench.new
2021-12-24 17:08:09,234 INFO scheduler Scheduled Job Complete: erpnext.hr.doctype.interview.interview.send_interview_reminder for newbench.new
2021-12-24 17:08:09,389 INFO scheduler Scheduled Job Start: erpnext.healthcare.doctype.patient_appointment.patient_appointment.send_appointment_reminder for newbench.new
2021-12-24 17:08:09,984 INFO scheduler Scheduled Job Complete: erpnext.healthcare.doctype.patient_appointment.patient_appointment.send_appointment_reminder for newbench.new
2021-12-24 17:08:10,140 INFO scheduler Scheduled Job Start: erpnext.projects.doctype.project.project.project_status_update_reminder for newbench.new
2021-12-24 17:08:10,963 INFO scheduler Scheduled Job Complete: erpnext.projects.doctype.project.project.project_status_update_reminder for newbench.new
2021-12-24 17:08:11,115 INFO scheduler Scheduled Job Start: frappe.monitor.flush for newbench.new
2021-12-24 17:08:11,615 INFO scheduler Scheduled Job Complete: frappe.monitor.flush for newbench.new
2021-12-24 17:08:11,775 INFO scheduler Scheduled Job Start: frappe.utils.global_search.sync_global_search for newbench.new
2021-12-24 17:08:12,181 INFO scheduler Scheduled Job Complete: frappe.utils.global_search.sync_global_search for newbench.new
2021-12-24 17:08:12,337 INFO scheduler Scheduled Job Start: frappe.integrations.doctype.razorpay_settings.razorpay_settings.capture_payment for newbench.new
2021-12-24 17:08:13,131 INFO scheduler Scheduled Job Complete: frappe.integrations.doctype.razorpay_settings.razorpay_settings.capture_payment for newbench.new
2021-12-24 17:08:13,285 INFO scheduler Scheduled Job Start: frappe.email.doctype.email_account.email_account.notify_unreplied for newbench.new
2021-12-24 17:08:14,012 INFO scheduler Scheduled Job Complete: frappe.email.doctype.email_account.email_account.notify_unreplied for newbench.new
2021-12-24 17:08:14,169 INFO scheduler Scheduled Job Start: frappe.email.doctype.email_account.email_account.pull for newbench.new
2021-12-24 17:08:14,770 INFO scheduler Scheduled Job Complete: frappe.email.doctype.email_account.email_account.pull for newbench.new
2021-12-24 17:08:14,928 INFO scheduler Scheduled Job Start: frappe.email.queue.flush for newbench.new
2021-12-24 17:08:15,372 INFO scheduler Scheduled Job Complete: frappe.email.queue.flush for newbench.new
2021-12-24 17:09:08,873 DEBUG scheduler Queued events for site newbench.new
2021-12-24 17:10:09,566 DEBUG scheduler Queued events for site newbench.new
2021-12-24 17:11:10,241 DEBUG scheduler Queued events for site newbench.new
2021-12-24 17:12:10,859 INFO scheduler Scheduled Job Start: erpnext.crm.doctype.social_media_post.social_media_post.process_scheduled_social_media_posts for newbench.new
2021-12-24 17:12:11,046 DEBUG scheduler Queued events for site newbench.new
2021-12-24 17:12:11,464 INFO scheduler Scheduled Job Complete: erpnext.crm.doctype.social_media_post.social_media_post.process_scheduled_social_media_posts for newbench.new
2021-12-24 17:12:11,617 INFO scheduler Scheduled Job Start: erpnext.hr.doctype.interview.interview.send_interview_reminder for newbench.new
2021-12-24 17:12:12,229 INFO scheduler Scheduled Job Complete: erpnext.hr.doctype.interview.interview.send_interview_reminder for newbench.new
2021-12-24 17:12:12,383 INFO scheduler Scheduled Job Start: erpnext.healthcare.doctype.patient_appointment.patient_appointment.send_appointment_reminder for newbench.new
2021-12-24 17:12:12,951 INFO scheduler Scheduled Job Complete: erpnext.healthcare.doctype.patient_appointment.patient_appointment.send_appointment_reminder for newbench.new
2021-12-24 17:12:13,104 INFO scheduler Scheduled Job Start: erpnext.projects.doctype.project.project.project_status_update_reminder for newbench.new
2021-12-24 17:12:13,856 INFO scheduler Scheduled Job Complete: erpnext.projects.doctype.project.project.project_status_update_reminder for newbench.new
2021-12-24 17:12:14,013 INFO scheduler Scheduled Job Start: frappe.monitor.flush for newbench.new
2021-12-24 17:12:14,535 INFO scheduler Scheduled Job Complete: frappe.monitor.flush for newbench.new
2021-12-24 17:12:14,693 INFO scheduler Scheduled Job Start: frappe.utils.global_search.sync_global_search for newbench.new
2021-12-24 17:12:15,213 INFO scheduler Scheduled Job Complete: frappe.utils.global_search.sync_global_search for newbench.new
2021-12-24 17:12:15,373 INFO scheduler Scheduled Job Start: frappe.integrations.doctype.razorpay_settings.razorpay_settings.capture_payment for newbench.new
2021-12-24 17:12:16,087 INFO scheduler Scheduled Job Complete: frappe.integrations.doctype.razorpay_settings.razorpay_settings.capture_payment for newbench.new
2021-12-24 17:12:16,243 INFO scheduler Scheduled Job Start: frappe.email.doctype.email_account.email_account.notify_unreplied for newbench.new
2021-12-24 17:12:16,820 INFO scheduler Scheduled Job Complete: frappe.email.doctype.email_account.email_account.notify_unreplied for newbench.new
2021-12-24 17:12:16,977 INFO scheduler Scheduled Job Start: frappe.email.doctype.email_account.email_account.pull for newbench.new
2021-12-24 17:12:17,673 INFO scheduler Scheduled Job Complete: frappe.email.doctype.email_account.email_account.pull for newbench.new
2021-12-24 17:12:17,829 INFO scheduler Scheduled Job Start: frappe.email.queue.flush for newbench.new
2021-12-24 17:12:18,364 INFO scheduler Scheduled Job Complete: frappe.email.queue.flush for newbench.new
2021-12-24 17:13:11,708 DEBUG scheduler Queued events for site newbench.new
2021-12-24 17:14:12,387 DEBUG scheduler Queued events for site newbench.new
2021-12-27 09:45:23,287 INFO scheduler Scheduled Job Start: erpnext.stock.doctype.repost_item_valuation.repost_item_valuation.repost_entries for newbench.new
2021-12-27 09:45:23,285 INFO scheduler Scheduled Job Start: erpnext.hr.doctype.employee.employee_reminders.send_reminders_in_advance_weekly for newbench.new
2021-12-27 09:45:27,822 DEBUG scheduler Queued events for site newbench.new
2021-12-27 09:45:28,447 INFO scheduler Scheduled Job Complete: erpnext.stock.doctype.repost_item_valuation.repost_item_valuation.repost_entries for newbench.new
2021-12-27 09:45:28,771 INFO scheduler Scheduled Job Start: erpnext.crm.doctype.lead.lead.daily_open_lead for newbench.new
2021-12-27 09:45:29,594 INFO scheduler Scheduled Job Failed: erpnext.hr.doctype.employee.employee_reminders.send_reminders_in_advance_weekly for newbench.new
2021-12-27 09:45:29,994 INFO scheduler Scheduled Job Start: erpnext.non_profit.doctype.membership.membership.set_expired_statuserpnext.hr.doctype.interview.interview.send_daily_feedback_reminder for newbench.new
2021-12-27 09:45:30,799 INFO scheduler Scheduled Job Failed: erpnext.non_profit.doctype.membership.membership.set_expired_statuserpnext.hr.doctype.interview.interview.send_daily_feedback_reminder for newbench.new
2021-12-27 09:45:31,002 INFO scheduler Scheduled Job Complete: erpnext.crm.doctype.lead.lead.daily_open_lead for newbench.new
2021-12-27 09:45:31,048 INFO scheduler Scheduled Job Start: erpnext.accounts.doctype.process_statement_of_accounts.process_statement_of_accounts.send_auto_email for newbench.new
2021-12-27 09:45:31,243 INFO scheduler Scheduled Job Start: erpnext.loan_management.doctype.process_loan_interest_accrual.process_loan_interest_accrual.process_loan_interest_accrual_for_term_loans for newbench.new
2021-12-27 09:45:32,468 INFO scheduler Scheduled Job Complete: erpnext.loan_management.doctype.process_loan_interest_accrual.process_loan_interest_accrual.process_loan_interest_accrual_for_term_loans for newbench.new
2021-12-27 09:45:33,081 INFO scheduler Scheduled Job Complete: erpnext.accounts.doctype.process_statement_of_accounts.process_statement_of_accounts.send_auto_email for newbench.new
2021-12-27 09:45:33,243 INFO scheduler Scheduled Job Start: erpnext.loan_management.doctype.process_loan_security_shortfall.process_loan_security_shortfall.create_process_loan_security_shortfall for newbench.new
2021-12-27 09:45:33,329 INFO scheduler Scheduled Job Start: erpnext.buying.doctype.supplier_quotation.supplier_quotation.set_expired_status for newbench.new
2021-12-27 09:45:34,048 INFO scheduler Scheduled Job Complete: erpnext.loan_management.doctype.process_loan_security_shortfall.process_loan_security_shortfall.create_process_loan_security_shortfall for newbench.new
2021-12-27 09:45:34,277 INFO scheduler Scheduled Job Start: erpnext.hr.utils.allocate_earned_leaves for newbench.new
2021-12-27 09:45:34,350 INFO scheduler Scheduled Job Complete: erpnext.buying.doctype.supplier_quotation.supplier_quotation.set_expired_status for newbench.new
2021-12-27 09:45:34,578 INFO scheduler Scheduled Job Start: erpnext.healthcare.doctype.patient_appointment.patient_appointment.update_appointment_status for newbench.new
2021-12-27 09:45:35,424 INFO scheduler Scheduled Job Complete: erpnext.hr.utils.allocate_earned_leaves for newbench.new
2021-12-27 09:45:35,552 INFO scheduler Scheduled Job Failed: erpnext.healthcare.doctype.patient_appointment.patient_appointment.update_appointment_status for newbench.new
2021-12-27 09:45:35,719 INFO scheduler Scheduled Job Start: erpnext.hr.utils.generate_leave_encashment for newbench.new
2021-12-27 09:45:35,798 INFO scheduler Scheduled Job Start: erpnext.selling.doctype.quotation.quotation.set_expired_status for newbench.new
2021-12-27 09:45:36,693 INFO scheduler Scheduled Job Complete: erpnext.hr.utils.generate_leave_encashment for newbench.new
2021-12-27 09:45:36,953 INFO scheduler Scheduled Job Start: erpnext.hr.doctype.leave_ledger_entry.leave_ledger_entry.process_expired_allocation for newbench.new
2021-12-27 09:45:37,067 INFO scheduler Scheduled Job Complete: erpnext.selling.doctype.quotation.quotation.set_expired_status for newbench.new
2021-12-27 09:45:37,309 INFO scheduler Scheduled Job Start: erpnext.crm.doctype.email_campaign.email_campaign.set_email_campaign_status for newbench.new
2021-12-27 09:45:37,653 INFO scheduler Scheduled Job Complete: erpnext.hr.doctype.leave_ledger_entry.leave_ledger_entry.process_expired_allocation for newbench.new
2021-12-27 09:45:37,914 INFO scheduler Scheduled Job Start: erpnext.manufacturing.doctype.bom_update_tool.bom_update_tool.update_latest_price_in_all_boms for newbench.new
2021-12-27 09:45:38,555 INFO scheduler Scheduled Job Complete: erpnext.crm.doctype.email_campaign.email_campaign.set_email_campaign_status for newbench.new
2021-12-27 09:45:38,891 INFO scheduler Scheduled Job Start: erpnext.crm.doctype.email_campaign.email_campaign.send_email_to_leads_or_contacts for newbench.new
2021-12-27 09:45:39,508 INFO scheduler Scheduled Job Complete: erpnext.manufacturing.doctype.bom_update_tool.bom_update_tool.update_latest_price_in_all_boms for newbench.new
2021-12-27 09:45:39,596 INFO scheduler Scheduled Job Complete: erpnext.crm.doctype.email_campaign.email_campaign.send_email_to_leads_or_contacts for newbench.new
2021-12-27 09:45:39,738 INFO scheduler Scheduled Job Start: erpnext.setup.doctype.email_digest.email_digest.send for newbench.new
2021-12-27 09:45:39,840 INFO scheduler Scheduled Job Start: erpnext.support.doctype.service_level_agreement.service_level_agreement.check_agreement_status for newbench.new
2021-12-27 09:45:40,740 INFO scheduler Scheduled Job Complete: erpnext.setup.doctype.email_digest.email_digest.send for newbench.new
2021-12-27 09:45:40,945 INFO scheduler Scheduled Job Complete: erpnext.support.doctype.service_level_agreement.service_level_agreement.check_agreement_status for newbench.new
2021-12-27 09:45:41,001 INFO scheduler Scheduled Job Start: frappe.integrations.doctype.google_drive.google_drive.weekly_backup for newbench.new
2021-12-27 09:45:41,169 INFO scheduler Scheduled Job Start: erpnext.quality_management.doctype.quality_review.quality_review.review for newbench.new
2021-12-27 09:45:42,491 INFO scheduler Scheduled Job Complete: erpnext.quality_management.doctype.quality_review.quality_review.review for newbench.new
2021-12-27 09:45:42,758 INFO scheduler Scheduled Job Start: erpnext.projects.doctype.project.project.send_project_status_email_to_users for newbench.new
2021-12-27 09:46:01,270 INFO scheduler Scheduled Job Complete: frappe.integrations.doctype.google_drive.google_drive.weekly_backup for newbench.new
2021-12-27 09:46:06,509 INFO scheduler Scheduled Job Start: frappe.social.doctype.energy_point_log.energy_point_log.send_weekly_summary for newbench.new
2021-12-27 09:46:08,629 INFO scheduler Scheduled Job Complete: erpnext.projects.doctype.project.project.send_project_status_email_to_users for newbench.new
2021-12-27 09:46:08,939 INFO scheduler Scheduled Job Start: erpnext.projects.doctype.project.project.update_project_sales_billing for newbench.new
2021-12-27 09:46:11,164 INFO scheduler Scheduled Job Complete: frappe.social.doctype.energy_point_log.energy_point_log.send_weekly_summary for newbench.new
2021-12-27 09:46:11,326 INFO scheduler Scheduled Job Complete: erpnext.projects.doctype.project.project.update_project_sales_billing for newbench.new
2021-12-27 09:46:11,466 INFO scheduler Scheduled Job Start: frappe.desk.form.document_follow.send_weekly_updates for newbench.new
2021-12-27 09:46:11,581 INFO scheduler Scheduled Job Start: erpnext.crm.doctype.contract.contract.update_status_for_contracts for newbench.new
2021-12-27 09:46:12,477 INFO scheduler Scheduled Job Complete: frappe.desk.form.document_follow.send_weekly_updates for newbench.new
2021-12-27 09:46:12,720 INFO scheduler Scheduled Job Start: frappe.desk.doctype.route_history.route_history.flush_old_route_records for newbench.new
2021-12-27 09:46:12,791 INFO scheduler Scheduled Job Complete: erpnext.crm.doctype.contract.contract.update_status_for_contracts for newbench.new
2021-12-27 09:46:13,101 INFO scheduler Scheduled Job Start: erpnext.assets.doctype.asset.asset.make_post_gl_entry for newbench.new
2021-12-27 09:46:13,796 INFO scheduler Scheduled Job Complete: frappe.desk.doctype.route_history.route_history.flush_old_route_records for newbench.new
2021-12-27 09:46:14,059 INFO scheduler Scheduled Job Start: frappe.integrations.doctype.s3_backup_settings.s3_backup_settings.take_backups_weekly for newbench.new
2021-12-27 09:46:17,415 INFO scheduler Scheduled Job Complete: erpnext.assets.doctype.asset.asset.make_post_gl_entry for newbench.new
2021-12-27 09:46:17,627 INFO scheduler Scheduled Job Complete: frappe.integrations.doctype.s3_backup_settings.s3_backup_settings.take_backups_weekly for newbench.new
2021-12-27 09:46:17,653 INFO scheduler Scheduled Job Start: erpnext.assets.doctype.asset.asset.update_maintenance_status for newbench.new
2021-12-27 09:46:17,872 INFO scheduler Scheduled Job Start: frappe.integrations.doctype.dropbox_settings.dropbox_settings.take_backups_weekly for newbench.new
2021-12-27 09:46:18,948 INFO scheduler Scheduled Job Complete: erpnext.assets.doctype.asset.asset.update_maintenance_status for newbench.new
2021-12-27 09:46:19,377 INFO scheduler Scheduled Job Start: erpnext.setup.doctype.company.company.cache_companies_monthly_sales_history for newbench.new
2021-12-27 09:46:21,369 INFO scheduler Scheduled Job Complete: frappe.integrations.doctype.dropbox_settings.dropbox_settings.take_backups_weekly for newbench.new
2021-12-27 09:46:21,753 INFO scheduler Scheduled Job Start: frappe.integrations.doctype.google_drive.google_drive.daily_backup for newbench.new
2021-12-27 09:46:22,534 INFO scheduler Scheduled Job Complete: erpnext.setup.doctype.company.company.cache_companies_monthly_sales_history for newbench.new
2021-12-27 09:46:22,759 INFO scheduler Scheduled Job Start: erpnext.buying.doctype.supplier_scorecard.supplier_scorecard.refresh_scorecards for newbench.new
2021-12-27 09:46:23,787 INFO scheduler Scheduled Job Complete: erpnext.buying.doctype.supplier_scorecard.supplier_scorecard.refresh_scorecards for newbench.new
2021-12-27 09:46:24,311 INFO scheduler Scheduled Job Start: erpnext.stock.doctype.serial_no.serial_no.update_maintenance_status for newbench.new
2021-12-27 09:46:25,116 INFO scheduler Scheduled Job Complete: frappe.integrations.doctype.google_drive.google_drive.daily_backup for newbench.new
2021-12-27 09:46:25,470 INFO scheduler Scheduled Job Complete: erpnext.stock.doctype.serial_no.serial_no.update_maintenance_status for newbench.new
2021-12-27 09:46:25,661 INFO scheduler Scheduled Job Start: frappe.integrations.doctype.s3_backup_settings.s3_backup_settings.take_backups_daily for newbench.new
2021-12-27 09:46:25,736 INFO scheduler Scheduled Job Start: erpnext.hr.doctype.daily_work_summary_group.daily_work_summary_group.send_summary for newbench.new
2021-12-27 09:46:26,470 INFO scheduler Scheduled Job Complete: frappe.integrations.doctype.s3_backup_settings.s3_backup_settings.take_backups_daily for newbench.new
2021-12-27 09:46:26,733 INFO scheduler Scheduled Job Start: frappe.utils.change_log.check_for_update for newbench.new
2021-12-27 09:46:26,740 INFO scheduler Scheduled Job Complete: erpnext.hr.doctype.daily_work_summary_group.daily_work_summary_group.send_summary for newbench.new
2021-12-27 09:46:26,991 INFO scheduler Scheduled Job Start: erpnext.assets.doctype.asset.depreciation.post_depreciation_entries for newbench.new
2021-12-27 09:46:28,621 INFO scheduler Scheduled Job Complete: erpnext.assets.doctype.asset.depreciation.post_depreciation_entries for newbench.new
2021-12-27 09:46:28,674 DEBUG scheduler Queued events for site newbench.new
2021-12-27 09:46:33,710 INFO scheduler Scheduled Job Start: erpnext.projects.doctype.task.task.set_tasks_as_overdue for newbench.new
2021-12-27 09:46:42,750 INFO scheduler Scheduled Job Complete: frappe.utils.change_log.check_for_update for newbench.new
2021-12-27 09:46:48,223 INFO scheduler Scheduled Job Start: frappe.integrations.doctype.dropbox_settings.dropbox_settings.take_backups_daily for newbench.new
2021-12-27 09:47:01,228 INFO scheduler Scheduled Job Complete: frappe.integrations.doctype.dropbox_settings.dropbox_settings.take_backups_daily for newbench.new
2021-12-27 09:47:03,613 INFO scheduler Scheduled Job Complete: erpnext.projects.doctype.task.task.set_tasks_as_overdue for newbench.new
2021-12-27 09:47:04,691 INFO scheduler Scheduled Job Start: erpnext.hr.doctype.employee.employee_reminders.send_birthday_reminders for newbench.new
2021-12-27 09:47:05,795 INFO scheduler Scheduled Job Complete: erpnext.hr.doctype.employee.employee_reminders.send_birthday_reminders for newbench.new
2021-12-27 09:47:06,017 INFO scheduler Scheduled Job Start: erpnext.hr.doctype.employee.employee_reminders.send_work_anniversary_reminders for newbench.new
2021-12-27 09:47:06,711 INFO scheduler Scheduled Job Complete: erpnext.hr.doctype.employee.employee_reminders.send_work_anniversary_reminders for newbench.new
2021-12-27 09:47:06,933 INFO scheduler Scheduled Job Start: erpnext.accounts.doctype.fiscal_year.fiscal_year.auto_create_fiscal_year for newbench.new
2021-12-27 09:47:07,606 INFO scheduler Scheduled Job Complete: erpnext.accounts.doctype.fiscal_year.fiscal_year.auto_create_fiscal_year for newbench.new
2021-12-27 09:47:07,829 INFO scheduler Scheduled Job Start: erpnext.controllers.accounts_controller.update_invoice_status for newbench.new
2021-12-27 09:47:10,193 INFO scheduler Scheduled Job Complete: erpnext.controllers.accounts_controller.update_invoice_status for newbench.new
2021-12-27 09:47:10,417 INFO scheduler Scheduled Job Start: erpnext.crm.doctype.opportunity.opportunity.auto_close_opportunity for newbench.new
2021-12-27 09:47:11,321 INFO scheduler Scheduled Job Complete: erpnext.crm.doctype.opportunity.opportunity.auto_close_opportunity for newbench.new
2021-12-27 09:47:11,542 INFO scheduler Scheduled Job Start: erpnext.support.doctype.issue.issue.auto_close_tickets for newbench.new
2021-12-27 09:47:12,283 INFO scheduler Scheduled Job Complete: erpnext.support.doctype.issue.issue.auto_close_tickets for newbench.new
2021-12-27 09:47:12,513 INFO scheduler Scheduled Job Start: erpnext.stock.reorder_item.reorder_item for newbench.new
2021-12-27 09:47:13,642 INFO scheduler Scheduled Job Complete: erpnext.stock.reorder_item.reorder_item for newbench.new
2021-12-27 09:47:13,974 INFO scheduler Scheduled Job Start: erpnext.erpnext_integrations.connectors.shopify_connection.sync_old_orders for newbench.new
2021-12-27 09:47:16,951 INFO scheduler Scheduled Job Complete: erpnext.erpnext_integrations.connectors.shopify_connection.sync_old_orders for newbench.new
2021-12-27 09:47:17,197 INFO scheduler Scheduled Job Start: erpnext.support.doctype.issue.issue.set_service_level_agreement_variance for newbench.new
2021-12-27 09:47:18,297 INFO scheduler Scheduled Job Complete: erpnext.support.doctype.issue.issue.set_service_level_agreement_variance for newbench.new
2021-12-27 09:47:18,536 INFO scheduler Scheduled Job Start: erpnext.hr.doctype.shift_type.shift_type.process_auto_attendance_for_all_shifts for newbench.new
2021-12-27 09:47:19,821 INFO scheduler Scheduled Job Complete: erpnext.hr.doctype.shift_type.shift_type.process_auto_attendance_for_all_shifts for newbench.new
2021-12-27 09:47:20,045 INFO scheduler Scheduled Job Start: erpnext.projects.doctype.project.project.collect_project_status for newbench.new
2021-12-27 09:47:20,838 INFO scheduler Scheduled Job Complete: erpnext.projects.doctype.project.project.collect_project_status for newbench.new
2021-12-27 09:47:21,095 INFO scheduler Scheduled Job Start: erpnext.projects.doctype.project.project.hourly_reminder for newbench.new
2021-12-27 09:47:22,076 INFO scheduler Scheduled Job Complete: erpnext.projects.doctype.project.project.hourly_reminder for newbench.new
2021-12-27 09:47:22,289 INFO scheduler Scheduled Job Start: erpnext.erpnext_integrations.doctype.plaid_settings.plaid_settings.automatic_synchronization for newbench.new
2021-12-27 09:47:23,916 INFO scheduler Scheduled Job Complete: erpnext.erpnext_integrations.doctype.plaid_settings.plaid_settings.automatic_synchronization for newbench.new
2021-12-27 09:47:24,145 INFO scheduler Scheduled Job Start: erpnext.accounts.doctype.gl_entry.gl_entry.rename_gle_sle_docs for newbench.new
2021-12-27 09:47:25,383 INFO scheduler Scheduled Job Complete: erpnext.accounts.doctype.gl_entry.gl_entry.rename_gle_sle_docs for newbench.new
2021-12-27 09:47:25,668 INFO scheduler Scheduled Job Start: erpnext.erpnext_integrations.doctype.amazon_mws_settings.amazon_mws_settings.schedule_get_order_details for newbench.new
2021-12-27 09:47:26,548 INFO scheduler Scheduled Job Complete: erpnext.erpnext_integrations.doctype.amazon_mws_settings.amazon_mws_settings.schedule_get_order_details for newbench.new
2021-12-27 09:47:26,768 INFO scheduler Scheduled Job Start: erpnext.accounts.doctype.subscription.subscription.process_all for newbench.new
2021-12-27 09:47:27,862 INFO scheduler Scheduled Job Complete: erpnext.accounts.doctype.subscription.subscription.process_all for newbench.new
2021-12-27 09:47:28,128 INFO scheduler Scheduled Job Start: erpnext.hr.doctype.daily_work_summary_group.daily_work_summary_group.trigger_emails for newbench.new
2021-12-27 09:47:29,128 INFO scheduler Scheduled Job Complete: erpnext.hr.doctype.daily_work_summary_group.daily_work_summary_group.trigger_emails for newbench.new
2021-12-27 09:47:29,339 INFO scheduler Scheduled Job Start: erpnext.crm.doctype.social_media_post.social_media_post.process_scheduled_social_media_posts for newbench.new
2021-12-27 09:47:29,391 DEBUG scheduler Queued events for site newbench.new
2021-12-27 09:47:30,232 INFO scheduler Scheduled Job Complete: erpnext.crm.doctype.social_media_post.social_media_post.process_scheduled_social_media_posts for newbench.new
2021-12-27 09:47:30,381 INFO scheduler Scheduled Job Start: erpnext.hr.doctype.interview.interview.send_interview_reminder for newbench.new
2021-12-27 09:47:31,777 INFO scheduler Scheduled Job Complete: erpnext.hr.doctype.interview.interview.send_interview_reminder for newbench.new
2021-12-27 09:47:31,927 INFO scheduler Scheduled Job Start: erpnext.healthcare.doctype.patient_appointment.patient_appointment.send_appointment_reminder for newbench.new
2021-12-27 09:47:32,775 INFO scheduler Scheduled Job Complete: erpnext.healthcare.doctype.patient_appointment.patient_appointment.send_appointment_reminder for newbench.new
2021-12-27 09:47:32,926 INFO scheduler Scheduled Job Start: erpnext.projects.doctype.project.project.project_status_update_reminder for newbench.new
2021-12-27 09:47:33,634 INFO scheduler Scheduled Job Complete: erpnext.projects.doctype.project.project.project_status_update_reminder for newbench.new
2021-12-27 09:47:33,785 INFO scheduler Scheduled Job Start: erpnext.utilities.doctype.video.video.update_youtube_data for newbench.new
2021-12-27 09:47:35,870 INFO scheduler Scheduled Job Complete: erpnext.utilities.doctype.video.video.update_youtube_data for newbench.new
2021-12-27 09:47:36,092 INFO scheduler Scheduled Job Start: frappe.core.doctype.log_settings.log_settings.run_log_clean_up for newbench.new
2021-12-27 09:47:37,789 INFO scheduler Scheduled Job Complete: frappe.core.doctype.log_settings.log_settings.run_log_clean_up for newbench.new
2021-12-27 09:47:38,061 INFO scheduler Scheduled Job Start: frappe.core.doctype.prepared_report.prepared_report.delete_expired_prepared_reports for newbench.new
2021-12-27 09:47:39,714 INFO scheduler Scheduled Job Complete: frappe.core.doctype.prepared_report.prepared_report.delete_expired_prepared_reports for newbench.new
2021-12-27 09:47:39,934 INFO scheduler Scheduled Job Start: frappe.email.doctype.unhandled_email.unhandled_email.remove_old_unhandled_emails for newbench.new
2021-12-27 09:47:40,659 INFO scheduler Scheduled Job Complete: frappe.email.doctype.unhandled_email.unhandled_email.remove_old_unhandled_emails for newbench.new
2021-12-27 09:47:40,887 INFO scheduler Scheduled Job Start: frappe.automation.doctype.auto_repeat.auto_repeat.set_auto_repeat_as_completed for newbench.new
2021-12-27 09:47:41,863 INFO scheduler Scheduled Job Complete: frappe.automation.doctype.auto_repeat.auto_repeat.set_auto_repeat_as_completed for newbench.new
2021-12-27 09:47:42,077 INFO scheduler Scheduled Job Start: frappe.automation.doctype.auto_repeat.auto_repeat.make_auto_repeat_entry for newbench.new
2021-12-27 09:47:42,816 INFO scheduler Scheduled Job Complete: frappe.automation.doctype.auto_repeat.auto_repeat.make_auto_repeat_entry for newbench.new
2021-12-27 09:47:43,045 INFO scheduler Scheduled Job Start: frappe.integrations.doctype.google_contacts.google_contacts.sync for newbench.new
2021-12-27 09:47:46,699 INFO scheduler Scheduled Job Complete: frappe.integrations.doctype.google_contacts.google_contacts.sync for newbench.new
2021-12-27 09:47:46,935 INFO scheduler Scheduled Job Start: frappe.social.doctype.energy_point_settings.energy_point_settings.allocate_review_points for newbench.new
2021-12-27 09:47:48,636 INFO scheduler Scheduled Job Complete: frappe.social.doctype.energy_point_settings.energy_point_settings.allocate_review_points for newbench.new
2021-12-27 09:47:48,875 INFO scheduler Scheduled Job Start: frappe.desk.form.document_follow.send_daily_updates for newbench.new
2021-12-27 09:47:49,643 INFO scheduler Scheduled Job Complete: frappe.desk.form.document_follow.send_daily_updates for newbench.new
2021-12-27 09:47:49,855 INFO scheduler Scheduled Job Start: frappe.website.doctype.personal_data_deletion_request.personal_data_deletion_request.remove_unverified_record for newbench.new
2021-12-27 09:47:50,713 INFO scheduler Scheduled Job Complete: frappe.website.doctype.personal_data_deletion_request.personal_data_deletion_request.remove_unverified_record for newbench.new
2021-12-27 09:47:51,021 INFO scheduler Scheduled Job Start: frappe.email.doctype.auto_email_report.auto_email_report.send_daily for newbench.new
2021-12-27 09:47:55,852 INFO scheduler Scheduled Job Complete: frappe.email.doctype.auto_email_report.auto_email_report.send_daily for newbench.new
2021-12-27 09:47:56,102 INFO scheduler Scheduled Job Start: frappe.utils.scheduler.restrict_scheduler_events_if_dormant for newbench.new
2021-12-27 09:47:56,883 INFO scheduler Scheduled Job Failed: frappe.utils.scheduler.restrict_scheduler_events_if_dormant for newbench.new
2021-12-27 09:47:57,221 INFO scheduler Scheduled Job Start: frappe.email.doctype.notification.notification.trigger_daily_alerts for newbench.new
2021-12-27 09:47:58,508 INFO scheduler Scheduled Job Complete: frappe.email.doctype.notification.notification.trigger_daily_alerts for newbench.new
2021-12-27 09:47:58,842 INFO scheduler Scheduled Job Start: frappe.sessions.clear_expired_sessions for newbench.new
2021-12-27 09:48:01,501 INFO scheduler Scheduled Job Complete: frappe.sessions.clear_expired_sessions for newbench.new
2021-12-27 09:48:01,949 INFO scheduler Scheduled Job Start: frappe.desk.doctype.event.event.send_event_digest for newbench.new
2021-12-27 09:48:03,482 INFO scheduler Scheduled Job Complete: frappe.desk.doctype.event.event.send_event_digest for newbench.new
2021-12-27 09:48:03,753 INFO scheduler Scheduled Job Start: frappe.core.doctype.error_log.error_log.set_old_logs_as_seen for newbench.new
2021-12-27 09:48:04,494 INFO scheduler Scheduled Job Complete: frappe.core.doctype.error_log.error_log.set_old_logs_as_seen for newbench.new
2021-12-27 09:48:04,721 INFO scheduler Scheduled Job Start: frappe.desk.notifications.clear_notifications for newbench.new
2021-12-27 09:48:05,386 INFO scheduler Scheduled Job Complete: frappe.desk.notifications.clear_notifications for newbench.new
2021-12-27 09:48:05,623 INFO scheduler Scheduled Job Start: frappe.email.queue.set_expiry_for_email_queue for newbench.new
2021-12-27 09:48:06,269 INFO scheduler Scheduled Job Complete: frappe.email.queue.set_expiry_for_email_queue for newbench.new
2021-12-27 09:48:06,490 INFO scheduler Scheduled Job Start: frappe.email.doctype.newsletter.newsletter.send_scheduled_email for newbench.new
2021-12-27 09:48:07,923 INFO scheduler Scheduled Job Complete: frappe.email.doctype.newsletter.newsletter.send_scheduled_email for newbench.new
2021-12-27 09:48:08,206 INFO scheduler Scheduled Job Start: frappe.integrations.doctype.google_calendar.google_calendar.sync for newbench.new
2021-12-27 09:48:09,827 INFO scheduler Scheduled Job Complete: frappe.integrations.doctype.google_calendar.google_calendar.sync for newbench.new
2021-12-27 09:48:10,055 INFO scheduler Scheduled Job Start: frappe.desk.form.document_follow.send_hourly_updates for newbench.new
2021-12-27 09:48:10,738 INFO scheduler Scheduled Job Complete: frappe.desk.form.document_follow.send_hourly_updates for newbench.new
2021-12-27 09:48:10,947 INFO scheduler Scheduled Job Start: frappe.deferred_insert.save_to_db for newbench.new
2021-12-27 09:48:11,756 INFO scheduler Scheduled Job Complete: frappe.deferred_insert.save_to_db for newbench.new
2021-12-27 09:48:12,119 INFO scheduler Scheduled Job Start: frappe.desk.page.backups.backups.delete_downloadable_backups for newbench.new
2021-12-27 09:48:13,141 INFO scheduler Scheduled Job Complete: frappe.desk.page.backups.backups.delete_downloadable_backups for newbench.new
2021-12-27 09:48:13,498 INFO scheduler Scheduled Job Start: frappe.utils.error.collect_error_snapshots for newbench.new
2021-12-27 09:48:14,527 INFO scheduler Scheduled Job Complete: frappe.utils.error.collect_error_snapshots for newbench.new
2021-12-27 09:48:14,740 INFO scheduler Scheduled Job Start: frappe.model.utils.user_settings.sync_user_settings for newbench.new
2021-12-27 09:48:15,358 INFO scheduler Scheduled Job Complete: frappe.model.utils.user_settings.sync_user_settings for newbench.new
2021-12-27 09:48:15,576 INFO scheduler Scheduled Job Start: frappe.model.utils.link_count.update_link_count for newbench.new
2021-12-27 09:48:16,395 INFO scheduler Scheduled Job Complete: frappe.model.utils.link_count.update_link_count for newbench.new
2021-12-27 09:48:16,655 INFO scheduler Scheduled Job Start: frappe.monitor.flush for newbench.new
2021-12-27 09:48:17,107 INFO scheduler Scheduled Job Complete: frappe.monitor.flush for newbench.new
2021-12-27 09:48:17,262 INFO scheduler Scheduled Job Start: frappe.utils.global_search.sync_global_search for newbench.new
2021-12-27 09:48:18,452 INFO scheduler Scheduled Job Complete: frappe.utils.global_search.sync_global_search for newbench.new
2021-12-27 09:48:18,617 INFO scheduler Scheduled Job Start: frappe.integrations.doctype.razorpay_settings.razorpay_settings.capture_payment for newbench.new
2021-12-27 09:48:20,820 INFO scheduler Scheduled Job Complete: frappe.integrations.doctype.razorpay_settings.razorpay_settings.capture_payment for newbench.new
2021-12-27 09:48:20,973 INFO scheduler Scheduled Job Start: frappe.email.doctype.email_account.email_account.notify_unreplied for newbench.new
2021-12-27 09:48:22,216 INFO scheduler Scheduled Job Complete: frappe.email.doctype.email_account.email_account.notify_unreplied for newbench.new
2021-12-27 09:48:22,376 INFO scheduler Scheduled Job Start: frappe.email.doctype.email_account.email_account.pull for newbench.new
2021-12-27 09:48:23,086 INFO scheduler Scheduled Job Complete: frappe.email.doctype.email_account.email_account.pull for newbench.new
2021-12-27 09:48:23,240 INFO scheduler Scheduled Job Start: frappe.email.queue.flush for newbench.new
2021-12-27 09:48:23,763 INFO scheduler Scheduled Job Complete: frappe.email.queue.flush for newbench.new
2021-12-27 09:48:23,921 INFO scheduler Scheduled Job Start: frappe.twofactor.delete_all_barcodes_for_users for newbench.new
2021-12-27 09:48:24,764 INFO scheduler Scheduled Job Complete: frappe.twofactor.delete_all_barcodes_for_users for newbench.new
2021-12-27 09:48:25,014 INFO scheduler Scheduled Job Start: frappe.website.doctype.web_page.web_page.check_publish_status for newbench.new
2021-12-27 09:48:26,565 INFO scheduler Scheduled Job Complete: frappe.website.doctype.web_page.web_page.check_publish_status for newbench.new
2021-12-27 09:48:27,045 INFO scheduler Scheduled Job Start: frappe.oauth.delete_oauth2_data for newbench.new
2021-12-27 09:48:28,920 INFO scheduler Scheduled Job Complete: frappe.oauth.delete_oauth2_data for newbench.new
2021-12-27 09:48:29,985 INFO scheduler Scheduled Job Start: erpnext.crm.doctype.social_media_post.social_media_post.process_scheduled_social_media_posts for newbench.new
2021-12-27 09:48:30,123 DEBUG scheduler Queued events for site newbench.new
2021-12-27 09:48:30,539 INFO scheduler Scheduled Job Complete: erpnext.crm.doctype.social_media_post.social_media_post.process_scheduled_social_media_posts for newbench.new
2021-12-27 09:48:30,699 INFO scheduler Scheduled Job Start: erpnext.hr.doctype.interview.interview.send_interview_reminder for newbench.new
2021-12-27 09:48:31,400 INFO scheduler Scheduled Job Complete: erpnext.hr.doctype.interview.interview.send_interview_reminder for newbench.new
2021-12-27 09:48:31,564 INFO scheduler Scheduled Job Start: erpnext.healthcare.doctype.patient_appointment.patient_appointment.send_appointment_reminder for newbench.new
2021-12-27 09:48:32,217 INFO scheduler Scheduled Job Complete: erpnext.healthcare.doctype.patient_appointment.patient_appointment.send_appointment_reminder for newbench.new
2021-12-27 09:48:32,365 INFO scheduler Scheduled Job Start: erpnext.projects.doctype.project.project.project_status_update_reminder for newbench.new
2021-12-27 09:48:33,713 INFO scheduler Scheduled Job Complete: erpnext.projects.doctype.project.project.project_status_update_reminder for newbench.new
2021-12-27 09:49:31,902 DEBUG scheduler Queued events for site newbench.new
2021-12-27 09:50:32,717 DEBUG scheduler Queued events for site newbench.new
2021-12-27 09:51:34,041 DEBUG scheduler Queued events for site newbench.new
2021-12-27 09:52:34,972 DEBUG scheduler Queued events for site newbench.new
2021-12-27 09:52:36,009 INFO scheduler Scheduled Job Start: erpnext.crm.doctype.social_media_post.social_media_post.process_scheduled_social_media_posts for newbench.new
2021-12-27 09:52:39,519 INFO scheduler Scheduled Job Complete: erpnext.crm.doctype.social_media_post.social_media_post.process_scheduled_social_media_posts for newbench.new
2021-12-27 09:52:39,697 INFO scheduler Scheduled Job Start: erpnext.hr.doctype.interview.interview.send_interview_reminder for newbench.new
2021-12-27 09:52:40,467 INFO scheduler Scheduled Job Complete: erpnext.hr.doctype.interview.interview.send_interview_reminder for newbench.new
2021-12-27 09:52:40,628 INFO scheduler Scheduled Job Start: erpnext.healthcare.doctype.patient_appointment.patient_appointment.send_appointment_reminder for newbench.new
2021-12-27 09:52:41,559 INFO scheduler Scheduled Job Complete: erpnext.healthcare.doctype.patient_appointment.patient_appointment.send_appointment_reminder for newbench.new
2021-12-27 09:52:41,721 INFO scheduler Scheduled Job Start: erpnext.projects.doctype.project.project.project_status_update_reminder for newbench.new
2021-12-27 09:52:43,628 INFO scheduler Scheduled Job Complete: erpnext.projects.doctype.project.project.project_status_update_reminder for newbench.new
2021-12-27 09:52:43,786 INFO scheduler Scheduled Job Start: frappe.monitor.flush for newbench.new
2021-12-27 09:52:44,281 INFO scheduler Scheduled Job Complete: frappe.monitor.flush for newbench.new
2021-12-27 09:52:44,452 INFO scheduler Scheduled Job Start: frappe.utils.global_search.sync_global_search for newbench.new
2021-12-27 09:52:45,088 INFO scheduler Scheduled Job Complete: frappe.utils.global_search.sync_global_search for newbench.new
2021-12-27 09:52:45,252 INFO scheduler Scheduled Job Start: frappe.integrations.doctype.razorpay_settings.razorpay_settings.capture_payment for newbench.new
2021-12-27 09:52:47,474 INFO scheduler Scheduled Job Complete: frappe.integrations.doctype.razorpay_settings.razorpay_settings.capture_payment for newbench.new
2021-12-27 09:52:47,634 INFO scheduler Scheduled Job Start: frappe.email.doctype.email_account.email_account.notify_unreplied for newbench.new
2021-12-27 09:52:49,402 INFO scheduler Scheduled Job Complete: frappe.email.doctype.email_account.email_account.notify_unreplied for newbench.new
2021-12-27 09:52:49,627 INFO scheduler Scheduled Job Start: frappe.email.doctype.email_account.email_account.pull for newbench.new
2021-12-27 09:52:50,284 INFO scheduler Scheduled Job Complete: frappe.email.doctype.email_account.email_account.pull for newbench.new
2021-12-27 09:52:50,450 INFO scheduler Scheduled Job Start: frappe.email.queue.flush for newbench.new
2021-12-27 09:52:51,471 INFO scheduler Scheduled Job Complete: frappe.email.queue.flush for newbench.new
2021-12-27 09:53:36,010 DEBUG scheduler Queued events for site newbench.new
2021-12-27 09:54:36,786 DEBUG scheduler Queued events for site newbench.new
2021-12-27 09:55:37,445 DEBUG scheduler Queued events for site newbench.new
2021-12-27 09:56:38,288 DEBUG scheduler Queued events for site newbench.new
2021-12-27 09:56:40,528 INFO scheduler Scheduled Job Start: erpnext.crm.doctype.social_media_post.social_media_post.process_scheduled_social_media_posts for newbench.new
2021-12-27 09:56:44,895 INFO scheduler Scheduled Job Complete: erpnext.crm.doctype.social_media_post.social_media_post.process_scheduled_social_media_posts for newbench.new
2021-12-27 09:56:45,055 INFO scheduler Scheduled Job Start: erpnext.hr.doctype.interview.interview.send_interview_reminder for newbench.new
2021-12-27 09:56:46,099 INFO scheduler Scheduled Job Complete: erpnext.hr.doctype.interview.interview.send_interview_reminder for newbench.new
2021-12-27 09:56:46,245 INFO scheduler Scheduled Job Start: erpnext.healthcare.doctype.patient_appointment.patient_appointment.send_appointment_reminder for newbench.new
2021-12-27 09:56:47,331 INFO scheduler Scheduled Job Complete: erpnext.healthcare.doctype.patient_appointment.patient_appointment.send_appointment_reminder for newbench.new
2021-12-27 09:56:47,479 INFO scheduler Scheduled Job Start: erpnext.projects.doctype.project.project.project_status_update_reminder for newbench.new
2021-12-27 09:56:49,657 INFO scheduler Scheduled Job Complete: erpnext.projects.doctype.project.project.project_status_update_reminder for newbench.new
2021-12-27 09:56:49,809 INFO scheduler Scheduled Job Start: frappe.monitor.flush for newbench.new
2021-12-27 09:56:50,217 INFO scheduler Scheduled Job Complete: frappe.monitor.flush for newbench.new
2021-12-27 09:56:50,368 INFO scheduler Scheduled Job Start: frappe.utils.global_search.sync_global_search for newbench.new
2021-12-27 09:56:50,856 INFO scheduler Scheduled Job Complete: frappe.utils.global_search.sync_global_search for newbench.new
2021-12-27 09:56:51,009 INFO scheduler Scheduled Job Start: frappe.integrations.doctype.razorpay_settings.razorpay_settings.capture_payment for newbench.new
2021-12-27 09:56:53,447 INFO scheduler Scheduled Job Complete: frappe.integrations.doctype.razorpay_settings.razorpay_settings.capture_payment for newbench.new
2021-12-27 09:56:53,593 INFO scheduler Scheduled Job Start: frappe.email.doctype.email_account.email_account.notify_unreplied for newbench.new
2021-12-27 09:56:55,065 INFO scheduler Scheduled Job Complete: frappe.email.doctype.email_account.email_account.notify_unreplied for newbench.new
2021-12-27 09:56:55,212 INFO scheduler Scheduled Job Start: frappe.email.doctype.email_account.email_account.pull for newbench.new
2021-12-27 09:56:55,945 INFO scheduler Scheduled Job Complete: frappe.email.doctype.email_account.email_account.pull for newbench.new
2021-12-27 09:56:56,092 INFO scheduler Scheduled Job Start: frappe.email.queue.flush for newbench.new
2021-12-27 09:56:56,556 INFO scheduler Scheduled Job Complete: frappe.email.queue.flush for newbench.new
2021-12-27 09:57:38,942 DEBUG scheduler Queued events for site newbench.new
2021-12-27 09:58:39,597 DEBUG scheduler Queued events for site newbench.new
2021-12-27 09:59:40,259 DEBUG scheduler Queued events for site newbench.new
2021-12-27 10:00:40,630 INFO scheduler Scheduled Job Start: erpnext.stock.doctype.repost_item_valuation.repost_item_valuation.repost_entries for newbench.new
2021-12-27 10:00:40,825 INFO scheduler Scheduled Job Start: erpnext.erpnext_integrations.connectors.shopify_connection.sync_old_orders for newbench.new
2021-12-27 10:00:41,550 DEBUG scheduler Queued events for site newbench.new
2021-12-27 10:00:43,720 INFO scheduler Scheduled Job Complete: erpnext.stock.doctype.repost_item_valuation.repost_item_valuation.repost_entries for newbench.new
2021-12-27 10:00:44,962 INFO scheduler Scheduled Job Complete: erpnext.erpnext_integrations.connectors.shopify_connection.sync_old_orders for newbench.new
2021-12-27 10:00:45,217 INFO scheduler Scheduled Job Start: erpnext.support.doctype.issue.issue.set_service_level_agreement_variance for newbench.new
2021-12-27 10:00:45,998 INFO scheduler Scheduled Job Complete: erpnext.support.doctype.issue.issue.set_service_level_agreement_variance for newbench.new
2021-12-27 10:00:46,313 INFO scheduler Scheduled Job Start: erpnext.hr.doctype.shift_type.shift_type.process_auto_attendance_for_all_shifts for newbench.new
2021-12-27 10:00:47,105 INFO scheduler Scheduled Job Complete: erpnext.hr.doctype.shift_type.shift_type.process_auto_attendance_for_all_shifts for newbench.new
2021-12-27 10:00:47,326 INFO scheduler Scheduled Job Start: erpnext.projects.doctype.project.project.collect_project_status for newbench.new
2021-12-27 10:00:48,107 INFO scheduler Scheduled Job Complete: erpnext.projects.doctype.project.project.collect_project_status for newbench.new
2021-12-27 10:00:48,337 INFO scheduler Scheduled Job Start: erpnext.projects.doctype.project.project.hourly_reminder for newbench.new
2021-12-27 10:01:42,302 DEBUG scheduler Queued events for site newbench.new
