2021-12-24 14:20:30,313 DEBUG scheduler Queued events for site newbench.new
2021-12-24 14:20:31,329 INFO scheduler Scheduled Job Start: erpnext.hr.doctype.interview.interview.send_interview_reminder for newbench.new
2021-12-24 14:20:32,009 INFO scheduler Scheduled Job Complete: erpnext.hr.doctype.interview.interview.send_interview_reminder for newbench.new
2021-12-24 14:20:32,155 INFO scheduler Scheduled Job Start: erpnext.healthcare.doctype.patient_appointment.patient_appointment.send_appointment_reminder for newbench.new
2021-12-24 14:20:32,722 INFO scheduler Scheduled Job Complete: erpnext.healthcare.doctype.patient_appointment.patient_appointment.send_appointment_reminder for newbench.new
2021-12-24 14:20:32,870 INFO scheduler Scheduled Job Start: erpnext.projects.doctype.project.project.project_status_update_reminder for newbench.new
2021-12-24 14:20:34,813 INFO scheduler Scheduled Job Complete: erpnext.projects.doctype.project.project.project_status_update_reminder for newbench.new
2021-12-24 14:20:34,971 INFO scheduler Scheduled Job Start: frappe.monitor.flush for newbench.new
2021-12-24 14:20:35,523 INFO scheduler Scheduled Job Complete: frappe.monitor.flush for newbench.new
2021-12-24 14:20:35,857 INFO scheduler Scheduled Job Start: frappe.utils.global_search.sync_global_search for newbench.new
2021-12-24 14:20:36,341 INFO scheduler Scheduled Job Complete: frappe.utils.global_search.sync_global_search for newbench.new
2021-12-24 14:20:36,502 INFO scheduler Scheduled Job Start: frappe.integrations.doctype.razorpay_settings.razorpay_settings.capture_payment for newbench.new
2021-12-24 14:20:37,339 INFO scheduler Scheduled Job Complete: frappe.integrations.doctype.razorpay_settings.razorpay_settings.capture_payment for newbench.new
2021-12-24 14:20:37,487 INFO scheduler Scheduled Job Start: frappe.email.doctype.email_account.email_account.notify_unreplied for newbench.new
2021-12-24 14:20:38,302 INFO scheduler Scheduled Job Complete: frappe.email.doctype.email_account.email_account.notify_unreplied for newbench.new
2021-12-24 14:20:38,459 INFO scheduler Scheduled Job Start: frappe.email.doctype.email_account.email_account.pull for newbench.new
2021-12-24 14:20:39,146 INFO scheduler Scheduled Job Complete: frappe.email.doctype.email_account.email_account.pull for newbench.new
2021-12-24 14:20:39,303 INFO scheduler Scheduled Job Start: frappe.email.queue.flush for newbench.new
2021-12-24 14:20:39,783 INFO scheduler Scheduled Job Complete: frappe.email.queue.flush for newbench.new
2021-12-24 14:21:31,825 DEBUG scheduler Queued events for site newbench.new
2021-12-24 14:22:33,809 DEBUG scheduler Queued events for site newbench.new
2021-12-24 14:23:34,673 DEBUG scheduler Queued events for site newbench.new
2021-12-24 14:24:35,626 DEBUG scheduler Queued events for site newbench.new
2021-12-24 14:24:37,358 INFO scheduler Scheduled Job Start: erpnext.crm.doctype.social_media_post.social_media_post.process_scheduled_social_media_posts for newbench.new
2021-12-24 14:24:40,122 INFO scheduler Scheduled Job Complete: erpnext.crm.doctype.social_media_post.social_media_post.process_scheduled_social_media_posts for newbench.new
2021-12-24 14:24:40,293 INFO scheduler Scheduled Job Start: erpnext.hr.doctype.interview.interview.send_interview_reminder for newbench.new
2021-12-24 14:24:41,086 INFO scheduler Scheduled Job Complete: erpnext.hr.doctype.interview.interview.send_interview_reminder for newbench.new
2021-12-24 14:24:41,231 INFO scheduler Scheduled Job Start: erpnext.healthcare.doctype.patient_appointment.patient_appointment.send_appointment_reminder for newbench.new
2021-12-24 14:24:42,193 INFO scheduler Scheduled Job Complete: erpnext.healthcare.doctype.patient_appointment.patient_appointment.send_appointment_reminder for newbench.new
2021-12-24 14:24:42,345 INFO scheduler Scheduled Job Start: erpnext.projects.doctype.project.project.project_status_update_reminder for newbench.new
2021-12-24 14:24:44,337 INFO scheduler Scheduled Job Complete: erpnext.projects.doctype.project.project.project_status_update_reminder for newbench.new
2021-12-24 14:24:44,483 INFO scheduler Scheduled Job Start: frappe.monitor.flush for newbench.new
2021-12-24 14:24:44,886 INFO scheduler Scheduled Job Complete: frappe.monitor.flush for newbench.new
2021-12-24 14:24:45,041 INFO scheduler Scheduled Job Start: frappe.utils.global_search.sync_global_search for newbench.new
2021-12-24 14:24:45,638 INFO scheduler Scheduled Job Complete: frappe.utils.global_search.sync_global_search for newbench.new
2021-12-24 14:24:45,788 INFO scheduler Scheduled Job Start: frappe.integrations.doctype.razorpay_settings.razorpay_settings.capture_payment for newbench.new
2021-12-24 14:24:48,038 INFO scheduler Scheduled Job Complete: frappe.integrations.doctype.razorpay_settings.razorpay_settings.capture_payment for newbench.new
2021-12-24 14:24:48,186 INFO scheduler Scheduled Job Start: frappe.email.doctype.email_account.email_account.notify_unreplied for newbench.new
2021-12-24 14:24:49,053 INFO scheduler Scheduled Job Complete: frappe.email.doctype.email_account.email_account.notify_unreplied for newbench.new
2021-12-24 14:24:49,200 INFO scheduler Scheduled Job Start: frappe.email.doctype.email_account.email_account.pull for newbench.new
2021-12-24 14:24:49,891 INFO scheduler Scheduled Job Complete: frappe.email.doctype.email_account.email_account.pull for newbench.new
2021-12-24 14:24:50,038 INFO scheduler Scheduled Job Start: frappe.email.queue.flush for newbench.new
2021-12-24 14:24:50,504 INFO scheduler Scheduled Job Complete: frappe.email.queue.flush for newbench.new
2021-12-24 14:25:36,296 DEBUG scheduler Queued events for site newbench.new
2021-12-24 14:26:37,207 DEBUG scheduler Queued events for site newbench.new
2021-12-24 14:27:37,969 DEBUG scheduler Queued events for site newbench.new
2021-12-24 14:28:39,036 DEBUG scheduler Queued events for site newbench.new
2021-12-24 14:28:40,805 INFO scheduler Scheduled Job Start: erpnext.crm.doctype.social_media_post.social_media_post.process_scheduled_social_media_posts for newbench.new
2021-12-24 14:28:44,073 INFO scheduler Scheduled Job Complete: erpnext.crm.doctype.social_media_post.social_media_post.process_scheduled_social_media_posts for newbench.new
2021-12-24 14:28:44,224 INFO scheduler Scheduled Job Start: erpnext.hr.doctype.interview.interview.send_interview_reminder for newbench.new
2021-12-24 14:28:44,792 INFO scheduler Scheduled Job Complete: erpnext.hr.doctype.interview.interview.send_interview_reminder for newbench.new
2021-12-24 14:28:44,944 INFO scheduler Scheduled Job Start: erpnext.healthcare.doctype.patient_appointment.patient_appointment.send_appointment_reminder for newbench.new
2021-12-24 14:28:45,741 INFO scheduler Scheduled Job Complete: erpnext.healthcare.doctype.patient_appointment.patient_appointment.send_appointment_reminder for newbench.new
2021-12-24 14:28:45,888 INFO scheduler Scheduled Job Start: erpnext.projects.doctype.project.project.project_status_update_reminder for newbench.new
2021-12-24 14:28:47,156 INFO scheduler Scheduled Job Complete: erpnext.projects.doctype.project.project.project_status_update_reminder for newbench.new
2021-12-24 14:28:47,302 INFO scheduler Scheduled Job Start: frappe.monitor.flush for newbench.new
2021-12-24 14:28:47,701 INFO scheduler Scheduled Job Complete: frappe.monitor.flush for newbench.new
2021-12-24 14:28:47,852 INFO scheduler Scheduled Job Start: frappe.utils.global_search.sync_global_search for newbench.new
2021-12-24 14:28:48,261 INFO scheduler Scheduled Job Complete: frappe.utils.global_search.sync_global_search for newbench.new
2021-12-24 14:28:48,411 INFO scheduler Scheduled Job Start: frappe.integrations.doctype.razorpay_settings.razorpay_settings.capture_payment for newbench.new
2021-12-24 14:28:50,747 INFO scheduler Scheduled Job Complete: frappe.integrations.doctype.razorpay_settings.razorpay_settings.capture_payment for newbench.new
2021-12-24 14:28:50,891 INFO scheduler Scheduled Job Start: frappe.email.doctype.email_account.email_account.notify_unreplied for newbench.new
2021-12-24 14:28:52,098 INFO scheduler Scheduled Job Complete: frappe.email.doctype.email_account.email_account.notify_unreplied for newbench.new
2021-12-24 14:28:52,301 INFO scheduler Scheduled Job Start: frappe.email.doctype.email_account.email_account.pull for newbench.new
2021-12-24 14:28:52,914 INFO scheduler Scheduled Job Complete: frappe.email.doctype.email_account.email_account.pull for newbench.new
2021-12-24 14:28:53,060 INFO scheduler Scheduled Job Start: frappe.email.queue.flush for newbench.new
2021-12-24 14:28:53,532 INFO scheduler Scheduled Job Complete: frappe.email.queue.flush for newbench.new
2021-12-24 14:29:39,728 DEBUG scheduler Queued events for site newbench.new
2021-12-24 14:30:40,355 INFO scheduler Scheduled Job Start: erpnext.utilities.doctype.video.video.update_youtube_data for newbench.new
2021-12-24 14:30:40,464 DEBUG scheduler Queued events for site newbench.new
2021-12-24 14:30:43,154 INFO scheduler Scheduled Job Complete: erpnext.utilities.doctype.video.video.update_youtube_data for newbench.new
2021-12-24 14:30:43,381 INFO scheduler Scheduled Job Start: frappe.twofactor.delete_all_barcodes_for_users for newbench.new
2021-12-24 14:30:44,535 INFO scheduler Scheduled Job Complete: frappe.twofactor.delete_all_barcodes_for_users for newbench.new
2021-12-24 14:30:44,776 INFO scheduler Scheduled Job Start: frappe.website.doctype.web_page.web_page.check_publish_status for newbench.new
2021-12-24 14:30:45,850 INFO scheduler Scheduled Job Complete: frappe.website.doctype.web_page.web_page.check_publish_status for newbench.new
2021-12-24 14:30:46,106 INFO scheduler Scheduled Job Start: frappe.oauth.delete_oauth2_data for newbench.new
2021-12-24 14:30:46,913 INFO scheduler Scheduled Job Complete: frappe.oauth.delete_oauth2_data for newbench.new
2021-12-24 14:31:41,139 DEBUG scheduler Queued events for site newbench.new
2021-12-24 14:32:41,741 INFO scheduler Scheduled Job Start: erpnext.crm.doctype.social_media_post.social_media_post.process_scheduled_social_media_posts for newbench.new
2021-12-24 14:32:41,951 DEBUG scheduler Queued events for site newbench.new
2021-12-24 14:32:42,466 INFO scheduler Scheduled Job Complete: erpnext.crm.doctype.social_media_post.social_media_post.process_scheduled_social_media_posts for newbench.new
2021-12-24 14:32:42,626 INFO scheduler Scheduled Job Start: erpnext.hr.doctype.interview.interview.send_interview_reminder for newbench.new
2021-12-24 14:32:43,467 INFO scheduler Scheduled Job Complete: erpnext.hr.doctype.interview.interview.send_interview_reminder for newbench.new
2021-12-24 14:32:43,625 INFO scheduler Scheduled Job Start: erpnext.healthcare.doctype.patient_appointment.patient_appointment.send_appointment_reminder for newbench.new
2021-12-24 14:32:44,210 INFO scheduler Scheduled Job Complete: erpnext.healthcare.doctype.patient_appointment.patient_appointment.send_appointment_reminder for newbench.new
2021-12-24 14:32:44,366 INFO scheduler Scheduled Job Start: erpnext.projects.doctype.project.project.project_status_update_reminder for newbench.new
2021-12-24 14:32:46,161 INFO scheduler Scheduled Job Complete: erpnext.projects.doctype.project.project.project_status_update_reminder for newbench.new
2021-12-24 14:32:46,317 INFO scheduler Scheduled Job Start: frappe.monitor.flush for newbench.new
2021-12-24 14:32:47,430 INFO scheduler Scheduled Job Complete: frappe.monitor.flush for newbench.new
2021-12-24 14:32:47,591 INFO scheduler Scheduled Job Start: frappe.utils.global_search.sync_global_search for newbench.new
2021-12-24 14:32:48,120 INFO scheduler Scheduled Job Complete: frappe.utils.global_search.sync_global_search for newbench.new
2021-12-24 14:32:48,274 INFO scheduler Scheduled Job Start: frappe.integrations.doctype.razorpay_settings.razorpay_settings.capture_payment for newbench.new
2021-12-24 14:32:49,356 INFO scheduler Scheduled Job Complete: frappe.integrations.doctype.razorpay_settings.razorpay_settings.capture_payment for newbench.new
2021-12-24 14:32:49,507 INFO scheduler Scheduled Job Start: frappe.email.doctype.email_account.email_account.notify_unreplied for newbench.new
2021-12-24 14:32:50,092 INFO scheduler Scheduled Job Complete: frappe.email.doctype.email_account.email_account.notify_unreplied for newbench.new
2021-12-24 14:32:50,267 INFO scheduler Scheduled Job Start: frappe.email.doctype.email_account.email_account.pull for newbench.new
2021-12-24 14:32:51,715 INFO scheduler Scheduled Job Complete: frappe.email.doctype.email_account.email_account.pull for newbench.new
2021-12-24 14:32:51,905 INFO scheduler Scheduled Job Start: frappe.email.queue.flush for newbench.new
2021-12-24 14:32:52,591 INFO scheduler Scheduled Job Complete: frappe.email.queue.flush for newbench.new
2021-12-24 14:33:42,616 DEBUG scheduler Queued events for site newbench.new
2021-12-24 14:34:43,332 DEBUG scheduler Queued events for site newbench.new
2021-12-24 14:35:44,035 DEBUG scheduler Queued events for site newbench.new
2021-12-24 14:36:44,615 INFO scheduler Scheduled Job Start: erpnext.crm.doctype.social_media_post.social_media_post.process_scheduled_social_media_posts for newbench.new
2021-12-24 14:36:44,805 DEBUG scheduler Queued events for site newbench.new
2021-12-24 14:36:45,133 INFO scheduler Scheduled Job Complete: erpnext.crm.doctype.social_media_post.social_media_post.process_scheduled_social_media_posts for newbench.new
2021-12-24 14:36:45,285 INFO scheduler Scheduled Job Start: erpnext.hr.doctype.interview.interview.send_interview_reminder for newbench.new
2021-12-24 14:36:45,868 INFO scheduler Scheduled Job Complete: erpnext.hr.doctype.interview.interview.send_interview_reminder for newbench.new
2021-12-24 14:36:46,015 INFO scheduler Scheduled Job Start: erpnext.healthcare.doctype.patient_appointment.patient_appointment.send_appointment_reminder for newbench.new
2021-12-24 14:36:46,578 INFO scheduler Scheduled Job Complete: erpnext.healthcare.doctype.patient_appointment.patient_appointment.send_appointment_reminder for newbench.new
2021-12-24 14:36:46,732 INFO scheduler Scheduled Job Start: erpnext.projects.doctype.project.project.project_status_update_reminder for newbench.new
2021-12-24 14:36:47,546 INFO scheduler Scheduled Job Complete: erpnext.projects.doctype.project.project.project_status_update_reminder for newbench.new
2021-12-24 14:36:47,697 INFO scheduler Scheduled Job Start: frappe.monitor.flush for newbench.new
2021-12-24 14:36:48,278 INFO scheduler Scheduled Job Complete: frappe.monitor.flush for newbench.new
2021-12-24 14:36:48,424 INFO scheduler Scheduled Job Start: frappe.utils.global_search.sync_global_search for newbench.new
2021-12-24 14:36:49,227 INFO scheduler Scheduled Job Complete: frappe.utils.global_search.sync_global_search for newbench.new
2021-12-24 14:36:49,378 INFO scheduler Scheduled Job Start: frappe.integrations.doctype.razorpay_settings.razorpay_settings.capture_payment for newbench.new
2021-12-24 14:36:50,101 INFO scheduler Scheduled Job Complete: frappe.integrations.doctype.razorpay_settings.razorpay_settings.capture_payment for newbench.new
2021-12-24 14:36:50,266 INFO scheduler Scheduled Job Start: frappe.email.doctype.email_account.email_account.notify_unreplied for newbench.new
2021-12-24 14:36:50,902 INFO scheduler Scheduled Job Complete: frappe.email.doctype.email_account.email_account.notify_unreplied for newbench.new
2021-12-24 14:36:51,057 INFO scheduler Scheduled Job Start: frappe.email.doctype.email_account.email_account.pull for newbench.new
2021-12-24 14:36:51,771 INFO scheduler Scheduled Job Complete: frappe.email.doctype.email_account.email_account.pull for newbench.new
2021-12-24 14:36:51,924 INFO scheduler Scheduled Job Start: frappe.email.queue.flush for newbench.new
2021-12-24 14:36:52,463 INFO scheduler Scheduled Job Complete: frappe.email.queue.flush for newbench.new
2021-12-24 14:37:45,477 DEBUG scheduler Queued events for site newbench.new
2021-12-24 14:38:46,185 DEBUG scheduler Queued events for site newbench.new
2021-12-24 14:39:46,888 DEBUG scheduler Queued events for site newbench.new
2021-12-24 14:40:47,656 DEBUG scheduler Queued events for site newbench.new
2021-12-24 14:40:47,780 INFO scheduler Scheduled Job Start: erpnext.crm.doctype.social_media_post.social_media_post.process_scheduled_social_media_posts for newbench.new
2021-12-24 14:40:48,358 INFO scheduler Scheduled Job Complete: erpnext.crm.doctype.social_media_post.social_media_post.process_scheduled_social_media_posts for newbench.new
2021-12-24 14:40:48,517 INFO scheduler Scheduled Job Start: erpnext.hr.doctype.interview.interview.send_interview_reminder for newbench.new
2021-12-24 14:40:49,084 INFO scheduler Scheduled Job Complete: erpnext.hr.doctype.interview.interview.send_interview_reminder for newbench.new
2021-12-24 14:40:49,238 INFO scheduler Scheduled Job Start: erpnext.healthcare.doctype.patient_appointment.patient_appointment.send_appointment_reminder for newbench.new
2021-12-24 14:40:49,713 INFO scheduler Scheduled Job Complete: erpnext.healthcare.doctype.patient_appointment.patient_appointment.send_appointment_reminder for newbench.new
2021-12-24 14:40:49,866 INFO scheduler Scheduled Job Start: erpnext.projects.doctype.project.project.project_status_update_reminder for newbench.new
2021-12-24 14:40:50,824 INFO scheduler Scheduled Job Complete: erpnext.projects.doctype.project.project.project_status_update_reminder for newbench.new
2021-12-24 14:40:50,980 INFO scheduler Scheduled Job Start: frappe.monitor.flush for newbench.new
2021-12-24 14:40:51,421 INFO scheduler Scheduled Job Complete: frappe.monitor.flush for newbench.new
2021-12-24 14:40:51,575 INFO scheduler Scheduled Job Start: frappe.utils.global_search.sync_global_search for newbench.new
2021-12-24 14:40:52,066 INFO scheduler Scheduled Job Complete: frappe.utils.global_search.sync_global_search for newbench.new
2021-12-24 14:40:52,222 INFO scheduler Scheduled Job Start: frappe.integrations.doctype.razorpay_settings.razorpay_settings.capture_payment for newbench.new
2021-12-24 14:40:52,949 INFO scheduler Scheduled Job Complete: frappe.integrations.doctype.razorpay_settings.razorpay_settings.capture_payment for newbench.new
2021-12-24 14:40:53,107 INFO scheduler Scheduled Job Start: frappe.email.doctype.email_account.email_account.notify_unreplied for newbench.new
2021-12-24 14:40:53,764 INFO scheduler Scheduled Job Complete: frappe.email.doctype.email_account.email_account.notify_unreplied for newbench.new
2021-12-24 14:40:53,929 INFO scheduler Scheduled Job Start: frappe.email.doctype.email_account.email_account.pull for newbench.new
2021-12-24 14:40:54,589 INFO scheduler Scheduled Job Complete: frappe.email.doctype.email_account.email_account.pull for newbench.new
2021-12-24 14:40:54,737 INFO scheduler Scheduled Job Start: frappe.email.queue.flush for newbench.new
2021-12-24 14:40:55,299 INFO scheduler Scheduled Job Complete: frappe.email.queue.flush for newbench.new
2021-12-24 14:41:48,341 DEBUG scheduler Queued events for site newbench.new
2021-12-24 14:42:49,296 DEBUG scheduler Queued events for site newbench.new
2021-12-24 14:43:50,017 DEBUG scheduler Queued events for site newbench.new
2021-12-24 14:44:50,762 INFO scheduler Scheduled Job Start: erpnext.crm.doctype.social_media_post.social_media_post.process_scheduled_social_media_posts for newbench.new
2021-12-24 14:44:50,804 DEBUG scheduler Queued events for site newbench.new
2021-12-24 14:44:51,326 INFO scheduler Scheduled Job Complete: erpnext.crm.doctype.social_media_post.social_media_post.process_scheduled_social_media_posts for newbench.new
2021-12-24 14:44:51,476 INFO scheduler Scheduled Job Start: erpnext.hr.doctype.interview.interview.send_interview_reminder for newbench.new
2021-12-24 14:44:52,048 INFO scheduler Scheduled Job Complete: erpnext.hr.doctype.interview.interview.send_interview_reminder for newbench.new
2021-12-24 14:44:52,199 INFO scheduler Scheduled Job Start: erpnext.healthcare.doctype.patient_appointment.patient_appointment.send_appointment_reminder for newbench.new
2021-12-24 14:44:52,701 INFO scheduler Scheduled Job Complete: erpnext.healthcare.doctype.patient_appointment.patient_appointment.send_appointment_reminder for newbench.new
2021-12-24 14:44:52,851 INFO scheduler Scheduled Job Start: erpnext.projects.doctype.project.project.project_status_update_reminder for newbench.new
2021-12-24 14:44:53,642 INFO scheduler Scheduled Job Complete: erpnext.projects.doctype.project.project.project_status_update_reminder for newbench.new
2021-12-24 14:44:53,797 INFO scheduler Scheduled Job Start: frappe.monitor.flush for newbench.new
2021-12-24 14:44:54,343 INFO scheduler Scheduled Job Complete: frappe.monitor.flush for newbench.new
2021-12-24 14:44:54,493 INFO scheduler Scheduled Job Start: frappe.utils.global_search.sync_global_search for newbench.new
2021-12-24 14:44:55,138 INFO scheduler Scheduled Job Complete: frappe.utils.global_search.sync_global_search for newbench.new
2021-12-24 14:44:55,287 INFO scheduler Scheduled Job Start: frappe.integrations.doctype.razorpay_settings.razorpay_settings.capture_payment for newbench.new
2021-12-24 14:44:55,978 INFO scheduler Scheduled Job Complete: frappe.integrations.doctype.razorpay_settings.razorpay_settings.capture_payment for newbench.new
2021-12-24 14:44:56,134 INFO scheduler Scheduled Job Start: frappe.email.doctype.email_account.email_account.notify_unreplied for newbench.new
2021-12-24 14:44:56,798 INFO scheduler Scheduled Job Complete: frappe.email.doctype.email_account.email_account.notify_unreplied for newbench.new
2021-12-24 14:44:56,949 INFO scheduler Scheduled Job Start: frappe.email.doctype.email_account.email_account.pull for newbench.new
2021-12-24 14:44:57,581 INFO scheduler Scheduled Job Complete: frappe.email.doctype.email_account.email_account.pull for newbench.new
2021-12-24 14:44:57,748 INFO scheduler Scheduled Job Start: frappe.email.queue.flush for newbench.new
2021-12-24 14:44:58,312 INFO scheduler Scheduled Job Complete: frappe.email.queue.flush for newbench.new
2021-12-24 14:45:51,495 DEBUG scheduler Queued events for site newbench.new
2021-12-24 14:45:51,604 INFO scheduler Scheduled Job Start: frappe.twofactor.delete_all_barcodes_for_users for newbench.new
2021-12-24 14:45:52,900 INFO scheduler Scheduled Job Complete: frappe.twofactor.delete_all_barcodes_for_users for newbench.new
2021-12-24 14:45:53,219 INFO scheduler Scheduled Job Start: frappe.website.doctype.web_page.web_page.check_publish_status for newbench.new
2021-12-24 14:45:54,278 INFO scheduler Scheduled Job Complete: frappe.website.doctype.web_page.web_page.check_publish_status for newbench.new
2021-12-24 14:45:54,513 INFO scheduler Scheduled Job Start: frappe.oauth.delete_oauth2_data for newbench.new
2021-12-24 14:45:55,599 INFO scheduler Scheduled Job Complete: frappe.oauth.delete_oauth2_data for newbench.new
2021-12-24 14:46:52,188 DEBUG scheduler Queued events for site newbench.new
2021-12-24 14:47:52,902 DEBUG scheduler Queued events for site newbench.new
2021-12-24 14:48:53,818 DEBUG scheduler Queued events for site newbench.new
2021-12-24 14:48:53,825 INFO scheduler Scheduled Job Start: erpnext.crm.doctype.social_media_post.social_media_post.process_scheduled_social_media_posts for newbench.new
2021-12-24 14:48:54,542 INFO scheduler Scheduled Job Complete: erpnext.crm.doctype.social_media_post.social_media_post.process_scheduled_social_media_posts for newbench.new
2021-12-24 14:48:54,702 INFO scheduler Scheduled Job Start: erpnext.hr.doctype.interview.interview.send_interview_reminder for newbench.new
2021-12-24 14:48:55,342 INFO scheduler Scheduled Job Complete: erpnext.hr.doctype.interview.interview.send_interview_reminder for newbench.new
2021-12-24 14:48:55,503 INFO scheduler Scheduled Job Start: erpnext.healthcare.doctype.patient_appointment.patient_appointment.send_appointment_reminder for newbench.new
2021-12-24 14:48:56,011 INFO scheduler Scheduled Job Complete: erpnext.healthcare.doctype.patient_appointment.patient_appointment.send_appointment_reminder for newbench.new
2021-12-24 14:48:56,168 INFO scheduler Scheduled Job Start: erpnext.projects.doctype.project.project.project_status_update_reminder for newbench.new
2021-12-24 14:48:57,022 INFO scheduler Scheduled Job Complete: erpnext.projects.doctype.project.project.project_status_update_reminder for newbench.new
2021-12-24 14:48:57,187 INFO scheduler Scheduled Job Start: frappe.monitor.flush for newbench.new
2021-12-24 14:48:57,742 INFO scheduler Scheduled Job Complete: frappe.monitor.flush for newbench.new
2021-12-24 14:48:57,906 INFO scheduler Scheduled Job Start: frappe.utils.global_search.sync_global_search for newbench.new
2021-12-24 14:48:58,430 INFO scheduler Scheduled Job Complete: frappe.utils.global_search.sync_global_search for newbench.new
2021-12-24 14:48:58,613 INFO scheduler Scheduled Job Start: frappe.integrations.doctype.razorpay_settings.razorpay_settings.capture_payment for newbench.new
2021-12-24 14:48:59,516 INFO scheduler Scheduled Job Complete: frappe.integrations.doctype.razorpay_settings.razorpay_settings.capture_payment for newbench.new
2021-12-24 14:48:59,676 INFO scheduler Scheduled Job Start: frappe.email.doctype.email_account.email_account.notify_unreplied for newbench.new
2021-12-24 14:49:00,445 INFO scheduler Scheduled Job Complete: frappe.email.doctype.email_account.email_account.notify_unreplied for newbench.new
2021-12-24 14:49:00,628 INFO scheduler Scheduled Job Start: frappe.email.doctype.email_account.email_account.pull for newbench.new
2021-12-24 14:49:01,509 INFO scheduler Scheduled Job Complete: frappe.email.doctype.email_account.email_account.pull for newbench.new
2021-12-24 14:49:01,675 INFO scheduler Scheduled Job Start: frappe.email.queue.flush for newbench.new
2021-12-24 14:49:02,143 INFO scheduler Scheduled Job Complete: frappe.email.queue.flush for newbench.new
2021-12-24 14:49:54,506 DEBUG scheduler Queued events for site newbench.new
2021-12-24 14:50:55,169 DEBUG scheduler Queued events for site newbench.new
2021-12-24 14:51:55,842 DEBUG scheduler Queued events for site newbench.new
2021-12-24 14:52:56,610 DEBUG scheduler Queued events for site newbench.new
2021-12-24 14:52:56,714 INFO scheduler Scheduled Job Start: erpnext.crm.doctype.social_media_post.social_media_post.process_scheduled_social_media_posts for newbench.new
2021-12-24 14:52:57,335 INFO scheduler Scheduled Job Complete: erpnext.crm.doctype.social_media_post.social_media_post.process_scheduled_social_media_posts for newbench.new
2021-12-24 14:52:57,484 INFO scheduler Scheduled Job Start: erpnext.hr.doctype.interview.interview.send_interview_reminder for newbench.new
2021-12-24 14:52:58,006 INFO scheduler Scheduled Job Complete: erpnext.hr.doctype.interview.interview.send_interview_reminder for newbench.new
2021-12-24 14:52:58,156 INFO scheduler Scheduled Job Start: erpnext.healthcare.doctype.patient_appointment.patient_appointment.send_appointment_reminder for newbench.new
2021-12-24 14:52:58,699 INFO scheduler Scheduled Job Complete: erpnext.healthcare.doctype.patient_appointment.patient_appointment.send_appointment_reminder for newbench.new
2021-12-24 14:52:58,853 INFO scheduler Scheduled Job Start: erpnext.projects.doctype.project.project.project_status_update_reminder for newbench.new
2021-12-24 14:52:59,649 INFO scheduler Scheduled Job Complete: erpnext.projects.doctype.project.project.project_status_update_reminder for newbench.new
2021-12-24 14:52:59,803 INFO scheduler Scheduled Job Start: frappe.monitor.flush for newbench.new
2021-12-24 14:53:00,312 INFO scheduler Scheduled Job Complete: frappe.monitor.flush for newbench.new
2021-12-24 14:53:00,465 INFO scheduler Scheduled Job Start: frappe.utils.global_search.sync_global_search for newbench.new
2021-12-24 14:53:00,872 INFO scheduler Scheduled Job Complete: frappe.utils.global_search.sync_global_search for newbench.new
2021-12-24 14:53:01,027 INFO scheduler Scheduled Job Start: frappe.integrations.doctype.razorpay_settings.razorpay_settings.capture_payment for newbench.new
2021-12-24 14:53:01,811 INFO scheduler Scheduled Job Complete: frappe.integrations.doctype.razorpay_settings.razorpay_settings.capture_payment for newbench.new
2021-12-24 14:53:01,965 INFO scheduler Scheduled Job Start: frappe.email.doctype.email_account.email_account.notify_unreplied for newbench.new
2021-12-24 14:53:02,616 INFO scheduler Scheduled Job Complete: frappe.email.doctype.email_account.email_account.notify_unreplied for newbench.new
2021-12-24 14:53:02,766 INFO scheduler Scheduled Job Start: frappe.email.doctype.email_account.email_account.pull for newbench.new
2021-12-24 14:53:03,351 INFO scheduler Scheduled Job Complete: frappe.email.doctype.email_account.email_account.pull for newbench.new
2021-12-24 14:53:03,499 INFO scheduler Scheduled Job Start: frappe.email.queue.flush for newbench.new
2021-12-24 14:53:04,021 INFO scheduler Scheduled Job Complete: frappe.email.queue.flush for newbench.new
2021-12-24 14:53:57,291 DEBUG scheduler Queued events for site newbench.new
2021-12-24 14:54:57,966 DEBUG scheduler Queued events for site newbench.new
2021-12-24 14:55:58,649 DEBUG scheduler Queued events for site newbench.new
2021-12-24 14:56:59,540 DEBUG scheduler Queued events for site newbench.new
2021-12-24 14:57:00,131 INFO scheduler Scheduled Job Start: erpnext.crm.doctype.social_media_post.social_media_post.process_scheduled_social_media_posts for newbench.new
2021-12-24 14:57:03,550 INFO scheduler Scheduled Job Complete: erpnext.crm.doctype.social_media_post.social_media_post.process_scheduled_social_media_posts for newbench.new
2021-12-24 14:57:04,341 INFO scheduler Scheduled Job Start: erpnext.hr.doctype.interview.interview.send_interview_reminder for newbench.new
2021-12-24 14:57:05,096 INFO scheduler Scheduled Job Complete: erpnext.hr.doctype.interview.interview.send_interview_reminder for newbench.new
2021-12-24 14:57:05,249 INFO scheduler Scheduled Job Start: erpnext.healthcare.doctype.patient_appointment.patient_appointment.send_appointment_reminder for newbench.new
2021-12-24 14:57:05,948 INFO scheduler Scheduled Job Complete: erpnext.healthcare.doctype.patient_appointment.patient_appointment.send_appointment_reminder for newbench.new
2021-12-24 14:57:06,107 INFO scheduler Scheduled Job Start: erpnext.projects.doctype.project.project.project_status_update_reminder for newbench.new
2021-12-24 14:57:07,025 INFO scheduler Scheduled Job Complete: erpnext.projects.doctype.project.project.project_status_update_reminder for newbench.new
2021-12-24 14:57:07,178 INFO scheduler Scheduled Job Start: frappe.monitor.flush for newbench.new
2021-12-24 14:57:07,588 INFO scheduler Scheduled Job Complete: frappe.monitor.flush for newbench.new
2021-12-24 14:57:07,749 INFO scheduler Scheduled Job Start: frappe.utils.global_search.sync_global_search for newbench.new
2021-12-24 14:57:08,309 INFO scheduler Scheduled Job Complete: frappe.utils.global_search.sync_global_search for newbench.new
2021-12-24 14:57:08,470 INFO scheduler Scheduled Job Start: frappe.integrations.doctype.razorpay_settings.razorpay_settings.capture_payment for newbench.new
2021-12-24 14:57:09,483 INFO scheduler Scheduled Job Complete: frappe.integrations.doctype.razorpay_settings.razorpay_settings.capture_payment for newbench.new
2021-12-24 14:57:09,639 INFO scheduler Scheduled Job Start: frappe.email.doctype.email_account.email_account.notify_unreplied for newbench.new
2021-12-24 14:57:11,029 INFO scheduler Scheduled Job Complete: frappe.email.doctype.email_account.email_account.notify_unreplied for newbench.new
2021-12-24 14:57:11,185 INFO scheduler Scheduled Job Start: frappe.email.doctype.email_account.email_account.pull for newbench.new
2021-12-24 14:57:11,805 INFO scheduler Scheduled Job Complete: frappe.email.doctype.email_account.email_account.pull for newbench.new
2021-12-24 14:57:11,960 INFO scheduler Scheduled Job Start: frappe.email.queue.flush for newbench.new
2021-12-24 14:57:12,519 INFO scheduler Scheduled Job Complete: frappe.email.queue.flush for newbench.new
2021-12-24 14:58:13,803 DEBUG scheduler Queued events for site newbench.new
2021-12-24 14:59:20,428 DEBUG scheduler Queued events for site newbench.new
2021-12-24 15:00:22,273 DEBUG scheduler Queued events for site newbench.new
2021-12-24 15:00:24,856 INFO scheduler Scheduled Job Start: erpnext.erpnext_integrations.connectors.shopify_connection.sync_old_orders for newbench.new
2021-12-24 15:00:33,955 INFO scheduler Scheduled Job Start: erpnext.stock.doctype.repost_item_valuation.repost_item_valuation.repost_entries for newbench.new
2021-12-24 15:00:38,651 INFO scheduler Scheduled Job Complete: erpnext.erpnext_integrations.connectors.shopify_connection.sync_old_orders for newbench.new
2021-12-24 15:00:38,940 INFO scheduler Scheduled Job Start: erpnext.support.doctype.issue.issue.set_service_level_agreement_variance for newbench.new
2021-12-24 15:00:40,834 INFO scheduler Scheduled Job Complete: erpnext.support.doctype.issue.issue.set_service_level_agreement_variance for newbench.new
2021-12-24 15:00:41,082 INFO scheduler Scheduled Job Start: erpnext.hr.doctype.shift_type.shift_type.process_auto_attendance_for_all_shifts for newbench.new
2021-12-24 15:00:45,822 INFO scheduler Scheduled Job Complete: erpnext.hr.doctype.shift_type.shift_type.process_auto_attendance_for_all_shifts for newbench.new
2021-12-24 15:00:46,414 INFO scheduler Scheduled Job Start: erpnext.projects.doctype.project.project.collect_project_status for newbench.new
2021-12-24 15:01:00,060 INFO scheduler Scheduled Job Complete: erpnext.stock.doctype.repost_item_valuation.repost_item_valuation.repost_entries for newbench.new
2021-12-24 15:01:00,783 INFO scheduler Scheduled Job Complete: erpnext.projects.doctype.project.project.collect_project_status for newbench.new
2021-12-24 15:01:01,126 INFO scheduler Scheduled Job Start: erpnext.projects.doctype.project.project.hourly_reminder for newbench.new
2021-12-24 15:01:02,275 INFO scheduler Scheduled Job Complete: erpnext.projects.doctype.project.project.hourly_reminder for newbench.new
2021-12-24 15:01:02,588 INFO scheduler Scheduled Job Start: erpnext.erpnext_integrations.doctype.plaid_settings.plaid_settings.automatic_synchronization for newbench.new
2021-12-24 15:01:06,773 INFO scheduler Scheduled Job Complete: erpnext.erpnext_integrations.doctype.plaid_settings.plaid_settings.automatic_synchronization for newbench.new
2021-12-24 15:01:07,103 INFO scheduler Scheduled Job Start: erpnext.accounts.doctype.gl_entry.gl_entry.rename_gle_sle_docs for newbench.new
2021-12-24 15:01:08,652 INFO scheduler Scheduled Job Complete: erpnext.accounts.doctype.gl_entry.gl_entry.rename_gle_sle_docs for newbench.new
2021-12-24 15:01:08,878 INFO scheduler Scheduled Job Start: erpnext.erpnext_integrations.doctype.amazon_mws_settings.amazon_mws_settings.schedule_get_order_details for newbench.new
2021-12-24 15:01:09,645 INFO scheduler Scheduled Job Complete: erpnext.erpnext_integrations.doctype.amazon_mws_settings.amazon_mws_settings.schedule_get_order_details for newbench.new
2021-12-24 15:01:09,867 INFO scheduler Scheduled Job Start: erpnext.accounts.doctype.subscription.subscription.process_all for newbench.new
2021-12-24 15:01:10,586 INFO scheduler Scheduled Job Complete: erpnext.accounts.doctype.subscription.subscription.process_all for newbench.new
2021-12-24 15:01:10,821 INFO scheduler Scheduled Job Start: erpnext.hr.doctype.daily_work_summary_group.daily_work_summary_group.trigger_emails for newbench.new
2021-12-24 15:01:11,596 INFO scheduler Scheduled Job Complete: erpnext.hr.doctype.daily_work_summary_group.daily_work_summary_group.trigger_emails for newbench.new
2021-12-24 15:01:11,821 INFO scheduler Scheduled Job Start: erpnext.crm.doctype.social_media_post.social_media_post.process_scheduled_social_media_posts for newbench.new
2021-12-24 15:01:12,446 INFO scheduler Scheduled Job Complete: erpnext.crm.doctype.social_media_post.social_media_post.process_scheduled_social_media_posts for newbench.new
2021-12-24 15:01:12,595 INFO scheduler Scheduled Job Start: erpnext.hr.doctype.interview.interview.send_interview_reminder for newbench.new
2021-12-24 15:01:13,279 INFO scheduler Scheduled Job Complete: erpnext.hr.doctype.interview.interview.send_interview_reminder for newbench.new
2021-12-24 15:01:13,431 INFO scheduler Scheduled Job Start: erpnext.healthcare.doctype.patient_appointment.patient_appointment.send_appointment_reminder for newbench.new
2021-12-24 15:01:14,022 INFO scheduler Scheduled Job Complete: erpnext.healthcare.doctype.patient_appointment.patient_appointment.send_appointment_reminder for newbench.new
2021-12-24 15:01:14,177 INFO scheduler Scheduled Job Start: erpnext.projects.doctype.project.project.project_status_update_reminder for newbench.new
2021-12-24 15:01:14,888 INFO scheduler Scheduled Job Complete: erpnext.projects.doctype.project.project.project_status_update_reminder for newbench.new
2021-12-24 15:01:15,043 INFO scheduler Scheduled Job Start: erpnext.utilities.doctype.video.video.update_youtube_data for newbench.new
2021-12-24 15:01:18,226 INFO scheduler Scheduled Job Failed: erpnext.utilities.doctype.video.video.update_youtube_data for newbench.new
2021-12-24 15:01:18,574 INFO scheduler Scheduled Job Start: frappe.email.doctype.newsletter.newsletter.send_scheduled_email for newbench.new
2021-12-24 15:01:19,372 INFO scheduler Scheduled Job Complete: frappe.email.doctype.newsletter.newsletter.send_scheduled_email for newbench.new
2021-12-24 15:01:19,598 INFO scheduler Scheduled Job Start: frappe.integrations.doctype.google_calendar.google_calendar.sync for newbench.new
2021-12-24 15:01:22,960 DEBUG scheduler Queued events for site newbench.new
2021-12-24 15:01:23,782 INFO scheduler Scheduled Job Complete: frappe.integrations.doctype.google_calendar.google_calendar.sync for newbench.new
2021-12-24 15:01:24,106 INFO scheduler Scheduled Job Start: frappe.desk.form.document_follow.send_hourly_updates for newbench.new
2021-12-24 15:01:24,790 INFO scheduler Scheduled Job Complete: frappe.desk.form.document_follow.send_hourly_updates for newbench.new
2021-12-24 15:01:25,016 INFO scheduler Scheduled Job Start: frappe.deferred_insert.save_to_db for newbench.new
2021-12-24 15:01:26,174 INFO scheduler Scheduled Job Complete: frappe.deferred_insert.save_to_db for newbench.new
2021-12-24 15:01:26,440 INFO scheduler Scheduled Job Start: frappe.desk.page.backups.backups.delete_downloadable_backups for newbench.new
2021-12-24 15:01:27,359 INFO scheduler Scheduled Job Complete: frappe.desk.page.backups.backups.delete_downloadable_backups for newbench.new
2021-12-24 15:01:27,577 INFO scheduler Scheduled Job Start: frappe.utils.error.collect_error_snapshots for newbench.new
2021-12-24 15:01:28,351 INFO scheduler Scheduled Job Complete: frappe.utils.error.collect_error_snapshots for newbench.new
2021-12-24 15:01:28,575 INFO scheduler Scheduled Job Start: frappe.model.utils.user_settings.sync_user_settings for newbench.new
2021-12-24 15:01:29,254 INFO scheduler Scheduled Job Complete: frappe.model.utils.user_settings.sync_user_settings for newbench.new
2021-12-24 15:01:29,473 INFO scheduler Scheduled Job Start: frappe.model.utils.link_count.update_link_count for newbench.new
2021-12-24 15:01:30,224 INFO scheduler Scheduled Job Complete: frappe.model.utils.link_count.update_link_count for newbench.new
2021-12-24 15:01:30,448 INFO scheduler Scheduled Job Start: frappe.monitor.flush for newbench.new
2021-12-24 15:01:30,863 INFO scheduler Scheduled Job Complete: frappe.monitor.flush for newbench.new
2021-12-24 15:01:31,021 INFO scheduler Scheduled Job Start: frappe.utils.global_search.sync_global_search for newbench.new
2021-12-24 15:01:31,493 INFO scheduler Scheduled Job Complete: frappe.utils.global_search.sync_global_search for newbench.new
2021-12-24 15:01:31,653 INFO scheduler Scheduled Job Start: frappe.integrations.doctype.razorpay_settings.razorpay_settings.capture_payment for newbench.new
2021-12-24 15:01:32,613 INFO scheduler Scheduled Job Complete: frappe.integrations.doctype.razorpay_settings.razorpay_settings.capture_payment for newbench.new
2021-12-24 15:01:32,766 INFO scheduler Scheduled Job Start: frappe.email.doctype.email_account.email_account.notify_unreplied for newbench.new
2021-12-24 15:01:33,542 INFO scheduler Scheduled Job Complete: frappe.email.doctype.email_account.email_account.notify_unreplied for newbench.new
2021-12-24 15:01:33,699 INFO scheduler Scheduled Job Start: frappe.email.doctype.email_account.email_account.pull for newbench.new
2021-12-24 15:01:34,316 INFO scheduler Scheduled Job Complete: frappe.email.doctype.email_account.email_account.pull for newbench.new
2021-12-24 15:01:34,469 INFO scheduler Scheduled Job Start: frappe.email.queue.flush for newbench.new
2021-12-24 15:01:34,922 INFO scheduler Scheduled Job Complete: frappe.email.queue.flush for newbench.new
2021-12-24 15:01:35,076 INFO scheduler Scheduled Job Start: frappe.twofactor.delete_all_barcodes_for_users for newbench.new
2021-12-24 15:01:35,958 INFO scheduler Scheduled Job Complete: frappe.twofactor.delete_all_barcodes_for_users for newbench.new
2021-12-24 15:01:36,176 INFO scheduler Scheduled Job Start: frappe.website.doctype.web_page.web_page.check_publish_status for newbench.new
2021-12-24 15:01:37,069 INFO scheduler Scheduled Job Complete: frappe.website.doctype.web_page.web_page.check_publish_status for newbench.new
2021-12-24 15:01:37,280 INFO scheduler Scheduled Job Start: frappe.oauth.delete_oauth2_data for newbench.new
2021-12-24 15:01:38,189 INFO scheduler Scheduled Job Complete: frappe.oauth.delete_oauth2_data for newbench.new
2021-12-24 15:02:23,617 DEBUG scheduler Queued events for site newbench.new
2021-12-24 15:03:24,294 DEBUG scheduler Queued events for site newbench.new
2021-12-24 15:04:24,906 INFO scheduler Scheduled Job Start: erpnext.crm.doctype.social_media_post.social_media_post.process_scheduled_social_media_posts for newbench.new
2021-12-24 15:04:25,097 DEBUG scheduler Queued events for site newbench.new
2021-12-24 15:04:25,501 INFO scheduler Scheduled Job Complete: erpnext.crm.doctype.social_media_post.social_media_post.process_scheduled_social_media_posts for newbench.new
2021-12-24 15:04:25,656 INFO scheduler Scheduled Job Start: erpnext.hr.doctype.interview.interview.send_interview_reminder for newbench.new
2021-12-24 15:04:26,226 INFO scheduler Scheduled Job Complete: erpnext.hr.doctype.interview.interview.send_interview_reminder for newbench.new
2021-12-24 15:04:26,379 INFO scheduler Scheduled Job Start: erpnext.healthcare.doctype.patient_appointment.patient_appointment.send_appointment_reminder for newbench.new
2021-12-24 15:04:26,851 INFO scheduler Scheduled Job Complete: erpnext.healthcare.doctype.patient_appointment.patient_appointment.send_appointment_reminder for newbench.new
2021-12-24 15:04:27,004 INFO scheduler Scheduled Job Start: erpnext.projects.doctype.project.project.project_status_update_reminder for newbench.new
2021-12-24 15:04:27,707 INFO scheduler Scheduled Job Complete: erpnext.projects.doctype.project.project.project_status_update_reminder for newbench.new
2021-12-24 15:04:27,859 INFO scheduler Scheduled Job Start: frappe.monitor.flush for newbench.new
2021-12-24 15:04:28,292 INFO scheduler Scheduled Job Complete: frappe.monitor.flush for newbench.new
2021-12-24 15:04:28,447 INFO scheduler Scheduled Job Start: frappe.utils.global_search.sync_global_search for newbench.new
2021-12-24 15:04:28,854 INFO scheduler Scheduled Job Complete: frappe.utils.global_search.sync_global_search for newbench.new
2021-12-24 15:04:29,008 INFO scheduler Scheduled Job Start: frappe.integrations.doctype.razorpay_settings.razorpay_settings.capture_payment for newbench.new
2021-12-24 15:04:29,745 INFO scheduler Scheduled Job Complete: frappe.integrations.doctype.razorpay_settings.razorpay_settings.capture_payment for newbench.new
2021-12-24 15:04:29,897 INFO scheduler Scheduled Job Start: frappe.email.doctype.email_account.email_account.notify_unreplied for newbench.new
2021-12-24 15:04:30,546 INFO scheduler Scheduled Job Complete: frappe.email.doctype.email_account.email_account.notify_unreplied for newbench.new
2021-12-24 15:04:30,700 INFO scheduler Scheduled Job Start: frappe.email.doctype.email_account.email_account.pull for newbench.new
2021-12-24 15:04:31,296 INFO scheduler Scheduled Job Complete: frappe.email.doctype.email_account.email_account.pull for newbench.new
2021-12-24 15:04:31,448 INFO scheduler Scheduled Job Start: frappe.email.queue.flush for newbench.new
2021-12-24 15:04:31,889 INFO scheduler Scheduled Job Complete: frappe.email.queue.flush for newbench.new
2021-12-24 15:05:25,820 DEBUG scheduler Queued events for site newbench.new
2021-12-24 15:06:26,796 DEBUG scheduler Queued events for site newbench.new
2021-12-24 15:07:27,577 DEBUG scheduler Queued events for site newbench.new
2021-12-24 15:08:28,650 DEBUG scheduler Queued events for site newbench.new
2021-12-24 15:08:30,532 INFO scheduler Scheduled Job Start: erpnext.crm.doctype.social_media_post.social_media_post.process_scheduled_social_media_posts for newbench.new
2021-12-24 15:08:34,067 INFO scheduler Scheduled Job Complete: erpnext.crm.doctype.social_media_post.social_media_post.process_scheduled_social_media_posts for newbench.new
2021-12-24 15:08:34,262 INFO scheduler Scheduled Job Start: erpnext.hr.doctype.interview.interview.send_interview_reminder for newbench.new
2021-12-24 15:08:35,204 INFO scheduler Scheduled Job Complete: erpnext.hr.doctype.interview.interview.send_interview_reminder for newbench.new
2021-12-24 15:08:35,389 INFO scheduler Scheduled Job Start: erpnext.healthcare.doctype.patient_appointment.patient_appointment.send_appointment_reminder for newbench.new
2021-12-24 15:08:36,350 INFO scheduler Scheduled Job Complete: erpnext.healthcare.doctype.patient_appointment.patient_appointment.send_appointment_reminder for newbench.new
2021-12-24 15:08:36,552 INFO scheduler Scheduled Job Start: erpnext.projects.doctype.project.project.project_status_update_reminder for newbench.new
2021-12-24 15:08:38,706 INFO scheduler Scheduled Job Complete: erpnext.projects.doctype.project.project.project_status_update_reminder for newbench.new
2021-12-24 15:08:38,894 INFO scheduler Scheduled Job Start: frappe.monitor.flush for newbench.new
2021-12-24 15:08:39,359 INFO scheduler Scheduled Job Complete: frappe.monitor.flush for newbench.new
2021-12-24 15:08:39,566 INFO scheduler Scheduled Job Start: frappe.utils.global_search.sync_global_search for newbench.new
2021-12-24 15:08:40,293 INFO scheduler Scheduled Job Complete: frappe.utils.global_search.sync_global_search for newbench.new
2021-12-24 15:08:40,486 INFO scheduler Scheduled Job Start: frappe.integrations.doctype.razorpay_settings.razorpay_settings.capture_payment for newbench.new
2021-12-24 15:08:43,058 INFO scheduler Scheduled Job Complete: frappe.integrations.doctype.razorpay_settings.razorpay_settings.capture_payment for newbench.new
2021-12-24 15:08:43,254 INFO scheduler Scheduled Job Start: frappe.email.doctype.email_account.email_account.notify_unreplied for newbench.new
2021-12-24 15:08:45,006 INFO scheduler Scheduled Job Complete: frappe.email.doctype.email_account.email_account.notify_unreplied for newbench.new
2021-12-24 15:08:45,215 INFO scheduler Scheduled Job Start: frappe.email.doctype.email_account.email_account.pull for newbench.new
2021-12-24 15:08:46,035 INFO scheduler Scheduled Job Complete: frappe.email.doctype.email_account.email_account.pull for newbench.new
2021-12-24 15:08:46,224 INFO scheduler Scheduled Job Start: frappe.email.queue.flush for newbench.new
2021-12-24 15:08:46,801 INFO scheduler Scheduled Job Complete: frappe.email.queue.flush for newbench.new
2021-12-24 15:09:29,447 DEBUG scheduler Queued events for site newbench.new
2021-12-24 15:10:30,237 DEBUG scheduler Queued events for site newbench.new
2021-12-24 15:11:31,010 DEBUG scheduler Queued events for site newbench.new
2021-12-24 15:12:31,606 INFO scheduler Scheduled Job Start: erpnext.crm.doctype.social_media_post.social_media_post.process_scheduled_social_media_posts for newbench.new
2021-12-24 15:12:31,805 DEBUG scheduler Queued events for site newbench.new
2021-12-24 15:12:32,210 INFO scheduler Scheduled Job Complete: erpnext.crm.doctype.social_media_post.social_media_post.process_scheduled_social_media_posts for newbench.new
2021-12-24 15:12:32,378 INFO scheduler Scheduled Job Start: erpnext.hr.doctype.interview.interview.send_interview_reminder for newbench.new
2021-12-24 15:12:32,996 INFO scheduler Scheduled Job Complete: erpnext.hr.doctype.interview.interview.send_interview_reminder for newbench.new
2021-12-24 15:12:33,155 INFO scheduler Scheduled Job Start: erpnext.healthcare.doctype.patient_appointment.patient_appointment.send_appointment_reminder for newbench.new
2021-12-24 15:12:33,623 INFO scheduler Scheduled Job Complete: erpnext.healthcare.doctype.patient_appointment.patient_appointment.send_appointment_reminder for newbench.new
2021-12-24 15:12:33,777 INFO scheduler Scheduled Job Start: erpnext.projects.doctype.project.project.project_status_update_reminder for newbench.new
2021-12-24 15:12:34,635 INFO scheduler Scheduled Job Complete: erpnext.projects.doctype.project.project.project_status_update_reminder for newbench.new
2021-12-24 15:12:34,806 INFO scheduler Scheduled Job Start: frappe.monitor.flush for newbench.new
2021-12-24 15:12:35,297 INFO scheduler Scheduled Job Complete: frappe.monitor.flush for newbench.new
2021-12-24 15:12:35,456 INFO scheduler Scheduled Job Start: frappe.utils.global_search.sync_global_search for newbench.new
2021-12-24 15:12:35,989 INFO scheduler Scheduled Job Complete: frappe.utils.global_search.sync_global_search for newbench.new
2021-12-24 15:12:36,191 INFO scheduler Scheduled Job Start: frappe.integrations.doctype.razorpay_settings.razorpay_settings.capture_payment for newbench.new
2021-12-24 15:12:37,298 INFO scheduler Scheduled Job Complete: frappe.integrations.doctype.razorpay_settings.razorpay_settings.capture_payment for newbench.new
2021-12-24 15:12:37,517 INFO scheduler Scheduled Job Start: frappe.email.doctype.email_account.email_account.notify_unreplied for newbench.new
2021-12-24 15:12:38,257 INFO scheduler Scheduled Job Complete: frappe.email.doctype.email_account.email_account.notify_unreplied for newbench.new
2021-12-24 15:12:38,504 INFO scheduler Scheduled Job Start: frappe.email.doctype.email_account.email_account.pull for newbench.new
2021-12-24 15:12:39,409 INFO scheduler Scheduled Job Complete: frappe.email.doctype.email_account.email_account.pull for newbench.new
2021-12-24 15:12:39,643 INFO scheduler Scheduled Job Start: frappe.email.queue.flush for newbench.new
2021-12-24 15:12:40,188 INFO scheduler Scheduled Job Complete: frappe.email.queue.flush for newbench.new
2021-12-24 15:13:36,661 DEBUG scheduler Queued events for site newbench.new
2021-12-24 15:14:37,429 DEBUG scheduler Queued events for site newbench.new
2021-12-24 15:15:38,259 DEBUG scheduler Queued events for site newbench.new
2021-12-24 15:15:38,390 INFO scheduler Scheduled Job Start: frappe.twofactor.delete_all_barcodes_for_users for newbench.new
2021-12-24 15:15:40,418 INFO scheduler Scheduled Job Complete: frappe.twofactor.delete_all_barcodes_for_users for newbench.new
2021-12-24 15:15:40,754 INFO scheduler Scheduled Job Start: frappe.website.doctype.web_page.web_page.check_publish_status for newbench.new
2021-12-24 15:15:42,301 INFO scheduler Scheduled Job Complete: frappe.website.doctype.web_page.web_page.check_publish_status for newbench.new
2021-12-24 15:15:42,562 INFO scheduler Scheduled Job Start: frappe.oauth.delete_oauth2_data for newbench.new
2021-12-24 15:15:43,681 INFO scheduler Scheduled Job Complete: frappe.oauth.delete_oauth2_data for newbench.new
2021-12-24 15:16:38,935 INFO scheduler Scheduled Job Start: erpnext.crm.doctype.social_media_post.social_media_post.process_scheduled_social_media_posts for newbench.new
2021-12-24 15:16:39,090 DEBUG scheduler Queued events for site newbench.new
2021-12-24 15:16:39,733 INFO scheduler Scheduled Job Complete: erpnext.crm.doctype.social_media_post.social_media_post.process_scheduled_social_media_posts for newbench.new
2021-12-24 15:16:39,896 INFO scheduler Scheduled Job Start: erpnext.hr.doctype.interview.interview.send_interview_reminder for newbench.new
2021-12-24 15:16:40,488 INFO scheduler Scheduled Job Complete: erpnext.hr.doctype.interview.interview.send_interview_reminder for newbench.new
2021-12-24 15:16:40,654 INFO scheduler Scheduled Job Start: erpnext.healthcare.doctype.patient_appointment.patient_appointment.send_appointment_reminder for newbench.new
2021-12-24 15:16:41,235 INFO scheduler Scheduled Job Complete: erpnext.healthcare.doctype.patient_appointment.patient_appointment.send_appointment_reminder for newbench.new
2021-12-24 15:16:41,396 INFO scheduler Scheduled Job Start: erpnext.projects.doctype.project.project.project_status_update_reminder for newbench.new
2021-12-24 15:16:42,259 INFO scheduler Scheduled Job Complete: erpnext.projects.doctype.project.project.project_status_update_reminder for newbench.new
2021-12-24 15:16:42,418 INFO scheduler Scheduled Job Start: frappe.monitor.flush for newbench.new
2021-12-24 15:16:42,954 INFO scheduler Scheduled Job Complete: frappe.monitor.flush for newbench.new
2021-12-24 15:16:43,156 INFO scheduler Scheduled Job Start: frappe.utils.global_search.sync_global_search for newbench.new
2021-12-24 15:16:43,598 INFO scheduler Scheduled Job Complete: frappe.utils.global_search.sync_global_search for newbench.new
2021-12-24 15:16:43,752 INFO scheduler Scheduled Job Start: frappe.integrations.doctype.razorpay_settings.razorpay_settings.capture_payment for newbench.new
2021-12-24 15:16:44,542 INFO scheduler Scheduled Job Complete: frappe.integrations.doctype.razorpay_settings.razorpay_settings.capture_payment for newbench.new
2021-12-24 15:16:44,736 INFO scheduler Scheduled Job Start: frappe.email.doctype.email_account.email_account.notify_unreplied for newbench.new
2021-12-24 15:16:45,456 INFO scheduler Scheduled Job Complete: frappe.email.doctype.email_account.email_account.notify_unreplied for newbench.new
2021-12-24 15:16:45,617 INFO scheduler Scheduled Job Start: frappe.email.doctype.email_account.email_account.pull for newbench.new
2021-12-24 15:16:46,332 INFO scheduler Scheduled Job Complete: frappe.email.doctype.email_account.email_account.pull for newbench.new
2021-12-24 15:16:46,491 INFO scheduler Scheduled Job Start: frappe.email.queue.flush for newbench.new
2021-12-24 15:16:46,945 INFO scheduler Scheduled Job Complete: frappe.email.queue.flush for newbench.new
2021-12-24 15:17:39,851 DEBUG scheduler Queued events for site newbench.new
2021-12-24 15:18:40,691 DEBUG scheduler Queued events for site newbench.new
2021-12-24 15:19:41,374 DEBUG scheduler Queued events for site newbench.new
2021-12-24 15:20:42,111 INFO scheduler Scheduled Job Start: erpnext.crm.doctype.social_media_post.social_media_post.process_scheduled_social_media_posts for newbench.new
2021-12-24 15:20:42,185 DEBUG scheduler Queued events for site newbench.new
2021-12-24 15:20:43,966 INFO scheduler Scheduled Job Complete: erpnext.crm.doctype.social_media_post.social_media_post.process_scheduled_social_media_posts for newbench.new
2021-12-24 15:20:44,118 INFO scheduler Scheduled Job Start: erpnext.hr.doctype.interview.interview.send_interview_reminder for newbench.new
2021-12-24 15:20:44,882 INFO scheduler Scheduled Job Complete: erpnext.hr.doctype.interview.interview.send_interview_reminder for newbench.new
2021-12-24 15:20:45,031 INFO scheduler Scheduled Job Start: erpnext.healthcare.doctype.patient_appointment.patient_appointment.send_appointment_reminder for newbench.new
2021-12-24 15:20:45,880 INFO scheduler Scheduled Job Complete: erpnext.healthcare.doctype.patient_appointment.patient_appointment.send_appointment_reminder for newbench.new
2021-12-24 15:20:46,060 INFO scheduler Scheduled Job Start: erpnext.projects.doctype.project.project.project_status_update_reminder for newbench.new
2021-12-24 15:20:47,623 INFO scheduler Scheduled Job Complete: erpnext.projects.doctype.project.project.project_status_update_reminder for newbench.new
2021-12-24 15:20:47,790 INFO scheduler Scheduled Job Start: frappe.monitor.flush for newbench.new
2021-12-24 15:20:48,329 INFO scheduler Scheduled Job Complete: frappe.monitor.flush for newbench.new
2021-12-24 15:20:48,482 INFO scheduler Scheduled Job Start: frappe.utils.global_search.sync_global_search for newbench.new
2021-12-24 15:20:49,677 INFO scheduler Scheduled Job Complete: frappe.utils.global_search.sync_global_search for newbench.new
2021-12-24 15:20:49,842 INFO scheduler Scheduled Job Start: frappe.integrations.doctype.razorpay_settings.razorpay_settings.capture_payment for newbench.new
2021-12-24 15:20:50,659 INFO scheduler Scheduled Job Complete: frappe.integrations.doctype.razorpay_settings.razorpay_settings.capture_payment for newbench.new
2021-12-24 15:20:50,868 INFO scheduler Scheduled Job Start: frappe.email.doctype.email_account.email_account.notify_unreplied for newbench.new
2021-12-24 15:20:51,602 INFO scheduler Scheduled Job Complete: frappe.email.doctype.email_account.email_account.notify_unreplied for newbench.new
2021-12-24 15:20:51,793 INFO scheduler Scheduled Job Start: frappe.email.doctype.email_account.email_account.pull for newbench.new
2021-12-24 15:20:52,463 INFO scheduler Scheduled Job Complete: frappe.email.doctype.email_account.email_account.pull for newbench.new
2021-12-24 15:20:52,670 INFO scheduler Scheduled Job Start: frappe.email.queue.flush for newbench.new
2021-12-24 15:20:53,128 INFO scheduler Scheduled Job Complete: frappe.email.queue.flush for newbench.new
2021-12-24 15:21:42,889 DEBUG scheduler Queued events for site newbench.new
2021-12-24 15:22:43,798 DEBUG scheduler Queued events for site newbench.new
2021-12-24 15:23:44,462 DEBUG scheduler Queued events for site newbench.new
2021-12-24 15:24:45,055 INFO scheduler Scheduled Job Start: erpnext.crm.doctype.social_media_post.social_media_post.process_scheduled_social_media_posts for newbench.new
2021-12-24 15:24:45,239 DEBUG scheduler Queued events for site newbench.new
2021-12-24 15:24:45,558 INFO scheduler Scheduled Job Complete: erpnext.crm.doctype.social_media_post.social_media_post.process_scheduled_social_media_posts for newbench.new
2021-12-24 15:24:45,720 INFO scheduler Scheduled Job Start: erpnext.hr.doctype.interview.interview.send_interview_reminder for newbench.new
2021-12-24 15:24:46,340 INFO scheduler Scheduled Job Complete: erpnext.hr.doctype.interview.interview.send_interview_reminder for newbench.new
2021-12-24 15:24:46,494 INFO scheduler Scheduled Job Start: erpnext.healthcare.doctype.patient_appointment.patient_appointment.send_appointment_reminder for newbench.new
2021-12-24 15:24:46,953 INFO scheduler Scheduled Job Complete: erpnext.healthcare.doctype.patient_appointment.patient_appointment.send_appointment_reminder for newbench.new
2021-12-24 15:24:47,112 INFO scheduler Scheduled Job Start: erpnext.projects.doctype.project.project.project_status_update_reminder for newbench.new
2021-12-24 15:24:47,879 INFO scheduler Scheduled Job Complete: erpnext.projects.doctype.project.project.project_status_update_reminder for newbench.new
2021-12-24 15:24:48,031 INFO scheduler Scheduled Job Start: frappe.monitor.flush for newbench.new
2021-12-24 15:24:48,530 INFO scheduler Scheduled Job Complete: frappe.monitor.flush for newbench.new
2021-12-24 15:24:48,688 INFO scheduler Scheduled Job Start: frappe.utils.global_search.sync_global_search for newbench.new
2021-12-24 15:24:49,236 INFO scheduler Scheduled Job Complete: frappe.utils.global_search.sync_global_search for newbench.new
2021-12-24 15:24:49,389 INFO scheduler Scheduled Job Start: frappe.integrations.doctype.razorpay_settings.razorpay_settings.capture_payment for newbench.new
2021-12-24 15:24:50,089 INFO scheduler Scheduled Job Complete: frappe.integrations.doctype.razorpay_settings.razorpay_settings.capture_payment for newbench.new
2021-12-24 15:24:50,247 INFO scheduler Scheduled Job Start: frappe.email.doctype.email_account.email_account.notify_unreplied for newbench.new
2021-12-24 15:24:50,898 INFO scheduler Scheduled Job Complete: frappe.email.doctype.email_account.email_account.notify_unreplied for newbench.new
2021-12-24 15:24:51,063 INFO scheduler Scheduled Job Start: frappe.email.doctype.email_account.email_account.pull for newbench.new
2021-12-24 15:24:51,750 INFO scheduler Scheduled Job Complete: frappe.email.doctype.email_account.email_account.pull for newbench.new
2021-12-24 15:24:51,903 INFO scheduler Scheduled Job Start: frappe.email.queue.flush for newbench.new
2021-12-24 15:24:52,365 INFO scheduler Scheduled Job Complete: frappe.email.queue.flush for newbench.new
2021-12-24 15:25:46,013 DEBUG scheduler Queued events for site newbench.new
2021-12-24 15:26:46,768 DEBUG scheduler Queued events for site newbench.new
2021-12-24 15:27:47,533 DEBUG scheduler Queued events for site newbench.new
2021-12-24 15:28:48,171 INFO scheduler Scheduled Job Start: erpnext.crm.doctype.social_media_post.social_media_post.process_scheduled_social_media_posts for newbench.new
2021-12-24 15:28:48,394 DEBUG scheduler Queued events for site newbench.new
2021-12-24 15:28:48,953 INFO scheduler Scheduled Job Complete: erpnext.crm.doctype.social_media_post.social_media_post.process_scheduled_social_media_posts for newbench.new
2021-12-24 15:28:49,144 INFO scheduler Scheduled Job Start: erpnext.hr.doctype.interview.interview.send_interview_reminder for newbench.new
2021-12-24 15:28:49,753 INFO scheduler Scheduled Job Complete: erpnext.hr.doctype.interview.interview.send_interview_reminder for newbench.new
2021-12-24 15:28:49,939 INFO scheduler Scheduled Job Start: erpnext.healthcare.doctype.patient_appointment.patient_appointment.send_appointment_reminder for newbench.new
2021-12-24 15:28:50,566 INFO scheduler Scheduled Job Complete: erpnext.healthcare.doctype.patient_appointment.patient_appointment.send_appointment_reminder for newbench.new
2021-12-24 15:28:50,752 INFO scheduler Scheduled Job Start: erpnext.projects.doctype.project.project.project_status_update_reminder for newbench.new
2021-12-24 15:28:51,574 INFO scheduler Scheduled Job Complete: erpnext.projects.doctype.project.project.project_status_update_reminder for newbench.new
2021-12-24 15:28:51,760 INFO scheduler Scheduled Job Start: frappe.monitor.flush for newbench.new
2021-12-24 15:28:52,254 INFO scheduler Scheduled Job Complete: frappe.monitor.flush for newbench.new
2021-12-24 15:28:52,428 INFO scheduler Scheduled Job Start: frappe.utils.global_search.sync_global_search for newbench.new
2021-12-24 15:28:52,930 INFO scheduler Scheduled Job Complete: frappe.utils.global_search.sync_global_search for newbench.new
2021-12-24 15:28:53,106 INFO scheduler Scheduled Job Start: frappe.integrations.doctype.razorpay_settings.razorpay_settings.capture_payment for newbench.new
2021-12-24 15:28:53,925 INFO scheduler Scheduled Job Complete: frappe.integrations.doctype.razorpay_settings.razorpay_settings.capture_payment for newbench.new
2021-12-24 15:28:54,109 INFO scheduler Scheduled Job Start: frappe.email.doctype.email_account.email_account.notify_unreplied for newbench.new
2021-12-24 15:28:54,842 INFO scheduler Scheduled Job Complete: frappe.email.doctype.email_account.email_account.notify_unreplied for newbench.new
2021-12-24 15:28:55,017 INFO scheduler Scheduled Job Start: frappe.email.doctype.email_account.email_account.pull for newbench.new
2021-12-24 15:28:55,705 INFO scheduler Scheduled Job Complete: frappe.email.doctype.email_account.email_account.pull for newbench.new
2021-12-24 15:28:55,881 INFO scheduler Scheduled Job Start: frappe.email.queue.flush for newbench.new
2021-12-24 15:28:56,498 INFO scheduler Scheduled Job Complete: frappe.email.queue.flush for newbench.new
2021-12-24 15:29:49,146 DEBUG scheduler Queued events for site newbench.new
2021-12-24 15:30:49,876 DEBUG scheduler Queued events for site newbench.new
2021-12-24 15:30:49,916 INFO scheduler Scheduled Job Start: erpnext.utilities.doctype.video.video.update_youtube_data for newbench.new
2021-12-24 15:30:52,903 INFO scheduler Scheduled Job Complete: erpnext.utilities.doctype.video.video.update_youtube_data for newbench.new
2021-12-24 15:30:53,128 INFO scheduler Scheduled Job Start: frappe.twofactor.delete_all_barcodes_for_users for newbench.new
2021-12-24 15:30:54,111 INFO scheduler Scheduled Job Complete: frappe.twofactor.delete_all_barcodes_for_users for newbench.new
2021-12-24 15:30:54,480 INFO scheduler Scheduled Job Start: frappe.website.doctype.web_page.web_page.check_publish_status for newbench.new
2021-12-24 15:30:55,564 INFO scheduler Scheduled Job Complete: frappe.website.doctype.web_page.web_page.check_publish_status for newbench.new
2021-12-24 15:30:55,838 INFO scheduler Scheduled Job Start: frappe.oauth.delete_oauth2_data for newbench.new
2021-12-24 15:30:56,683 INFO scheduler Scheduled Job Complete: frappe.oauth.delete_oauth2_data for newbench.new
2021-12-24 15:31:50,559 DEBUG scheduler Queued events for site newbench.new
2021-12-24 15:32:51,162 INFO scheduler Scheduled Job Start: erpnext.crm.doctype.social_media_post.social_media_post.process_scheduled_social_media_posts for newbench.new
2021-12-24 15:32:51,355 DEBUG scheduler Queued events for site newbench.new
2021-12-24 15:32:51,693 INFO scheduler Scheduled Job Complete: erpnext.crm.doctype.social_media_post.social_media_post.process_scheduled_social_media_posts for newbench.new
2021-12-24 15:32:51,852 INFO scheduler Scheduled Job Start: erpnext.hr.doctype.interview.interview.send_interview_reminder for newbench.new
2021-12-24 15:32:52,404 INFO scheduler Scheduled Job Complete: erpnext.hr.doctype.interview.interview.send_interview_reminder for newbench.new
2021-12-24 15:32:52,555 INFO scheduler Scheduled Job Start: erpnext.healthcare.doctype.patient_appointment.patient_appointment.send_appointment_reminder for newbench.new
2021-12-24 15:32:53,039 INFO scheduler Scheduled Job Complete: erpnext.healthcare.doctype.patient_appointment.patient_appointment.send_appointment_reminder for newbench.new
2021-12-24 15:32:53,192 INFO scheduler Scheduled Job Start: erpnext.projects.doctype.project.project.project_status_update_reminder for newbench.new
2021-12-24 15:32:54,025 INFO scheduler Scheduled Job Complete: erpnext.projects.doctype.project.project.project_status_update_reminder for newbench.new
2021-12-24 15:32:54,184 INFO scheduler Scheduled Job Start: frappe.monitor.flush for newbench.new
2021-12-24 15:32:54,675 INFO scheduler Scheduled Job Complete: frappe.monitor.flush for newbench.new
2021-12-24 15:32:54,831 INFO scheduler Scheduled Job Start: frappe.utils.global_search.sync_global_search for newbench.new
2021-12-24 15:32:55,270 INFO scheduler Scheduled Job Complete: frappe.utils.global_search.sync_global_search for newbench.new
2021-12-24 15:32:55,432 INFO scheduler Scheduled Job Start: frappe.integrations.doctype.razorpay_settings.razorpay_settings.capture_payment for newbench.new
2021-12-24 15:32:56,132 INFO scheduler Scheduled Job Complete: frappe.integrations.doctype.razorpay_settings.razorpay_settings.capture_payment for newbench.new
2021-12-24 15:32:56,283 INFO scheduler Scheduled Job Start: frappe.email.doctype.email_account.email_account.notify_unreplied for newbench.new
2021-12-24 15:32:56,837 INFO scheduler Scheduled Job Complete: frappe.email.doctype.email_account.email_account.notify_unreplied for newbench.new
2021-12-24 15:32:56,988 INFO scheduler Scheduled Job Start: frappe.email.doctype.email_account.email_account.pull for newbench.new
2021-12-24 15:32:57,698 INFO scheduler Scheduled Job Complete: frappe.email.doctype.email_account.email_account.pull for newbench.new
2021-12-24 15:32:57,858 INFO scheduler Scheduled Job Start: frappe.email.queue.flush for newbench.new
2021-12-24 15:32:58,326 INFO scheduler Scheduled Job Complete: frappe.email.queue.flush for newbench.new
2021-12-24 15:33:52,051 DEBUG scheduler Queued events for site newbench.new
2021-12-24 15:34:52,731 DEBUG scheduler Queued events for site newbench.new
2021-12-24 15:35:53,423 DEBUG scheduler Queued events for site newbench.new
2021-12-24 15:36:54,024 INFO scheduler Scheduled Job Start: erpnext.crm.doctype.social_media_post.social_media_post.process_scheduled_social_media_posts for newbench.new
2021-12-24 15:36:54,252 DEBUG scheduler Queued events for site newbench.new
2021-12-24 15:36:54,655 INFO scheduler Scheduled Job Complete: erpnext.crm.doctype.social_media_post.social_media_post.process_scheduled_social_media_posts for newbench.new
2021-12-24 15:36:54,815 INFO scheduler Scheduled Job Start: erpnext.hr.doctype.interview.interview.send_interview_reminder for newbench.new
2021-12-24 15:36:55,408 INFO scheduler Scheduled Job Complete: erpnext.hr.doctype.interview.interview.send_interview_reminder for newbench.new
2021-12-24 15:36:55,583 INFO scheduler Scheduled Job Start: erpnext.healthcare.doctype.patient_appointment.patient_appointment.send_appointment_reminder for newbench.new
2021-12-24 15:36:56,218 INFO scheduler Scheduled Job Complete: erpnext.healthcare.doctype.patient_appointment.patient_appointment.send_appointment_reminder for newbench.new
2021-12-24 15:36:56,391 INFO scheduler Scheduled Job Start: erpnext.projects.doctype.project.project.project_status_update_reminder for newbench.new
2021-12-24 15:36:57,128 INFO scheduler Scheduled Job Complete: erpnext.projects.doctype.project.project.project_status_update_reminder for newbench.new
2021-12-24 15:36:57,284 INFO scheduler Scheduled Job Start: frappe.monitor.flush for newbench.new
2021-12-24 15:36:57,853 INFO scheduler Scheduled Job Complete: frappe.monitor.flush for newbench.new
2021-12-24 15:36:58,021 INFO scheduler Scheduled Job Start: frappe.utils.global_search.sync_global_search for newbench.new
2021-12-24 15:36:58,592 INFO scheduler Scheduled Job Complete: frappe.utils.global_search.sync_global_search for newbench.new
2021-12-24 15:36:58,765 INFO scheduler Scheduled Job Start: frappe.integrations.doctype.razorpay_settings.razorpay_settings.capture_payment for newbench.new
2021-12-24 15:36:59,635 INFO scheduler Scheduled Job Complete: frappe.integrations.doctype.razorpay_settings.razorpay_settings.capture_payment for newbench.new
2021-12-24 15:36:59,822 INFO scheduler Scheduled Job Start: frappe.email.doctype.email_account.email_account.notify_unreplied for newbench.new
2021-12-24 15:37:00,401 INFO scheduler Scheduled Job Complete: frappe.email.doctype.email_account.email_account.notify_unreplied for newbench.new
2021-12-24 15:37:00,551 INFO scheduler Scheduled Job Start: frappe.email.doctype.email_account.email_account.pull for newbench.new
2021-12-24 15:37:01,174 INFO scheduler Scheduled Job Complete: frappe.email.doctype.email_account.email_account.pull for newbench.new
2021-12-24 15:37:01,329 INFO scheduler Scheduled Job Start: frappe.email.queue.flush for newbench.new
2021-12-24 15:37:01,808 INFO scheduler Scheduled Job Complete: frappe.email.queue.flush for newbench.new
2021-12-24 15:37:54,988 DEBUG scheduler Queued events for site newbench.new
2021-12-24 15:38:55,665 DEBUG scheduler Queued events for site newbench.new
2021-12-24 15:39:56,329 DEBUG scheduler Queued events for site newbench.new
2021-12-24 15:40:56,932 INFO scheduler Scheduled Job Start: erpnext.crm.doctype.social_media_post.social_media_post.process_scheduled_social_media_posts for newbench.new
2021-12-24 15:40:57,127 DEBUG scheduler Queued events for site newbench.new
2021-12-24 15:40:57,518 INFO scheduler Scheduled Job Complete: erpnext.crm.doctype.social_media_post.social_media_post.process_scheduled_social_media_posts for newbench.new
2021-12-24 15:40:57,675 INFO scheduler Scheduled Job Start: erpnext.hr.doctype.interview.interview.send_interview_reminder for newbench.new
2021-12-24 15:40:58,218 INFO scheduler Scheduled Job Complete: erpnext.hr.doctype.interview.interview.send_interview_reminder for newbench.new
2021-12-24 15:40:58,370 INFO scheduler Scheduled Job Start: erpnext.healthcare.doctype.patient_appointment.patient_appointment.send_appointment_reminder for newbench.new
2021-12-24 15:40:58,942 INFO scheduler Scheduled Job Complete: erpnext.healthcare.doctype.patient_appointment.patient_appointment.send_appointment_reminder for newbench.new
2021-12-24 15:40:59,096 INFO scheduler Scheduled Job Start: erpnext.projects.doctype.project.project.project_status_update_reminder for newbench.new
2021-12-24 15:40:59,799 INFO scheduler Scheduled Job Complete: erpnext.projects.doctype.project.project.project_status_update_reminder for newbench.new
2021-12-24 15:40:59,948 INFO scheduler Scheduled Job Start: frappe.monitor.flush for newbench.new
2021-12-24 15:41:00,465 INFO scheduler Scheduled Job Complete: frappe.monitor.flush for newbench.new
2021-12-24 15:41:00,622 INFO scheduler Scheduled Job Start: frappe.utils.global_search.sync_global_search for newbench.new
2021-12-24 15:41:01,031 INFO scheduler Scheduled Job Complete: frappe.utils.global_search.sync_global_search for newbench.new
2021-12-24 15:41:01,189 INFO scheduler Scheduled Job Start: frappe.integrations.doctype.razorpay_settings.razorpay_settings.capture_payment for newbench.new
2021-12-24 15:41:02,031 INFO scheduler Scheduled Job Complete: frappe.integrations.doctype.razorpay_settings.razorpay_settings.capture_payment for newbench.new
2021-12-24 15:41:02,183 INFO scheduler Scheduled Job Start: frappe.email.doctype.email_account.email_account.notify_unreplied for newbench.new
2021-12-24 15:41:02,789 INFO scheduler Scheduled Job Complete: frappe.email.doctype.email_account.email_account.notify_unreplied for newbench.new
2021-12-24 15:41:02,943 INFO scheduler Scheduled Job Start: frappe.email.doctype.email_account.email_account.pull for newbench.new
2021-12-24 15:41:03,629 INFO scheduler Scheduled Job Complete: frappe.email.doctype.email_account.email_account.pull for newbench.new
2021-12-24 15:41:03,797 INFO scheduler Scheduled Job Start: frappe.email.queue.flush for newbench.new
2021-12-24 15:41:04,373 INFO scheduler Scheduled Job Complete: frappe.email.queue.flush for newbench.new
2021-12-24 15:41:57,816 DEBUG scheduler Queued events for site newbench.new
2021-12-24 15:42:58,546 DEBUG scheduler Queued events for site newbench.new
2021-12-24 15:43:59,224 DEBUG scheduler Queued events for site newbench.new
2021-12-24 15:44:59,829 INFO scheduler Scheduled Job Start: erpnext.crm.doctype.social_media_post.social_media_post.process_scheduled_social_media_posts for newbench.new
2021-12-24 15:45:00,052 DEBUG scheduler Queued events for site newbench.new
2021-12-24 15:45:00,428 INFO scheduler Scheduled Job Complete: erpnext.crm.doctype.social_media_post.social_media_post.process_scheduled_social_media_posts for newbench.new
2021-12-24 15:45:00,586 INFO scheduler Scheduled Job Start: erpnext.hr.doctype.interview.interview.send_interview_reminder for newbench.new
2021-12-24 15:45:01,141 INFO scheduler Scheduled Job Complete: erpnext.hr.doctype.interview.interview.send_interview_reminder for newbench.new
2021-12-24 15:45:01,294 INFO scheduler Scheduled Job Start: erpnext.healthcare.doctype.patient_appointment.patient_appointment.send_appointment_reminder for newbench.new
2021-12-24 15:45:01,796 INFO scheduler Scheduled Job Complete: erpnext.healthcare.doctype.patient_appointment.patient_appointment.send_appointment_reminder for newbench.new
2021-12-24 15:45:01,950 INFO scheduler Scheduled Job Start: erpnext.projects.doctype.project.project.project_status_update_reminder for newbench.new
2021-12-24 15:45:02,726 INFO scheduler Scheduled Job Complete: erpnext.projects.doctype.project.project.project_status_update_reminder for newbench.new
2021-12-24 15:45:02,880 INFO scheduler Scheduled Job Start: frappe.monitor.flush for newbench.new
2021-12-24 15:45:03,299 INFO scheduler Scheduled Job Complete: frappe.monitor.flush for newbench.new
2021-12-24 15:45:03,454 INFO scheduler Scheduled Job Start: frappe.utils.global_search.sync_global_search for newbench.new
2021-12-24 15:45:03,919 INFO scheduler Scheduled Job Complete: frappe.utils.global_search.sync_global_search for newbench.new
2021-12-24 15:45:04,070 INFO scheduler Scheduled Job Start: frappe.integrations.doctype.razorpay_settings.razorpay_settings.capture_payment for newbench.new
2021-12-24 15:45:04,827 INFO scheduler Scheduled Job Complete: frappe.integrations.doctype.razorpay_settings.razorpay_settings.capture_payment for newbench.new
2021-12-24 15:45:04,986 INFO scheduler Scheduled Job Start: frappe.email.doctype.email_account.email_account.notify_unreplied for newbench.new
2021-12-24 15:45:05,552 INFO scheduler Scheduled Job Complete: frappe.email.doctype.email_account.email_account.notify_unreplied for newbench.new
2021-12-24 15:45:05,706 INFO scheduler Scheduled Job Start: frappe.email.doctype.email_account.email_account.pull for newbench.new
2021-12-24 15:45:06,642 INFO scheduler Scheduled Job Complete: frappe.email.doctype.email_account.email_account.pull for newbench.new
2021-12-24 15:45:06,820 INFO scheduler Scheduled Job Start: frappe.email.queue.flush for newbench.new
2021-12-24 15:45:07,365 INFO scheduler Scheduled Job Complete: frappe.email.queue.flush for newbench.new
2021-12-24 15:45:07,522 INFO scheduler Scheduled Job Start: frappe.twofactor.delete_all_barcodes_for_users for newbench.new
2021-12-24 15:45:08,409 INFO scheduler Scheduled Job Complete: frappe.twofactor.delete_all_barcodes_for_users for newbench.new
2021-12-24 15:45:08,703 INFO scheduler Scheduled Job Start: frappe.website.doctype.web_page.web_page.check_publish_status for newbench.new
2021-12-24 15:45:09,662 INFO scheduler Scheduled Job Complete: frappe.website.doctype.web_page.web_page.check_publish_status for newbench.new
2021-12-24 15:45:09,884 INFO scheduler Scheduled Job Start: frappe.oauth.delete_oauth2_data for newbench.new
2021-12-24 15:45:10,673 INFO scheduler Scheduled Job Complete: frappe.oauth.delete_oauth2_data for newbench.new
2021-12-24 15:46:00,708 DEBUG scheduler Queued events for site newbench.new
2021-12-24 15:47:01,401 DEBUG scheduler Queued events for site newbench.new
2021-12-24 15:48:02,023 INFO scheduler Scheduled Job Start: erpnext.crm.doctype.social_media_post.social_media_post.process_scheduled_social_media_posts for newbench.new
2021-12-24 15:48:02,214 DEBUG scheduler Queued events for site newbench.new
2021-12-24 15:48:02,561 INFO scheduler Scheduled Job Complete: erpnext.crm.doctype.social_media_post.social_media_post.process_scheduled_social_media_posts for newbench.new
2021-12-24 15:48:02,720 INFO scheduler Scheduled Job Start: erpnext.hr.doctype.interview.interview.send_interview_reminder for newbench.new
2021-12-24 15:48:03,343 INFO scheduler Scheduled Job Complete: erpnext.hr.doctype.interview.interview.send_interview_reminder for newbench.new
2021-12-24 15:48:03,498 INFO scheduler Scheduled Job Start: erpnext.healthcare.doctype.patient_appointment.patient_appointment.send_appointment_reminder for newbench.new
2021-12-24 15:48:03,966 INFO scheduler Scheduled Job Complete: erpnext.healthcare.doctype.patient_appointment.patient_appointment.send_appointment_reminder for newbench.new
2021-12-24 15:48:04,120 INFO scheduler Scheduled Job Start: erpnext.projects.doctype.project.project.project_status_update_reminder for newbench.new
2021-12-24 15:48:04,832 INFO scheduler Scheduled Job Complete: erpnext.projects.doctype.project.project.project_status_update_reminder for newbench.new
2021-12-24 15:48:04,983 INFO scheduler Scheduled Job Start: frappe.monitor.flush for newbench.new
2021-12-24 15:48:05,529 INFO scheduler Scheduled Job Complete: frappe.monitor.flush for newbench.new
2021-12-24 15:48:05,686 INFO scheduler Scheduled Job Start: frappe.utils.global_search.sync_global_search for newbench.new
2021-12-24 15:48:06,124 INFO scheduler Scheduled Job Complete: frappe.utils.global_search.sync_global_search for newbench.new
2021-12-24 15:48:06,283 INFO scheduler Scheduled Job Start: frappe.integrations.doctype.razorpay_settings.razorpay_settings.capture_payment for newbench.new
2021-12-24 15:48:07,047 INFO scheduler Scheduled Job Complete: frappe.integrations.doctype.razorpay_settings.razorpay_settings.capture_payment for newbench.new
2021-12-24 15:48:07,200 INFO scheduler Scheduled Job Start: frappe.email.doctype.email_account.email_account.notify_unreplied for newbench.new
2021-12-24 15:48:07,770 INFO scheduler Scheduled Job Complete: frappe.email.doctype.email_account.email_account.notify_unreplied for newbench.new
2021-12-24 15:48:07,928 INFO scheduler Scheduled Job Start: frappe.email.doctype.email_account.email_account.pull for newbench.new
2021-12-24 15:48:08,537 INFO scheduler Scheduled Job Complete: frappe.email.doctype.email_account.email_account.pull for newbench.new
2021-12-24 15:48:08,694 INFO scheduler Scheduled Job Start: frappe.email.queue.flush for newbench.new
2021-12-24 15:48:09,229 INFO scheduler Scheduled Job Complete: frappe.email.queue.flush for newbench.new
2021-12-24 15:49:02,903 DEBUG scheduler Queued events for site newbench.new
2021-12-24 15:50:03,606 DEBUG scheduler Queued events for site newbench.new
2021-12-24 15:51:04,324 DEBUG scheduler Queued events for site newbench.new
2021-12-24 15:52:04,917 INFO scheduler Scheduled Job Start: erpnext.crm.doctype.social_media_post.social_media_post.process_scheduled_social_media_posts for newbench.new
2021-12-24 15:52:05,107 DEBUG scheduler Queued events for site newbench.new
2021-12-24 15:52:05,515 INFO scheduler Scheduled Job Complete: erpnext.crm.doctype.social_media_post.social_media_post.process_scheduled_social_media_posts for newbench.new
2021-12-24 15:52:05,671 INFO scheduler Scheduled Job Start: erpnext.hr.doctype.interview.interview.send_interview_reminder for newbench.new
2021-12-24 15:52:06,288 INFO scheduler Scheduled Job Complete: erpnext.hr.doctype.interview.interview.send_interview_reminder for newbench.new
2021-12-24 15:52:06,444 INFO scheduler Scheduled Job Start: erpnext.healthcare.doctype.patient_appointment.patient_appointment.send_appointment_reminder for newbench.new
2021-12-24 15:52:06,906 INFO scheduler Scheduled Job Complete: erpnext.healthcare.doctype.patient_appointment.patient_appointment.send_appointment_reminder for newbench.new
2021-12-24 15:52:07,060 INFO scheduler Scheduled Job Start: erpnext.projects.doctype.project.project.project_status_update_reminder for newbench.new
2021-12-24 15:52:07,868 INFO scheduler Scheduled Job Complete: erpnext.projects.doctype.project.project.project_status_update_reminder for newbench.new
2021-12-24 15:52:08,020 INFO scheduler Scheduled Job Start: frappe.monitor.flush for newbench.new
2021-12-24 15:52:08,560 INFO scheduler Scheduled Job Complete: frappe.monitor.flush for newbench.new
2021-12-24 15:52:08,724 INFO scheduler Scheduled Job Start: frappe.utils.global_search.sync_global_search for newbench.new
2021-12-24 15:52:09,137 INFO scheduler Scheduled Job Complete: frappe.utils.global_search.sync_global_search for newbench.new
2021-12-24 15:52:09,296 INFO scheduler Scheduled Job Start: frappe.integrations.doctype.razorpay_settings.razorpay_settings.capture_payment for newbench.new
2021-12-24 15:52:10,087 INFO scheduler Scheduled Job Complete: frappe.integrations.doctype.razorpay_settings.razorpay_settings.capture_payment for newbench.new
2021-12-24 15:52:10,248 INFO scheduler Scheduled Job Start: frappe.email.doctype.email_account.email_account.notify_unreplied for newbench.new
2021-12-24 15:52:11,092 INFO scheduler Scheduled Job Complete: frappe.email.doctype.email_account.email_account.notify_unreplied for newbench.new
2021-12-24 15:52:11,243 INFO scheduler Scheduled Job Start: frappe.email.doctype.email_account.email_account.pull for newbench.new
2021-12-24 15:52:11,922 INFO scheduler Scheduled Job Complete: frappe.email.doctype.email_account.email_account.pull for newbench.new
2021-12-24 15:52:12,078 INFO scheduler Scheduled Job Start: frappe.email.queue.flush for newbench.new
2021-12-24 15:52:12,518 INFO scheduler Scheduled Job Complete: frappe.email.queue.flush for newbench.new
2021-12-24 15:53:05,795 DEBUG scheduler Queued events for site newbench.new
2021-12-24 15:54:06,475 DEBUG scheduler Queued events for site newbench.new
2021-12-24 15:55:07,185 DEBUG scheduler Queued events for site newbench.new
2021-12-24 15:56:07,792 INFO scheduler Scheduled Job Start: erpnext.crm.doctype.social_media_post.social_media_post.process_scheduled_social_media_posts for newbench.new
2021-12-24 15:56:07,990 DEBUG scheduler Queued events for site newbench.new
2021-12-24 15:56:08,397 INFO scheduler Scheduled Job Complete: erpnext.crm.doctype.social_media_post.social_media_post.process_scheduled_social_media_posts for newbench.new
2021-12-24 15:56:08,549 INFO scheduler Scheduled Job Start: erpnext.hr.doctype.interview.interview.send_interview_reminder for newbench.new
2021-12-24 15:56:09,190 INFO scheduler Scheduled Job Complete: erpnext.hr.doctype.interview.interview.send_interview_reminder for newbench.new
2021-12-24 15:56:09,339 INFO scheduler Scheduled Job Start: erpnext.healthcare.doctype.patient_appointment.patient_appointment.send_appointment_reminder for newbench.new
2021-12-24 15:56:09,806 INFO scheduler Scheduled Job Complete: erpnext.healthcare.doctype.patient_appointment.patient_appointment.send_appointment_reminder for newbench.new
2021-12-24 15:56:09,957 INFO scheduler Scheduled Job Start: erpnext.projects.doctype.project.project.project_status_update_reminder for newbench.new
2021-12-24 15:56:10,761 INFO scheduler Scheduled Job Complete: erpnext.projects.doctype.project.project.project_status_update_reminder for newbench.new
2021-12-24 15:56:10,919 INFO scheduler Scheduled Job Start: frappe.monitor.flush for newbench.new
2021-12-24 15:56:11,413 INFO scheduler Scheduled Job Complete: frappe.monitor.flush for newbench.new
2021-12-24 15:56:11,572 INFO scheduler Scheduled Job Start: frappe.utils.global_search.sync_global_search for newbench.new
2021-12-24 15:56:11,980 INFO scheduler Scheduled Job Complete: frappe.utils.global_search.sync_global_search for newbench.new
2021-12-24 15:56:12,134 INFO scheduler Scheduled Job Start: frappe.integrations.doctype.razorpay_settings.razorpay_settings.capture_payment for newbench.new
2021-12-24 15:56:12,921 INFO scheduler Scheduled Job Complete: frappe.integrations.doctype.razorpay_settings.razorpay_settings.capture_payment for newbench.new
2021-12-24 15:56:13,072 INFO scheduler Scheduled Job Start: frappe.email.doctype.email_account.email_account.notify_unreplied for newbench.new
2021-12-24 15:56:13,746 INFO scheduler Scheduled Job Complete: frappe.email.doctype.email_account.email_account.notify_unreplied for newbench.new
2021-12-24 15:56:13,899 INFO scheduler Scheduled Job Start: frappe.email.doctype.email_account.email_account.pull for newbench.new
2021-12-24 15:56:14,589 INFO scheduler Scheduled Job Complete: frappe.email.doctype.email_account.email_account.pull for newbench.new
2021-12-24 15:56:14,743 INFO scheduler Scheduled Job Start: frappe.email.queue.flush for newbench.new
2021-12-24 15:56:15,188 INFO scheduler Scheduled Job Complete: frappe.email.queue.flush for newbench.new
2021-12-24 15:57:08,693 DEBUG scheduler Queued events for site newbench.new
2021-12-24 15:58:09,393 DEBUG scheduler Queued events for site newbench.new
2021-12-24 15:59:10,072 DEBUG scheduler Queued events for site newbench.new
2021-12-24 16:00:10,627 INFO scheduler Scheduled Job Start: erpnext.erpnext_integrations.connectors.shopify_connection.sync_old_orders for newbench.new
2021-12-24 16:00:11,376 DEBUG scheduler Queued events for site newbench.new
2021-12-24 16:00:14,930 INFO scheduler Scheduled Job Complete: erpnext.erpnext_integrations.connectors.shopify_connection.sync_old_orders for newbench.new
2021-12-24 16:00:15,175 INFO scheduler Scheduled Job Start: erpnext.support.doctype.issue.issue.set_service_level_agreement_variance for newbench.new
2021-12-24 16:00:15,691 INFO scheduler Scheduled Job Start: erpnext.stock.doctype.repost_item_valuation.repost_item_valuation.repost_entries for newbench.new
2021-12-24 16:00:16,000 INFO scheduler Scheduled Job Complete: erpnext.support.doctype.issue.issue.set_service_level_agreement_variance for newbench.new
2021-12-24 16:00:16,274 INFO scheduler Scheduled Job Start: erpnext.hr.doctype.shift_type.shift_type.process_auto_attendance_for_all_shifts for newbench.new
2021-12-24 16:00:16,827 INFO scheduler Scheduled Job Complete: erpnext.stock.doctype.repost_item_valuation.repost_item_valuation.repost_entries for newbench.new
2021-12-24 16:00:18,006 INFO scheduler Scheduled Job Complete: erpnext.hr.doctype.shift_type.shift_type.process_auto_attendance_for_all_shifts for newbench.new
2021-12-24 16:00:18,275 INFO scheduler Scheduled Job Start: erpnext.projects.doctype.project.project.collect_project_status for newbench.new
2021-12-24 16:00:19,136 INFO scheduler Scheduled Job Complete: erpnext.projects.doctype.project.project.collect_project_status for newbench.new
2021-12-24 16:00:19,448 INFO scheduler Scheduled Job Start: erpnext.projects.doctype.project.project.hourly_reminder for newbench.new
2021-12-24 16:00:20,522 INFO scheduler Scheduled Job Complete: erpnext.projects.doctype.project.project.hourly_reminder for newbench.new
2021-12-24 16:00:20,808 INFO scheduler Scheduled Job Start: erpnext.erpnext_integrations.doctype.plaid_settings.plaid_settings.automatic_synchronization for newbench.new
2021-12-24 16:00:22,153 INFO scheduler Scheduled Job Complete: erpnext.erpnext_integrations.doctype.plaid_settings.plaid_settings.automatic_synchronization for newbench.new
2021-12-24 16:00:22,454 INFO scheduler Scheduled Job Start: erpnext.accounts.doctype.gl_entry.gl_entry.rename_gle_sle_docs for newbench.new
2021-12-24 16:00:24,019 INFO scheduler Scheduled Job Complete: erpnext.accounts.doctype.gl_entry.gl_entry.rename_gle_sle_docs for newbench.new
2021-12-24 16:00:24,249 INFO scheduler Scheduled Job Start: erpnext.erpnext_integrations.doctype.amazon_mws_settings.amazon_mws_settings.schedule_get_order_details for newbench.new
2021-12-24 16:00:25,410 INFO scheduler Scheduled Job Complete: erpnext.erpnext_integrations.doctype.amazon_mws_settings.amazon_mws_settings.schedule_get_order_details for newbench.new
2021-12-24 16:00:25,672 INFO scheduler Scheduled Job Start: erpnext.accounts.doctype.subscription.subscription.process_all for newbench.new
2021-12-24 16:00:26,629 INFO scheduler Scheduled Job Complete: erpnext.accounts.doctype.subscription.subscription.process_all for newbench.new
2021-12-24 16:00:26,915 INFO scheduler Scheduled Job Start: erpnext.hr.doctype.daily_work_summary_group.daily_work_summary_group.trigger_emails for newbench.new
2021-12-24 16:00:28,124 INFO scheduler Scheduled Job Complete: erpnext.hr.doctype.daily_work_summary_group.daily_work_summary_group.trigger_emails for newbench.new
2021-12-24 16:00:28,432 INFO scheduler Scheduled Job Start: erpnext.crm.doctype.social_media_post.social_media_post.process_scheduled_social_media_posts for newbench.new
2021-12-24 16:00:29,111 INFO scheduler Scheduled Job Complete: erpnext.crm.doctype.social_media_post.social_media_post.process_scheduled_social_media_posts for newbench.new
2021-12-24 16:00:29,299 INFO scheduler Scheduled Job Start: erpnext.hr.doctype.interview.interview.send_interview_reminder for newbench.new
2021-12-24 16:00:29,890 INFO scheduler Scheduled Job Complete: erpnext.hr.doctype.interview.interview.send_interview_reminder for newbench.new
2021-12-24 16:00:30,094 INFO scheduler Scheduled Job Start: erpnext.healthcare.doctype.patient_appointment.patient_appointment.send_appointment_reminder for newbench.new
2021-12-24 16:00:30,625 INFO scheduler Scheduled Job Complete: erpnext.healthcare.doctype.patient_appointment.patient_appointment.send_appointment_reminder for newbench.new
2021-12-24 16:00:30,820 INFO scheduler Scheduled Job Start: erpnext.projects.doctype.project.project.project_status_update_reminder for newbench.new
2021-12-24 16:00:31,810 INFO scheduler Scheduled Job Complete: erpnext.projects.doctype.project.project.project_status_update_reminder for newbench.new
2021-12-24 16:00:32,001 INFO scheduler Scheduled Job Start: erpnext.utilities.doctype.video.video.update_youtube_data for newbench.new
2021-12-24 16:00:33,908 INFO scheduler Scheduled Job Failed: erpnext.utilities.doctype.video.video.update_youtube_data for newbench.new
2021-12-24 16:00:34,198 INFO scheduler Scheduled Job Start: frappe.email.doctype.newsletter.newsletter.send_scheduled_email for newbench.new
2021-12-24 16:00:35,023 INFO scheduler Scheduled Job Complete: frappe.email.doctype.newsletter.newsletter.send_scheduled_email for newbench.new
2021-12-24 16:00:35,248 INFO scheduler Scheduled Job Start: frappe.integrations.doctype.google_calendar.google_calendar.sync for newbench.new
2021-12-24 16:00:38,832 INFO scheduler Scheduled Job Complete: frappe.integrations.doctype.google_calendar.google_calendar.sync for newbench.new
2021-12-24 16:00:39,125 INFO scheduler Scheduled Job Start: frappe.desk.form.document_follow.send_hourly_updates for newbench.new
2021-12-24 16:00:39,843 INFO scheduler Scheduled Job Complete: frappe.desk.form.document_follow.send_hourly_updates for newbench.new
2021-12-24 16:00:40,060 INFO scheduler Scheduled Job Start: frappe.deferred_insert.save_to_db for newbench.new
2021-12-24 16:00:41,029 INFO scheduler Scheduled Job Complete: frappe.deferred_insert.save_to_db for newbench.new
2021-12-24 16:00:41,376 INFO scheduler Scheduled Job Start: frappe.desk.page.backups.backups.delete_downloadable_backups for newbench.new
2021-12-24 16:00:42,522 INFO scheduler Scheduled Job Complete: frappe.desk.page.backups.backups.delete_downloadable_backups for newbench.new
2021-12-24 16:00:42,748 INFO scheduler Scheduled Job Start: frappe.utils.error.collect_error_snapshots for newbench.new
2021-12-24 16:00:43,804 INFO scheduler Scheduled Job Complete: frappe.utils.error.collect_error_snapshots for newbench.new
2021-12-24 16:00:44,037 INFO scheduler Scheduled Job Start: frappe.model.utils.user_settings.sync_user_settings for newbench.new
2021-12-24 16:00:44,802 INFO scheduler Scheduled Job Complete: frappe.model.utils.user_settings.sync_user_settings for newbench.new
2021-12-24 16:00:45,024 INFO scheduler Scheduled Job Start: frappe.model.utils.link_count.update_link_count for newbench.new
2021-12-24 16:00:45,721 INFO scheduler Scheduled Job Complete: frappe.model.utils.link_count.update_link_count for newbench.new
2021-12-24 16:00:46,008 INFO scheduler Scheduled Job Start: frappe.monitor.flush for newbench.new
2021-12-24 16:00:46,423 INFO scheduler Scheduled Job Complete: frappe.monitor.flush for newbench.new
2021-12-24 16:00:46,579 INFO scheduler Scheduled Job Start: frappe.utils.global_search.sync_global_search for newbench.new
2021-12-24 16:00:46,987 INFO scheduler Scheduled Job Complete: frappe.utils.global_search.sync_global_search for newbench.new
2021-12-24 16:00:47,147 INFO scheduler Scheduled Job Start: frappe.integrations.doctype.razorpay_settings.razorpay_settings.capture_payment for newbench.new
2021-12-24 16:00:48,034 INFO scheduler Scheduled Job Complete: frappe.integrations.doctype.razorpay_settings.razorpay_settings.capture_payment for newbench.new
2021-12-24 16:00:48,194 INFO scheduler Scheduled Job Start: frappe.email.doctype.email_account.email_account.notify_unreplied for newbench.new
2021-12-24 16:00:48,802 INFO scheduler Scheduled Job Complete: frappe.email.doctype.email_account.email_account.notify_unreplied for newbench.new
2021-12-24 16:00:48,958 INFO scheduler Scheduled Job Start: frappe.email.doctype.email_account.email_account.pull for newbench.new
2021-12-24 16:00:49,568 INFO scheduler Scheduled Job Complete: frappe.email.doctype.email_account.email_account.pull for newbench.new
2021-12-24 16:00:49,724 INFO scheduler Scheduled Job Start: frappe.email.queue.flush for newbench.new
2021-12-24 16:00:50,220 INFO scheduler Scheduled Job Complete: frappe.email.queue.flush for newbench.new
2021-12-24 16:00:50,374 INFO scheduler Scheduled Job Start: frappe.twofactor.delete_all_barcodes_for_users for newbench.new
2021-12-24 16:00:51,160 INFO scheduler Scheduled Job Complete: frappe.twofactor.delete_all_barcodes_for_users for newbench.new
2021-12-24 16:00:51,474 INFO scheduler Scheduled Job Start: frappe.website.doctype.web_page.web_page.check_publish_status for newbench.new
2021-12-24 16:00:52,241 INFO scheduler Scheduled Job Complete: frappe.website.doctype.web_page.web_page.check_publish_status for newbench.new
2021-12-24 16:00:52,530 INFO scheduler Scheduled Job Start: frappe.oauth.delete_oauth2_data for newbench.new
2021-12-24 16:00:53,248 INFO scheduler Scheduled Job Complete: frappe.oauth.delete_oauth2_data for newbench.new
2021-12-24 16:01:12,052 DEBUG scheduler Queued events for site newbench.new
2021-12-24 16:02:12,850 DEBUG scheduler Queued events for site newbench.new
2021-12-24 16:03:13,632 DEBUG scheduler Queued events for site newbench.new
2021-12-24 16:04:14,339 INFO scheduler Scheduled Job Start: erpnext.crm.doctype.social_media_post.social_media_post.process_scheduled_social_media_posts for newbench.new
2021-12-24 16:04:14,601 DEBUG scheduler Queued events for site newbench.new
2021-12-24 16:04:15,209 INFO scheduler Scheduled Job Complete: erpnext.crm.doctype.social_media_post.social_media_post.process_scheduled_social_media_posts for newbench.new
2021-12-24 16:04:15,402 INFO scheduler Scheduled Job Start: erpnext.hr.doctype.interview.interview.send_interview_reminder for newbench.new
2021-12-24 16:04:16,129 INFO scheduler Scheduled Job Complete: erpnext.hr.doctype.interview.interview.send_interview_reminder for newbench.new
2021-12-24 16:04:16,312 INFO scheduler Scheduled Job Start: erpnext.healthcare.doctype.patient_appointment.patient_appointment.send_appointment_reminder for newbench.new
2021-12-24 16:04:16,859 INFO scheduler Scheduled Job Complete: erpnext.healthcare.doctype.patient_appointment.patient_appointment.send_appointment_reminder for newbench.new
2021-12-24 16:04:17,057 INFO scheduler Scheduled Job Start: erpnext.projects.doctype.project.project.project_status_update_reminder for newbench.new
2021-12-24 16:04:18,053 INFO scheduler Scheduled Job Complete: erpnext.projects.doctype.project.project.project_status_update_reminder for newbench.new
2021-12-24 16:04:18,235 INFO scheduler Scheduled Job Start: frappe.monitor.flush for newbench.new
2021-12-24 16:04:18,882 INFO scheduler Scheduled Job Complete: frappe.monitor.flush for newbench.new
2021-12-24 16:04:19,079 INFO scheduler Scheduled Job Start: frappe.utils.global_search.sync_global_search for newbench.new
2021-12-24 16:04:19,592 INFO scheduler Scheduled Job Complete: frappe.utils.global_search.sync_global_search for newbench.new
2021-12-24 16:04:19,787 INFO scheduler Scheduled Job Start: frappe.integrations.doctype.razorpay_settings.razorpay_settings.capture_payment for newbench.new
2021-12-24 16:04:20,771 INFO scheduler Scheduled Job Complete: frappe.integrations.doctype.razorpay_settings.razorpay_settings.capture_payment for newbench.new
2021-12-24 16:04:20,963 INFO scheduler Scheduled Job Start: frappe.email.doctype.email_account.email_account.notify_unreplied for newbench.new
2021-12-24 16:04:21,797 INFO scheduler Scheduled Job Complete: frappe.email.doctype.email_account.email_account.notify_unreplied for newbench.new
2021-12-24 16:04:21,983 INFO scheduler Scheduled Job Start: frappe.email.doctype.email_account.email_account.pull for newbench.new
