2021-12-22 20:29:09,844 DEBUG scheduler Queued events for site newbench.new
2021-12-22 20:29:12,486 INFO scheduler Scheduled Job Start: frappe.email.queue.flush for newbench.new
2021-12-22 20:29:13,098 INFO scheduler Scheduled Job Complete: frappe.email.queue.flush for newbench.new
2021-12-22 20:29:13,246 INFO scheduler Scheduled Job Start: frappe.twofactor.delete_all_barcodes_for_users for newbench.new
2021-12-22 20:29:15,179 INFO scheduler Scheduled Job Complete: frappe.twofactor.delete_all_barcodes_for_users for newbench.new
2021-12-22 20:29:15,440 INFO scheduler Scheduled Job Start: frappe.website.doctype.web_page.web_page.check_publish_status for newbench.new
2021-12-22 20:29:17,626 INFO scheduler Scheduled Job Complete: frappe.website.doctype.web_page.web_page.check_publish_status for newbench.new
2021-12-22 20:29:17,841 INFO scheduler Scheduled Job Start: frappe.oauth.delete_oauth2_data for newbench.new
2021-12-22 20:29:20,011 INFO scheduler Scheduled Job Complete: frappe.oauth.delete_oauth2_data for newbench.new
2021-12-22 20:30:11,178 INFO scheduler Scheduled Job Start: erpnext.utilities.doctype.video.video.update_youtube_data for newbench.new
2021-12-22 20:30:11,284 DEBUG scheduler Queued events for site newbench.new
2021-12-22 20:30:13,090 INFO scheduler Scheduled Job Complete: erpnext.utilities.doctype.video.video.update_youtube_data for newbench.new
2021-12-22 20:30:13,314 INFO scheduler Scheduled Job Start: frappe.twofactor.delete_all_barcodes_for_users for newbench.new
2021-12-22 20:30:14,095 INFO scheduler Scheduled Job Complete: frappe.twofactor.delete_all_barcodes_for_users for newbench.new
2021-12-22 20:30:14,322 INFO scheduler Scheduled Job Start: frappe.website.doctype.web_page.web_page.check_publish_status for newbench.new
2021-12-22 20:30:15,082 INFO scheduler Scheduled Job Complete: frappe.website.doctype.web_page.web_page.check_publish_status for newbench.new
2021-12-22 20:30:15,436 INFO scheduler Scheduled Job Start: frappe.oauth.delete_oauth2_data for newbench.new
2021-12-22 20:30:16,124 INFO scheduler Scheduled Job Complete: frappe.oauth.delete_oauth2_data for newbench.new
2021-12-22 20:31:11,947 DEBUG scheduler Queued events for site newbench.new
2021-12-22 20:32:12,546 INFO scheduler Scheduled Job Start: erpnext.crm.doctype.social_media_post.social_media_post.process_scheduled_social_media_posts for newbench.new
2021-12-22 20:32:12,750 DEBUG scheduler Queued events for site newbench.new
2021-12-22 20:32:13,297 INFO scheduler Scheduled Job Complete: erpnext.crm.doctype.social_media_post.social_media_post.process_scheduled_social_media_posts for newbench.new
2021-12-22 20:32:13,446 INFO scheduler Scheduled Job Start: erpnext.hr.doctype.interview.interview.send_interview_reminder for newbench.new
2021-12-22 20:32:14,306 INFO scheduler Scheduled Job Complete: erpnext.hr.doctype.interview.interview.send_interview_reminder for newbench.new
2021-12-22 20:32:14,450 INFO scheduler Scheduled Job Start: erpnext.healthcare.doctype.patient_appointment.patient_appointment.send_appointment_reminder for newbench.new
2021-12-22 20:32:15,259 INFO scheduler Scheduled Job Complete: erpnext.healthcare.doctype.patient_appointment.patient_appointment.send_appointment_reminder for newbench.new
2021-12-22 20:32:15,406 INFO scheduler Scheduled Job Start: erpnext.projects.doctype.project.project.project_status_update_reminder for newbench.new
2021-12-22 20:32:16,772 INFO scheduler Scheduled Job Complete: erpnext.projects.doctype.project.project.project_status_update_reminder for newbench.new
2021-12-22 20:32:16,919 INFO scheduler Scheduled Job Start: frappe.monitor.flush for newbench.new
2021-12-22 20:32:17,317 INFO scheduler Scheduled Job Complete: frappe.monitor.flush for newbench.new
2021-12-22 20:32:17,467 INFO scheduler Scheduled Job Start: frappe.utils.global_search.sync_global_search for newbench.new
2021-12-22 20:32:17,869 INFO scheduler Scheduled Job Complete: frappe.utils.global_search.sync_global_search for newbench.new
2021-12-22 20:32:18,018 INFO scheduler Scheduled Job Start: frappe.integrations.doctype.razorpay_settings.razorpay_settings.capture_payment for newbench.new
2021-12-22 20:32:20,384 INFO scheduler Scheduled Job Complete: frappe.integrations.doctype.razorpay_settings.razorpay_settings.capture_payment for newbench.new
2021-12-22 20:32:20,527 INFO scheduler Scheduled Job Start: frappe.email.doctype.email_account.email_account.notify_unreplied for newbench.new
2021-12-22 20:32:21,100 INFO scheduler Scheduled Job Complete: frappe.email.doctype.email_account.email_account.notify_unreplied for newbench.new
2021-12-22 20:32:21,243 INFO scheduler Scheduled Job Start: frappe.email.doctype.email_account.email_account.pull for newbench.new
2021-12-22 20:32:21,816 INFO scheduler Scheduled Job Complete: frappe.email.doctype.email_account.email_account.pull for newbench.new
2021-12-22 20:32:21,961 INFO scheduler Scheduled Job Start: frappe.email.queue.flush for newbench.new
2021-12-22 20:32:22,506 INFO scheduler Scheduled Job Complete: frappe.email.queue.flush for newbench.new
2021-12-22 20:33:21,460 DEBUG scheduler Queued events for site newbench.new
2021-12-22 20:34:22,492 DEBUG scheduler Queued events for site newbench.new
2021-12-22 20:35:23,199 DEBUG scheduler Queued events for site newbench.new
2021-12-22 20:36:24,016 DEBUG scheduler Queued events for site newbench.new
2021-12-22 20:36:24,986 INFO scheduler Scheduled Job Start: erpnext.crm.doctype.social_media_post.social_media_post.process_scheduled_social_media_posts for newbench.new
2021-12-22 20:36:28,416 INFO scheduler Scheduled Job Complete: erpnext.crm.doctype.social_media_post.social_media_post.process_scheduled_social_media_posts for newbench.new
2021-12-22 20:36:28,566 INFO scheduler Scheduled Job Start: erpnext.hr.doctype.interview.interview.send_interview_reminder for newbench.new
2021-12-22 20:36:29,421 INFO scheduler Scheduled Job Complete: erpnext.hr.doctype.interview.interview.send_interview_reminder for newbench.new
2021-12-22 20:36:29,567 INFO scheduler Scheduled Job Start: erpnext.healthcare.doctype.patient_appointment.patient_appointment.send_appointment_reminder for newbench.new
2021-12-22 20:36:30,422 INFO scheduler Scheduled Job Complete: erpnext.healthcare.doctype.patient_appointment.patient_appointment.send_appointment_reminder for newbench.new
2021-12-22 20:36:30,570 INFO scheduler Scheduled Job Start: erpnext.projects.doctype.project.project.project_status_update_reminder for newbench.new
2021-12-22 20:36:32,459 INFO scheduler Scheduled Job Complete: erpnext.projects.doctype.project.project.project_status_update_reminder for newbench.new
2021-12-22 20:36:32,620 INFO scheduler Scheduled Job Start: frappe.monitor.flush for newbench.new
2021-12-22 20:36:33,147 INFO scheduler Scheduled Job Complete: frappe.monitor.flush for newbench.new
2021-12-22 20:36:33,296 INFO scheduler Scheduled Job Start: frappe.utils.global_search.sync_global_search for newbench.new
2021-12-22 20:36:33,744 INFO scheduler Scheduled Job Complete: frappe.utils.global_search.sync_global_search for newbench.new
2021-12-22 20:36:33,908 INFO scheduler Scheduled Job Start: frappe.integrations.doctype.razorpay_settings.razorpay_settings.capture_payment for newbench.new
2021-12-22 20:36:34,950 INFO scheduler Scheduled Job Complete: frappe.integrations.doctype.razorpay_settings.razorpay_settings.capture_payment for newbench.new
2021-12-22 20:36:35,103 INFO scheduler Scheduled Job Start: frappe.email.doctype.email_account.email_account.notify_unreplied for newbench.new
2021-12-22 20:36:36,663 INFO scheduler Scheduled Job Complete: frappe.email.doctype.email_account.email_account.notify_unreplied for newbench.new
2021-12-22 20:36:36,817 INFO scheduler Scheduled Job Start: frappe.email.doctype.email_account.email_account.pull for newbench.new
2021-12-22 20:36:37,425 INFO scheduler Scheduled Job Complete: frappe.email.doctype.email_account.email_account.pull for newbench.new
2021-12-22 20:36:37,578 INFO scheduler Scheduled Job Start: frappe.email.queue.flush for newbench.new
2021-12-22 20:36:38,083 INFO scheduler Scheduled Job Complete: frappe.email.queue.flush for newbench.new
2021-12-22 20:37:24,677 DEBUG scheduler Queued events for site newbench.new
2021-12-22 20:38:25,347 DEBUG scheduler Queued events for site newbench.new
2021-12-22 20:39:26,037 DEBUG scheduler Queued events for site newbench.new
2021-12-22 20:40:32,954 DEBUG scheduler Queued events for site newbench.new
2021-12-22 20:40:41,757 INFO scheduler Scheduled Job Start: erpnext.crm.doctype.social_media_post.social_media_post.process_scheduled_social_media_posts for newbench.new
2021-12-22 20:40:52,123 INFO scheduler Scheduled Job Complete: erpnext.crm.doctype.social_media_post.social_media_post.process_scheduled_social_media_posts for newbench.new
2021-12-22 20:40:54,324 INFO scheduler Scheduled Job Start: erpnext.hr.doctype.interview.interview.send_interview_reminder for newbench.new
2021-12-22 20:40:55,699 INFO scheduler Scheduled Job Complete: erpnext.hr.doctype.interview.interview.send_interview_reminder for newbench.new
2021-12-22 20:40:55,853 INFO scheduler Scheduled Job Start: erpnext.healthcare.doctype.patient_appointment.patient_appointment.send_appointment_reminder for newbench.new
2021-12-22 20:40:57,101 INFO scheduler Scheduled Job Complete: erpnext.healthcare.doctype.patient_appointment.patient_appointment.send_appointment_reminder for newbench.new
2021-12-22 20:40:57,256 INFO scheduler Scheduled Job Start: erpnext.projects.doctype.project.project.project_status_update_reminder for newbench.new
2021-12-22 20:41:01,394 INFO scheduler Scheduled Job Complete: erpnext.projects.doctype.project.project.project_status_update_reminder for newbench.new
2021-12-22 20:41:01,544 INFO scheduler Scheduled Job Start: frappe.monitor.flush for newbench.new
2021-12-22 20:41:02,139 INFO scheduler Scheduled Job Complete: frappe.monitor.flush for newbench.new
2021-12-22 20:41:02,299 INFO scheduler Scheduled Job Start: frappe.utils.global_search.sync_global_search for newbench.new
2021-12-22 20:41:02,765 INFO scheduler Scheduled Job Complete: frappe.utils.global_search.sync_global_search for newbench.new
2021-12-22 20:41:02,923 INFO scheduler Scheduled Job Start: frappe.integrations.doctype.razorpay_settings.razorpay_settings.capture_payment for newbench.new
2021-12-22 20:41:07,984 INFO scheduler Scheduled Job Complete: frappe.integrations.doctype.razorpay_settings.razorpay_settings.capture_payment for newbench.new
2021-12-22 20:41:08,136 INFO scheduler Scheduled Job Start: frappe.email.doctype.email_account.email_account.notify_unreplied for newbench.new
2021-12-22 20:41:11,582 INFO scheduler Scheduled Job Complete: frappe.email.doctype.email_account.email_account.notify_unreplied for newbench.new
2021-12-22 20:41:11,737 INFO scheduler Scheduled Job Start: frappe.email.doctype.email_account.email_account.pull for newbench.new
2021-12-22 20:41:12,435 INFO scheduler Scheduled Job Complete: frappe.email.doctype.email_account.email_account.pull for newbench.new
2021-12-22 20:41:12,593 INFO scheduler Scheduled Job Start: frappe.email.queue.flush for newbench.new
2021-12-22 20:41:13,134 INFO scheduler Scheduled Job Complete: frappe.email.queue.flush for newbench.new
2021-12-22 20:41:34,021 DEBUG scheduler Queued events for site newbench.new
2021-12-22 20:42:34,700 DEBUG scheduler Queued events for site newbench.new
2021-12-22 20:43:35,484 DEBUG scheduler Queued events for site newbench.new
2021-12-22 20:44:36,351 DEBUG scheduler Queued events for site newbench.new
2021-12-22 20:44:38,039 INFO scheduler Scheduled Job Start: erpnext.crm.doctype.social_media_post.social_media_post.process_scheduled_social_media_posts for newbench.new
2021-12-22 20:44:41,315 INFO scheduler Scheduled Job Complete: erpnext.crm.doctype.social_media_post.social_media_post.process_scheduled_social_media_posts for newbench.new
2021-12-22 20:44:41,531 INFO scheduler Scheduled Job Start: erpnext.hr.doctype.interview.interview.send_interview_reminder for newbench.new
2021-12-22 20:44:42,348 INFO scheduler Scheduled Job Complete: erpnext.hr.doctype.interview.interview.send_interview_reminder for newbench.new
2021-12-22 20:44:42,502 INFO scheduler Scheduled Job Start: erpnext.healthcare.doctype.patient_appointment.patient_appointment.send_appointment_reminder for newbench.new
2021-12-22 20:44:43,563 INFO scheduler Scheduled Job Complete: erpnext.healthcare.doctype.patient_appointment.patient_appointment.send_appointment_reminder for newbench.new
2021-12-22 20:44:43,715 INFO scheduler Scheduled Job Start: erpnext.projects.doctype.project.project.project_status_update_reminder for newbench.new
2021-12-22 20:44:45,470 INFO scheduler Scheduled Job Complete: erpnext.projects.doctype.project.project.project_status_update_reminder for newbench.new
2021-12-22 20:44:45,943 INFO scheduler Scheduled Job Start: frappe.monitor.flush for newbench.new
2021-12-22 20:44:46,682 INFO scheduler Scheduled Job Complete: frappe.monitor.flush for newbench.new
2021-12-22 20:44:46,849 INFO scheduler Scheduled Job Start: frappe.utils.global_search.sync_global_search for newbench.new
2021-12-22 20:44:47,283 INFO scheduler Scheduled Job Complete: frappe.utils.global_search.sync_global_search for newbench.new
2021-12-22 20:44:47,446 INFO scheduler Scheduled Job Start: frappe.integrations.doctype.razorpay_settings.razorpay_settings.capture_payment for newbench.new
2021-12-22 20:44:49,949 INFO scheduler Scheduled Job Complete: frappe.integrations.doctype.razorpay_settings.razorpay_settings.capture_payment for newbench.new
2021-12-22 20:44:50,153 INFO scheduler Scheduled Job Start: frappe.email.doctype.email_account.email_account.notify_unreplied for newbench.new
2021-12-22 20:44:51,384 INFO scheduler Scheduled Job Complete: frappe.email.doctype.email_account.email_account.notify_unreplied for newbench.new
2021-12-22 20:44:51,579 INFO scheduler Scheduled Job Start: frappe.email.doctype.email_account.email_account.pull for newbench.new
2021-12-22 20:44:52,392 INFO scheduler Scheduled Job Complete: frappe.email.doctype.email_account.email_account.pull for newbench.new
2021-12-22 20:44:52,544 INFO scheduler Scheduled Job Start: frappe.email.queue.flush for newbench.new
2021-12-22 20:44:53,026 INFO scheduler Scheduled Job Complete: frappe.email.queue.flush for newbench.new
2021-12-22 20:45:37,158 DEBUG scheduler Queued events for site newbench.new
2021-12-22 20:45:37,294 INFO scheduler Scheduled Job Start: frappe.twofactor.delete_all_barcodes_for_users for newbench.new
2021-12-22 20:45:39,129 INFO scheduler Scheduled Job Complete: frappe.twofactor.delete_all_barcodes_for_users for newbench.new
2021-12-22 20:45:39,442 INFO scheduler Scheduled Job Start: frappe.website.doctype.web_page.web_page.check_publish_status for newbench.new
2021-12-22 20:45:40,655 INFO scheduler Scheduled Job Complete: frappe.website.doctype.web_page.web_page.check_publish_status for newbench.new
2021-12-22 20:45:40,903 INFO scheduler Scheduled Job Start: frappe.oauth.delete_oauth2_data for newbench.new
2021-12-22 20:45:42,197 INFO scheduler Scheduled Job Complete: frappe.oauth.delete_oauth2_data for newbench.new
2021-12-22 20:46:37,856 DEBUG scheduler Queued events for site newbench.new
2021-12-22 20:47:38,536 DEBUG scheduler Queued events for site newbench.new
2021-12-22 20:48:39,349 DEBUG scheduler Queued events for site newbench.new
2021-12-22 20:48:39,412 INFO scheduler Scheduled Job Start: erpnext.crm.doctype.social_media_post.social_media_post.process_scheduled_social_media_posts for newbench.new
2021-12-22 20:48:40,182 INFO scheduler Scheduled Job Complete: erpnext.crm.doctype.social_media_post.social_media_post.process_scheduled_social_media_posts for newbench.new
2021-12-22 20:48:40,403 INFO scheduler Scheduled Job Start: erpnext.hr.doctype.interview.interview.send_interview_reminder for newbench.new
2021-12-22 20:48:41,066 INFO scheduler Scheduled Job Complete: erpnext.hr.doctype.interview.interview.send_interview_reminder for newbench.new
2021-12-22 20:48:41,228 INFO scheduler Scheduled Job Start: erpnext.healthcare.doctype.patient_appointment.patient_appointment.send_appointment_reminder for newbench.new
2021-12-22 20:48:41,708 INFO scheduler Scheduled Job Complete: erpnext.healthcare.doctype.patient_appointment.patient_appointment.send_appointment_reminder for newbench.new
2021-12-22 20:48:41,871 INFO scheduler Scheduled Job Start: erpnext.projects.doctype.project.project.project_status_update_reminder for newbench.new
2021-12-22 20:48:42,626 INFO scheduler Scheduled Job Complete: erpnext.projects.doctype.project.project.project_status_update_reminder for newbench.new
2021-12-22 20:48:42,800 INFO scheduler Scheduled Job Start: frappe.monitor.flush for newbench.new
2021-12-22 20:48:43,356 INFO scheduler Scheduled Job Complete: frappe.monitor.flush for newbench.new
2021-12-22 20:48:43,524 INFO scheduler Scheduled Job Start: frappe.utils.global_search.sync_global_search for newbench.new
2021-12-22 20:48:43,972 INFO scheduler Scheduled Job Complete: frappe.utils.global_search.sync_global_search for newbench.new
2021-12-22 20:48:44,128 INFO scheduler Scheduled Job Start: frappe.integrations.doctype.razorpay_settings.razorpay_settings.capture_payment for newbench.new
2021-12-22 20:48:44,833 INFO scheduler Scheduled Job Complete: frappe.integrations.doctype.razorpay_settings.razorpay_settings.capture_payment for newbench.new
2021-12-22 20:48:44,989 INFO scheduler Scheduled Job Start: frappe.email.doctype.email_account.email_account.notify_unreplied for newbench.new
2021-12-22 20:48:45,623 INFO scheduler Scheduled Job Complete: frappe.email.doctype.email_account.email_account.notify_unreplied for newbench.new
2021-12-22 20:48:45,780 INFO scheduler Scheduled Job Start: frappe.email.doctype.email_account.email_account.pull for newbench.new
2021-12-22 20:48:46,422 INFO scheduler Scheduled Job Complete: frappe.email.doctype.email_account.email_account.pull for newbench.new
2021-12-22 20:48:46,582 INFO scheduler Scheduled Job Start: frappe.email.queue.flush for newbench.new
2021-12-22 20:48:47,033 INFO scheduler Scheduled Job Complete: frappe.email.queue.flush for newbench.new
2021-12-22 20:49:40,058 DEBUG scheduler Queued events for site newbench.new
2021-12-22 20:50:40,739 DEBUG scheduler Queued events for site newbench.new
2021-12-22 20:51:41,503 DEBUG scheduler Queued events for site newbench.new
2021-12-22 20:52:42,287 DEBUG scheduler Queued events for site newbench.new
2021-12-22 20:52:42,326 INFO scheduler Scheduled Job Start: erpnext.crm.doctype.social_media_post.social_media_post.process_scheduled_social_media_posts for newbench.new
2021-12-22 20:52:42,928 INFO scheduler Scheduled Job Complete: erpnext.crm.doctype.social_media_post.social_media_post.process_scheduled_social_media_posts for newbench.new
2021-12-22 20:52:43,114 INFO scheduler Scheduled Job Start: erpnext.hr.doctype.interview.interview.send_interview_reminder for newbench.new
2021-12-22 20:52:43,771 INFO scheduler Scheduled Job Complete: erpnext.hr.doctype.interview.interview.send_interview_reminder for newbench.new
2021-12-22 20:52:43,942 INFO scheduler Scheduled Job Start: erpnext.healthcare.doctype.patient_appointment.patient_appointment.send_appointment_reminder for newbench.new
2021-12-22 20:52:44,453 INFO scheduler Scheduled Job Complete: erpnext.healthcare.doctype.patient_appointment.patient_appointment.send_appointment_reminder for newbench.new
2021-12-22 20:52:44,614 INFO scheduler Scheduled Job Start: erpnext.projects.doctype.project.project.project_status_update_reminder for newbench.new
2021-12-22 20:52:45,373 INFO scheduler Scheduled Job Complete: erpnext.projects.doctype.project.project.project_status_update_reminder for newbench.new
2021-12-22 20:52:45,534 INFO scheduler Scheduled Job Start: frappe.monitor.flush for newbench.new
2021-12-22 20:52:46,023 INFO scheduler Scheduled Job Complete: frappe.monitor.flush for newbench.new
2021-12-22 20:52:46,184 INFO scheduler Scheduled Job Start: frappe.utils.global_search.sync_global_search for newbench.new
2021-12-22 20:52:46,628 INFO scheduler Scheduled Job Complete: frappe.utils.global_search.sync_global_search for newbench.new
2021-12-22 20:52:46,796 INFO scheduler Scheduled Job Start: frappe.integrations.doctype.razorpay_settings.razorpay_settings.capture_payment for newbench.new
2021-12-22 20:52:47,523 INFO scheduler Scheduled Job Complete: frappe.integrations.doctype.razorpay_settings.razorpay_settings.capture_payment for newbench.new
2021-12-22 20:52:47,686 INFO scheduler Scheduled Job Start: frappe.email.doctype.email_account.email_account.notify_unreplied for newbench.new
2021-12-22 20:52:48,282 INFO scheduler Scheduled Job Complete: frappe.email.doctype.email_account.email_account.notify_unreplied for newbench.new
2021-12-22 20:52:48,444 INFO scheduler Scheduled Job Start: frappe.email.doctype.email_account.email_account.pull for newbench.new
2021-12-22 20:52:49,063 INFO scheduler Scheduled Job Complete: frappe.email.doctype.email_account.email_account.pull for newbench.new
2021-12-22 20:52:49,240 INFO scheduler Scheduled Job Start: frappe.email.queue.flush for newbench.new
2021-12-22 20:52:49,698 INFO scheduler Scheduled Job Complete: frappe.email.queue.flush for newbench.new
2021-12-22 20:53:43,017 DEBUG scheduler Queued events for site newbench.new
2021-12-22 20:54:43,736 DEBUG scheduler Queued events for site newbench.new
2021-12-22 20:55:44,419 DEBUG scheduler Queued events for site newbench.new
2021-12-22 20:56:45,027 INFO scheduler Scheduled Job Start: erpnext.crm.doctype.social_media_post.social_media_post.process_scheduled_social_media_posts for newbench.new
2021-12-22 20:56:45,197 DEBUG scheduler Queued events for site newbench.new
2021-12-22 20:56:45,619 INFO scheduler Scheduled Job Complete: erpnext.crm.doctype.social_media_post.social_media_post.process_scheduled_social_media_posts for newbench.new
2021-12-22 20:56:45,783 INFO scheduler Scheduled Job Start: erpnext.hr.doctype.interview.interview.send_interview_reminder for newbench.new
2021-12-22 20:56:46,352 INFO scheduler Scheduled Job Complete: erpnext.hr.doctype.interview.interview.send_interview_reminder for newbench.new
2021-12-22 20:56:46,511 INFO scheduler Scheduled Job Start: erpnext.healthcare.doctype.patient_appointment.patient_appointment.send_appointment_reminder for newbench.new
2021-12-22 20:56:46,994 INFO scheduler Scheduled Job Complete: erpnext.healthcare.doctype.patient_appointment.patient_appointment.send_appointment_reminder for newbench.new
2021-12-22 20:56:47,153 INFO scheduler Scheduled Job Start: erpnext.projects.doctype.project.project.project_status_update_reminder for newbench.new
2021-12-22 20:56:47,913 INFO scheduler Scheduled Job Complete: erpnext.projects.doctype.project.project.project_status_update_reminder for newbench.new
2021-12-22 20:56:48,067 INFO scheduler Scheduled Job Start: frappe.monitor.flush for newbench.new
2021-12-22 20:56:48,597 INFO scheduler Scheduled Job Complete: frappe.monitor.flush for newbench.new
2021-12-22 20:56:48,808 INFO scheduler Scheduled Job Start: frappe.utils.global_search.sync_global_search for newbench.new
2021-12-22 20:56:49,243 INFO scheduler Scheduled Job Complete: frappe.utils.global_search.sync_global_search for newbench.new
2021-12-22 20:56:49,403 INFO scheduler Scheduled Job Start: frappe.integrations.doctype.razorpay_settings.razorpay_settings.capture_payment for newbench.new
2021-12-22 20:56:50,133 INFO scheduler Scheduled Job Complete: frappe.integrations.doctype.razorpay_settings.razorpay_settings.capture_payment for newbench.new
2021-12-22 20:56:50,290 INFO scheduler Scheduled Job Start: frappe.email.doctype.email_account.email_account.notify_unreplied for newbench.new
2021-12-22 20:56:50,848 INFO scheduler Scheduled Job Complete: frappe.email.doctype.email_account.email_account.notify_unreplied for newbench.new
2021-12-22 20:56:50,999 INFO scheduler Scheduled Job Start: frappe.email.doctype.email_account.email_account.pull for newbench.new
2021-12-22 20:56:51,594 INFO scheduler Scheduled Job Complete: frappe.email.doctype.email_account.email_account.pull for newbench.new
2021-12-22 20:56:51,746 INFO scheduler Scheduled Job Start: frappe.email.queue.flush for newbench.new
2021-12-22 20:56:52,196 INFO scheduler Scheduled Job Complete: frappe.email.queue.flush for newbench.new
2021-12-22 20:57:45,932 DEBUG scheduler Queued events for site newbench.new
2021-12-22 20:58:46,695 DEBUG scheduler Queued events for site newbench.new
2021-12-22 20:59:47,381 DEBUG scheduler Queued events for site newbench.new
2021-12-22 21:00:47,947 INFO scheduler Scheduled Job Start: erpnext.erpnext_integrations.connectors.shopify_connection.sync_old_orders for newbench.new
2021-12-22 21:00:48,584 DEBUG scheduler Queued events for site newbench.new
2021-12-22 21:00:52,005 INFO scheduler Scheduled Job Complete: erpnext.erpnext_integrations.connectors.shopify_connection.sync_old_orders for newbench.new
2021-12-22 21:00:52,160 INFO scheduler Scheduled Job Start: erpnext.stock.doctype.repost_item_valuation.repost_item_valuation.repost_entries for newbench.new
2021-12-22 21:00:52,237 INFO scheduler Scheduled Job Start: erpnext.support.doctype.issue.issue.set_service_level_agreement_variance for newbench.new
2021-12-22 21:00:53,408 INFO scheduler Scheduled Job Complete: erpnext.support.doctype.issue.issue.set_service_level_agreement_variance for newbench.new
2021-12-22 21:00:53,798 INFO scheduler Scheduled Job Start: erpnext.hr.doctype.shift_type.shift_type.process_auto_attendance_for_all_shifts for newbench.new
2021-12-22 21:00:54,719 INFO scheduler Scheduled Job Complete: erpnext.hr.doctype.shift_type.shift_type.process_auto_attendance_for_all_shifts for newbench.new
2021-12-22 21:00:54,787 INFO scheduler Scheduled Job Complete: erpnext.stock.doctype.repost_item_valuation.repost_item_valuation.repost_entries for newbench.new
2021-12-22 21:00:54,941 INFO scheduler Scheduled Job Start: erpnext.projects.doctype.project.project.collect_project_status for newbench.new
2021-12-22 21:00:55,809 INFO scheduler Scheduled Job Complete: erpnext.projects.doctype.project.project.collect_project_status for newbench.new
2021-12-22 21:00:56,244 INFO scheduler Scheduled Job Start: erpnext.projects.doctype.project.project.hourly_reminder for newbench.new
2021-12-22 21:00:57,190 INFO scheduler Scheduled Job Complete: erpnext.projects.doctype.project.project.hourly_reminder for newbench.new
2021-12-22 21:00:57,467 INFO scheduler Scheduled Job Start: erpnext.erpnext_integrations.doctype.plaid_settings.plaid_settings.automatic_synchronization for newbench.new
2021-12-22 21:00:59,135 INFO scheduler Scheduled Job Complete: erpnext.erpnext_integrations.doctype.plaid_settings.plaid_settings.automatic_synchronization for newbench.new
2021-12-22 21:00:59,791 INFO scheduler Scheduled Job Start: erpnext.accounts.doctype.gl_entry.gl_entry.rename_gle_sle_docs for newbench.new
2021-12-22 21:01:01,287 INFO scheduler Scheduled Job Complete: erpnext.accounts.doctype.gl_entry.gl_entry.rename_gle_sle_docs for newbench.new
2021-12-22 21:01:01,712 INFO scheduler Scheduled Job Start: erpnext.erpnext_integrations.doctype.amazon_mws_settings.amazon_mws_settings.schedule_get_order_details for newbench.new
2021-12-22 21:01:02,557 INFO scheduler Scheduled Job Complete: erpnext.erpnext_integrations.doctype.amazon_mws_settings.amazon_mws_settings.schedule_get_order_details for newbench.new
2021-12-22 21:01:02,812 INFO scheduler Scheduled Job Start: erpnext.accounts.doctype.subscription.subscription.process_all for newbench.new
2021-12-22 21:01:03,894 INFO scheduler Scheduled Job Complete: erpnext.accounts.doctype.subscription.subscription.process_all for newbench.new
2021-12-22 21:01:04,145 INFO scheduler Scheduled Job Start: erpnext.hr.doctype.daily_work_summary_group.daily_work_summary_group.trigger_emails for newbench.new
2021-12-22 21:01:04,883 INFO scheduler Scheduled Job Complete: erpnext.hr.doctype.daily_work_summary_group.daily_work_summary_group.trigger_emails for newbench.new
2021-12-22 21:01:05,125 INFO scheduler Scheduled Job Start: erpnext.crm.doctype.social_media_post.social_media_post.process_scheduled_social_media_posts for newbench.new
2021-12-22 21:01:05,673 INFO scheduler Scheduled Job Complete: erpnext.crm.doctype.social_media_post.social_media_post.process_scheduled_social_media_posts for newbench.new
2021-12-22 21:01:05,834 INFO scheduler Scheduled Job Start: erpnext.hr.doctype.interview.interview.send_interview_reminder for newbench.new
2021-12-22 21:01:06,432 INFO scheduler Scheduled Job Complete: erpnext.hr.doctype.interview.interview.send_interview_reminder for newbench.new
2021-12-22 21:01:06,609 INFO scheduler Scheduled Job Start: erpnext.healthcare.doctype.patient_appointment.patient_appointment.send_appointment_reminder for newbench.new
2021-12-22 21:01:07,080 INFO scheduler Scheduled Job Complete: erpnext.healthcare.doctype.patient_appointment.patient_appointment.send_appointment_reminder for newbench.new
2021-12-22 21:01:07,236 INFO scheduler Scheduled Job Start: erpnext.projects.doctype.project.project.project_status_update_reminder for newbench.new
2021-12-22 21:01:08,083 INFO scheduler Scheduled Job Complete: erpnext.projects.doctype.project.project.project_status_update_reminder for newbench.new
2021-12-22 21:01:08,239 INFO scheduler Scheduled Job Start: erpnext.utilities.doctype.video.video.update_youtube_data for newbench.new
2021-12-22 21:01:11,031 INFO scheduler Scheduled Job Failed: erpnext.utilities.doctype.video.video.update_youtube_data for newbench.new
2021-12-22 21:01:11,306 INFO scheduler Scheduled Job Start: frappe.email.doctype.newsletter.newsletter.send_scheduled_email for newbench.new
2021-12-22 21:01:12,115 INFO scheduler Scheduled Job Complete: frappe.email.doctype.newsletter.newsletter.send_scheduled_email for newbench.new
2021-12-22 21:01:12,347 INFO scheduler Scheduled Job Start: frappe.integrations.doctype.google_calendar.google_calendar.sync for newbench.new
2021-12-22 21:01:15,983 INFO scheduler Scheduled Job Complete: frappe.integrations.doctype.google_calendar.google_calendar.sync for newbench.new
2021-12-22 21:01:16,282 INFO scheduler Scheduled Job Start: frappe.desk.form.document_follow.send_hourly_updates for newbench.new
2021-12-22 21:01:17,352 INFO scheduler Scheduled Job Complete: frappe.desk.form.document_follow.send_hourly_updates for newbench.new
2021-12-22 21:01:17,791 INFO scheduler Scheduled Job Start: frappe.deferred_insert.save_to_db for newbench.new
2021-12-22 21:01:18,539 INFO scheduler Scheduled Job Complete: frappe.deferred_insert.save_to_db for newbench.new
2021-12-22 21:01:18,823 INFO scheduler Scheduled Job Start: frappe.desk.page.backups.backups.delete_downloadable_backups for newbench.new
2021-12-22 21:01:19,707 INFO scheduler Scheduled Job Complete: frappe.desk.page.backups.backups.delete_downloadable_backups for newbench.new
2021-12-22 21:01:19,972 INFO scheduler Scheduled Job Start: frappe.utils.error.collect_error_snapshots for newbench.new
2021-12-22 21:01:20,733 INFO scheduler Scheduled Job Complete: frappe.utils.error.collect_error_snapshots for newbench.new
2021-12-22 21:01:21,008 INFO scheduler Scheduled Job Start: frappe.model.utils.user_settings.sync_user_settings for newbench.new
2021-12-22 21:01:21,635 INFO scheduler Scheduled Job Complete: frappe.model.utils.user_settings.sync_user_settings for newbench.new
2021-12-22 21:01:21,862 INFO scheduler Scheduled Job Start: frappe.model.utils.link_count.update_link_count for newbench.new
2021-12-22 21:01:22,539 INFO scheduler Scheduled Job Complete: frappe.model.utils.link_count.update_link_count for newbench.new
2021-12-22 21:01:22,763 INFO scheduler Scheduled Job Start: frappe.monitor.flush for newbench.new
2021-12-22 21:01:23,283 INFO scheduler Scheduled Job Complete: frappe.monitor.flush for newbench.new
2021-12-22 21:01:23,453 INFO scheduler Scheduled Job Start: frappe.utils.global_search.sync_global_search for newbench.new
2021-12-22 21:01:23,890 INFO scheduler Scheduled Job Complete: frappe.utils.global_search.sync_global_search for newbench.new
2021-12-22 21:01:24,054 INFO scheduler Scheduled Job Start: frappe.integrations.doctype.razorpay_settings.razorpay_settings.capture_payment for newbench.new
2021-12-22 21:01:24,961 INFO scheduler Scheduled Job Complete: frappe.integrations.doctype.razorpay_settings.razorpay_settings.capture_payment for newbench.new
2021-12-22 21:01:25,121 INFO scheduler Scheduled Job Start: frappe.email.doctype.email_account.email_account.notify_unreplied for newbench.new
2021-12-22 21:01:25,786 INFO scheduler Scheduled Job Complete: frappe.email.doctype.email_account.email_account.notify_unreplied for newbench.new
2021-12-22 21:01:25,947 INFO scheduler Scheduled Job Start: frappe.email.doctype.email_account.email_account.pull for newbench.new
2021-12-22 21:01:26,610 INFO scheduler Scheduled Job Complete: frappe.email.doctype.email_account.email_account.pull for newbench.new
2021-12-22 21:01:26,769 INFO scheduler Scheduled Job Start: frappe.email.queue.flush for newbench.new
2021-12-22 21:01:27,266 INFO scheduler Scheduled Job Complete: frappe.email.queue.flush for newbench.new
2021-12-22 21:01:27,436 INFO scheduler Scheduled Job Start: frappe.twofactor.delete_all_barcodes_for_users for newbench.new
2021-12-22 21:01:28,358 INFO scheduler Scheduled Job Complete: frappe.twofactor.delete_all_barcodes_for_users for newbench.new
2021-12-22 21:01:28,575 INFO scheduler Scheduled Job Start: frappe.website.doctype.web_page.web_page.check_publish_status for newbench.new
2021-12-22 21:01:29,513 INFO scheduler Scheduled Job Complete: frappe.website.doctype.web_page.web_page.check_publish_status for newbench.new
2021-12-22 21:01:29,746 INFO scheduler Scheduled Job Start: frappe.oauth.delete_oauth2_data for newbench.new
2021-12-22 21:01:30,600 INFO scheduler Scheduled Job Complete: frappe.oauth.delete_oauth2_data for newbench.new
2021-12-22 21:01:49,245 DEBUG scheduler Queued events for site newbench.new
2021-12-22 21:02:49,991 DEBUG scheduler Queued events for site newbench.new
2021-12-22 21:03:50,658 DEBUG scheduler Queued events for site newbench.new
2021-12-22 21:04:51,256 INFO scheduler Scheduled Job Start: erpnext.crm.doctype.social_media_post.social_media_post.process_scheduled_social_media_posts for newbench.new
2021-12-22 21:04:51,454 DEBUG scheduler Queued events for site newbench.new
2021-12-22 21:04:51,764 INFO scheduler Scheduled Job Complete: erpnext.crm.doctype.social_media_post.social_media_post.process_scheduled_social_media_posts for newbench.new
2021-12-22 21:04:51,921 INFO scheduler Scheduled Job Start: erpnext.hr.doctype.interview.interview.send_interview_reminder for newbench.new
2021-12-22 21:04:52,467 INFO scheduler Scheduled Job Complete: erpnext.hr.doctype.interview.interview.send_interview_reminder for newbench.new
2021-12-22 21:04:52,625 INFO scheduler Scheduled Job Start: erpnext.healthcare.doctype.patient_appointment.patient_appointment.send_appointment_reminder for newbench.new
2021-12-22 21:04:53,088 INFO scheduler Scheduled Job Complete: erpnext.healthcare.doctype.patient_appointment.patient_appointment.send_appointment_reminder for newbench.new
2021-12-22 21:04:53,246 INFO scheduler Scheduled Job Start: erpnext.projects.doctype.project.project.project_status_update_reminder for newbench.new
2021-12-22 21:04:54,008 INFO scheduler Scheduled Job Complete: erpnext.projects.doctype.project.project.project_status_update_reminder for newbench.new
2021-12-22 21:04:54,161 INFO scheduler Scheduled Job Start: frappe.monitor.flush for newbench.new
2021-12-22 21:04:54,560 INFO scheduler Scheduled Job Complete: frappe.monitor.flush for newbench.new
2021-12-22 21:04:54,715 INFO scheduler Scheduled Job Start: frappe.utils.global_search.sync_global_search for newbench.new
2021-12-22 21:04:55,145 INFO scheduler Scheduled Job Complete: frappe.utils.global_search.sync_global_search for newbench.new
2021-12-22 21:04:55,305 INFO scheduler Scheduled Job Start: frappe.integrations.doctype.razorpay_settings.razorpay_settings.capture_payment for newbench.new
2021-12-22 21:04:56,026 INFO scheduler Scheduled Job Complete: frappe.integrations.doctype.razorpay_settings.razorpay_settings.capture_payment for newbench.new
2021-12-22 21:04:56,178 INFO scheduler Scheduled Job Start: frappe.email.doctype.email_account.email_account.notify_unreplied for newbench.new
2021-12-22 21:04:56,738 INFO scheduler Scheduled Job Complete: frappe.email.doctype.email_account.email_account.notify_unreplied for newbench.new
2021-12-22 21:04:56,891 INFO scheduler Scheduled Job Start: frappe.email.doctype.email_account.email_account.pull for newbench.new
2021-12-22 21:04:57,480 INFO scheduler Scheduled Job Complete: frappe.email.doctype.email_account.email_account.pull for newbench.new
2021-12-22 21:04:57,632 INFO scheduler Scheduled Job Start: frappe.email.queue.flush for newbench.new
2021-12-22 21:04:58,230 INFO scheduler Scheduled Job Complete: frappe.email.queue.flush for newbench.new
2021-12-22 21:05:52,117 DEBUG scheduler Queued events for site newbench.new
2021-12-22 21:06:52,781 DEBUG scheduler Queued events for site newbench.new
2021-12-22 21:07:53,451 DEBUG scheduler Queued events for site newbench.new
2021-12-22 21:08:54,047 INFO scheduler Scheduled Job Start: erpnext.crm.doctype.social_media_post.social_media_post.process_scheduled_social_media_posts for newbench.new
2021-12-22 21:08:54,234 DEBUG scheduler Queued events for site newbench.new
2021-12-22 21:08:54,625 INFO scheduler Scheduled Job Complete: erpnext.crm.doctype.social_media_post.social_media_post.process_scheduled_social_media_posts for newbench.new
2021-12-22 21:08:54,782 INFO scheduler Scheduled Job Start: erpnext.hr.doctype.interview.interview.send_interview_reminder for newbench.new
2021-12-22 21:08:55,416 INFO scheduler Scheduled Job Complete: erpnext.hr.doctype.interview.interview.send_interview_reminder for newbench.new
2021-12-22 21:08:55,567 INFO scheduler Scheduled Job Start: erpnext.healthcare.doctype.patient_appointment.patient_appointment.send_appointment_reminder for newbench.new
2021-12-22 21:08:56,058 INFO scheduler Scheduled Job Complete: erpnext.healthcare.doctype.patient_appointment.patient_appointment.send_appointment_reminder for newbench.new
2021-12-22 21:08:56,216 INFO scheduler Scheduled Job Start: erpnext.projects.doctype.project.project.project_status_update_reminder for newbench.new
2021-12-22 21:08:56,937 INFO scheduler Scheduled Job Complete: erpnext.projects.doctype.project.project.project_status_update_reminder for newbench.new
2021-12-22 21:08:57,092 INFO scheduler Scheduled Job Start: frappe.monitor.flush for newbench.new
2021-12-22 21:08:57,501 INFO scheduler Scheduled Job Complete: frappe.monitor.flush for newbench.new
2021-12-22 21:08:57,662 INFO scheduler Scheduled Job Start: frappe.utils.global_search.sync_global_search for newbench.new
2021-12-22 21:08:58,073 INFO scheduler Scheduled Job Complete: frappe.utils.global_search.sync_global_search for newbench.new
2021-12-22 21:08:58,225 INFO scheduler Scheduled Job Start: frappe.integrations.doctype.razorpay_settings.razorpay_settings.capture_payment for newbench.new
2021-12-22 21:08:58,979 INFO scheduler Scheduled Job Complete: frappe.integrations.doctype.razorpay_settings.razorpay_settings.capture_payment for newbench.new
2021-12-22 21:08:59,132 INFO scheduler Scheduled Job Start: frappe.email.doctype.email_account.email_account.notify_unreplied for newbench.new
2021-12-22 21:08:59,693 INFO scheduler Scheduled Job Complete: frappe.email.doctype.email_account.email_account.notify_unreplied for newbench.new
2021-12-22 21:08:59,857 INFO scheduler Scheduled Job Start: frappe.email.doctype.email_account.email_account.pull for newbench.new
2021-12-22 21:09:00,456 INFO scheduler Scheduled Job Complete: frappe.email.doctype.email_account.email_account.pull for newbench.new
2021-12-22 21:09:00,609 INFO scheduler Scheduled Job Start: frappe.email.queue.flush for newbench.new
2021-12-22 21:09:01,052 INFO scheduler Scheduled Job Complete: frappe.email.queue.flush for newbench.new
2021-12-22 21:09:54,919 DEBUG scheduler Queued events for site newbench.new
2021-12-22 21:10:55,596 DEBUG scheduler Queued events for site newbench.new
2021-12-22 21:11:56,281 DEBUG scheduler Queued events for site newbench.new
2021-12-22 21:12:56,890 INFO scheduler Scheduled Job Start: erpnext.crm.doctype.social_media_post.social_media_post.process_scheduled_social_media_posts for newbench.new
2021-12-22 21:12:57,118 DEBUG scheduler Queued events for site newbench.new
2021-12-22 21:12:57,879 INFO scheduler Scheduled Job Complete: erpnext.crm.doctype.social_media_post.social_media_post.process_scheduled_social_media_posts for newbench.new
2021-12-22 21:12:58,050 INFO scheduler Scheduled Job Start: erpnext.hr.doctype.interview.interview.send_interview_reminder for newbench.new
2021-12-22 21:12:58,625 INFO scheduler Scheduled Job Complete: erpnext.hr.doctype.interview.interview.send_interview_reminder for newbench.new
2021-12-22 21:12:58,792 INFO scheduler Scheduled Job Start: erpnext.healthcare.doctype.patient_appointment.patient_appointment.send_appointment_reminder for newbench.new
2021-12-22 21:12:59,402 INFO scheduler Scheduled Job Complete: erpnext.healthcare.doctype.patient_appointment.patient_appointment.send_appointment_reminder for newbench.new
2021-12-22 21:12:59,596 INFO scheduler Scheduled Job Start: erpnext.projects.doctype.project.project.project_status_update_reminder for newbench.new
2021-12-22 21:13:00,674 INFO scheduler Scheduled Job Complete: erpnext.projects.doctype.project.project.project_status_update_reminder for newbench.new
2021-12-22 21:13:00,836 INFO scheduler Scheduled Job Start: frappe.monitor.flush for newbench.new
2021-12-22 21:13:01,264 INFO scheduler Scheduled Job Complete: frappe.monitor.flush for newbench.new
2021-12-22 21:13:01,425 INFO scheduler Scheduled Job Start: frappe.utils.global_search.sync_global_search for newbench.new
2021-12-22 21:13:01,870 INFO scheduler Scheduled Job Complete: frappe.utils.global_search.sync_global_search for newbench.new
2021-12-22 21:13:02,036 INFO scheduler Scheduled Job Start: frappe.integrations.doctype.razorpay_settings.razorpay_settings.capture_payment for newbench.new
2021-12-22 21:13:02,878 INFO scheduler Scheduled Job Complete: frappe.integrations.doctype.razorpay_settings.razorpay_settings.capture_payment for newbench.new
2021-12-22 21:13:03,047 INFO scheduler Scheduled Job Start: frappe.email.doctype.email_account.email_account.notify_unreplied for newbench.new
2021-12-22 21:13:03,967 INFO scheduler Scheduled Job Complete: frappe.email.doctype.email_account.email_account.notify_unreplied for newbench.new
2021-12-22 21:13:04,131 INFO scheduler Scheduled Job Start: frappe.email.doctype.email_account.email_account.pull for newbench.new
2021-12-22 21:13:04,906 INFO scheduler Scheduled Job Complete: frappe.email.doctype.email_account.email_account.pull for newbench.new
2021-12-22 21:13:05,061 INFO scheduler Scheduled Job Start: frappe.email.queue.flush for newbench.new
2021-12-22 21:13:05,594 INFO scheduler Scheduled Job Complete: frappe.email.queue.flush for newbench.new
2021-12-22 21:13:57,833 DEBUG scheduler Queued events for site newbench.new
2021-12-22 21:14:58,519 DEBUG scheduler Queued events for site newbench.new
2021-12-22 21:15:59,287 DEBUG scheduler Queued events for site newbench.new
2021-12-22 21:15:59,412 INFO scheduler Scheduled Job Start: frappe.twofactor.delete_all_barcodes_for_users for newbench.new
2021-12-22 21:16:00,547 INFO scheduler Scheduled Job Complete: frappe.twofactor.delete_all_barcodes_for_users for newbench.new
2021-12-22 21:16:00,824 INFO scheduler Scheduled Job Start: frappe.website.doctype.web_page.web_page.check_publish_status for newbench.new
2021-12-22 21:16:01,908 INFO scheduler Scheduled Job Complete: frappe.website.doctype.web_page.web_page.check_publish_status for newbench.new
2021-12-22 21:16:02,262 INFO scheduler Scheduled Job Start: frappe.oauth.delete_oauth2_data for newbench.new
2021-12-22 21:16:03,211 INFO scheduler Scheduled Job Complete: frappe.oauth.delete_oauth2_data for newbench.new
2021-12-22 21:16:59,884 INFO scheduler Scheduled Job Start: erpnext.crm.doctype.social_media_post.social_media_post.process_scheduled_social_media_posts for newbench.new
2021-12-22 21:17:00,085 DEBUG scheduler Queued events for site newbench.new
2021-12-22 21:17:00,448 INFO scheduler Scheduled Job Complete: erpnext.crm.doctype.social_media_post.social_media_post.process_scheduled_social_media_posts for newbench.new
2021-12-22 21:17:00,605 INFO scheduler Scheduled Job Start: erpnext.hr.doctype.interview.interview.send_interview_reminder for newbench.new
2021-12-22 21:17:01,124 INFO scheduler Scheduled Job Complete: erpnext.hr.doctype.interview.interview.send_interview_reminder for newbench.new
2021-12-22 21:17:01,279 INFO scheduler Scheduled Job Start: erpnext.healthcare.doctype.patient_appointment.patient_appointment.send_appointment_reminder for newbench.new
2021-12-22 21:17:02,028 INFO scheduler Scheduled Job Complete: erpnext.healthcare.doctype.patient_appointment.patient_appointment.send_appointment_reminder for newbench.new
2021-12-22 21:17:02,185 INFO scheduler Scheduled Job Start: erpnext.projects.doctype.project.project.project_status_update_reminder for newbench.new
2021-12-22 21:17:03,001 INFO scheduler Scheduled Job Complete: erpnext.projects.doctype.project.project.project_status_update_reminder for newbench.new
2021-12-22 21:17:03,156 INFO scheduler Scheduled Job Start: frappe.monitor.flush for newbench.new
2021-12-22 21:17:03,561 INFO scheduler Scheduled Job Complete: frappe.monitor.flush for newbench.new
2021-12-22 21:17:03,716 INFO scheduler Scheduled Job Start: frappe.utils.global_search.sync_global_search for newbench.new
2021-12-22 21:17:04,121 INFO scheduler Scheduled Job Complete: frappe.utils.global_search.sync_global_search for newbench.new
2021-12-22 21:17:04,273 INFO scheduler Scheduled Job Start: frappe.integrations.doctype.razorpay_settings.razorpay_settings.capture_payment for newbench.new
2021-12-22 21:17:05,083 INFO scheduler Scheduled Job Complete: frappe.integrations.doctype.razorpay_settings.razorpay_settings.capture_payment for newbench.new
2021-12-22 21:17:05,234 INFO scheduler Scheduled Job Start: frappe.email.doctype.email_account.email_account.notify_unreplied for newbench.new
2021-12-22 21:17:05,790 INFO scheduler Scheduled Job Complete: frappe.email.doctype.email_account.email_account.notify_unreplied for newbench.new
2021-12-22 21:17:05,948 INFO scheduler Scheduled Job Start: frappe.email.doctype.email_account.email_account.pull for newbench.new
2021-12-22 21:17:06,569 INFO scheduler Scheduled Job Complete: frappe.email.doctype.email_account.email_account.pull for newbench.new
2021-12-22 21:17:06,723 INFO scheduler Scheduled Job Start: frappe.email.queue.flush for newbench.new
2021-12-22 21:17:07,172 INFO scheduler Scheduled Job Complete: frappe.email.queue.flush for newbench.new
2021-12-22 21:18:00,781 DEBUG scheduler Queued events for site newbench.new
2021-12-22 21:19:01,596 DEBUG scheduler Queued events for site newbench.new
2021-12-22 21:20:02,644 DEBUG scheduler Queued events for site newbench.new
2021-12-22 21:20:05,733 INFO scheduler Scheduled Job Start: erpnext.crm.doctype.social_media_post.social_media_post.process_scheduled_social_media_posts for newbench.new
2021-12-22 21:20:09,843 INFO scheduler Scheduled Job Complete: erpnext.crm.doctype.social_media_post.social_media_post.process_scheduled_social_media_posts for newbench.new
2021-12-22 21:20:10,033 INFO scheduler Scheduled Job Start: erpnext.hr.doctype.interview.interview.send_interview_reminder for newbench.new
2021-12-22 21:20:10,888 INFO scheduler Scheduled Job Complete: erpnext.hr.doctype.interview.interview.send_interview_reminder for newbench.new
2021-12-22 21:20:11,045 INFO scheduler Scheduled Job Start: erpnext.healthcare.doctype.patient_appointment.patient_appointment.send_appointment_reminder for newbench.new
2021-12-22 21:20:11,957 INFO scheduler Scheduled Job Complete: erpnext.healthcare.doctype.patient_appointment.patient_appointment.send_appointment_reminder for newbench.new
2021-12-22 21:20:12,105 INFO scheduler Scheduled Job Start: erpnext.projects.doctype.project.project.project_status_update_reminder for newbench.new
2021-12-22 21:20:14,393 INFO scheduler Scheduled Job Complete: erpnext.projects.doctype.project.project.project_status_update_reminder for newbench.new
2021-12-22 21:20:14,542 INFO scheduler Scheduled Job Start: frappe.monitor.flush for newbench.new
2021-12-22 21:20:15,024 INFO scheduler Scheduled Job Complete: frappe.monitor.flush for newbench.new
2021-12-22 21:20:15,180 INFO scheduler Scheduled Job Start: frappe.utils.global_search.sync_global_search for newbench.new
2021-12-22 21:20:16,107 INFO scheduler Scheduled Job Complete: frappe.utils.global_search.sync_global_search for newbench.new
2021-12-22 21:20:16,272 INFO scheduler Scheduled Job Start: frappe.integrations.doctype.razorpay_settings.razorpay_settings.capture_payment for newbench.new
2021-12-22 21:20:19,385 INFO scheduler Scheduled Job Complete: frappe.integrations.doctype.razorpay_settings.razorpay_settings.capture_payment for newbench.new
2021-12-22 21:20:19,551 INFO scheduler Scheduled Job Start: frappe.email.doctype.email_account.email_account.notify_unreplied for newbench.new
2021-12-22 21:20:21,062 INFO scheduler Scheduled Job Complete: frappe.email.doctype.email_account.email_account.notify_unreplied for newbench.new
2021-12-22 21:20:21,219 INFO scheduler Scheduled Job Start: frappe.email.doctype.email_account.email_account.pull for newbench.new
2021-12-22 21:20:21,976 INFO scheduler Scheduled Job Complete: frappe.email.doctype.email_account.email_account.pull for newbench.new
2021-12-22 21:20:22,143 INFO scheduler Scheduled Job Start: frappe.email.queue.flush for newbench.new
2021-12-22 21:20:22,842 INFO scheduler Scheduled Job Complete: frappe.email.queue.flush for newbench.new
2021-12-22 21:21:04,554 DEBUG scheduler Queued events for site newbench.new
2021-12-22 21:22:05,257 DEBUG scheduler Queued events for site newbench.new
2021-12-22 21:23:09,632 DEBUG scheduler Queued events for site newbench.new
2021-12-22 21:24:10,585 DEBUG scheduler Queued events for site newbench.new
2021-12-22 21:24:12,113 INFO scheduler Scheduled Job Start: erpnext.crm.doctype.social_media_post.social_media_post.process_scheduled_social_media_posts for newbench.new
2021-12-22 21:24:16,276 INFO scheduler Scheduled Job Complete: erpnext.crm.doctype.social_media_post.social_media_post.process_scheduled_social_media_posts for newbench.new
2021-12-22 21:24:16,437 INFO scheduler Scheduled Job Start: erpnext.hr.doctype.interview.interview.send_interview_reminder for newbench.new
2021-12-22 21:24:17,750 INFO scheduler Scheduled Job Complete: erpnext.hr.doctype.interview.interview.send_interview_reminder for newbench.new
2021-12-22 21:24:17,917 INFO scheduler Scheduled Job Start: erpnext.healthcare.doctype.patient_appointment.patient_appointment.send_appointment_reminder for newbench.new
2021-12-22 21:24:19,409 INFO scheduler Scheduled Job Complete: erpnext.healthcare.doctype.patient_appointment.patient_appointment.send_appointment_reminder for newbench.new
2021-12-22 21:24:19,601 INFO scheduler Scheduled Job Start: erpnext.projects.doctype.project.project.project_status_update_reminder for newbench.new
2021-12-22 21:24:27,337 INFO scheduler Scheduled Job Complete: erpnext.projects.doctype.project.project.project_status_update_reminder for newbench.new
2021-12-22 21:24:27,491 INFO scheduler Scheduled Job Start: frappe.monitor.flush for newbench.new
2021-12-22 21:24:29,606 INFO scheduler Scheduled Job Complete: frappe.monitor.flush for newbench.new
2021-12-23 10:26:49,135 INFO scheduler Scheduled Job Start: erpnext.stock.doctype.repost_item_valuation.repost_item_valuation.repost_entries for newbench.new
2021-12-23 10:26:49,136 INFO scheduler Scheduled Job Start: erpnext.non_profit.doctype.membership.membership.set_expired_statuserpnext.hr.doctype.interview.interview.send_daily_feedback_reminder for newbench.new
2021-12-23 10:26:52,025 DEBUG scheduler Queued events for site newbench.new
2021-12-23 10:26:56,220 INFO scheduler Scheduled Job Failed: erpnext.non_profit.doctype.membership.membership.set_expired_statuserpnext.hr.doctype.interview.interview.send_daily_feedback_reminder for newbench.new
2021-12-23 10:26:57,126 INFO scheduler Scheduled Job Start: erpnext.accounts.doctype.process_statement_of_accounts.process_statement_of_accounts.send_auto_email for newbench.new
2021-12-23 10:27:00,256 INFO scheduler Scheduled Job Complete: erpnext.stock.doctype.repost_item_valuation.repost_item_valuation.repost_entries for newbench.new
2021-12-23 10:27:00,835 INFO scheduler Scheduled Job Start: erpnext.crm.doctype.lead.lead.daily_open_lead for newbench.new
2021-12-23 10:27:02,991 INFO scheduler Scheduled Job Complete: erpnext.accounts.doctype.process_statement_of_accounts.process_statement_of_accounts.send_auto_email for newbench.new
2021-12-23 10:27:03,308 INFO scheduler Scheduled Job Start: erpnext.buying.doctype.supplier_quotation.supplier_quotation.set_expired_status for newbench.new
2021-12-23 10:27:06,285 INFO scheduler Scheduled Job Complete: erpnext.buying.doctype.supplier_quotation.supplier_quotation.set_expired_status for newbench.new
2021-12-23 10:27:06,553 INFO scheduler Scheduled Job Complete: erpnext.crm.doctype.lead.lead.daily_open_lead for newbench.new
2021-12-23 10:27:06,731 INFO scheduler Scheduled Job Start: erpnext.healthcare.doctype.patient_appointment.patient_appointment.update_appointment_status for newbench.new
2021-12-23 10:27:06,861 INFO scheduler Scheduled Job Start: erpnext.loan_management.doctype.process_loan_interest_accrual.process_loan_interest_accrual.process_loan_interest_accrual_for_term_loans for newbench.new
2021-12-23 10:27:08,545 INFO scheduler Scheduled Job Complete: erpnext.loan_management.doctype.process_loan_interest_accrual.process_loan_interest_accrual.process_loan_interest_accrual_for_term_loans for newbench.new
2021-12-23 10:27:08,972 INFO scheduler Scheduled Job Failed: erpnext.healthcare.doctype.patient_appointment.patient_appointment.update_appointment_status for newbench.new
2021-12-23 10:27:09,075 INFO scheduler Scheduled Job Start: erpnext.loan_management.doctype.process_loan_security_shortfall.process_loan_security_shortfall.create_process_loan_security_shortfall for newbench.new
2021-12-23 10:27:09,304 INFO scheduler Scheduled Job Start: erpnext.selling.doctype.quotation.quotation.set_expired_status for newbench.new
2021-12-23 10:27:10,956 INFO scheduler Scheduled Job Complete: erpnext.loan_management.doctype.process_loan_security_shortfall.process_loan_security_shortfall.create_process_loan_security_shortfall for newbench.new
2021-12-23 10:27:11,246 INFO scheduler Scheduled Job Start: erpnext.hr.utils.allocate_earned_leaves for newbench.new
2021-12-23 10:27:11,657 INFO scheduler Scheduled Job Complete: erpnext.selling.doctype.quotation.quotation.set_expired_status for newbench.new
2021-12-23 10:27:12,600 INFO scheduler Scheduled Job Start: erpnext.crm.doctype.email_campaign.email_campaign.set_email_campaign_status for newbench.new
2021-12-23 10:27:15,416 INFO scheduler Scheduled Job Complete: erpnext.hr.utils.allocate_earned_leaves for newbench.new
2021-12-23 10:27:16,756 INFO scheduler Scheduled Job Start: erpnext.hr.utils.generate_leave_encashment for newbench.new
2021-12-23 10:27:17,385 INFO scheduler Scheduled Job Complete: erpnext.crm.doctype.email_campaign.email_campaign.set_email_campaign_status for newbench.new
2021-12-23 10:27:18,096 INFO scheduler Scheduled Job Start: erpnext.crm.doctype.email_campaign.email_campaign.send_email_to_leads_or_contacts for newbench.new
2021-12-23 10:27:18,917 INFO scheduler Scheduled Job Complete: erpnext.crm.doctype.email_campaign.email_campaign.send_email_to_leads_or_contacts for newbench.new
2021-12-23 10:27:19,184 INFO scheduler Scheduled Job Start: erpnext.support.doctype.service_level_agreement.service_level_agreement.check_agreement_status for newbench.new
2021-12-23 10:27:21,097 INFO scheduler Scheduled Job Complete: erpnext.hr.utils.generate_leave_encashment for newbench.new
2021-12-23 10:27:22,020 INFO scheduler Scheduled Job Complete: erpnext.support.doctype.service_level_agreement.service_level_agreement.check_agreement_status for newbench.new
2021-12-23 10:27:22,039 INFO scheduler Scheduled Job Start: erpnext.hr.doctype.leave_ledger_entry.leave_ledger_entry.process_expired_allocation for newbench.new
2021-12-23 10:27:22,774 INFO scheduler Scheduled Job Start: erpnext.quality_management.doctype.quality_review.quality_review.review for newbench.new
2021-12-23 10:27:26,504 INFO scheduler Scheduled Job Complete: erpnext.hr.doctype.leave_ledger_entry.leave_ledger_entry.process_expired_allocation for newbench.new
2021-12-23 10:27:27,443 INFO scheduler Scheduled Job Complete: erpnext.quality_management.doctype.quality_review.quality_review.review for newbench.new
2021-12-23 10:27:27,826 INFO scheduler Scheduled Job Start: erpnext.projects.doctype.project.project.send_project_status_email_to_users for newbench.new
2021-12-23 10:27:27,835 INFO scheduler Scheduled Job Start: erpnext.manufacturing.doctype.bom_update_tool.bom_update_tool.update_latest_price_in_all_boms for newbench.new
2021-12-23 10:27:59,853 DEBUG scheduler Queued events for site newbench.new
2021-12-23 10:28:17,686 INFO scheduler Scheduled Job Complete: erpnext.manufacturing.doctype.bom_update_tool.bom_update_tool.update_latest_price_in_all_boms for newbench.new
2021-12-23 10:28:20,267 INFO scheduler Scheduled Job Complete: erpnext.projects.doctype.project.project.send_project_status_email_to_users for newbench.new
2021-12-23 10:28:24,936 INFO scheduler Scheduled Job Start: erpnext.projects.doctype.project.project.update_project_sales_billing for newbench.new
2021-12-23 10:28:24,937 INFO scheduler Scheduled Job Start: erpnext.setup.doctype.email_digest.email_digest.send for newbench.new
2021-12-23 10:28:41,135 INFO scheduler Scheduled Job Complete: erpnext.setup.doctype.email_digest.email_digest.send for newbench.new
2021-12-23 10:28:44,830 INFO scheduler Scheduled Job Start: frappe.integrations.doctype.google_drive.google_drive.daily_backup for newbench.new
2021-12-23 10:28:44,994 INFO scheduler Scheduled Job Complete: erpnext.projects.doctype.project.project.update_project_sales_billing for newbench.new
2021-12-23 10:28:45,483 INFO scheduler Scheduled Job Start: erpnext.crm.doctype.contract.contract.update_status_for_contracts for newbench.new
2021-12-23 10:29:04,990 DEBUG scheduler Queued events for site newbench.new
2021-12-23 10:29:11,165 INFO scheduler Scheduled Job Complete: erpnext.crm.doctype.contract.contract.update_status_for_contracts for newbench.new
2021-12-23 10:29:17,836 INFO scheduler Scheduled Job Start: erpnext.assets.doctype.asset.asset.make_post_gl_entry for newbench.new
2021-12-23 10:29:21,493 INFO scheduler Scheduled Job Complete: frappe.integrations.doctype.google_drive.google_drive.daily_backup for newbench.new
2021-12-23 10:29:21,797 INFO scheduler Scheduled Job Start: frappe.integrations.doctype.s3_backup_settings.s3_backup_settings.take_backups_daily for newbench.new
2021-12-23 10:29:37,026 INFO scheduler Scheduled Job Complete: frappe.integrations.doctype.s3_backup_settings.s3_backup_settings.take_backups_daily for newbench.new
2021-12-23 10:29:38,593 INFO scheduler Scheduled Job Start: frappe.utils.change_log.check_for_update for newbench.new
2021-12-23 10:29:42,771 INFO scheduler Scheduled Job Complete: erpnext.assets.doctype.asset.asset.make_post_gl_entry for newbench.new
2021-12-23 10:29:43,310 INFO scheduler Scheduled Job Start: erpnext.assets.doctype.asset.asset.update_maintenance_status for newbench.new
2021-12-23 10:29:46,480 INFO scheduler Scheduled Job Complete: erpnext.assets.doctype.asset.asset.update_maintenance_status for newbench.new
2021-12-23 10:29:46,841 INFO scheduler Scheduled Job Start: erpnext.setup.doctype.company.company.cache_companies_monthly_sales_history for newbench.new
2021-12-23 10:29:54,105 INFO scheduler Scheduled Job Complete: erpnext.setup.doctype.company.company.cache_companies_monthly_sales_history for newbench.new
2021-12-23 10:29:54,575 INFO scheduler Scheduled Job Start: erpnext.buying.doctype.supplier_scorecard.supplier_scorecard.refresh_scorecards for newbench.new
2021-12-23 10:29:56,509 INFO scheduler Scheduled Job Complete: erpnext.buying.doctype.supplier_scorecard.supplier_scorecard.refresh_scorecards for newbench.new
2021-12-23 10:29:56,882 INFO scheduler Scheduled Job Start: erpnext.stock.doctype.serial_no.serial_no.update_maintenance_status for newbench.new
2021-12-23 10:29:58,205 INFO scheduler Scheduled Job Complete: erpnext.stock.doctype.serial_no.serial_no.update_maintenance_status for newbench.new
2021-12-23 10:29:58,615 INFO scheduler Scheduled Job Start: erpnext.hr.doctype.daily_work_summary_group.daily_work_summary_group.send_summary for newbench.new
2021-12-23 10:29:58,638 INFO scheduler Scheduled Job Complete: frappe.utils.change_log.check_for_update for newbench.new
2021-12-23 10:29:58,878 INFO scheduler Scheduled Job Start: frappe.integrations.doctype.dropbox_settings.dropbox_settings.take_backups_daily for newbench.new
2021-12-23 10:30:01,702 INFO scheduler Scheduled Job Complete: erpnext.hr.doctype.daily_work_summary_group.daily_work_summary_group.send_summary for newbench.new
2021-12-23 10:30:02,294 INFO scheduler Scheduled Job Start: erpnext.assets.doctype.asset.depreciation.post_depreciation_entries for newbench.new
2021-12-23 10:30:02,652 INFO scheduler Scheduled Job Complete: frappe.integrations.doctype.dropbox_settings.dropbox_settings.take_backups_daily for newbench.new
2021-12-23 10:30:03,153 INFO scheduler Scheduled Job Complete: erpnext.assets.doctype.asset.depreciation.post_depreciation_entries for newbench.new
2021-12-23 10:30:03,454 INFO scheduler Scheduled Job Start: erpnext.projects.doctype.task.task.set_tasks_as_overdue for newbench.new
2021-12-23 10:30:05,597 DEBUG scheduler Queued events for site newbench.new
2021-12-23 10:30:07,513 INFO scheduler Scheduled Job Complete: erpnext.projects.doctype.task.task.set_tasks_as_overdue for newbench.new
2021-12-23 10:30:07,825 INFO scheduler Scheduled Job Start: erpnext.hr.doctype.employee.employee_reminders.send_birthday_reminders for newbench.new
2021-12-23 10:30:08,806 INFO scheduler Scheduled Job Complete: erpnext.hr.doctype.employee.employee_reminders.send_birthday_reminders for newbench.new
2021-12-23 10:30:09,012 INFO scheduler Scheduled Job Start: erpnext.hr.doctype.employee.employee_reminders.send_work_anniversary_reminders for newbench.new
2021-12-23 10:30:09,666 INFO scheduler Scheduled Job Complete: erpnext.hr.doctype.employee.employee_reminders.send_work_anniversary_reminders for newbench.new
2021-12-23 10:30:09,880 INFO scheduler Scheduled Job Start: erpnext.accounts.doctype.fiscal_year.fiscal_year.auto_create_fiscal_year for newbench.new
2021-12-23 10:30:10,636 INFO scheduler Scheduled Job Complete: erpnext.accounts.doctype.fiscal_year.fiscal_year.auto_create_fiscal_year for newbench.new
2021-12-23 10:30:10,851 INFO scheduler Scheduled Job Start: erpnext.controllers.accounts_controller.update_invoice_status for newbench.new
2021-12-23 10:30:11,902 INFO scheduler Scheduled Job Complete: erpnext.controllers.accounts_controller.update_invoice_status for newbench.new
2021-12-23 10:30:12,132 INFO scheduler Scheduled Job Start: erpnext.crm.doctype.opportunity.opportunity.auto_close_opportunity for newbench.new
2021-12-23 10:30:13,011 INFO scheduler Scheduled Job Complete: erpnext.crm.doctype.opportunity.opportunity.auto_close_opportunity for newbench.new
2021-12-23 10:30:13,252 INFO scheduler Scheduled Job Start: erpnext.support.doctype.issue.issue.auto_close_tickets for newbench.new
2021-12-23 10:30:13,901 INFO scheduler Scheduled Job Complete: erpnext.support.doctype.issue.issue.auto_close_tickets for newbench.new
2021-12-23 10:30:14,125 INFO scheduler Scheduled Job Start: erpnext.stock.reorder_item.reorder_item for newbench.new
2021-12-23 10:30:15,023 INFO scheduler Scheduled Job Complete: erpnext.stock.reorder_item.reorder_item for newbench.new
2021-12-23 10:30:15,255 INFO scheduler Scheduled Job Start: erpnext.erpnext_integrations.connectors.shopify_connection.sync_old_orders for newbench.new
2021-12-23 10:30:17,558 INFO scheduler Scheduled Job Complete: erpnext.erpnext_integrations.connectors.shopify_connection.sync_old_orders for newbench.new
2021-12-23 10:30:17,768 INFO scheduler Scheduled Job Start: erpnext.support.doctype.issue.issue.set_service_level_agreement_variance for newbench.new
2021-12-23 10:30:18,576 INFO scheduler Scheduled Job Complete: erpnext.support.doctype.issue.issue.set_service_level_agreement_variance for newbench.new
2021-12-23 10:30:18,794 INFO scheduler Scheduled Job Start: erpnext.hr.doctype.shift_type.shift_type.process_auto_attendance_for_all_shifts for newbench.new
2021-12-23 10:30:19,777 INFO scheduler Scheduled Job Complete: erpnext.hr.doctype.shift_type.shift_type.process_auto_attendance_for_all_shifts for newbench.new
2021-12-23 10:30:20,081 INFO scheduler Scheduled Job Start: erpnext.projects.doctype.project.project.collect_project_status for newbench.new
2021-12-23 10:30:20,867 INFO scheduler Scheduled Job Complete: erpnext.projects.doctype.project.project.collect_project_status for newbench.new
2021-12-23 10:30:21,200 INFO scheduler Scheduled Job Start: erpnext.projects.doctype.project.project.hourly_reminder for newbench.new
2021-12-23 10:30:22,076 INFO scheduler Scheduled Job Complete: erpnext.projects.doctype.project.project.hourly_reminder for newbench.new
2021-12-23 10:30:22,288 INFO scheduler Scheduled Job Start: erpnext.erpnext_integrations.doctype.plaid_settings.plaid_settings.automatic_synchronization for newbench.new
2021-12-23 10:30:23,724 INFO scheduler Scheduled Job Complete: erpnext.erpnext_integrations.doctype.plaid_settings.plaid_settings.automatic_synchronization for newbench.new
2021-12-23 10:30:23,918 INFO scheduler Scheduled Job Start: erpnext.accounts.doctype.gl_entry.gl_entry.rename_gle_sle_docs for newbench.new
2021-12-23 10:30:25,006 INFO scheduler Scheduled Job Complete: erpnext.accounts.doctype.gl_entry.gl_entry.rename_gle_sle_docs for newbench.new
2021-12-23 10:30:25,228 INFO scheduler Scheduled Job Start: erpnext.erpnext_integrations.doctype.amazon_mws_settings.amazon_mws_settings.schedule_get_order_details for newbench.new
2021-12-23 10:30:25,986 INFO scheduler Scheduled Job Complete: erpnext.erpnext_integrations.doctype.amazon_mws_settings.amazon_mws_settings.schedule_get_order_details for newbench.new
2021-12-23 10:30:26,308 INFO scheduler Scheduled Job Start: erpnext.accounts.doctype.subscription.subscription.process_all for newbench.new
2021-12-23 10:30:27,149 INFO scheduler Scheduled Job Complete: erpnext.accounts.doctype.subscription.subscription.process_all for newbench.new
2021-12-23 10:30:27,369 INFO scheduler Scheduled Job Start: erpnext.hr.doctype.daily_work_summary_group.daily_work_summary_group.trigger_emails for newbench.new
2021-12-23 10:30:28,133 INFO scheduler Scheduled Job Complete: erpnext.hr.doctype.daily_work_summary_group.daily_work_summary_group.trigger_emails for newbench.new
2021-12-23 10:30:28,352 INFO scheduler Scheduled Job Start: erpnext.crm.doctype.social_media_post.social_media_post.process_scheduled_social_media_posts for newbench.new
2021-12-23 10:30:29,193 INFO scheduler Scheduled Job Complete: erpnext.crm.doctype.social_media_post.social_media_post.process_scheduled_social_media_posts for newbench.new
2021-12-23 10:30:29,346 INFO scheduler Scheduled Job Start: erpnext.hr.doctype.interview.interview.send_interview_reminder for newbench.new
2021-12-23 10:30:30,573 INFO scheduler Scheduled Job Complete: erpnext.hr.doctype.interview.interview.send_interview_reminder for newbench.new
2021-12-23 10:30:30,759 INFO scheduler Scheduled Job Start: erpnext.healthcare.doctype.patient_appointment.patient_appointment.send_appointment_reminder for newbench.new
2021-12-23 10:30:31,584 INFO scheduler Scheduled Job Complete: erpnext.healthcare.doctype.patient_appointment.patient_appointment.send_appointment_reminder for newbench.new
2021-12-23 10:30:31,735 INFO scheduler Scheduled Job Start: erpnext.projects.doctype.project.project.project_status_update_reminder for newbench.new
2021-12-23 10:30:33,064 INFO scheduler Scheduled Job Complete: erpnext.projects.doctype.project.project.project_status_update_reminder for newbench.new
2021-12-23 10:30:33,213 INFO scheduler Scheduled Job Start: erpnext.utilities.doctype.video.video.update_youtube_data for newbench.new
2021-12-23 10:30:35,043 INFO scheduler Scheduled Job Complete: erpnext.utilities.doctype.video.video.update_youtube_data for newbench.new
2021-12-23 10:30:35,270 INFO scheduler Scheduled Job Start: frappe.core.doctype.log_settings.log_settings.run_log_clean_up for newbench.new
2021-12-23 10:30:37,186 INFO scheduler Scheduled Job Complete: frappe.core.doctype.log_settings.log_settings.run_log_clean_up for newbench.new
2021-12-23 10:30:37,453 INFO scheduler Scheduled Job Start: frappe.core.doctype.prepared_report.prepared_report.delete_expired_prepared_reports for newbench.new
2021-12-23 10:30:38,863 INFO scheduler Scheduled Job Complete: frappe.core.doctype.prepared_report.prepared_report.delete_expired_prepared_reports for newbench.new
2021-12-23 10:30:39,152 INFO scheduler Scheduled Job Start: frappe.email.doctype.unhandled_email.unhandled_email.remove_old_unhandled_emails for newbench.new
2021-12-23 10:30:39,843 INFO scheduler Scheduled Job Complete: frappe.email.doctype.unhandled_email.unhandled_email.remove_old_unhandled_emails for newbench.new
2021-12-23 10:30:40,069 INFO scheduler Scheduled Job Start: frappe.automation.doctype.auto_repeat.auto_repeat.set_auto_repeat_as_completed for newbench.new
2021-12-23 10:30:41,108 INFO scheduler Scheduled Job Complete: frappe.automation.doctype.auto_repeat.auto_repeat.set_auto_repeat_as_completed for newbench.new
2021-12-23 10:30:41,328 INFO scheduler Scheduled Job Start: frappe.automation.doctype.auto_repeat.auto_repeat.make_auto_repeat_entry for newbench.new
2021-12-23 10:30:42,140 INFO scheduler Scheduled Job Complete: frappe.automation.doctype.auto_repeat.auto_repeat.make_auto_repeat_entry for newbench.new
2021-12-23 10:30:42,430 INFO scheduler Scheduled Job Start: frappe.integrations.doctype.google_contacts.google_contacts.sync for newbench.new
2021-12-23 10:30:44,665 INFO scheduler Scheduled Job Complete: frappe.integrations.doctype.google_contacts.google_contacts.sync for newbench.new
2021-12-23 10:30:44,882 INFO scheduler Scheduled Job Start: frappe.social.doctype.energy_point_settings.energy_point_settings.allocate_review_points for newbench.new
2021-12-23 10:30:45,596 INFO scheduler Scheduled Job Complete: frappe.social.doctype.energy_point_settings.energy_point_settings.allocate_review_points for newbench.new
2021-12-23 10:30:45,821 INFO scheduler Scheduled Job Start: frappe.desk.form.document_follow.send_daily_updates for newbench.new
2021-12-23 10:30:46,706 INFO scheduler Scheduled Job Complete: frappe.desk.form.document_follow.send_daily_updates for newbench.new
2021-12-23 10:30:46,931 INFO scheduler Scheduled Job Start: frappe.website.doctype.personal_data_deletion_request.personal_data_deletion_request.remove_unverified_record for newbench.new
2021-12-23 10:30:47,813 INFO scheduler Scheduled Job Complete: frappe.website.doctype.personal_data_deletion_request.personal_data_deletion_request.remove_unverified_record for newbench.new
2021-12-23 10:30:48,045 INFO scheduler Scheduled Job Start: frappe.email.doctype.auto_email_report.auto_email_report.send_daily for newbench.new
2021-12-23 10:30:52,809 INFO scheduler Scheduled Job Complete: frappe.email.doctype.auto_email_report.auto_email_report.send_daily for newbench.new
2021-12-23 10:30:53,038 INFO scheduler Scheduled Job Start: frappe.utils.scheduler.restrict_scheduler_events_if_dormant for newbench.new
2021-12-23 10:30:53,830 INFO scheduler Scheduled Job Failed: frappe.utils.scheduler.restrict_scheduler_events_if_dormant for newbench.new
2021-12-23 10:30:54,368 INFO scheduler Scheduled Job Start: frappe.email.doctype.notification.notification.trigger_daily_alerts for newbench.new
2021-12-23 10:30:55,494 INFO scheduler Scheduled Job Complete: frappe.email.doctype.notification.notification.trigger_daily_alerts for newbench.new
2021-12-23 10:30:55,708 INFO scheduler Scheduled Job Start: frappe.sessions.clear_expired_sessions for newbench.new
2021-12-23 10:30:56,306 INFO scheduler Scheduled Job Complete: frappe.sessions.clear_expired_sessions for newbench.new
2021-12-23 10:30:56,519 INFO scheduler Scheduled Job Start: frappe.desk.doctype.event.event.send_event_digest for newbench.new
2021-12-23 10:30:57,327 INFO scheduler Scheduled Job Complete: frappe.desk.doctype.event.event.send_event_digest for newbench.new
2021-12-23 10:30:57,548 INFO scheduler Scheduled Job Start: frappe.core.doctype.error_log.error_log.set_old_logs_as_seen for newbench.new
2021-12-23 10:30:58,336 INFO scheduler Scheduled Job Complete: frappe.core.doctype.error_log.error_log.set_old_logs_as_seen for newbench.new
2021-12-23 10:30:58,585 INFO scheduler Scheduled Job Start: frappe.desk.notifications.clear_notifications for newbench.new
2021-12-23 10:30:59,305 INFO scheduler Scheduled Job Complete: frappe.desk.notifications.clear_notifications for newbench.new
2021-12-23 10:30:59,540 INFO scheduler Scheduled Job Start: frappe.email.queue.set_expiry_for_email_queue for newbench.new
2021-12-23 10:31:00,596 INFO scheduler Scheduled Job Complete: frappe.email.queue.set_expiry_for_email_queue for newbench.new
2021-12-23 10:31:01,047 INFO scheduler Scheduled Job Start: frappe.email.doctype.newsletter.newsletter.send_scheduled_email for newbench.new
2021-12-23 10:31:01,834 INFO scheduler Scheduled Job Complete: frappe.email.doctype.newsletter.newsletter.send_scheduled_email for newbench.new
2021-12-23 10:31:02,083 INFO scheduler Scheduled Job Start: frappe.integrations.doctype.google_calendar.google_calendar.sync for newbench.new
2021-12-23 10:31:03,466 INFO scheduler Scheduled Job Complete: frappe.integrations.doctype.google_calendar.google_calendar.sync for newbench.new
2021-12-23 10:31:03,856 INFO scheduler Scheduled Job Start: frappe.desk.form.document_follow.send_hourly_updates for newbench.new
2021-12-23 10:31:04,519 INFO scheduler Scheduled Job Complete: frappe.desk.form.document_follow.send_hourly_updates for newbench.new
2021-12-23 10:31:04,735 INFO scheduler Scheduled Job Start: frappe.deferred_insert.save_to_db for newbench.new
2021-12-23 10:31:05,379 INFO scheduler Scheduled Job Complete: frappe.deferred_insert.save_to_db for newbench.new
2021-12-23 10:31:05,742 INFO scheduler Scheduled Job Start: frappe.desk.page.backups.backups.delete_downloadable_backups for newbench.new
2021-12-23 10:31:06,224 DEBUG scheduler Queued events for site newbench.new
2021-12-23 10:31:06,644 INFO scheduler Scheduled Job Complete: frappe.desk.page.backups.backups.delete_downloadable_backups for newbench.new
2021-12-23 10:31:06,902 INFO scheduler Scheduled Job Start: frappe.utils.error.collect_error_snapshots for newbench.new
2021-12-23 10:31:08,566 INFO scheduler Scheduled Job Complete: frappe.utils.error.collect_error_snapshots for newbench.new
2021-12-23 10:31:08,951 INFO scheduler Scheduled Job Start: frappe.model.utils.user_settings.sync_user_settings for newbench.new
2021-12-23 10:31:09,563 INFO scheduler Scheduled Job Complete: frappe.model.utils.user_settings.sync_user_settings for newbench.new
2021-12-23 10:31:09,785 INFO scheduler Scheduled Job Start: frappe.model.utils.link_count.update_link_count for newbench.new
2021-12-23 10:31:10,536 INFO scheduler Scheduled Job Complete: frappe.model.utils.link_count.update_link_count for newbench.new
2021-12-23 10:31:10,844 INFO scheduler Scheduled Job Start: frappe.monitor.flush for newbench.new
2021-12-23 10:31:11,288 INFO scheduler Scheduled Job Complete: frappe.monitor.flush for newbench.new
2021-12-23 10:31:11,445 INFO scheduler Scheduled Job Start: frappe.utils.global_search.sync_global_search for newbench.new
2021-12-23 10:31:12,393 INFO scheduler Scheduled Job Complete: frappe.utils.global_search.sync_global_search for newbench.new
2021-12-23 10:31:12,550 INFO scheduler Scheduled Job Start: frappe.integrations.doctype.razorpay_settings.razorpay_settings.capture_payment for newbench.new
2021-12-23 10:31:13,744 INFO scheduler Scheduled Job Complete: frappe.integrations.doctype.razorpay_settings.razorpay_settings.capture_payment for newbench.new
2021-12-23 10:31:13,899 INFO scheduler Scheduled Job Start: frappe.email.doctype.email_account.email_account.notify_unreplied for newbench.new
2021-12-23 10:31:15,108 INFO scheduler Scheduled Job Complete: frappe.email.doctype.email_account.email_account.notify_unreplied for newbench.new
2021-12-23 10:31:15,258 INFO scheduler Scheduled Job Start: frappe.email.doctype.email_account.email_account.pull for newbench.new
2021-12-23 10:31:15,880 INFO scheduler Scheduled Job Complete: frappe.email.doctype.email_account.email_account.pull for newbench.new
2021-12-23 10:31:16,029 INFO scheduler Scheduled Job Start: frappe.email.queue.flush for newbench.new
2021-12-23 10:31:16,624 INFO scheduler Scheduled Job Complete: frappe.email.queue.flush for newbench.new
2021-12-23 10:31:16,772 INFO scheduler Scheduled Job Start: frappe.twofactor.delete_all_barcodes_for_users for newbench.new
2021-12-23 10:31:17,521 INFO scheduler Scheduled Job Complete: frappe.twofactor.delete_all_barcodes_for_users for newbench.new
2021-12-23 10:31:17,753 INFO scheduler Scheduled Job Start: frappe.website.doctype.web_page.web_page.check_publish_status for newbench.new
2021-12-23 10:31:18,644 INFO scheduler Scheduled Job Complete: frappe.website.doctype.web_page.web_page.check_publish_status for newbench.new
2021-12-23 10:31:18,882 INFO scheduler Scheduled Job Start: frappe.oauth.delete_oauth2_data for newbench.new
2021-12-23 10:31:20,212 INFO scheduler Scheduled Job Complete: frappe.oauth.delete_oauth2_data for newbench.new
2021-12-23 10:32:06,811 INFO scheduler Scheduled Job Start: erpnext.crm.doctype.social_media_post.social_media_post.process_scheduled_social_media_posts for newbench.new
2021-12-23 10:32:07,049 DEBUG scheduler Queued events for site newbench.new
2021-12-23 10:32:07,407 INFO scheduler Scheduled Job Complete: erpnext.crm.doctype.social_media_post.social_media_post.process_scheduled_social_media_posts for newbench.new
2021-12-23 10:32:07,556 INFO scheduler Scheduled Job Start: erpnext.hr.doctype.interview.interview.send_interview_reminder for newbench.new
2021-12-23 10:32:08,084 INFO scheduler Scheduled Job Complete: erpnext.hr.doctype.interview.interview.send_interview_reminder for newbench.new
2021-12-23 10:32:08,232 INFO scheduler Scheduled Job Start: erpnext.healthcare.doctype.patient_appointment.patient_appointment.send_appointment_reminder for newbench.new
2021-12-23 10:32:08,839 INFO scheduler Scheduled Job Complete: erpnext.healthcare.doctype.patient_appointment.patient_appointment.send_appointment_reminder for newbench.new
2021-12-23 10:32:08,989 INFO scheduler Scheduled Job Start: erpnext.projects.doctype.project.project.project_status_update_reminder for newbench.new
2021-12-23 10:32:09,712 INFO scheduler Scheduled Job Complete: erpnext.projects.doctype.project.project.project_status_update_reminder for newbench.new
2021-12-23 10:32:09,868 INFO scheduler Scheduled Job Start: frappe.monitor.flush for newbench.new
2021-12-23 10:32:10,284 INFO scheduler Scheduled Job Complete: frappe.monitor.flush for newbench.new
2021-12-23 10:32:10,441 INFO scheduler Scheduled Job Start: frappe.utils.global_search.sync_global_search for newbench.new
2021-12-23 10:32:10,851 INFO scheduler Scheduled Job Complete: frappe.utils.global_search.sync_global_search for newbench.new
2021-12-23 10:32:11,006 INFO scheduler Scheduled Job Start: frappe.integrations.doctype.razorpay_settings.razorpay_settings.capture_payment for newbench.new
2021-12-23 10:32:11,738 INFO scheduler Scheduled Job Complete: frappe.integrations.doctype.razorpay_settings.razorpay_settings.capture_payment for newbench.new
2021-12-23 10:32:11,918 INFO scheduler Scheduled Job Start: frappe.email.doctype.email_account.email_account.notify_unreplied for newbench.new
2021-12-23 10:32:12,517 INFO scheduler Scheduled Job Complete: frappe.email.doctype.email_account.email_account.notify_unreplied for newbench.new
2021-12-23 10:32:12,665 INFO scheduler Scheduled Job Start: frappe.email.doctype.email_account.email_account.pull for newbench.new
2021-12-23 10:32:13,248 INFO scheduler Scheduled Job Complete: frappe.email.doctype.email_account.email_account.pull for newbench.new
2021-12-23 10:32:13,398 INFO scheduler Scheduled Job Start: frappe.email.queue.flush for newbench.new
2021-12-23 10:32:13,842 INFO scheduler Scheduled Job Complete: frappe.email.queue.flush for newbench.new
2021-12-23 10:33:07,710 DEBUG scheduler Queued events for site newbench.new
2021-12-23 10:34:08,378 DEBUG scheduler Queued events for site newbench.new
2021-12-23 10:35:09,073 DEBUG scheduler Queued events for site newbench.new
2021-12-23 10:36:09,659 INFO scheduler Scheduled Job Start: erpnext.crm.doctype.social_media_post.social_media_post.process_scheduled_social_media_posts for newbench.new
2021-12-23 10:36:09,853 DEBUG scheduler Queued events for site newbench.new
2021-12-23 10:36:10,157 INFO scheduler Scheduled Job Complete: erpnext.crm.doctype.social_media_post.social_media_post.process_scheduled_social_media_posts for newbench.new
2021-12-23 10:36:10,305 INFO scheduler Scheduled Job Start: erpnext.hr.doctype.interview.interview.send_interview_reminder for newbench.new
2021-12-23 10:36:10,844 INFO scheduler Scheduled Job Complete: erpnext.hr.doctype.interview.interview.send_interview_reminder for newbench.new
2021-12-23 10:36:10,995 INFO scheduler Scheduled Job Start: erpnext.healthcare.doctype.patient_appointment.patient_appointment.send_appointment_reminder for newbench.new
2021-12-23 10:36:11,524 INFO scheduler Scheduled Job Complete: erpnext.healthcare.doctype.patient_appointment.patient_appointment.send_appointment_reminder for newbench.new
2021-12-23 10:36:11,674 INFO scheduler Scheduled Job Start: erpnext.projects.doctype.project.project.project_status_update_reminder for newbench.new
2021-12-23 10:36:12,454 INFO scheduler Scheduled Job Complete: erpnext.projects.doctype.project.project.project_status_update_reminder for newbench.new
2021-12-23 10:36:12,606 INFO scheduler Scheduled Job Start: frappe.monitor.flush for newbench.new
2021-12-23 10:36:13,004 INFO scheduler Scheduled Job Complete: frappe.monitor.flush for newbench.new
2021-12-23 10:36:13,156 INFO scheduler Scheduled Job Start: frappe.utils.global_search.sync_global_search for newbench.new
2021-12-23 10:36:13,659 INFO scheduler Scheduled Job Complete: frappe.utils.global_search.sync_global_search for newbench.new
2021-12-23 10:36:13,814 INFO scheduler Scheduled Job Start: frappe.integrations.doctype.razorpay_settings.razorpay_settings.capture_payment for newbench.new
2021-12-23 10:36:14,599 INFO scheduler Scheduled Job Complete: frappe.integrations.doctype.razorpay_settings.razorpay_settings.capture_payment for newbench.new
2021-12-23 10:36:14,746 INFO scheduler Scheduled Job Start: frappe.email.doctype.email_account.email_account.notify_unreplied for newbench.new
2021-12-23 10:36:15,288 INFO scheduler Scheduled Job Complete: frappe.email.doctype.email_account.email_account.notify_unreplied for newbench.new
2021-12-23 10:36:15,435 INFO scheduler Scheduled Job Start: frappe.email.doctype.email_account.email_account.pull for newbench.new
2021-12-23 10:36:16,119 INFO scheduler Scheduled Job Complete: frappe.email.doctype.email_account.email_account.pull for newbench.new
2021-12-23 10:36:16,266 INFO scheduler Scheduled Job Start: frappe.email.queue.flush for newbench.new
2021-12-23 10:36:16,726 INFO scheduler Scheduled Job Complete: frappe.email.queue.flush for newbench.new
2021-12-23 10:37:10,568 DEBUG scheduler Queued events for site newbench.new
2021-12-23 10:38:11,259 DEBUG scheduler Queued events for site newbench.new
2021-12-23 10:39:11,921 DEBUG scheduler Queued events for site newbench.new
2021-12-23 10:40:12,506 INFO scheduler Scheduled Job Start: erpnext.crm.doctype.social_media_post.social_media_post.process_scheduled_social_media_posts for newbench.new
2021-12-23 10:40:12,698 DEBUG scheduler Queued events for site newbench.new
2021-12-23 10:40:13,101 INFO scheduler Scheduled Job Complete: erpnext.crm.doctype.social_media_post.social_media_post.process_scheduled_social_media_posts for newbench.new
2021-12-23 10:40:13,251 INFO scheduler Scheduled Job Start: erpnext.hr.doctype.interview.interview.send_interview_reminder for newbench.new
2021-12-23 10:40:13,776 INFO scheduler Scheduled Job Complete: erpnext.hr.doctype.interview.interview.send_interview_reminder for newbench.new
2021-12-23 10:40:13,925 INFO scheduler Scheduled Job Start: erpnext.healthcare.doctype.patient_appointment.patient_appointment.send_appointment_reminder for newbench.new
2021-12-23 10:40:14,472 INFO scheduler Scheduled Job Complete: erpnext.healthcare.doctype.patient_appointment.patient_appointment.send_appointment_reminder for newbench.new
2021-12-23 10:40:14,620 INFO scheduler Scheduled Job Start: erpnext.projects.doctype.project.project.project_status_update_reminder for newbench.new
2021-12-23 10:40:15,415 INFO scheduler Scheduled Job Complete: erpnext.projects.doctype.project.project.project_status_update_reminder for newbench.new
2021-12-23 10:40:15,564 INFO scheduler Scheduled Job Start: frappe.monitor.flush for newbench.new
2021-12-23 10:40:15,962 INFO scheduler Scheduled Job Complete: frappe.monitor.flush for newbench.new
2021-12-23 10:40:16,112 INFO scheduler Scheduled Job Start: frappe.utils.global_search.sync_global_search for newbench.new
2021-12-23 10:40:16,508 INFO scheduler Scheduled Job Complete: frappe.utils.global_search.sync_global_search for newbench.new
2021-12-23 10:40:16,660 INFO scheduler Scheduled Job Start: frappe.integrations.doctype.razorpay_settings.razorpay_settings.capture_payment for newbench.new
2021-12-23 10:40:17,386 INFO scheduler Scheduled Job Complete: frappe.integrations.doctype.razorpay_settings.razorpay_settings.capture_payment for newbench.new
2021-12-23 10:40:17,536 INFO scheduler Scheduled Job Start: frappe.email.doctype.email_account.email_account.notify_unreplied for newbench.new
2021-12-23 10:40:18,152 INFO scheduler Scheduled Job Complete: frappe.email.doctype.email_account.email_account.notify_unreplied for newbench.new
2021-12-23 10:40:18,304 INFO scheduler Scheduled Job Start: frappe.email.doctype.email_account.email_account.pull for newbench.new
2021-12-23 10:40:18,937 INFO scheduler Scheduled Job Complete: frappe.email.doctype.email_account.email_account.pull for newbench.new
2021-12-23 10:40:19,085 INFO scheduler Scheduled Job Start: frappe.email.queue.flush for newbench.new
2021-12-23 10:40:19,594 INFO scheduler Scheduled Job Complete: frappe.email.queue.flush for newbench.new
2021-12-23 10:41:13,372 DEBUG scheduler Queued events for site newbench.new
2021-12-23 10:42:14,074 DEBUG scheduler Queued events for site newbench.new
2021-12-23 10:43:14,740 DEBUG scheduler Queued events for site newbench.new
2021-12-23 10:44:15,460 INFO scheduler Scheduled Job Start: erpnext.crm.doctype.social_media_post.social_media_post.process_scheduled_social_media_posts for newbench.new
2021-12-23 10:44:15,538 DEBUG scheduler Queued events for site newbench.new
2021-12-23 10:44:16,004 INFO scheduler Scheduled Job Complete: erpnext.crm.doctype.social_media_post.social_media_post.process_scheduled_social_media_posts for newbench.new
2021-12-23 10:44:16,156 INFO scheduler Scheduled Job Start: erpnext.hr.doctype.interview.interview.send_interview_reminder for newbench.new
2021-12-23 10:44:16,680 INFO scheduler Scheduled Job Complete: erpnext.hr.doctype.interview.interview.send_interview_reminder for newbench.new
2021-12-23 10:44:16,828 INFO scheduler Scheduled Job Start: erpnext.healthcare.doctype.patient_appointment.patient_appointment.send_appointment_reminder for newbench.new
2021-12-23 10:44:17,392 INFO scheduler Scheduled Job Complete: erpnext.healthcare.doctype.patient_appointment.patient_appointment.send_appointment_reminder for newbench.new
2021-12-23 10:44:17,545 INFO scheduler Scheduled Job Start: erpnext.projects.doctype.project.project.project_status_update_reminder for newbench.new
2021-12-23 10:44:18,343 INFO scheduler Scheduled Job Complete: erpnext.projects.doctype.project.project.project_status_update_reminder for newbench.new
2021-12-23 10:44:18,492 INFO scheduler Scheduled Job Start: frappe.monitor.flush for newbench.new
2021-12-23 10:44:18,990 INFO scheduler Scheduled Job Complete: frappe.monitor.flush for newbench.new
2021-12-23 10:44:19,141 INFO scheduler Scheduled Job Start: frappe.utils.global_search.sync_global_search for newbench.new
2021-12-23 10:44:19,567 INFO scheduler Scheduled Job Complete: frappe.utils.global_search.sync_global_search for newbench.new
2021-12-23 10:44:19,722 INFO scheduler Scheduled Job Start: frappe.integrations.doctype.razorpay_settings.razorpay_settings.capture_payment for newbench.new
2021-12-23 10:44:20,506 INFO scheduler Scheduled Job Complete: frappe.integrations.doctype.razorpay_settings.razorpay_settings.capture_payment for newbench.new
2021-12-23 10:44:20,655 INFO scheduler Scheduled Job Start: frappe.email.doctype.email_account.email_account.notify_unreplied for newbench.new
2021-12-23 10:44:21,311 INFO scheduler Scheduled Job Complete: frappe.email.doctype.email_account.email_account.notify_unreplied for newbench.new
2021-12-23 10:44:21,463 INFO scheduler Scheduled Job Start: frappe.email.doctype.email_account.email_account.pull for newbench.new
2021-12-23 10:44:22,147 INFO scheduler Scheduled Job Complete: frappe.email.doctype.email_account.email_account.pull for newbench.new
2021-12-23 10:44:22,299 INFO scheduler Scheduled Job Start: frappe.email.queue.flush for newbench.new
2021-12-23 10:44:22,742 INFO scheduler Scheduled Job Complete: frappe.email.queue.flush for newbench.new
2021-12-23 10:45:16,250 DEBUG scheduler Queued events for site newbench.new
2021-12-23 10:45:16,358 INFO scheduler Scheduled Job Start: frappe.twofactor.delete_all_barcodes_for_users for newbench.new
2021-12-23 10:45:17,186 INFO scheduler Scheduled Job Complete: frappe.twofactor.delete_all_barcodes_for_users for newbench.new
2021-12-23 10:45:17,404 INFO scheduler Scheduled Job Start: frappe.website.doctype.web_page.web_page.check_publish_status for newbench.new
2021-12-23 10:45:18,282 INFO scheduler Scheduled Job Complete: frappe.website.doctype.web_page.web_page.check_publish_status for newbench.new
2021-12-23 10:45:18,510 INFO scheduler Scheduled Job Start: frappe.oauth.delete_oauth2_data for newbench.new
2021-12-23 10:45:19,367 INFO scheduler Scheduled Job Complete: frappe.oauth.delete_oauth2_data for newbench.new
2021-12-23 10:46:17,801 DEBUG scheduler Queued events for site newbench.new
2021-12-23 10:47:18,780 DEBUG scheduler Queued events for site newbench.new
2021-12-23 10:48:19,677 DEBUG scheduler Queued events for site newbench.new
2021-12-23 10:48:21,906 INFO scheduler Scheduled Job Start: erpnext.crm.doctype.social_media_post.social_media_post.process_scheduled_social_media_posts for newbench.new
2021-12-23 10:48:24,648 INFO scheduler Scheduled Job Complete: erpnext.crm.doctype.social_media_post.social_media_post.process_scheduled_social_media_posts for newbench.new
2021-12-23 10:48:24,799 INFO scheduler Scheduled Job Start: erpnext.hr.doctype.interview.interview.send_interview_reminder for newbench.new
2021-12-23 10:48:25,456 INFO scheduler Scheduled Job Complete: erpnext.hr.doctype.interview.interview.send_interview_reminder for newbench.new
2021-12-23 10:48:25,603 INFO scheduler Scheduled Job Start: erpnext.healthcare.doctype.patient_appointment.patient_appointment.send_appointment_reminder for newbench.new
2021-12-23 10:48:26,524 INFO scheduler Scheduled Job Complete: erpnext.healthcare.doctype.patient_appointment.patient_appointment.send_appointment_reminder for newbench.new
2021-12-23 10:48:26,678 INFO scheduler Scheduled Job Start: erpnext.projects.doctype.project.project.project_status_update_reminder for newbench.new
2021-12-23 10:48:28,349 INFO scheduler Scheduled Job Complete: erpnext.projects.doctype.project.project.project_status_update_reminder for newbench.new
2021-12-23 10:48:28,503 INFO scheduler Scheduled Job Start: frappe.monitor.flush for newbench.new
2021-12-23 10:48:28,955 INFO scheduler Scheduled Job Complete: frappe.monitor.flush for newbench.new
2021-12-23 10:48:29,111 INFO scheduler Scheduled Job Start: frappe.utils.global_search.sync_global_search for newbench.new
2021-12-23 10:48:29,778 INFO scheduler Scheduled Job Complete: frappe.utils.global_search.sync_global_search for newbench.new
2021-12-23 10:48:29,932 INFO scheduler Scheduled Job Start: frappe.integrations.doctype.razorpay_settings.razorpay_settings.capture_payment for newbench.new
2021-12-23 10:48:32,378 INFO scheduler Scheduled Job Complete: frappe.integrations.doctype.razorpay_settings.razorpay_settings.capture_payment for newbench.new
2021-12-23 10:48:32,528 INFO scheduler Scheduled Job Start: frappe.email.doctype.email_account.email_account.notify_unreplied for newbench.new
2021-12-23 10:48:33,553 INFO scheduler Scheduled Job Complete: frappe.email.doctype.email_account.email_account.notify_unreplied for newbench.new
2021-12-23 10:48:33,706 INFO scheduler Scheduled Job Start: frappe.email.doctype.email_account.email_account.pull for newbench.new
2021-12-23 10:48:34,311 INFO scheduler Scheduled Job Complete: frappe.email.doctype.email_account.email_account.pull for newbench.new
2021-12-23 10:48:34,460 INFO scheduler Scheduled Job Start: frappe.email.queue.flush for newbench.new
2021-12-23 10:48:35,029 INFO scheduler Scheduled Job Complete: frappe.email.queue.flush for newbench.new
2021-12-23 10:49:20,347 DEBUG scheduler Queued events for site newbench.new
2021-12-23 10:50:21,010 DEBUG scheduler Queued events for site newbench.new
2021-12-23 10:51:21,706 DEBUG scheduler Queued events for site newbench.new
2021-12-23 10:52:22,294 INFO scheduler Scheduled Job Start: erpnext.crm.doctype.social_media_post.social_media_post.process_scheduled_social_media_posts for newbench.new
2021-12-23 10:52:22,488 DEBUG scheduler Queued events for site newbench.new
2021-12-23 10:52:22,834 INFO scheduler Scheduled Job Complete: erpnext.crm.doctype.social_media_post.social_media_post.process_scheduled_social_media_posts for newbench.new
2021-12-23 10:52:22,984 INFO scheduler Scheduled Job Start: erpnext.hr.doctype.interview.interview.send_interview_reminder for newbench.new
2021-12-23 10:52:23,604 INFO scheduler Scheduled Job Complete: erpnext.hr.doctype.interview.interview.send_interview_reminder for newbench.new
2021-12-23 10:52:23,761 INFO scheduler Scheduled Job Start: erpnext.healthcare.doctype.patient_appointment.patient_appointment.send_appointment_reminder for newbench.new
2021-12-23 10:52:24,225 INFO scheduler Scheduled Job Complete: erpnext.healthcare.doctype.patient_appointment.patient_appointment.send_appointment_reminder for newbench.new
2021-12-23 10:52:24,375 INFO scheduler Scheduled Job Start: erpnext.projects.doctype.project.project.project_status_update_reminder for newbench.new
2021-12-23 10:52:25,077 INFO scheduler Scheduled Job Complete: erpnext.projects.doctype.project.project.project_status_update_reminder for newbench.new
2021-12-23 10:52:25,229 INFO scheduler Scheduled Job Start: frappe.monitor.flush for newbench.new
2021-12-23 10:52:25,739 INFO scheduler Scheduled Job Complete: frappe.monitor.flush for newbench.new
2021-12-23 10:52:25,890 INFO scheduler Scheduled Job Start: frappe.utils.global_search.sync_global_search for newbench.new
2021-12-23 10:52:26,293 INFO scheduler Scheduled Job Complete: frappe.utils.global_search.sync_global_search for newbench.new
2021-12-23 10:52:26,449 INFO scheduler Scheduled Job Start: frappe.integrations.doctype.razorpay_settings.razorpay_settings.capture_payment for newbench.new
2021-12-23 10:52:27,269 INFO scheduler Scheduled Job Complete: frappe.integrations.doctype.razorpay_settings.razorpay_settings.capture_payment for newbench.new
2021-12-23 10:52:27,423 INFO scheduler Scheduled Job Start: frappe.email.doctype.email_account.email_account.notify_unreplied for newbench.new
2021-12-23 10:52:27,979 INFO scheduler Scheduled Job Complete: frappe.email.doctype.email_account.email_account.notify_unreplied for newbench.new
2021-12-23 10:52:28,127 INFO scheduler Scheduled Job Start: frappe.email.doctype.email_account.email_account.pull for newbench.new
2021-12-23 10:52:28,814 INFO scheduler Scheduled Job Complete: frappe.email.doctype.email_account.email_account.pull for newbench.new
2021-12-23 10:52:28,963 INFO scheduler Scheduled Job Start: frappe.email.queue.flush for newbench.new
2021-12-23 10:52:29,740 INFO scheduler Scheduled Job Complete: frappe.email.queue.flush for newbench.new
2021-12-23 10:53:23,162 DEBUG scheduler Queued events for site newbench.new
2021-12-23 10:54:23,827 DEBUG scheduler Queued events for site newbench.new
2021-12-23 10:55:24,489 DEBUG scheduler Queued events for site newbench.new
2021-12-23 10:56:25,107 INFO scheduler Scheduled Job Start: erpnext.crm.doctype.social_media_post.social_media_post.process_scheduled_social_media_posts for newbench.new
2021-12-23 10:56:25,313 DEBUG scheduler Queued events for site newbench.new
2021-12-23 10:56:25,686 INFO scheduler Scheduled Job Complete: erpnext.crm.doctype.social_media_post.social_media_post.process_scheduled_social_media_posts for newbench.new
2021-12-23 10:56:25,843 INFO scheduler Scheduled Job Start: erpnext.hr.doctype.interview.interview.send_interview_reminder for newbench.new
2021-12-23 10:56:26,407 INFO scheduler Scheduled Job Complete: erpnext.hr.doctype.interview.interview.send_interview_reminder for newbench.new
2021-12-23 10:56:26,574 INFO scheduler Scheduled Job Start: erpnext.healthcare.doctype.patient_appointment.patient_appointment.send_appointment_reminder for newbench.new
2021-12-23 10:56:27,065 INFO scheduler Scheduled Job Complete: erpnext.healthcare.doctype.patient_appointment.patient_appointment.send_appointment_reminder for newbench.new
2021-12-23 10:56:27,240 INFO scheduler Scheduled Job Start: erpnext.projects.doctype.project.project.project_status_update_reminder for newbench.new
2021-12-23 10:56:28,026 INFO scheduler Scheduled Job Complete: erpnext.projects.doctype.project.project.project_status_update_reminder for newbench.new
2021-12-23 10:56:28,177 INFO scheduler Scheduled Job Start: frappe.monitor.flush for newbench.new
2021-12-23 10:56:28,668 INFO scheduler Scheduled Job Complete: frappe.monitor.flush for newbench.new
2021-12-23 10:56:28,821 INFO scheduler Scheduled Job Start: frappe.utils.global_search.sync_global_search for newbench.new
2021-12-23 10:56:29,262 INFO scheduler Scheduled Job Complete: frappe.utils.global_search.sync_global_search for newbench.new
2021-12-23 10:56:29,443 INFO scheduler Scheduled Job Start: frappe.integrations.doctype.razorpay_settings.razorpay_settings.capture_payment for newbench.new
2021-12-23 10:57:25,999 DEBUG scheduler Queued events for site newbench.new
