2021-12-27 10:02:43,024 DEBUG scheduler Queued events for site newbench.new
2021-12-27 10:03:43,902 DEBUG scheduler Queued events for site newbench.new
2021-12-27 10:04:44,755 DEBUG scheduler Queued events for site newbench.new
2021-12-27 10:04:46,679 INFO scheduler Scheduled Job Start: erpnext.crm.doctype.social_media_post.social_media_post.process_scheduled_social_media_posts for newbench.new
2021-12-27 10:04:50,010 INFO scheduler Scheduled Job Complete: erpnext.crm.doctype.social_media_post.social_media_post.process_scheduled_social_media_posts for newbench.new
2021-12-27 10:04:50,200 INFO scheduler Scheduled Job Start: erpnext.hr.doctype.interview.interview.send_interview_reminder for newbench.new
2021-12-27 10:04:51,101 INFO scheduler Scheduled Job Complete: erpnext.hr.doctype.interview.interview.send_interview_reminder for newbench.new
2021-12-27 10:04:51,284 INFO scheduler Scheduled Job Start: erpnext.healthcare.doctype.patient_appointment.patient_appointment.send_appointment_reminder for newbench.new
2021-12-27 10:04:52,028 INFO scheduler Scheduled Job Complete: erpnext.healthcare.doctype.patient_appointment.patient_appointment.send_appointment_reminder for newbench.new
2021-12-27 10:04:52,220 INFO scheduler Scheduled Job Start: erpnext.projects.doctype.project.project.project_status_update_reminder for newbench.new
2021-12-27 10:04:53,834 INFO scheduler Scheduled Job Complete: erpnext.projects.doctype.project.project.project_status_update_reminder for newbench.new
2021-12-27 10:04:54,025 INFO scheduler Scheduled Job Start: frappe.monitor.flush for newbench.new
2021-12-27 10:04:54,622 INFO scheduler Scheduled Job Complete: frappe.monitor.flush for newbench.new
2021-12-27 10:04:54,803 INFO scheduler Scheduled Job Start: frappe.utils.global_search.sync_global_search for newbench.new
2021-12-27 10:04:55,283 INFO scheduler Scheduled Job Complete: frappe.utils.global_search.sync_global_search for newbench.new
2021-12-27 10:04:55,447 INFO scheduler Scheduled Job Start: frappe.integrations.doctype.razorpay_settings.razorpay_settings.capture_payment for newbench.new
2021-12-27 10:04:56,559 INFO scheduler Scheduled Job Complete: frappe.integrations.doctype.razorpay_settings.razorpay_settings.capture_payment for newbench.new
2021-12-27 10:04:56,751 INFO scheduler Scheduled Job Start: frappe.email.doctype.email_account.email_account.notify_unreplied for newbench.new
2021-12-27 10:04:57,780 INFO scheduler Scheduled Job Complete: frappe.email.doctype.email_account.email_account.notify_unreplied for newbench.new
2021-12-27 10:04:57,976 INFO scheduler Scheduled Job Start: frappe.email.doctype.email_account.email_account.pull for newbench.new
2021-12-27 10:04:58,766 INFO scheduler Scheduled Job Complete: frappe.email.doctype.email_account.email_account.pull for newbench.new
2021-12-27 10:04:58,994 INFO scheduler Scheduled Job Start: frappe.email.queue.flush for newbench.new
2021-12-27 10:04:59,597 INFO scheduler Scheduled Job Complete: frappe.email.queue.flush for newbench.new
2021-12-27 10:05:45,738 DEBUG scheduler Queued events for site newbench.new
2021-12-27 10:06:46,471 DEBUG scheduler Queued events for site newbench.new
2021-12-27 10:07:47,331 DEBUG scheduler Queued events for site newbench.new
2021-12-27 10:08:48,177 DEBUG scheduler Queued events for site newbench.new
2021-12-27 10:08:48,255 INFO scheduler Scheduled Job Start: erpnext.crm.doctype.social_media_post.social_media_post.process_scheduled_social_media_posts for newbench.new
2021-12-27 10:08:49,587 INFO scheduler Scheduled Job Complete: erpnext.crm.doctype.social_media_post.social_media_post.process_scheduled_social_media_posts for newbench.new
2021-12-27 10:08:49,938 INFO scheduler Scheduled Job Start: erpnext.hr.doctype.interview.interview.send_interview_reminder for newbench.new
2021-12-27 10:08:51,115 INFO scheduler Scheduled Job Complete: erpnext.hr.doctype.interview.interview.send_interview_reminder for newbench.new
2021-12-27 10:08:51,272 INFO scheduler Scheduled Job Start: erpnext.healthcare.doctype.patient_appointment.patient_appointment.send_appointment_reminder for newbench.new
2021-12-27 10:08:52,048 INFO scheduler Scheduled Job Complete: erpnext.healthcare.doctype.patient_appointment.patient_appointment.send_appointment_reminder for newbench.new
2021-12-27 10:08:52,209 INFO scheduler Scheduled Job Start: erpnext.projects.doctype.project.project.project_status_update_reminder for newbench.new
2021-12-27 10:08:55,421 INFO scheduler Scheduled Job Complete: erpnext.projects.doctype.project.project.project_status_update_reminder for newbench.new
2021-12-27 10:08:55,587 INFO scheduler Scheduled Job Start: frappe.monitor.flush for newbench.new
2021-12-27 10:08:56,248 INFO scheduler Scheduled Job Complete: frappe.monitor.flush for newbench.new
2021-12-27 10:08:56,420 INFO scheduler Scheduled Job Start: frappe.utils.global_search.sync_global_search for newbench.new
2021-12-27 10:08:56,913 INFO scheduler Scheduled Job Complete: frappe.utils.global_search.sync_global_search for newbench.new
2021-12-27 10:08:57,098 INFO scheduler Scheduled Job Start: frappe.integrations.doctype.razorpay_settings.razorpay_settings.capture_payment for newbench.new
2021-12-27 10:08:59,066 INFO scheduler Scheduled Job Complete: frappe.integrations.doctype.razorpay_settings.razorpay_settings.capture_payment for newbench.new
2021-12-27 10:08:59,240 INFO scheduler Scheduled Job Start: frappe.email.doctype.email_account.email_account.notify_unreplied for newbench.new
2021-12-27 10:09:00,915 INFO scheduler Scheduled Job Complete: frappe.email.doctype.email_account.email_account.notify_unreplied for newbench.new
2021-12-27 10:09:01,073 INFO scheduler Scheduled Job Start: frappe.email.doctype.email_account.email_account.pull for newbench.new
2021-12-27 10:09:01,764 INFO scheduler Scheduled Job Complete: frappe.email.doctype.email_account.email_account.pull for newbench.new
2021-12-27 10:09:01,920 INFO scheduler Scheduled Job Start: frappe.email.queue.flush for newbench.new
2021-12-27 10:09:02,431 INFO scheduler Scheduled Job Complete: frappe.email.queue.flush for newbench.new
2021-12-27 10:09:48,876 DEBUG scheduler Queued events for site newbench.new
2021-12-27 10:10:52,149 DEBUG scheduler Queued events for site newbench.new
2021-12-27 10:11:54,055 DEBUG scheduler Queued events for site newbench.new
2021-12-27 10:12:55,132 DEBUG scheduler Queued events for site newbench.new
2021-12-27 10:13:15,455 INFO scheduler Scheduled Job Start: erpnext.crm.doctype.social_media_post.social_media_post.process_scheduled_social_media_posts for newbench.new
2021-12-27 10:13:29,905 INFO scheduler Scheduled Job Complete: erpnext.crm.doctype.social_media_post.social_media_post.process_scheduled_social_media_posts for newbench.new
2021-12-27 10:13:30,067 INFO scheduler Scheduled Job Start: erpnext.hr.doctype.interview.interview.send_interview_reminder for newbench.new
2021-12-27 10:13:30,819 INFO scheduler Scheduled Job Complete: erpnext.hr.doctype.interview.interview.send_interview_reminder for newbench.new
2021-12-27 10:13:30,981 INFO scheduler Scheduled Job Start: erpnext.healthcare.doctype.patient_appointment.patient_appointment.send_appointment_reminder for newbench.new
2021-12-27 10:13:32,515 INFO scheduler Scheduled Job Complete: erpnext.healthcare.doctype.patient_appointment.patient_appointment.send_appointment_reminder for newbench.new
2021-12-27 10:13:32,670 INFO scheduler Scheduled Job Start: erpnext.projects.doctype.project.project.project_status_update_reminder for newbench.new
2021-12-27 10:13:36,996 INFO scheduler Scheduled Job Complete: erpnext.projects.doctype.project.project.project_status_update_reminder for newbench.new
2021-12-27 10:13:37,156 INFO scheduler Scheduled Job Start: frappe.monitor.flush for newbench.new
2021-12-27 10:13:37,665 INFO scheduler Scheduled Job Complete: frappe.monitor.flush for newbench.new
2021-12-27 10:13:37,828 INFO scheduler Scheduled Job Start: frappe.utils.global_search.sync_global_search for newbench.new
2021-12-27 10:13:38,363 INFO scheduler Scheduled Job Complete: frappe.utils.global_search.sync_global_search for newbench.new
2021-12-27 10:13:38,615 INFO scheduler Scheduled Job Start: frappe.integrations.doctype.razorpay_settings.razorpay_settings.capture_payment for newbench.new
2021-12-27 10:13:44,287 INFO scheduler Scheduled Job Complete: frappe.integrations.doctype.razorpay_settings.razorpay_settings.capture_payment for newbench.new
2021-12-27 10:13:44,532 INFO scheduler Scheduled Job Start: frappe.email.doctype.email_account.email_account.notify_unreplied for newbench.new
2021-12-27 10:13:50,793 INFO scheduler Scheduled Job Complete: frappe.email.doctype.email_account.email_account.notify_unreplied for newbench.new
2021-12-27 10:13:50,950 INFO scheduler Scheduled Job Start: frappe.email.doctype.email_account.email_account.pull for newbench.new
2021-12-27 10:13:51,942 INFO scheduler Scheduled Job Complete: frappe.email.doctype.email_account.email_account.pull for newbench.new
2021-12-27 10:13:52,107 INFO scheduler Scheduled Job Start: frappe.email.queue.flush for newbench.new
2021-12-27 10:13:52,946 INFO scheduler Scheduled Job Complete: frappe.email.queue.flush for newbench.new
2021-12-27 10:13:56,006 DEBUG scheduler Queued events for site newbench.new
2021-12-27 10:14:56,665 DEBUG scheduler Queued events for site newbench.new
2021-12-27 10:15:57,367 DEBUG scheduler Queued events for site newbench.new
2021-12-27 10:15:57,478 INFO scheduler Scheduled Job Start: frappe.twofactor.delete_all_barcodes_for_users for newbench.new
2021-12-27 10:15:59,773 INFO scheduler Scheduled Job Complete: frappe.twofactor.delete_all_barcodes_for_users for newbench.new
2021-12-27 10:16:00,229 INFO scheduler Scheduled Job Start: frappe.website.doctype.web_page.web_page.check_publish_status for newbench.new
2021-12-27 10:16:01,845 INFO scheduler Scheduled Job Complete: frappe.website.doctype.web_page.web_page.check_publish_status for newbench.new
2021-12-27 10:16:02,119 INFO scheduler Scheduled Job Start: frappe.oauth.delete_oauth2_data for newbench.new
2021-12-27 10:16:03,291 INFO scheduler Scheduled Job Complete: frappe.oauth.delete_oauth2_data for newbench.new
2021-12-27 10:16:57,959 INFO scheduler Scheduled Job Start: erpnext.crm.doctype.social_media_post.social_media_post.process_scheduled_social_media_posts for newbench.new
2021-12-27 10:16:58,143 DEBUG scheduler Queued events for site newbench.new
2021-12-27 10:16:58,628 INFO scheduler Scheduled Job Complete: erpnext.crm.doctype.social_media_post.social_media_post.process_scheduled_social_media_posts for newbench.new
2021-12-27 10:16:58,785 INFO scheduler Scheduled Job Start: erpnext.hr.doctype.interview.interview.send_interview_reminder for newbench.new
2021-12-27 10:16:59,391 INFO scheduler Scheduled Job Complete: erpnext.hr.doctype.interview.interview.send_interview_reminder for newbench.new
2021-12-27 10:16:59,548 INFO scheduler Scheduled Job Start: erpnext.healthcare.doctype.patient_appointment.patient_appointment.send_appointment_reminder for newbench.new
2021-12-27 10:17:00,149 INFO scheduler Scheduled Job Complete: erpnext.healthcare.doctype.patient_appointment.patient_appointment.send_appointment_reminder for newbench.new
2021-12-27 10:17:00,302 INFO scheduler Scheduled Job Start: erpnext.projects.doctype.project.project.project_status_update_reminder for newbench.new
2021-12-27 10:17:01,383 INFO scheduler Scheduled Job Complete: erpnext.projects.doctype.project.project.project_status_update_reminder for newbench.new
2021-12-27 10:17:01,546 INFO scheduler Scheduled Job Start: frappe.monitor.flush for newbench.new
2021-12-27 10:17:01,957 INFO scheduler Scheduled Job Complete: frappe.monitor.flush for newbench.new
2021-12-27 10:17:02,112 INFO scheduler Scheduled Job Start: frappe.utils.global_search.sync_global_search for newbench.new
2021-12-27 10:17:02,523 INFO scheduler Scheduled Job Complete: frappe.utils.global_search.sync_global_search for newbench.new
2021-12-27 10:17:02,685 INFO scheduler Scheduled Job Start: frappe.integrations.doctype.razorpay_settings.razorpay_settings.capture_payment for newbench.new
2021-12-27 10:17:03,668 INFO scheduler Scheduled Job Complete: frappe.integrations.doctype.razorpay_settings.razorpay_settings.capture_payment for newbench.new
2021-12-27 10:17:03,821 INFO scheduler Scheduled Job Start: frappe.email.doctype.email_account.email_account.notify_unreplied for newbench.new
2021-12-27 10:17:04,431 INFO scheduler Scheduled Job Complete: frappe.email.doctype.email_account.email_account.notify_unreplied for newbench.new
2021-12-27 10:17:04,589 INFO scheduler Scheduled Job Start: frappe.email.doctype.email_account.email_account.pull for newbench.new
2021-12-27 10:17:05,261 INFO scheduler Scheduled Job Complete: frappe.email.doctype.email_account.email_account.pull for newbench.new
2021-12-27 10:17:05,416 INFO scheduler Scheduled Job Start: frappe.email.queue.flush for newbench.new
2021-12-27 10:17:05,849 INFO scheduler Scheduled Job Complete: frappe.email.queue.flush for newbench.new
2021-12-27 10:17:58,802 DEBUG scheduler Queued events for site newbench.new
2021-12-27 10:18:59,502 DEBUG scheduler Queued events for site newbench.new
2021-12-27 10:20:00,249 DEBUG scheduler Queued events for site newbench.new
2021-12-27 10:20:00,836 INFO scheduler Scheduled Job Start: frappe.monitor.flush for newbench.new
2021-12-27 10:20:02,029 INFO scheduler Scheduled Job Complete: frappe.monitor.flush for newbench.new
2021-12-27 10:20:02,188 INFO scheduler Scheduled Job Start: frappe.utils.global_search.sync_global_search for newbench.new
2021-12-27 10:20:02,692 INFO scheduler Scheduled Job Complete: frappe.utils.global_search.sync_global_search for newbench.new
2021-12-27 10:20:02,851 INFO scheduler Scheduled Job Start: frappe.integrations.doctype.razorpay_settings.razorpay_settings.capture_payment for newbench.new
2021-12-27 10:20:03,880 INFO scheduler Scheduled Job Complete: frappe.integrations.doctype.razorpay_settings.razorpay_settings.capture_payment for newbench.new
2021-12-27 10:20:04,037 INFO scheduler Scheduled Job Start: frappe.email.doctype.email_account.email_account.notify_unreplied for newbench.new
2021-12-27 10:20:04,826 INFO scheduler Scheduled Job Complete: frappe.email.doctype.email_account.email_account.notify_unreplied for newbench.new
2021-12-27 10:20:04,980 INFO scheduler Scheduled Job Start: frappe.email.doctype.email_account.email_account.pull for newbench.new
2021-12-27 10:20:05,606 INFO scheduler Scheduled Job Complete: frappe.email.doctype.email_account.email_account.pull for newbench.new
2021-12-27 10:20:05,767 INFO scheduler Scheduled Job Start: frappe.email.queue.flush for newbench.new
2021-12-27 10:20:06,263 INFO scheduler Scheduled Job Complete: frappe.email.queue.flush for newbench.new
2021-12-27 10:21:00,843 INFO scheduler Scheduled Job Start: erpnext.crm.doctype.social_media_post.social_media_post.process_scheduled_social_media_posts for newbench.new
2021-12-27 10:21:00,967 DEBUG scheduler Queued events for site newbench.new
2021-12-27 10:21:01,508 INFO scheduler Scheduled Job Complete: erpnext.crm.doctype.social_media_post.social_media_post.process_scheduled_social_media_posts for newbench.new
2021-12-27 10:21:01,660 INFO scheduler Scheduled Job Start: erpnext.hr.doctype.interview.interview.send_interview_reminder for newbench.new
2021-12-27 10:21:02,304 INFO scheduler Scheduled Job Complete: erpnext.hr.doctype.interview.interview.send_interview_reminder for newbench.new
2021-12-27 10:21:02,458 INFO scheduler Scheduled Job Start: erpnext.healthcare.doctype.patient_appointment.patient_appointment.send_appointment_reminder for newbench.new
2021-12-27 10:21:03,302 INFO scheduler Scheduled Job Complete: erpnext.healthcare.doctype.patient_appointment.patient_appointment.send_appointment_reminder for newbench.new
2021-12-27 10:21:03,455 INFO scheduler Scheduled Job Start: erpnext.projects.doctype.project.project.project_status_update_reminder for newbench.new
2021-12-27 10:21:04,577 INFO scheduler Scheduled Job Complete: erpnext.projects.doctype.project.project.project_status_update_reminder for newbench.new
2021-12-27 10:22:01,672 DEBUG scheduler Queued events for site newbench.new
2021-12-27 10:23:02,415 DEBUG scheduler Queued events for site newbench.new
2021-12-27 10:24:03,286 DEBUG scheduler Queued events for site newbench.new
2021-12-27 10:24:03,368 INFO scheduler Scheduled Job Start: erpnext.crm.doctype.social_media_post.social_media_post.process_scheduled_social_media_posts for newbench.new
2021-12-27 10:24:04,493 INFO scheduler Scheduled Job Complete: erpnext.crm.doctype.social_media_post.social_media_post.process_scheduled_social_media_posts for newbench.new
2021-12-27 10:24:04,672 INFO scheduler Scheduled Job Start: erpnext.hr.doctype.interview.interview.send_interview_reminder for newbench.new
2021-12-27 10:24:05,335 INFO scheduler Scheduled Job Complete: erpnext.hr.doctype.interview.interview.send_interview_reminder for newbench.new
2021-12-27 10:24:05,510 INFO scheduler Scheduled Job Start: erpnext.healthcare.doctype.patient_appointment.patient_appointment.send_appointment_reminder for newbench.new
2021-12-27 10:24:06,136 INFO scheduler Scheduled Job Complete: erpnext.healthcare.doctype.patient_appointment.patient_appointment.send_appointment_reminder for newbench.new
2021-12-27 10:24:06,306 INFO scheduler Scheduled Job Start: erpnext.projects.doctype.project.project.project_status_update_reminder for newbench.new
2021-12-27 10:24:07,942 INFO scheduler Scheduled Job Complete: erpnext.projects.doctype.project.project.project_status_update_reminder for newbench.new
2021-12-27 10:24:08,118 INFO scheduler Scheduled Job Start: frappe.monitor.flush for newbench.new
2021-12-27 10:24:08,581 INFO scheduler Scheduled Job Complete: frappe.monitor.flush for newbench.new
2021-12-27 10:24:08,757 INFO scheduler Scheduled Job Start: frappe.utils.global_search.sync_global_search for newbench.new
2021-12-27 10:24:09,231 INFO scheduler Scheduled Job Complete: frappe.utils.global_search.sync_global_search for newbench.new
2021-12-27 10:24:09,406 INFO scheduler Scheduled Job Start: frappe.integrations.doctype.razorpay_settings.razorpay_settings.capture_payment for newbench.new
2021-12-27 10:24:10,401 INFO scheduler Scheduled Job Complete: frappe.integrations.doctype.razorpay_settings.razorpay_settings.capture_payment for newbench.new
2021-12-27 10:24:10,592 INFO scheduler Scheduled Job Start: frappe.email.doctype.email_account.email_account.notify_unreplied for newbench.new
2021-12-27 10:24:11,324 INFO scheduler Scheduled Job Complete: frappe.email.doctype.email_account.email_account.notify_unreplied for newbench.new
2021-12-27 10:24:11,525 INFO scheduler Scheduled Job Start: frappe.email.doctype.email_account.email_account.pull for newbench.new
2021-12-27 10:24:12,212 INFO scheduler Scheduled Job Complete: frappe.email.doctype.email_account.email_account.pull for newbench.new
2021-12-27 10:24:12,398 INFO scheduler Scheduled Job Start: frappe.email.queue.flush for newbench.new
2021-12-27 10:24:12,888 INFO scheduler Scheduled Job Complete: frappe.email.queue.flush for newbench.new
2021-12-27 10:25:04,064 DEBUG scheduler Queued events for site newbench.new
2021-12-27 10:26:04,731 DEBUG scheduler Queued events for site newbench.new
2021-12-27 10:27:05,423 DEBUG scheduler Queued events for site newbench.new
2021-12-27 10:28:06,032 INFO scheduler Scheduled Job Start: erpnext.crm.doctype.social_media_post.social_media_post.process_scheduled_social_media_posts for newbench.new
2021-12-27 10:28:06,228 DEBUG scheduler Queued events for site newbench.new
2021-12-27 10:28:06,649 INFO scheduler Scheduled Job Complete: erpnext.crm.doctype.social_media_post.social_media_post.process_scheduled_social_media_posts for newbench.new
2021-12-27 10:28:06,820 INFO scheduler Scheduled Job Start: erpnext.hr.doctype.interview.interview.send_interview_reminder for newbench.new
2021-12-27 10:28:07,347 INFO scheduler Scheduled Job Complete: erpnext.hr.doctype.interview.interview.send_interview_reminder for newbench.new
2021-12-27 10:28:07,503 INFO scheduler Scheduled Job Start: erpnext.healthcare.doctype.patient_appointment.patient_appointment.send_appointment_reminder for newbench.new
2021-12-27 10:28:08,066 INFO scheduler Scheduled Job Complete: erpnext.healthcare.doctype.patient_appointment.patient_appointment.send_appointment_reminder for newbench.new
2021-12-27 10:28:08,226 INFO scheduler Scheduled Job Start: erpnext.projects.doctype.project.project.project_status_update_reminder for newbench.new
2021-12-27 10:28:09,038 INFO scheduler Scheduled Job Complete: erpnext.projects.doctype.project.project.project_status_update_reminder for newbench.new
2021-12-27 10:28:09,193 INFO scheduler Scheduled Job Start: frappe.monitor.flush for newbench.new
2021-12-27 10:28:09,594 INFO scheduler Scheduled Job Complete: frappe.monitor.flush for newbench.new
2021-12-27 10:28:09,760 INFO scheduler Scheduled Job Start: frappe.utils.global_search.sync_global_search for newbench.new
2021-12-27 10:28:10,298 INFO scheduler Scheduled Job Complete: frappe.utils.global_search.sync_global_search for newbench.new
2021-12-27 10:28:10,457 INFO scheduler Scheduled Job Start: frappe.integrations.doctype.razorpay_settings.razorpay_settings.capture_payment for newbench.new
2021-12-27 10:28:11,258 INFO scheduler Scheduled Job Complete: frappe.integrations.doctype.razorpay_settings.razorpay_settings.capture_payment for newbench.new
2021-12-27 10:28:11,413 INFO scheduler Scheduled Job Start: frappe.email.doctype.email_account.email_account.notify_unreplied for newbench.new
2021-12-27 10:28:11,984 INFO scheduler Scheduled Job Complete: frappe.email.doctype.email_account.email_account.notify_unreplied for newbench.new
2021-12-27 10:28:12,138 INFO scheduler Scheduled Job Start: frappe.email.doctype.email_account.email_account.pull for newbench.new
2021-12-27 10:28:12,730 INFO scheduler Scheduled Job Complete: frappe.email.doctype.email_account.email_account.pull for newbench.new
2021-12-27 10:28:12,888 INFO scheduler Scheduled Job Start: frappe.email.queue.flush for newbench.new
2021-12-27 10:28:13,377 INFO scheduler Scheduled Job Complete: frappe.email.queue.flush for newbench.new
2021-12-27 10:29:06,927 DEBUG scheduler Queued events for site newbench.new
2021-12-27 10:30:07,541 INFO scheduler Scheduled Job Start: erpnext.utilities.doctype.video.video.update_youtube_data for newbench.new
2021-12-27 10:30:07,637 DEBUG scheduler Queued events for site newbench.new
2021-12-27 10:30:09,720 INFO scheduler Scheduled Job Complete: erpnext.utilities.doctype.video.video.update_youtube_data for newbench.new
2021-12-27 10:30:09,948 INFO scheduler Scheduled Job Start: frappe.twofactor.delete_all_barcodes_for_users for newbench.new
2021-12-27 10:30:10,850 INFO scheduler Scheduled Job Complete: frappe.twofactor.delete_all_barcodes_for_users for newbench.new
2021-12-27 10:30:11,124 INFO scheduler Scheduled Job Start: frappe.website.doctype.web_page.web_page.check_publish_status for newbench.new
2021-12-27 10:30:12,301 INFO scheduler Scheduled Job Complete: frappe.website.doctype.web_page.web_page.check_publish_status for newbench.new
2021-12-27 10:30:12,520 INFO scheduler Scheduled Job Start: frappe.oauth.delete_oauth2_data for newbench.new
2021-12-27 10:30:13,400 INFO scheduler Scheduled Job Complete: frappe.oauth.delete_oauth2_data for newbench.new
2021-12-27 10:31:08,328 DEBUG scheduler Queued events for site newbench.new
2021-12-27 10:32:08,931 INFO scheduler Scheduled Job Start: erpnext.crm.doctype.social_media_post.social_media_post.process_scheduled_social_media_posts for newbench.new
2021-12-27 10:32:09,114 DEBUG scheduler Queued events for site newbench.new
2021-12-27 10:32:09,534 INFO scheduler Scheduled Job Complete: erpnext.crm.doctype.social_media_post.social_media_post.process_scheduled_social_media_posts for newbench.new
2021-12-27 10:32:09,686 INFO scheduler Scheduled Job Start: erpnext.hr.doctype.interview.interview.send_interview_reminder for newbench.new
2021-12-27 10:32:10,217 INFO scheduler Scheduled Job Complete: erpnext.hr.doctype.interview.interview.send_interview_reminder for newbench.new
2021-12-27 10:32:10,372 INFO scheduler Scheduled Job Start: erpnext.healthcare.doctype.patient_appointment.patient_appointment.send_appointment_reminder for newbench.new
2021-12-27 10:32:10,917 INFO scheduler Scheduled Job Complete: erpnext.healthcare.doctype.patient_appointment.patient_appointment.send_appointment_reminder for newbench.new
2021-12-27 10:32:11,071 INFO scheduler Scheduled Job Start: erpnext.projects.doctype.project.project.project_status_update_reminder for newbench.new
2021-12-27 10:32:11,888 INFO scheduler Scheduled Job Complete: erpnext.projects.doctype.project.project.project_status_update_reminder for newbench.new
2021-12-27 10:32:12,041 INFO scheduler Scheduled Job Start: frappe.monitor.flush for newbench.new
2021-12-27 10:32:12,447 INFO scheduler Scheduled Job Complete: frappe.monitor.flush for newbench.new
2021-12-27 10:32:12,604 INFO scheduler Scheduled Job Start: frappe.utils.global_search.sync_global_search for newbench.new
2021-12-27 10:32:13,058 INFO scheduler Scheduled Job Complete: frappe.utils.global_search.sync_global_search for newbench.new
2021-12-27 10:32:13,217 INFO scheduler Scheduled Job Start: frappe.integrations.doctype.razorpay_settings.razorpay_settings.capture_payment for newbench.new
2021-12-27 10:32:14,009 INFO scheduler Scheduled Job Complete: frappe.integrations.doctype.razorpay_settings.razorpay_settings.capture_payment for newbench.new
2021-12-27 10:32:14,161 INFO scheduler Scheduled Job Start: frappe.email.doctype.email_account.email_account.notify_unreplied for newbench.new
2021-12-27 10:32:14,715 INFO scheduler Scheduled Job Complete: frappe.email.doctype.email_account.email_account.notify_unreplied for newbench.new
2021-12-27 10:32:14,868 INFO scheduler Scheduled Job Start: frappe.email.doctype.email_account.email_account.pull for newbench.new
2021-12-27 10:32:15,543 INFO scheduler Scheduled Job Complete: frappe.email.doctype.email_account.email_account.pull for newbench.new
2021-12-27 10:32:15,704 INFO scheduler Scheduled Job Start: frappe.email.queue.flush for newbench.new
2021-12-27 10:32:16,246 INFO scheduler Scheduled Job Complete: frappe.email.queue.flush for newbench.new
2021-12-27 10:33:09,790 DEBUG scheduler Queued events for site newbench.new
2021-12-27 10:34:10,468 DEBUG scheduler Queued events for site newbench.new
2021-12-27 10:35:11,144 DEBUG scheduler Queued events for site newbench.new
2021-12-27 10:36:11,734 INFO scheduler Scheduled Job Start: erpnext.crm.doctype.social_media_post.social_media_post.process_scheduled_social_media_posts for newbench.new
2021-12-27 10:36:11,933 DEBUG scheduler Queued events for site newbench.new
2021-12-27 10:36:12,278 INFO scheduler Scheduled Job Complete: erpnext.crm.doctype.social_media_post.social_media_post.process_scheduled_social_media_posts for newbench.new
2021-12-27 10:36:12,440 INFO scheduler Scheduled Job Start: erpnext.hr.doctype.interview.interview.send_interview_reminder for newbench.new
2021-12-27 10:36:13,003 INFO scheduler Scheduled Job Complete: erpnext.hr.doctype.interview.interview.send_interview_reminder for newbench.new
2021-12-27 10:36:13,154 INFO scheduler Scheduled Job Start: erpnext.healthcare.doctype.patient_appointment.patient_appointment.send_appointment_reminder for newbench.new
2021-12-27 10:36:13,629 INFO scheduler Scheduled Job Complete: erpnext.healthcare.doctype.patient_appointment.patient_appointment.send_appointment_reminder for newbench.new
2021-12-27 10:36:13,780 INFO scheduler Scheduled Job Start: erpnext.projects.doctype.project.project.project_status_update_reminder for newbench.new
2021-12-27 10:36:14,554 INFO scheduler Scheduled Job Complete: erpnext.projects.doctype.project.project.project_status_update_reminder for newbench.new
2021-12-27 10:36:14,705 INFO scheduler Scheduled Job Start: frappe.monitor.flush for newbench.new
2021-12-27 10:36:15,114 INFO scheduler Scheduled Job Complete: frappe.monitor.flush for newbench.new
2021-12-27 10:36:15,275 INFO scheduler Scheduled Job Start: frappe.utils.global_search.sync_global_search for newbench.new
2021-12-27 10:36:15,775 INFO scheduler Scheduled Job Complete: frappe.utils.global_search.sync_global_search for newbench.new
2021-12-27 10:36:15,935 INFO scheduler Scheduled Job Start: frappe.integrations.doctype.razorpay_settings.razorpay_settings.capture_payment for newbench.new
2021-12-27 10:36:16,653 INFO scheduler Scheduled Job Complete: frappe.integrations.doctype.razorpay_settings.razorpay_settings.capture_payment for newbench.new
2021-12-27 10:36:16,808 INFO scheduler Scheduled Job Start: frappe.email.doctype.email_account.email_account.notify_unreplied for newbench.new
2021-12-27 10:36:17,384 INFO scheduler Scheduled Job Complete: frappe.email.doctype.email_account.email_account.notify_unreplied for newbench.new
2021-12-27 10:36:17,536 INFO scheduler Scheduled Job Start: frappe.email.doctype.email_account.email_account.pull for newbench.new
2021-12-27 10:36:18,230 INFO scheduler Scheduled Job Complete: frappe.email.doctype.email_account.email_account.pull for newbench.new
2021-12-27 10:36:18,385 INFO scheduler Scheduled Job Start: frappe.email.queue.flush for newbench.new
2021-12-27 10:36:18,919 INFO scheduler Scheduled Job Complete: frappe.email.queue.flush for newbench.new
2021-12-27 10:37:12,696 DEBUG scheduler Queued events for site newbench.new
2021-12-27 10:38:13,360 DEBUG scheduler Queued events for site newbench.new
2021-12-27 10:39:14,041 DEBUG scheduler Queued events for site newbench.new
2021-12-27 10:40:14,633 INFO scheduler Scheduled Job Start: erpnext.crm.doctype.social_media_post.social_media_post.process_scheduled_social_media_posts for newbench.new
2021-12-27 10:40:14,821 DEBUG scheduler Queued events for site newbench.new
2021-12-27 10:40:15,399 INFO scheduler Scheduled Job Complete: erpnext.crm.doctype.social_media_post.social_media_post.process_scheduled_social_media_posts for newbench.new
2021-12-27 10:40:15,558 INFO scheduler Scheduled Job Start: erpnext.hr.doctype.interview.interview.send_interview_reminder for newbench.new
2021-12-27 10:40:16,193 INFO scheduler Scheduled Job Complete: erpnext.hr.doctype.interview.interview.send_interview_reminder for newbench.new
2021-12-27 10:40:16,350 INFO scheduler Scheduled Job Start: erpnext.healthcare.doctype.patient_appointment.patient_appointment.send_appointment_reminder for newbench.new
2021-12-27 10:40:16,829 INFO scheduler Scheduled Job Complete: erpnext.healthcare.doctype.patient_appointment.patient_appointment.send_appointment_reminder for newbench.new
2021-12-27 10:40:16,989 INFO scheduler Scheduled Job Start: erpnext.projects.doctype.project.project.project_status_update_reminder for newbench.new
2021-12-27 10:40:17,746 INFO scheduler Scheduled Job Complete: erpnext.projects.doctype.project.project.project_status_update_reminder for newbench.new
2021-12-27 10:40:17,901 INFO scheduler Scheduled Job Start: frappe.monitor.flush for newbench.new
2021-12-27 10:40:18,438 INFO scheduler Scheduled Job Complete: frappe.monitor.flush for newbench.new
2021-12-27 10:40:18,599 INFO scheduler Scheduled Job Start: frappe.utils.global_search.sync_global_search for newbench.new
2021-12-27 10:40:19,018 INFO scheduler Scheduled Job Complete: frappe.utils.global_search.sync_global_search for newbench.new
2021-12-27 10:40:19,173 INFO scheduler Scheduled Job Start: frappe.integrations.doctype.razorpay_settings.razorpay_settings.capture_payment for newbench.new
2021-12-27 10:40:19,877 INFO scheduler Scheduled Job Complete: frappe.integrations.doctype.razorpay_settings.razorpay_settings.capture_payment for newbench.new
2021-12-27 10:40:20,028 INFO scheduler Scheduled Job Start: frappe.email.doctype.email_account.email_account.notify_unreplied for newbench.new
2021-12-27 10:40:20,605 INFO scheduler Scheduled Job Complete: frappe.email.doctype.email_account.email_account.notify_unreplied for newbench.new
2021-12-27 10:40:20,762 INFO scheduler Scheduled Job Start: frappe.email.doctype.email_account.email_account.pull for newbench.new
2021-12-27 10:40:21,367 INFO scheduler Scheduled Job Complete: frappe.email.doctype.email_account.email_account.pull for newbench.new
2021-12-27 10:40:21,521 INFO scheduler Scheduled Job Start: frappe.email.queue.flush for newbench.new
2021-12-27 10:40:21,969 INFO scheduler Scheduled Job Complete: frappe.email.queue.flush for newbench.new
2021-12-27 10:41:19,085 DEBUG scheduler Queued events for site newbench.new
2021-12-27 10:42:19,741 DEBUG scheduler Queued events for site newbench.new
2021-12-27 10:43:20,419 DEBUG scheduler Queued events for site newbench.new
2021-12-27 10:44:21,015 INFO scheduler Scheduled Job Start: erpnext.crm.doctype.social_media_post.social_media_post.process_scheduled_social_media_posts for newbench.new
2021-12-27 10:44:21,214 DEBUG scheduler Queued events for site newbench.new
2021-12-27 10:44:21,872 INFO scheduler Scheduled Job Complete: erpnext.crm.doctype.social_media_post.social_media_post.process_scheduled_social_media_posts for newbench.new
2021-12-27 10:44:22,028 INFO scheduler Scheduled Job Start: erpnext.hr.doctype.interview.interview.send_interview_reminder for newbench.new
2021-12-27 10:44:22,555 INFO scheduler Scheduled Job Complete: erpnext.hr.doctype.interview.interview.send_interview_reminder for newbench.new
2021-12-27 10:44:22,711 INFO scheduler Scheduled Job Start: erpnext.healthcare.doctype.patient_appointment.patient_appointment.send_appointment_reminder for newbench.new
2021-12-27 10:44:23,247 INFO scheduler Scheduled Job Complete: erpnext.healthcare.doctype.patient_appointment.patient_appointment.send_appointment_reminder for newbench.new
2021-12-27 10:44:23,398 INFO scheduler Scheduled Job Start: erpnext.projects.doctype.project.project.project_status_update_reminder for newbench.new
2021-12-27 10:44:24,202 INFO scheduler Scheduled Job Complete: erpnext.projects.doctype.project.project.project_status_update_reminder for newbench.new
2021-12-27 10:44:24,361 INFO scheduler Scheduled Job Start: frappe.monitor.flush for newbench.new
2021-12-27 10:44:24,763 INFO scheduler Scheduled Job Complete: frappe.monitor.flush for newbench.new
2021-12-27 10:44:24,921 INFO scheduler Scheduled Job Start: frappe.utils.global_search.sync_global_search for newbench.new
2021-12-27 10:44:25,425 INFO scheduler Scheduled Job Complete: frappe.utils.global_search.sync_global_search for newbench.new
2021-12-27 10:44:25,586 INFO scheduler Scheduled Job Start: frappe.integrations.doctype.razorpay_settings.razorpay_settings.capture_payment for newbench.new
2021-12-27 10:44:26,431 INFO scheduler Scheduled Job Complete: frappe.integrations.doctype.razorpay_settings.razorpay_settings.capture_payment for newbench.new
2021-12-27 10:44:26,589 INFO scheduler Scheduled Job Start: frappe.email.doctype.email_account.email_account.notify_unreplied for newbench.new
2021-12-27 10:44:27,164 INFO scheduler Scheduled Job Complete: frappe.email.doctype.email_account.email_account.notify_unreplied for newbench.new
2021-12-27 10:44:27,319 INFO scheduler Scheduled Job Start: frappe.email.doctype.email_account.email_account.pull for newbench.new
2021-12-27 10:44:27,965 INFO scheduler Scheduled Job Complete: frappe.email.doctype.email_account.email_account.pull for newbench.new
2021-12-27 10:44:28,118 INFO scheduler Scheduled Job Start: frappe.email.queue.flush for newbench.new
2021-12-27 10:44:28,672 INFO scheduler Scheduled Job Complete: frappe.email.queue.flush for newbench.new
2021-12-27 10:45:21,934 DEBUG scheduler Queued events for site newbench.new
2021-12-27 10:45:22,040 INFO scheduler Scheduled Job Start: frappe.twofactor.delete_all_barcodes_for_users for newbench.new
2021-12-27 10:45:22,877 INFO scheduler Scheduled Job Complete: frappe.twofactor.delete_all_barcodes_for_users for newbench.new
2021-12-27 10:45:23,105 INFO scheduler Scheduled Job Start: frappe.website.doctype.web_page.web_page.check_publish_status for newbench.new
2021-12-27 10:45:23,874 INFO scheduler Scheduled Job Complete: frappe.website.doctype.web_page.web_page.check_publish_status for newbench.new
2021-12-27 10:45:24,093 INFO scheduler Scheduled Job Start: frappe.oauth.delete_oauth2_data for newbench.new
2021-12-27 10:45:24,785 INFO scheduler Scheduled Job Complete: frappe.oauth.delete_oauth2_data for newbench.new
2021-12-27 10:46:22,617 DEBUG scheduler Queued events for site newbench.new
2021-12-27 10:47:23,296 DEBUG scheduler Queued events for site newbench.new
2021-12-27 10:48:23,877 INFO scheduler Scheduled Job Start: erpnext.crm.doctype.social_media_post.social_media_post.process_scheduled_social_media_posts for newbench.new
2021-12-27 10:48:24,063 DEBUG scheduler Queued events for site newbench.new
2021-12-27 10:48:24,385 INFO scheduler Scheduled Job Complete: erpnext.crm.doctype.social_media_post.social_media_post.process_scheduled_social_media_posts for newbench.new
2021-12-27 10:48:24,536 INFO scheduler Scheduled Job Start: erpnext.hr.doctype.interview.interview.send_interview_reminder for newbench.new
2021-12-27 10:48:25,058 INFO scheduler Scheduled Job Complete: erpnext.hr.doctype.interview.interview.send_interview_reminder for newbench.new
2021-12-27 10:48:25,209 INFO scheduler Scheduled Job Start: erpnext.healthcare.doctype.patient_appointment.patient_appointment.send_appointment_reminder for newbench.new
2021-12-27 10:48:25,759 INFO scheduler Scheduled Job Complete: erpnext.healthcare.doctype.patient_appointment.patient_appointment.send_appointment_reminder for newbench.new
2021-12-27 10:48:25,911 INFO scheduler Scheduled Job Start: erpnext.projects.doctype.project.project.project_status_update_reminder for newbench.new
2021-12-27 10:48:26,749 INFO scheduler Scheduled Job Complete: erpnext.projects.doctype.project.project.project_status_update_reminder for newbench.new
2021-12-27 10:48:26,905 INFO scheduler Scheduled Job Start: frappe.monitor.flush for newbench.new
2021-12-27 10:48:27,324 INFO scheduler Scheduled Job Complete: frappe.monitor.flush for newbench.new
2021-12-27 10:48:27,483 INFO scheduler Scheduled Job Start: frappe.utils.global_search.sync_global_search for newbench.new
2021-12-27 10:48:28,001 INFO scheduler Scheduled Job Complete: frappe.utils.global_search.sync_global_search for newbench.new
2021-12-27 10:48:28,160 INFO scheduler Scheduled Job Start: frappe.integrations.doctype.razorpay_settings.razorpay_settings.capture_payment for newbench.new
2021-12-27 10:48:28,953 INFO scheduler Scheduled Job Complete: frappe.integrations.doctype.razorpay_settings.razorpay_settings.capture_payment for newbench.new
2021-12-27 10:48:29,108 INFO scheduler Scheduled Job Start: frappe.email.doctype.email_account.email_account.notify_unreplied for newbench.new
2021-12-27 10:48:29,691 INFO scheduler Scheduled Job Complete: frappe.email.doctype.email_account.email_account.notify_unreplied for newbench.new
2021-12-27 10:48:29,842 INFO scheduler Scheduled Job Start: frappe.email.doctype.email_account.email_account.pull for newbench.new
2021-12-27 10:48:30,431 INFO scheduler Scheduled Job Complete: frappe.email.doctype.email_account.email_account.pull for newbench.new
2021-12-27 10:48:30,587 INFO scheduler Scheduled Job Start: frappe.email.queue.flush for newbench.new
2021-12-27 10:48:31,047 INFO scheduler Scheduled Job Complete: frappe.email.queue.flush for newbench.new
2021-12-27 10:49:24,749 DEBUG scheduler Queued events for site newbench.new
2021-12-27 10:50:25,419 DEBUG scheduler Queued events for site newbench.new
2021-12-27 10:51:26,081 DEBUG scheduler Queued events for site newbench.new
2021-12-27 10:52:26,690 INFO scheduler Scheduled Job Start: erpnext.crm.doctype.social_media_post.social_media_post.process_scheduled_social_media_posts for newbench.new
2021-12-27 10:52:26,873 DEBUG scheduler Queued events for site newbench.new
2021-12-27 10:52:27,198 INFO scheduler Scheduled Job Complete: erpnext.crm.doctype.social_media_post.social_media_post.process_scheduled_social_media_posts for newbench.new
2021-12-27 10:52:27,356 INFO scheduler Scheduled Job Start: erpnext.hr.doctype.interview.interview.send_interview_reminder for newbench.new
2021-12-27 10:52:27,884 INFO scheduler Scheduled Job Complete: erpnext.hr.doctype.interview.interview.send_interview_reminder for newbench.new
2021-12-27 10:52:28,036 INFO scheduler Scheduled Job Start: erpnext.healthcare.doctype.patient_appointment.patient_appointment.send_appointment_reminder for newbench.new
2021-12-27 10:52:28,596 INFO scheduler Scheduled Job Complete: erpnext.healthcare.doctype.patient_appointment.patient_appointment.send_appointment_reminder for newbench.new
2021-12-27 10:52:28,752 INFO scheduler Scheduled Job Start: erpnext.projects.doctype.project.project.project_status_update_reminder for newbench.new
2021-12-27 10:52:29,467 INFO scheduler Scheduled Job Complete: erpnext.projects.doctype.project.project.project_status_update_reminder for newbench.new
2021-12-27 10:52:29,629 INFO scheduler Scheduled Job Start: frappe.monitor.flush for newbench.new
2021-12-27 10:52:30,061 INFO scheduler Scheduled Job Complete: frappe.monitor.flush for newbench.new
2021-12-27 10:52:30,216 INFO scheduler Scheduled Job Start: frappe.utils.global_search.sync_global_search for newbench.new
2021-12-27 10:52:30,745 INFO scheduler Scheduled Job Complete: frappe.utils.global_search.sync_global_search for newbench.new
2021-12-27 10:52:30,906 INFO scheduler Scheduled Job Start: frappe.integrations.doctype.razorpay_settings.razorpay_settings.capture_payment for newbench.new
2021-12-27 10:52:31,619 INFO scheduler Scheduled Job Complete: frappe.integrations.doctype.razorpay_settings.razorpay_settings.capture_payment for newbench.new
2021-12-27 10:52:31,774 INFO scheduler Scheduled Job Start: frappe.email.doctype.email_account.email_account.notify_unreplied for newbench.new
2021-12-27 10:52:32,375 INFO scheduler Scheduled Job Complete: frappe.email.doctype.email_account.email_account.notify_unreplied for newbench.new
2021-12-27 10:52:32,536 INFO scheduler Scheduled Job Start: frappe.email.doctype.email_account.email_account.pull for newbench.new
2021-12-27 10:52:33,166 INFO scheduler Scheduled Job Complete: frappe.email.doctype.email_account.email_account.pull for newbench.new
2021-12-27 10:52:33,323 INFO scheduler Scheduled Job Start: frappe.email.queue.flush for newbench.new
2021-12-27 10:52:33,949 INFO scheduler Scheduled Job Complete: frappe.email.queue.flush for newbench.new
2021-12-27 10:53:27,550 DEBUG scheduler Queued events for site newbench.new
2021-12-27 10:54:28,234 DEBUG scheduler Queued events for site newbench.new
2021-12-27 10:55:28,934 DEBUG scheduler Queued events for site newbench.new
2021-12-27 10:56:29,656 INFO scheduler Scheduled Job Start: erpnext.crm.doctype.social_media_post.social_media_post.process_scheduled_social_media_posts for newbench.new
2021-12-27 10:56:29,725 DEBUG scheduler Queued events for site newbench.new
2021-12-27 10:56:30,330 INFO scheduler Scheduled Job Complete: erpnext.crm.doctype.social_media_post.social_media_post.process_scheduled_social_media_posts for newbench.new
2021-12-27 10:56:30,481 INFO scheduler Scheduled Job Start: erpnext.hr.doctype.interview.interview.send_interview_reminder for newbench.new
2021-12-27 10:56:31,092 INFO scheduler Scheduled Job Complete: erpnext.hr.doctype.interview.interview.send_interview_reminder for newbench.new
2021-12-27 10:56:31,247 INFO scheduler Scheduled Job Start: erpnext.healthcare.doctype.patient_appointment.patient_appointment.send_appointment_reminder for newbench.new
2021-12-27 10:56:31,829 INFO scheduler Scheduled Job Complete: erpnext.healthcare.doctype.patient_appointment.patient_appointment.send_appointment_reminder for newbench.new
2021-12-27 10:56:31,983 INFO scheduler Scheduled Job Start: erpnext.projects.doctype.project.project.project_status_update_reminder for newbench.new
2021-12-27 10:56:32,698 INFO scheduler Scheduled Job Complete: erpnext.projects.doctype.project.project.project_status_update_reminder for newbench.new
2021-12-27 10:56:32,852 INFO scheduler Scheduled Job Start: frappe.monitor.flush for newbench.new
2021-12-27 10:56:33,283 INFO scheduler Scheduled Job Complete: frappe.monitor.flush for newbench.new
2021-12-27 10:56:33,437 INFO scheduler Scheduled Job Start: frappe.utils.global_search.sync_global_search for newbench.new
2021-12-27 10:56:33,877 INFO scheduler Scheduled Job Complete: frappe.utils.global_search.sync_global_search for newbench.new
2021-12-27 10:56:34,037 INFO scheduler Scheduled Job Start: frappe.integrations.doctype.razorpay_settings.razorpay_settings.capture_payment for newbench.new
2021-12-27 10:56:34,794 INFO scheduler Scheduled Job Complete: frappe.integrations.doctype.razorpay_settings.razorpay_settings.capture_payment for newbench.new
2021-12-27 10:56:34,955 INFO scheduler Scheduled Job Start: frappe.email.doctype.email_account.email_account.notify_unreplied for newbench.new
2021-12-27 10:56:35,610 INFO scheduler Scheduled Job Complete: frappe.email.doctype.email_account.email_account.notify_unreplied for newbench.new
2021-12-27 10:56:35,768 INFO scheduler Scheduled Job Start: frappe.email.doctype.email_account.email_account.pull for newbench.new
2021-12-27 10:56:36,501 INFO scheduler Scheduled Job Complete: frappe.email.doctype.email_account.email_account.pull for newbench.new
2021-12-27 10:56:36,657 INFO scheduler Scheduled Job Start: frappe.email.queue.flush for newbench.new
2021-12-27 10:56:37,133 INFO scheduler Scheduled Job Complete: frappe.email.queue.flush for newbench.new
2021-12-27 10:57:30,392 DEBUG scheduler Queued events for site newbench.new
2021-12-27 10:58:31,057 DEBUG scheduler Queued events for site newbench.new
2021-12-27 10:59:31,732 DEBUG scheduler Queued events for site newbench.new
2021-12-27 11:00:32,286 INFO scheduler Scheduled Job Start: erpnext.erpnext_integrations.connectors.shopify_connection.sync_old_orders for newbench.new
2021-12-27 11:00:32,903 DEBUG scheduler Queued events for site newbench.new
2021-12-27 11:00:36,060 INFO scheduler Scheduled Job Complete: erpnext.erpnext_integrations.connectors.shopify_connection.sync_old_orders for newbench.new
2021-12-27 11:00:36,384 INFO scheduler Scheduled Job Start: erpnext.support.doctype.issue.issue.set_service_level_agreement_variance for newbench.new
2021-12-27 11:00:37,444 INFO scheduler Scheduled Job Complete: erpnext.support.doctype.issue.issue.set_service_level_agreement_variance for newbench.new
2021-12-27 11:00:37,675 INFO scheduler Scheduled Job Start: erpnext.hr.doctype.shift_type.shift_type.process_auto_attendance_for_all_shifts for newbench.new
2021-12-27 11:00:37,722 INFO scheduler Scheduled Job Start: erpnext.stock.doctype.repost_item_valuation.repost_item_valuation.repost_entries for newbench.new
2021-12-27 11:00:38,639 INFO scheduler Scheduled Job Complete: erpnext.hr.doctype.shift_type.shift_type.process_auto_attendance_for_all_shifts for newbench.new
2021-12-27 11:00:38,862 INFO scheduler Scheduled Job Start: erpnext.projects.doctype.project.project.collect_project_status for newbench.new
2021-12-27 11:00:39,652 INFO scheduler Scheduled Job Complete: erpnext.projects.doctype.project.project.collect_project_status for newbench.new
2021-12-27 11:00:39,934 INFO scheduler Scheduled Job Start: erpnext.projects.doctype.project.project.hourly_reminder for newbench.new
2021-12-27 11:00:40,353 INFO scheduler Scheduled Job Complete: erpnext.stock.doctype.repost_item_valuation.repost_item_valuation.repost_entries for newbench.new
2021-12-27 11:00:40,800 INFO scheduler Scheduled Job Complete: erpnext.projects.doctype.project.project.hourly_reminder for newbench.new
2021-12-27 11:00:41,016 INFO scheduler Scheduled Job Start: erpnext.erpnext_integrations.doctype.plaid_settings.plaid_settings.automatic_synchronization for newbench.new
2021-12-27 11:00:42,336 INFO scheduler Scheduled Job Complete: erpnext.erpnext_integrations.doctype.plaid_settings.plaid_settings.automatic_synchronization for newbench.new
2021-12-27 11:00:42,561 INFO scheduler Scheduled Job Start: erpnext.accounts.doctype.gl_entry.gl_entry.rename_gle_sle_docs for newbench.new
2021-12-27 11:00:43,392 INFO scheduler Scheduled Job Complete: erpnext.accounts.doctype.gl_entry.gl_entry.rename_gle_sle_docs for newbench.new
2021-12-27 11:00:43,616 INFO scheduler Scheduled Job Start: erpnext.erpnext_integrations.doctype.amazon_mws_settings.amazon_mws_settings.schedule_get_order_details for newbench.new
2021-12-27 11:00:44,324 INFO scheduler Scheduled Job Complete: erpnext.erpnext_integrations.doctype.amazon_mws_settings.amazon_mws_settings.schedule_get_order_details for newbench.new
2021-12-27 11:00:44,548 INFO scheduler Scheduled Job Start: erpnext.accounts.doctype.subscription.subscription.process_all for newbench.new
2021-12-27 11:00:45,253 INFO scheduler Scheduled Job Complete: erpnext.accounts.doctype.subscription.subscription.process_all for newbench.new
2021-12-27 11:00:45,478 INFO scheduler Scheduled Job Start: erpnext.hr.doctype.daily_work_summary_group.daily_work_summary_group.trigger_emails for newbench.new
2021-12-27 11:00:46,169 INFO scheduler Scheduled Job Complete: erpnext.hr.doctype.daily_work_summary_group.daily_work_summary_group.trigger_emails for newbench.new
2021-12-27 11:00:46,391 INFO scheduler Scheduled Job Start: erpnext.crm.doctype.social_media_post.social_media_post.process_scheduled_social_media_posts for newbench.new
2021-12-27 11:00:46,960 INFO scheduler Scheduled Job Complete: erpnext.crm.doctype.social_media_post.social_media_post.process_scheduled_social_media_posts for newbench.new
2021-12-27 11:00:47,118 INFO scheduler Scheduled Job Start: erpnext.hr.doctype.interview.interview.send_interview_reminder for newbench.new
2021-12-27 11:00:47,655 INFO scheduler Scheduled Job Complete: erpnext.hr.doctype.interview.interview.send_interview_reminder for newbench.new
2021-12-27 11:00:47,808 INFO scheduler Scheduled Job Start: erpnext.healthcare.doctype.patient_appointment.patient_appointment.send_appointment_reminder for newbench.new
2021-12-27 11:00:48,285 INFO scheduler Scheduled Job Complete: erpnext.healthcare.doctype.patient_appointment.patient_appointment.send_appointment_reminder for newbench.new
2021-12-27 11:00:48,441 INFO scheduler Scheduled Job Start: erpnext.projects.doctype.project.project.project_status_update_reminder for newbench.new
2021-12-27 11:00:49,209 INFO scheduler Scheduled Job Complete: erpnext.projects.doctype.project.project.project_status_update_reminder for newbench.new
2021-12-27 11:00:49,363 INFO scheduler Scheduled Job Start: erpnext.utilities.doctype.video.video.update_youtube_data for newbench.new
2021-12-27 11:00:50,216 INFO scheduler Scheduled Job Failed: erpnext.utilities.doctype.video.video.update_youtube_data for newbench.new
2021-12-27 11:00:50,495 INFO scheduler Scheduled Job Start: frappe.email.doctype.newsletter.newsletter.send_scheduled_email for newbench.new
2021-12-27 11:00:51,292 INFO scheduler Scheduled Job Complete: frappe.email.doctype.newsletter.newsletter.send_scheduled_email for newbench.new
2021-12-27 11:00:51,520 INFO scheduler Scheduled Job Start: frappe.integrations.doctype.google_calendar.google_calendar.sync for newbench.new
2021-12-27 11:00:53,833 INFO scheduler Scheduled Job Complete: frappe.integrations.doctype.google_calendar.google_calendar.sync for newbench.new
2021-12-27 11:00:54,129 INFO scheduler Scheduled Job Start: frappe.desk.form.document_follow.send_hourly_updates for newbench.new
2021-12-27 11:00:54,829 INFO scheduler Scheduled Job Complete: frappe.desk.form.document_follow.send_hourly_updates for newbench.new
2021-12-27 11:00:55,054 INFO scheduler Scheduled Job Start: frappe.deferred_insert.save_to_db for newbench.new
2021-12-27 11:00:55,987 INFO scheduler Scheduled Job Complete: frappe.deferred_insert.save_to_db for newbench.new
2021-12-27 11:00:56,205 INFO scheduler Scheduled Job Start: frappe.desk.page.backups.backups.delete_downloadable_backups for newbench.new
2021-12-27 11:00:57,166 INFO scheduler Scheduled Job Complete: frappe.desk.page.backups.backups.delete_downloadable_backups for newbench.new
2021-12-27 11:00:57,592 INFO scheduler Scheduled Job Start: frappe.utils.error.collect_error_snapshots for newbench.new
2021-12-27 11:00:58,526 INFO scheduler Scheduled Job Complete: frappe.utils.error.collect_error_snapshots for newbench.new
2021-12-27 11:00:58,811 INFO scheduler Scheduled Job Start: frappe.model.utils.user_settings.sync_user_settings for newbench.new
2021-12-27 11:00:59,471 INFO scheduler Scheduled Job Complete: frappe.model.utils.user_settings.sync_user_settings for newbench.new
2021-12-27 11:00:59,692 INFO scheduler Scheduled Job Start: frappe.model.utils.link_count.update_link_count for newbench.new
2021-12-27 11:01:00,435 INFO scheduler Scheduled Job Complete: frappe.model.utils.link_count.update_link_count for newbench.new
2021-12-27 11:01:00,686 INFO scheduler Scheduled Job Start: frappe.monitor.flush for newbench.new
2021-12-27 11:01:01,155 INFO scheduler Scheduled Job Complete: frappe.monitor.flush for newbench.new
2021-12-27 11:01:01,312 INFO scheduler Scheduled Job Start: frappe.utils.global_search.sync_global_search for newbench.new
2021-12-27 11:01:01,778 INFO scheduler Scheduled Job Complete: frappe.utils.global_search.sync_global_search for newbench.new
2021-12-27 11:01:01,933 INFO scheduler Scheduled Job Start: frappe.integrations.doctype.razorpay_settings.razorpay_settings.capture_payment for newbench.new
2021-12-27 11:01:02,660 INFO scheduler Scheduled Job Complete: frappe.integrations.doctype.razorpay_settings.razorpay_settings.capture_payment for newbench.new
2021-12-27 11:01:02,811 INFO scheduler Scheduled Job Start: frappe.email.doctype.email_account.email_account.notify_unreplied for newbench.new
2021-12-27 11:01:03,391 INFO scheduler Scheduled Job Complete: frappe.email.doctype.email_account.email_account.notify_unreplied for newbench.new
2021-12-27 11:01:03,541 INFO scheduler Scheduled Job Start: frappe.email.doctype.email_account.email_account.pull for newbench.new
2021-12-27 11:01:04,176 INFO scheduler Scheduled Job Complete: frappe.email.doctype.email_account.email_account.pull for newbench.new
2021-12-27 11:01:04,333 INFO scheduler Scheduled Job Start: frappe.email.queue.flush for newbench.new
2021-12-27 11:01:04,797 INFO scheduler Scheduled Job Complete: frappe.email.queue.flush for newbench.new
2021-12-27 11:01:04,951 INFO scheduler Scheduled Job Start: frappe.twofactor.delete_all_barcodes_for_users for newbench.new
2021-12-27 11:01:05,707 INFO scheduler Scheduled Job Complete: frappe.twofactor.delete_all_barcodes_for_users for newbench.new
2021-12-27 11:01:05,965 INFO scheduler Scheduled Job Start: frappe.website.doctype.web_page.web_page.check_publish_status for newbench.new
2021-12-27 11:01:06,771 INFO scheduler Scheduled Job Complete: frappe.website.doctype.web_page.web_page.check_publish_status for newbench.new
2021-12-27 11:01:06,992 INFO scheduler Scheduled Job Start: frappe.oauth.delete_oauth2_data for newbench.new
2021-12-27 11:01:07,731 INFO scheduler Scheduled Job Complete: frappe.oauth.delete_oauth2_data for newbench.new
2021-12-27 11:01:33,569 DEBUG scheduler Queued events for site newbench.new
2021-12-27 11:02:34,255 DEBUG scheduler Queued events for site newbench.new
2021-12-27 11:03:34,936 DEBUG scheduler Queued events for site newbench.new
2021-12-27 11:04:35,536 INFO scheduler Scheduled Job Start: erpnext.crm.doctype.social_media_post.social_media_post.process_scheduled_social_media_posts for newbench.new
2021-12-27 11:04:35,729 DEBUG scheduler Queued events for site newbench.new
2021-12-27 11:04:36,136 INFO scheduler Scheduled Job Complete: erpnext.crm.doctype.social_media_post.social_media_post.process_scheduled_social_media_posts for newbench.new
2021-12-27 11:04:36,296 INFO scheduler Scheduled Job Start: erpnext.hr.doctype.interview.interview.send_interview_reminder for newbench.new
2021-12-27 11:04:36,841 INFO scheduler Scheduled Job Complete: erpnext.hr.doctype.interview.interview.send_interview_reminder for newbench.new
2021-12-27 11:04:36,994 INFO scheduler Scheduled Job Start: erpnext.healthcare.doctype.patient_appointment.patient_appointment.send_appointment_reminder for newbench.new
2021-12-27 11:04:37,553 INFO scheduler Scheduled Job Complete: erpnext.healthcare.doctype.patient_appointment.patient_appointment.send_appointment_reminder for newbench.new
2021-12-27 11:04:37,704 INFO scheduler Scheduled Job Start: erpnext.projects.doctype.project.project.project_status_update_reminder for newbench.new
2021-12-27 11:04:38,511 INFO scheduler Scheduled Job Complete: erpnext.projects.doctype.project.project.project_status_update_reminder for newbench.new
2021-12-27 11:04:38,663 INFO scheduler Scheduled Job Start: frappe.monitor.flush for newbench.new
2021-12-27 11:04:39,161 INFO scheduler Scheduled Job Complete: frappe.monitor.flush for newbench.new
2021-12-27 11:04:39,318 INFO scheduler Scheduled Job Start: frappe.utils.global_search.sync_global_search for newbench.new
2021-12-27 11:04:39,823 INFO scheduler Scheduled Job Complete: frappe.utils.global_search.sync_global_search for newbench.new
2021-12-27 11:04:39,984 INFO scheduler Scheduled Job Start: frappe.integrations.doctype.razorpay_settings.razorpay_settings.capture_payment for newbench.new
2021-12-27 11:04:40,773 INFO scheduler Scheduled Job Complete: frappe.integrations.doctype.razorpay_settings.razorpay_settings.capture_payment for newbench.new
2021-12-27 11:04:40,927 INFO scheduler Scheduled Job Start: frappe.email.doctype.email_account.email_account.notify_unreplied for newbench.new
2021-12-27 11:04:41,574 INFO scheduler Scheduled Job Complete: frappe.email.doctype.email_account.email_account.notify_unreplied for newbench.new
2021-12-27 11:04:41,727 INFO scheduler Scheduled Job Start: frappe.email.doctype.email_account.email_account.pull for newbench.new
2021-12-27 11:04:42,315 INFO scheduler Scheduled Job Complete: frappe.email.doctype.email_account.email_account.pull for newbench.new
2021-12-27 11:04:42,467 INFO scheduler Scheduled Job Start: frappe.email.queue.flush for newbench.new
2021-12-27 11:04:43,004 INFO scheduler Scheduled Job Complete: frappe.email.queue.flush for newbench.new
2021-12-27 11:05:36,408 DEBUG scheduler Queued events for site newbench.new
2021-12-27 11:06:37,090 DEBUG scheduler Queued events for site newbench.new
2021-12-27 11:07:37,768 DEBUG scheduler Queued events for site newbench.new
2021-12-27 11:08:38,357 INFO scheduler Scheduled Job Start: erpnext.crm.doctype.social_media_post.social_media_post.process_scheduled_social_media_posts for newbench.new
2021-12-27 11:08:38,547 DEBUG scheduler Queued events for site newbench.new
2021-12-27 11:08:38,957 INFO scheduler Scheduled Job Complete: erpnext.crm.doctype.social_media_post.social_media_post.process_scheduled_social_media_posts for newbench.new
2021-12-27 11:08:39,114 INFO scheduler Scheduled Job Start: erpnext.hr.doctype.interview.interview.send_interview_reminder for newbench.new
2021-12-27 11:08:39,694 INFO scheduler Scheduled Job Complete: erpnext.hr.doctype.interview.interview.send_interview_reminder for newbench.new
2021-12-27 11:08:39,853 INFO scheduler Scheduled Job Start: erpnext.healthcare.doctype.patient_appointment.patient_appointment.send_appointment_reminder for newbench.new
2021-12-27 11:08:40,326 INFO scheduler Scheduled Job Complete: erpnext.healthcare.doctype.patient_appointment.patient_appointment.send_appointment_reminder for newbench.new
2021-12-27 11:08:40,480 INFO scheduler Scheduled Job Start: erpnext.projects.doctype.project.project.project_status_update_reminder for newbench.new
2021-12-27 11:08:41,190 INFO scheduler Scheduled Job Complete: erpnext.projects.doctype.project.project.project_status_update_reminder for newbench.new
2021-12-27 11:08:41,344 INFO scheduler Scheduled Job Start: frappe.monitor.flush for newbench.new
2021-12-27 11:08:41,753 INFO scheduler Scheduled Job Complete: frappe.monitor.flush for newbench.new
2021-12-27 11:08:41,918 INFO scheduler Scheduled Job Start: frappe.utils.global_search.sync_global_search for newbench.new
2021-12-27 11:08:42,436 INFO scheduler Scheduled Job Complete: frappe.utils.global_search.sync_global_search for newbench.new
2021-12-27 11:08:42,593 INFO scheduler Scheduled Job Start: frappe.integrations.doctype.razorpay_settings.razorpay_settings.capture_payment for newbench.new
2021-12-27 11:08:43,302 INFO scheduler Scheduled Job Complete: frappe.integrations.doctype.razorpay_settings.razorpay_settings.capture_payment for newbench.new
2021-12-27 11:08:43,459 INFO scheduler Scheduled Job Start: frappe.email.doctype.email_account.email_account.notify_unreplied for newbench.new
2021-12-27 11:08:44,103 INFO scheduler Scheduled Job Complete: frappe.email.doctype.email_account.email_account.notify_unreplied for newbench.new
2021-12-27 11:08:44,257 INFO scheduler Scheduled Job Start: frappe.email.doctype.email_account.email_account.pull for newbench.new
2021-12-27 11:08:44,893 INFO scheduler Scheduled Job Complete: frappe.email.doctype.email_account.email_account.pull for newbench.new
2021-12-27 11:08:45,048 INFO scheduler Scheduled Job Start: frappe.email.queue.flush for newbench.new
2021-12-27 11:08:45,582 INFO scheduler Scheduled Job Complete: frappe.email.queue.flush for newbench.new
2021-12-27 11:09:39,209 DEBUG scheduler Queued events for site newbench.new
2021-12-27 11:10:39,869 DEBUG scheduler Queued events for site newbench.new
2021-12-27 11:11:40,554 DEBUG scheduler Queued events for site newbench.new
2021-12-27 11:12:41,153 INFO scheduler Scheduled Job Start: erpnext.crm.doctype.social_media_post.social_media_post.process_scheduled_social_media_posts for newbench.new
2021-12-27 11:12:41,339 DEBUG scheduler Queued events for site newbench.new
2021-12-27 11:12:41,757 INFO scheduler Scheduled Job Complete: erpnext.crm.doctype.social_media_post.social_media_post.process_scheduled_social_media_posts for newbench.new
2021-12-27 11:12:41,913 INFO scheduler Scheduled Job Start: erpnext.hr.doctype.interview.interview.send_interview_reminder for newbench.new
2021-12-27 11:12:42,544 INFO scheduler Scheduled Job Complete: erpnext.hr.doctype.interview.interview.send_interview_reminder for newbench.new
2021-12-27 11:12:42,704 INFO scheduler Scheduled Job Start: erpnext.healthcare.doctype.patient_appointment.patient_appointment.send_appointment_reminder for newbench.new
2021-12-27 11:12:43,169 INFO scheduler Scheduled Job Complete: erpnext.healthcare.doctype.patient_appointment.patient_appointment.send_appointment_reminder for newbench.new
2021-12-27 11:12:43,322 INFO scheduler Scheduled Job Start: erpnext.projects.doctype.project.project.project_status_update_reminder for newbench.new
2021-12-27 11:12:44,130 INFO scheduler Scheduled Job Complete: erpnext.projects.doctype.project.project.project_status_update_reminder for newbench.new
2021-12-27 11:12:44,288 INFO scheduler Scheduled Job Start: frappe.monitor.flush for newbench.new
2021-12-27 11:12:44,785 INFO scheduler Scheduled Job Complete: frappe.monitor.flush for newbench.new
2021-12-27 11:12:44,940 INFO scheduler Scheduled Job Start: frappe.utils.global_search.sync_global_search for newbench.new
2021-12-27 11:12:45,341 INFO scheduler Scheduled Job Complete: frappe.utils.global_search.sync_global_search for newbench.new
2021-12-27 11:12:45,502 INFO scheduler Scheduled Job Start: frappe.integrations.doctype.razorpay_settings.razorpay_settings.capture_payment for newbench.new
2021-12-27 11:12:46,228 INFO scheduler Scheduled Job Complete: frappe.integrations.doctype.razorpay_settings.razorpay_settings.capture_payment for newbench.new
2021-12-27 11:12:46,398 INFO scheduler Scheduled Job Start: frappe.email.doctype.email_account.email_account.notify_unreplied for newbench.new
2021-12-27 11:12:47,064 INFO scheduler Scheduled Job Complete: frappe.email.doctype.email_account.email_account.notify_unreplied for newbench.new
2021-12-27 11:12:47,224 INFO scheduler Scheduled Job Start: frappe.email.doctype.email_account.email_account.pull for newbench.new
2021-12-27 11:12:47,886 INFO scheduler Scheduled Job Complete: frappe.email.doctype.email_account.email_account.pull for newbench.new
2021-12-27 11:12:48,049 INFO scheduler Scheduled Job Start: frappe.email.queue.flush for newbench.new
2021-12-27 11:12:48,501 INFO scheduler Scheduled Job Complete: frappe.email.queue.flush for newbench.new
2021-12-27 11:13:42,025 DEBUG scheduler Queued events for site newbench.new
2021-12-27 11:14:42,753 DEBUG scheduler Queued events for site newbench.new
2021-12-27 11:15:43,465 DEBUG scheduler Queued events for site newbench.new
2021-12-27 11:15:43,575 INFO scheduler Scheduled Job Start: frappe.twofactor.delete_all_barcodes_for_users for newbench.new
2021-12-27 11:15:44,453 INFO scheduler Scheduled Job Complete: frappe.twofactor.delete_all_barcodes_for_users for newbench.new
2021-12-27 11:15:44,676 INFO scheduler Scheduled Job Start: frappe.website.doctype.web_page.web_page.check_publish_status for newbench.new
2021-12-27 11:15:45,474 INFO scheduler Scheduled Job Complete: frappe.website.doctype.web_page.web_page.check_publish_status for newbench.new
2021-12-27 11:15:45,706 INFO scheduler Scheduled Job Start: frappe.oauth.delete_oauth2_data for newbench.new
2021-12-27 11:15:46,428 INFO scheduler Scheduled Job Complete: frappe.oauth.delete_oauth2_data for newbench.new
2021-12-27 11:16:44,079 INFO scheduler Scheduled Job Start: erpnext.crm.doctype.social_media_post.social_media_post.process_scheduled_social_media_posts for newbench.new
2021-12-27 11:16:44,290 DEBUG scheduler Queued events for site newbench.new
2021-12-27 11:16:44,697 INFO scheduler Scheduled Job Complete: erpnext.crm.doctype.social_media_post.social_media_post.process_scheduled_social_media_posts for newbench.new
2021-12-27 11:16:44,854 INFO scheduler Scheduled Job Start: erpnext.hr.doctype.interview.interview.send_interview_reminder for newbench.new
2021-12-27 11:16:45,519 INFO scheduler Scheduled Job Complete: erpnext.hr.doctype.interview.interview.send_interview_reminder for newbench.new
2021-12-27 11:16:45,671 INFO scheduler Scheduled Job Start: erpnext.healthcare.doctype.patient_appointment.patient_appointment.send_appointment_reminder for newbench.new
2021-12-27 11:16:46,193 INFO scheduler Scheduled Job Complete: erpnext.healthcare.doctype.patient_appointment.patient_appointment.send_appointment_reminder for newbench.new
2021-12-27 11:16:46,411 INFO scheduler Scheduled Job Start: erpnext.projects.doctype.project.project.project_status_update_reminder for newbench.new
2021-12-27 11:16:47,129 INFO scheduler Scheduled Job Complete: erpnext.projects.doctype.project.project.project_status_update_reminder for newbench.new
2021-12-27 11:16:47,281 INFO scheduler Scheduled Job Start: frappe.monitor.flush for newbench.new
2021-12-27 11:16:47,815 INFO scheduler Scheduled Job Complete: frappe.monitor.flush for newbench.new
2021-12-27 11:16:47,969 INFO scheduler Scheduled Job Start: frappe.utils.global_search.sync_global_search for newbench.new
2021-12-27 11:16:48,421 INFO scheduler Scheduled Job Complete: frappe.utils.global_search.sync_global_search for newbench.new
2021-12-27 11:16:48,580 INFO scheduler Scheduled Job Start: frappe.integrations.doctype.razorpay_settings.razorpay_settings.capture_payment for newbench.new
2021-12-27 11:16:49,287 INFO scheduler Scheduled Job Complete: frappe.integrations.doctype.razorpay_settings.razorpay_settings.capture_payment for newbench.new
2021-12-27 11:16:49,441 INFO scheduler Scheduled Job Start: frappe.email.doctype.email_account.email_account.notify_unreplied for newbench.new
2021-12-27 11:16:50,076 INFO scheduler Scheduled Job Complete: frappe.email.doctype.email_account.email_account.notify_unreplied for newbench.new
2021-12-27 11:16:50,230 INFO scheduler Scheduled Job Start: frappe.email.doctype.email_account.email_account.pull for newbench.new
2021-12-27 11:16:50,891 INFO scheduler Scheduled Job Complete: frappe.email.doctype.email_account.email_account.pull for newbench.new
2021-12-27 11:16:51,054 INFO scheduler Scheduled Job Start: frappe.email.queue.flush for newbench.new
2021-12-27 11:16:51,592 INFO scheduler Scheduled Job Complete: frappe.email.queue.flush for newbench.new
2021-12-27 11:17:44,971 DEBUG scheduler Queued events for site newbench.new
2021-12-27 11:18:45,630 DEBUG scheduler Queued events for site newbench.new
2021-12-27 11:19:46,331 DEBUG scheduler Queued events for site newbench.new
2021-12-27 11:20:46,923 INFO scheduler Scheduled Job Start: erpnext.crm.doctype.social_media_post.social_media_post.process_scheduled_social_media_posts for newbench.new
2021-12-27 11:20:47,115 DEBUG scheduler Queued events for site newbench.new
2021-12-27 11:20:47,467 INFO scheduler Scheduled Job Complete: erpnext.crm.doctype.social_media_post.social_media_post.process_scheduled_social_media_posts for newbench.new
2021-12-27 11:20:47,621 INFO scheduler Scheduled Job Start: erpnext.hr.doctype.interview.interview.send_interview_reminder for newbench.new
2021-12-27 11:20:48,247 INFO scheduler Scheduled Job Complete: erpnext.hr.doctype.interview.interview.send_interview_reminder for newbench.new
2021-12-27 11:20:48,410 INFO scheduler Scheduled Job Start: erpnext.healthcare.doctype.patient_appointment.patient_appointment.send_appointment_reminder for newbench.new
2021-12-27 11:20:48,994 INFO scheduler Scheduled Job Complete: erpnext.healthcare.doctype.patient_appointment.patient_appointment.send_appointment_reminder for newbench.new
2021-12-27 11:20:49,147 INFO scheduler Scheduled Job Start: erpnext.projects.doctype.project.project.project_status_update_reminder for newbench.new
2021-12-27 11:20:49,929 INFO scheduler Scheduled Job Complete: erpnext.projects.doctype.project.project.project_status_update_reminder for newbench.new
2021-12-27 11:20:50,085 INFO scheduler Scheduled Job Start: frappe.monitor.flush for newbench.new
2021-12-27 11:20:50,501 INFO scheduler Scheduled Job Complete: frappe.monitor.flush for newbench.new
2021-12-27 11:20:50,659 INFO scheduler Scheduled Job Start: frappe.utils.global_search.sync_global_search for newbench.new
2021-12-27 11:20:51,186 INFO scheduler Scheduled Job Complete: frappe.utils.global_search.sync_global_search for newbench.new
2021-12-27 11:20:51,337 INFO scheduler Scheduled Job Start: frappe.integrations.doctype.razorpay_settings.razorpay_settings.capture_payment for newbench.new
2021-12-27 11:20:52,031 INFO scheduler Scheduled Job Complete: frappe.integrations.doctype.razorpay_settings.razorpay_settings.capture_payment for newbench.new
2021-12-27 11:20:52,186 INFO scheduler Scheduled Job Start: frappe.email.doctype.email_account.email_account.notify_unreplied for newbench.new
2021-12-27 11:20:52,860 INFO scheduler Scheduled Job Complete: frappe.email.doctype.email_account.email_account.notify_unreplied for newbench.new
2021-12-27 11:20:53,018 INFO scheduler Scheduled Job Start: frappe.email.doctype.email_account.email_account.pull for newbench.new
2021-12-27 11:20:53,698 INFO scheduler Scheduled Job Complete: frappe.email.doctype.email_account.email_account.pull for newbench.new
2021-12-27 11:20:53,854 INFO scheduler Scheduled Job Start: frappe.email.queue.flush for newbench.new
2021-12-27 11:20:54,545 INFO scheduler Scheduled Job Complete: frappe.email.queue.flush for newbench.new
2021-12-27 11:21:47,775 DEBUG scheduler Queued events for site newbench.new
2021-12-27 11:22:48,432 DEBUG scheduler Queued events for site newbench.new
2021-12-27 11:23:49,106 DEBUG scheduler Queued events for site newbench.new
2021-12-27 11:24:49,729 INFO scheduler Scheduled Job Start: erpnext.crm.doctype.social_media_post.social_media_post.process_scheduled_social_media_posts for newbench.new
2021-12-27 11:24:49,937 DEBUG scheduler Queued events for site newbench.new
2021-12-27 11:24:50,476 INFO scheduler Scheduled Job Complete: erpnext.crm.doctype.social_media_post.social_media_post.process_scheduled_social_media_posts for newbench.new
2021-12-27 11:24:50,637 INFO scheduler Scheduled Job Start: erpnext.hr.doctype.interview.interview.send_interview_reminder for newbench.new
2021-12-27 11:24:51,201 INFO scheduler Scheduled Job Complete: erpnext.hr.doctype.interview.interview.send_interview_reminder for newbench.new
2021-12-27 11:24:51,365 INFO scheduler Scheduled Job Start: erpnext.healthcare.doctype.patient_appointment.patient_appointment.send_appointment_reminder for newbench.new
2021-12-27 11:24:51,939 INFO scheduler Scheduled Job Complete: erpnext.healthcare.doctype.patient_appointment.patient_appointment.send_appointment_reminder for newbench.new
2021-12-27 11:24:52,101 INFO scheduler Scheduled Job Start: erpnext.projects.doctype.project.project.project_status_update_reminder for newbench.new
2021-12-27 11:24:52,931 INFO scheduler Scheduled Job Complete: erpnext.projects.doctype.project.project.project_status_update_reminder for newbench.new
2021-12-27 11:24:53,094 INFO scheduler Scheduled Job Start: frappe.monitor.flush for newbench.new
2021-12-27 11:24:53,622 INFO scheduler Scheduled Job Complete: frappe.monitor.flush for newbench.new
2021-12-27 11:24:53,786 INFO scheduler Scheduled Job Start: frappe.utils.global_search.sync_global_search for newbench.new
2021-12-27 11:24:54,298 INFO scheduler Scheduled Job Complete: frappe.utils.global_search.sync_global_search for newbench.new
2021-12-27 11:24:54,462 INFO scheduler Scheduled Job Start: frappe.integrations.doctype.razorpay_settings.razorpay_settings.capture_payment for newbench.new
2021-12-27 11:24:55,181 INFO scheduler Scheduled Job Complete: frappe.integrations.doctype.razorpay_settings.razorpay_settings.capture_payment for newbench.new
2021-12-27 11:24:55,345 INFO scheduler Scheduled Job Start: frappe.email.doctype.email_account.email_account.notify_unreplied for newbench.new
2021-12-27 11:24:55,916 INFO scheduler Scheduled Job Complete: frappe.email.doctype.email_account.email_account.notify_unreplied for newbench.new
2021-12-27 11:24:56,075 INFO scheduler Scheduled Job Start: frappe.email.doctype.email_account.email_account.pull for newbench.new
2021-12-27 11:24:56,680 INFO scheduler Scheduled Job Complete: frappe.email.doctype.email_account.email_account.pull for newbench.new
2021-12-27 11:24:56,844 INFO scheduler Scheduled Job Start: frappe.email.queue.flush for newbench.new
2021-12-27 11:24:57,292 INFO scheduler Scheduled Job Complete: frappe.email.queue.flush for newbench.new
2021-12-27 11:25:50,608 DEBUG scheduler Queued events for site newbench.new
2021-12-27 11:26:51,275 DEBUG scheduler Queued events for site newbench.new
2021-12-27 11:27:51,932 DEBUG scheduler Queued events for site newbench.new
2021-12-27 11:28:52,511 INFO scheduler Scheduled Job Start: erpnext.crm.doctype.social_media_post.social_media_post.process_scheduled_social_media_posts for newbench.new
2021-12-27 11:28:52,700 DEBUG scheduler Queued events for site newbench.new
2021-12-27 11:28:53,081 INFO scheduler Scheduled Job Complete: erpnext.crm.doctype.social_media_post.social_media_post.process_scheduled_social_media_posts for newbench.new
2021-12-27 11:28:53,236 INFO scheduler Scheduled Job Start: erpnext.hr.doctype.interview.interview.send_interview_reminder for newbench.new
2021-12-27 11:28:53,849 INFO scheduler Scheduled Job Complete: erpnext.hr.doctype.interview.interview.send_interview_reminder for newbench.new
2021-12-27 11:28:54,009 INFO scheduler Scheduled Job Start: erpnext.healthcare.doctype.patient_appointment.patient_appointment.send_appointment_reminder for newbench.new
2021-12-27 11:28:54,475 INFO scheduler Scheduled Job Complete: erpnext.healthcare.doctype.patient_appointment.patient_appointment.send_appointment_reminder for newbench.new
2021-12-27 11:28:54,634 INFO scheduler Scheduled Job Start: erpnext.projects.doctype.project.project.project_status_update_reminder for newbench.new
2021-12-27 11:28:55,466 INFO scheduler Scheduled Job Complete: erpnext.projects.doctype.project.project.project_status_update_reminder for newbench.new
2021-12-27 11:28:55,622 INFO scheduler Scheduled Job Start: frappe.monitor.flush for newbench.new
2021-12-27 11:28:56,073 INFO scheduler Scheduled Job Complete: frappe.monitor.flush for newbench.new
2021-12-27 11:28:56,229 INFO scheduler Scheduled Job Start: frappe.utils.global_search.sync_global_search for newbench.new
2021-12-27 11:28:56,668 INFO scheduler Scheduled Job Complete: frappe.utils.global_search.sync_global_search for newbench.new
2021-12-27 11:28:56,833 INFO scheduler Scheduled Job Start: frappe.integrations.doctype.razorpay_settings.razorpay_settings.capture_payment for newbench.new
2021-12-27 11:28:57,561 INFO scheduler Scheduled Job Complete: frappe.integrations.doctype.razorpay_settings.razorpay_settings.capture_payment for newbench.new
2021-12-27 11:28:57,712 INFO scheduler Scheduled Job Start: frappe.email.doctype.email_account.email_account.notify_unreplied for newbench.new
2021-12-27 11:28:58,295 INFO scheduler Scheduled Job Complete: frappe.email.doctype.email_account.email_account.notify_unreplied for newbench.new
2021-12-27 11:28:58,450 INFO scheduler Scheduled Job Start: frappe.email.doctype.email_account.email_account.pull for newbench.new
2021-12-27 11:28:59,040 INFO scheduler Scheduled Job Complete: frappe.email.doctype.email_account.email_account.pull for newbench.new
2021-12-27 11:28:59,196 INFO scheduler Scheduled Job Start: frappe.email.queue.flush for newbench.new
2021-12-27 11:28:59,641 INFO scheduler Scheduled Job Complete: frappe.email.queue.flush for newbench.new
2021-12-27 11:29:53,391 DEBUG scheduler Queued events for site newbench.new
2021-12-27 11:30:54,009 INFO scheduler Scheduled Job Start: erpnext.utilities.doctype.video.video.update_youtube_data for newbench.new
2021-12-27 11:30:54,105 DEBUG scheduler Queued events for site newbench.new
2021-12-27 11:30:54,890 INFO scheduler Scheduled Job Complete: erpnext.utilities.doctype.video.video.update_youtube_data for newbench.new
2021-12-27 11:30:55,230 INFO scheduler Scheduled Job Start: frappe.twofactor.delete_all_barcodes_for_users for newbench.new
2021-12-27 11:30:56,068 INFO scheduler Scheduled Job Complete: frappe.twofactor.delete_all_barcodes_for_users for newbench.new
2021-12-27 11:30:56,561 INFO scheduler Scheduled Job Start: frappe.website.doctype.web_page.web_page.check_publish_status for newbench.new
2021-12-27 11:30:57,350 INFO scheduler Scheduled Job Complete: frappe.website.doctype.web_page.web_page.check_publish_status for newbench.new
2021-12-27 11:30:57,574 INFO scheduler Scheduled Job Start: frappe.oauth.delete_oauth2_data for newbench.new
2021-12-27 11:30:58,317 INFO scheduler Scheduled Job Complete: frappe.oauth.delete_oauth2_data for newbench.new
2021-12-27 11:31:54,767 DEBUG scheduler Queued events for site newbench.new
2021-12-27 11:32:55,490 INFO scheduler Scheduled Job Start: erpnext.crm.doctype.social_media_post.social_media_post.process_scheduled_social_media_posts for newbench.new
2021-12-27 11:32:55,564 DEBUG scheduler Queued events for site newbench.new
2021-12-27 11:32:56,097 INFO scheduler Scheduled Job Complete: erpnext.crm.doctype.social_media_post.social_media_post.process_scheduled_social_media_posts for newbench.new
2021-12-27 11:32:56,278 INFO scheduler Scheduled Job Start: erpnext.hr.doctype.interview.interview.send_interview_reminder for newbench.new
2021-12-27 11:32:56,995 INFO scheduler Scheduled Job Complete: erpnext.hr.doctype.interview.interview.send_interview_reminder for newbench.new
2021-12-27 11:32:57,164 INFO scheduler Scheduled Job Start: erpnext.healthcare.doctype.patient_appointment.patient_appointment.send_appointment_reminder for newbench.new
2021-12-27 11:32:57,702 INFO scheduler Scheduled Job Complete: erpnext.healthcare.doctype.patient_appointment.patient_appointment.send_appointment_reminder for newbench.new
2021-12-27 11:32:57,888 INFO scheduler Scheduled Job Start: erpnext.projects.doctype.project.project.project_status_update_reminder for newbench.new
2021-12-27 11:32:59,290 INFO scheduler Scheduled Job Complete: erpnext.projects.doctype.project.project.project_status_update_reminder for newbench.new
2021-12-27 11:32:59,465 INFO scheduler Scheduled Job Start: frappe.monitor.flush for newbench.new
2021-12-27 11:32:59,908 INFO scheduler Scheduled Job Complete: frappe.monitor.flush for newbench.new
2021-12-27 11:33:00,090 INFO scheduler Scheduled Job Start: frappe.utils.global_search.sync_global_search for newbench.new
2021-12-27 11:33:00,672 INFO scheduler Scheduled Job Complete: frappe.utils.global_search.sync_global_search for newbench.new
2021-12-27 11:33:00,837 INFO scheduler Scheduled Job Start: frappe.integrations.doctype.razorpay_settings.razorpay_settings.capture_payment for newbench.new
2021-12-27 11:33:01,663 INFO scheduler Scheduled Job Complete: frappe.integrations.doctype.razorpay_settings.razorpay_settings.capture_payment for newbench.new
2021-12-27 11:33:01,830 INFO scheduler Scheduled Job Start: frappe.email.doctype.email_account.email_account.notify_unreplied for newbench.new
2021-12-27 11:33:02,507 INFO scheduler Scheduled Job Complete: frappe.email.doctype.email_account.email_account.notify_unreplied for newbench.new
2021-12-27 11:33:02,676 INFO scheduler Scheduled Job Start: frappe.email.doctype.email_account.email_account.pull for newbench.new
2021-12-27 11:33:03,441 INFO scheduler Scheduled Job Complete: frappe.email.doctype.email_account.email_account.pull for newbench.new
2021-12-27 11:33:03,606 INFO scheduler Scheduled Job Start: frappe.email.queue.flush for newbench.new
2021-12-27 11:33:04,233 INFO scheduler Scheduled Job Complete: frappe.email.queue.flush for newbench.new
2021-12-27 11:33:56,260 DEBUG scheduler Queued events for site newbench.new
2021-12-27 11:34:59,790 DEBUG scheduler Queued events for site newbench.new
2021-12-27 11:36:01,342 DEBUG scheduler Queued events for site newbench.new
2021-12-27 11:36:03,262 INFO scheduler Scheduled Job Start: erpnext.crm.doctype.social_media_post.social_media_post.process_scheduled_social_media_posts for newbench.new
2021-12-27 11:36:07,943 INFO scheduler Scheduled Job Complete: erpnext.crm.doctype.social_media_post.social_media_post.process_scheduled_social_media_posts for newbench.new
2021-12-27 11:36:08,131 INFO scheduler Scheduled Job Start: erpnext.hr.doctype.interview.interview.send_interview_reminder for newbench.new
2021-12-27 11:36:09,139 INFO scheduler Scheduled Job Complete: erpnext.hr.doctype.interview.interview.send_interview_reminder for newbench.new
2021-12-27 11:36:09,294 INFO scheduler Scheduled Job Start: erpnext.healthcare.doctype.patient_appointment.patient_appointment.send_appointment_reminder for newbench.new
2021-12-27 11:36:10,172 INFO scheduler Scheduled Job Complete: erpnext.healthcare.doctype.patient_appointment.patient_appointment.send_appointment_reminder for newbench.new
2021-12-27 11:36:10,325 INFO scheduler Scheduled Job Start: erpnext.projects.doctype.project.project.project_status_update_reminder for newbench.new
2021-12-27 11:36:12,773 INFO scheduler Scheduled Job Complete: erpnext.projects.doctype.project.project.project_status_update_reminder for newbench.new
2021-12-27 11:36:12,928 INFO scheduler Scheduled Job Start: frappe.monitor.flush for newbench.new
2021-12-27 11:36:13,358 INFO scheduler Scheduled Job Complete: frappe.monitor.flush for newbench.new
2021-12-27 11:36:13,516 INFO scheduler Scheduled Job Start: frappe.utils.global_search.sync_global_search for newbench.new
2021-12-27 11:36:13,963 INFO scheduler Scheduled Job Complete: frappe.utils.global_search.sync_global_search for newbench.new
2021-12-27 11:36:14,125 INFO scheduler Scheduled Job Start: frappe.integrations.doctype.razorpay_settings.razorpay_settings.capture_payment for newbench.new
2021-12-27 11:36:16,832 INFO scheduler Scheduled Job Complete: frappe.integrations.doctype.razorpay_settings.razorpay_settings.capture_payment for newbench.new
2021-12-27 11:36:16,993 INFO scheduler Scheduled Job Start: frappe.email.doctype.email_account.email_account.notify_unreplied for newbench.new
2021-12-27 11:36:18,734 INFO scheduler Scheduled Job Complete: frappe.email.doctype.email_account.email_account.notify_unreplied for newbench.new
2021-12-27 11:36:18,894 INFO scheduler Scheduled Job Start: frappe.email.doctype.email_account.email_account.pull for newbench.new
2021-12-27 11:36:19,515 INFO scheduler Scheduled Job Complete: frappe.email.doctype.email_account.email_account.pull for newbench.new
2021-12-27 11:36:19,677 INFO scheduler Scheduled Job Start: frappe.email.queue.flush for newbench.new
2021-12-27 11:36:20,272 INFO scheduler Scheduled Job Complete: frappe.email.queue.flush for newbench.new
2021-12-27 11:37:02,021 DEBUG scheduler Queued events for site newbench.new
2021-12-27 11:38:02,694 DEBUG scheduler Queued events for site newbench.new
2021-12-27 11:39:03,349 DEBUG scheduler Queued events for site newbench.new
2021-12-27 11:40:03,940 INFO scheduler Scheduled Job Start: erpnext.crm.doctype.social_media_post.social_media_post.process_scheduled_social_media_posts for newbench.new
2021-12-27 11:40:04,136 DEBUG scheduler Queued events for site newbench.new
2021-12-27 11:40:04,747 INFO scheduler Scheduled Job Complete: erpnext.crm.doctype.social_media_post.social_media_post.process_scheduled_social_media_posts for newbench.new
2021-12-27 11:40:04,915 INFO scheduler Scheduled Job Start: erpnext.hr.doctype.interview.interview.send_interview_reminder for newbench.new
2021-12-27 11:40:05,534 INFO scheduler Scheduled Job Complete: erpnext.hr.doctype.interview.interview.send_interview_reminder for newbench.new
2021-12-27 11:40:05,691 INFO scheduler Scheduled Job Start: erpnext.healthcare.doctype.patient_appointment.patient_appointment.send_appointment_reminder for newbench.new
2021-12-27 11:40:06,317 INFO scheduler Scheduled Job Complete: erpnext.healthcare.doctype.patient_appointment.patient_appointment.send_appointment_reminder for newbench.new
2021-12-27 11:40:06,479 INFO scheduler Scheduled Job Start: erpnext.projects.doctype.project.project.project_status_update_reminder for newbench.new
2021-12-27 11:40:07,340 INFO scheduler Scheduled Job Complete: erpnext.projects.doctype.project.project.project_status_update_reminder for newbench.new
2021-12-27 11:40:07,499 INFO scheduler Scheduled Job Start: frappe.monitor.flush for newbench.new
2021-12-27 11:40:07,945 INFO scheduler Scheduled Job Complete: frappe.monitor.flush for newbench.new
2021-12-27 11:40:08,103 INFO scheduler Scheduled Job Start: frappe.utils.global_search.sync_global_search for newbench.new
2021-12-27 11:40:08,527 INFO scheduler Scheduled Job Complete: frappe.utils.global_search.sync_global_search for newbench.new
2021-12-27 11:40:08,694 INFO scheduler Scheduled Job Start: frappe.integrations.doctype.razorpay_settings.razorpay_settings.capture_payment for newbench.new
2021-12-27 11:40:09,408 INFO scheduler Scheduled Job Complete: frappe.integrations.doctype.razorpay_settings.razorpay_settings.capture_payment for newbench.new
2021-12-27 11:40:09,577 INFO scheduler Scheduled Job Start: frappe.email.doctype.email_account.email_account.notify_unreplied for newbench.new
2021-12-27 11:40:10,170 INFO scheduler Scheduled Job Complete: frappe.email.doctype.email_account.email_account.notify_unreplied for newbench.new
2021-12-27 11:40:10,326 INFO scheduler Scheduled Job Start: frappe.email.doctype.email_account.email_account.pull for newbench.new
2021-12-27 11:40:10,964 INFO scheduler Scheduled Job Complete: frappe.email.doctype.email_account.email_account.pull for newbench.new
2021-12-27 11:40:11,128 INFO scheduler Scheduled Job Start: frappe.email.queue.flush for newbench.new
2021-12-27 11:40:11,595 INFO scheduler Scheduled Job Complete: frappe.email.queue.flush for newbench.new
2021-12-27 11:41:04,867 DEBUG scheduler Queued events for site newbench.new
2021-12-27 11:42:05,558 DEBUG scheduler Queued events for site newbench.new
2021-12-27 11:43:06,237 DEBUG scheduler Queued events for site newbench.new
2021-12-27 11:44:06,889 INFO scheduler Scheduled Job Start: erpnext.crm.doctype.social_media_post.social_media_post.process_scheduled_social_media_posts for newbench.new
2021-12-27 11:44:07,072 DEBUG scheduler Queued events for site newbench.new
2021-12-27 11:44:07,493 INFO scheduler Scheduled Job Complete: erpnext.crm.doctype.social_media_post.social_media_post.process_scheduled_social_media_posts for newbench.new
2021-12-27 11:44:07,651 INFO scheduler Scheduled Job Start: erpnext.hr.doctype.interview.interview.send_interview_reminder for newbench.new
2021-12-27 11:44:08,202 INFO scheduler Scheduled Job Complete: erpnext.hr.doctype.interview.interview.send_interview_reminder for newbench.new
2021-12-27 11:44:08,359 INFO scheduler Scheduled Job Start: erpnext.healthcare.doctype.patient_appointment.patient_appointment.send_appointment_reminder for newbench.new
2021-12-27 11:44:08,847 INFO scheduler Scheduled Job Complete: erpnext.healthcare.doctype.patient_appointment.patient_appointment.send_appointment_reminder for newbench.new
2021-12-27 11:44:09,005 INFO scheduler Scheduled Job Start: erpnext.projects.doctype.project.project.project_status_update_reminder for newbench.new
2021-12-27 11:44:09,769 INFO scheduler Scheduled Job Complete: erpnext.projects.doctype.project.project.project_status_update_reminder for newbench.new
2021-12-27 11:44:09,925 INFO scheduler Scheduled Job Start: frappe.monitor.flush for newbench.new
2021-12-27 11:44:10,405 INFO scheduler Scheduled Job Complete: frappe.monitor.flush for newbench.new
2021-12-27 11:44:10,562 INFO scheduler Scheduled Job Start: frappe.utils.global_search.sync_global_search for newbench.new
2021-12-27 11:44:10,983 INFO scheduler Scheduled Job Complete: frappe.utils.global_search.sync_global_search for newbench.new
2021-12-27 11:44:11,137 INFO scheduler Scheduled Job Start: frappe.integrations.doctype.razorpay_settings.razorpay_settings.capture_payment for newbench.new
2021-12-27 11:44:11,856 INFO scheduler Scheduled Job Complete: frappe.integrations.doctype.razorpay_settings.razorpay_settings.capture_payment for newbench.new
2021-12-27 11:44:12,020 INFO scheduler Scheduled Job Start: frappe.email.doctype.email_account.email_account.notify_unreplied for newbench.new
2021-12-27 11:44:12,717 INFO scheduler Scheduled Job Complete: frappe.email.doctype.email_account.email_account.notify_unreplied for newbench.new
2021-12-27 11:44:12,883 INFO scheduler Scheduled Job Start: frappe.email.doctype.email_account.email_account.pull for newbench.new
2021-12-27 11:44:13,674 INFO scheduler Scheduled Job Complete: frappe.email.doctype.email_account.email_account.pull for newbench.new
2021-12-27 11:44:13,829 INFO scheduler Scheduled Job Start: frappe.email.queue.flush for newbench.new
2021-12-27 11:44:14,287 INFO scheduler Scheduled Job Complete: frappe.email.queue.flush for newbench.new
2021-12-27 11:45:07,810 DEBUG scheduler Queued events for site newbench.new
2021-12-27 11:45:07,926 INFO scheduler Scheduled Job Start: frappe.twofactor.delete_all_barcodes_for_users for newbench.new
2021-12-27 11:45:08,982 INFO scheduler Scheduled Job Complete: frappe.twofactor.delete_all_barcodes_for_users for newbench.new
2021-12-27 11:45:09,246 INFO scheduler Scheduled Job Start: frappe.website.doctype.web_page.web_page.check_publish_status for newbench.new
2021-12-27 11:45:10,167 INFO scheduler Scheduled Job Complete: frappe.website.doctype.web_page.web_page.check_publish_status for newbench.new
2021-12-27 11:45:10,405 INFO scheduler Scheduled Job Start: frappe.oauth.delete_oauth2_data for newbench.new
2021-12-27 11:45:11,297 INFO scheduler Scheduled Job Complete: frappe.oauth.delete_oauth2_data for newbench.new
2021-12-27 11:46:08,473 DEBUG scheduler Queued events for site newbench.new
2021-12-27 11:47:09,379 DEBUG scheduler Queued events for site newbench.new
2021-12-27 11:57:29,466 INFO scheduler Scheduled Job Start: erpnext.crm.doctype.social_media_post.social_media_post.process_scheduled_social_media_posts for newbench.new
2021-12-27 11:57:29,650 DEBUG scheduler Queued events for site newbench.new
2021-12-27 11:57:31,587 INFO scheduler Scheduled Job Complete: erpnext.crm.doctype.social_media_post.social_media_post.process_scheduled_social_media_posts for newbench.new
2021-12-27 11:57:31,741 INFO scheduler Scheduled Job Start: erpnext.hr.doctype.interview.interview.send_interview_reminder for newbench.new
2021-12-27 11:57:32,867 INFO scheduler Scheduled Job Complete: erpnext.hr.doctype.interview.interview.send_interview_reminder for newbench.new
2021-12-27 11:57:33,016 INFO scheduler Scheduled Job Start: erpnext.healthcare.doctype.patient_appointment.patient_appointment.send_appointment_reminder for newbench.new
2021-12-27 11:57:33,854 INFO scheduler Scheduled Job Complete: erpnext.healthcare.doctype.patient_appointment.patient_appointment.send_appointment_reminder for newbench.new
2021-12-27 11:57:34,003 INFO scheduler Scheduled Job Start: erpnext.projects.doctype.project.project.project_status_update_reminder for newbench.new
2021-12-27 11:57:36,040 INFO scheduler Scheduled Job Complete: erpnext.projects.doctype.project.project.project_status_update_reminder for newbench.new
2021-12-27 11:57:36,191 INFO scheduler Scheduled Job Start: frappe.monitor.flush for newbench.new
2021-12-27 11:57:36,657 INFO scheduler Scheduled Job Complete: frappe.monitor.flush for newbench.new
2021-12-27 11:57:36,809 INFO scheduler Scheduled Job Start: frappe.utils.global_search.sync_global_search for newbench.new
2021-12-27 11:57:37,250 INFO scheduler Scheduled Job Complete: frappe.utils.global_search.sync_global_search for newbench.new
2021-12-27 11:57:37,398 INFO scheduler Scheduled Job Start: frappe.integrations.doctype.razorpay_settings.razorpay_settings.capture_payment for newbench.new
2021-12-27 11:57:38,606 INFO scheduler Scheduled Job Complete: frappe.integrations.doctype.razorpay_settings.razorpay_settings.capture_payment for newbench.new
2021-12-27 11:57:38,759 INFO scheduler Scheduled Job Start: frappe.email.doctype.email_account.email_account.notify_unreplied for newbench.new
2021-12-27 11:57:40,339 INFO scheduler Scheduled Job Complete: frappe.email.doctype.email_account.email_account.notify_unreplied for newbench.new
2021-12-27 11:57:40,495 INFO scheduler Scheduled Job Start: frappe.email.doctype.email_account.email_account.pull for newbench.new
2021-12-27 11:57:41,112 INFO scheduler Scheduled Job Complete: frappe.email.doctype.email_account.email_account.pull for newbench.new
2021-12-27 11:57:41,264 INFO scheduler Scheduled Job Start: frappe.email.queue.flush for newbench.new
2021-12-27 11:57:41,806 INFO scheduler Scheduled Job Complete: frappe.email.queue.flush for newbench.new
2021-12-27 11:58:31,248 DEBUG scheduler Queued events for site newbench.new
2021-12-27 11:59:34,802 DEBUG scheduler Queued events for site newbench.new
2021-12-27 12:00:40,559 DEBUG scheduler Queued events for site newbench.new
2021-12-27 12:00:43,563 INFO scheduler Scheduled Job Start: erpnext.erpnext_integrations.connectors.shopify_connection.sync_old_orders for newbench.new
2021-12-27 12:00:43,779 INFO scheduler Scheduled Job Start: erpnext.stock.doctype.repost_item_valuation.repost_item_valuation.repost_entries for newbench.new
2021-12-27 12:01:21,466 INFO scheduler Scheduled Job Complete: erpnext.stock.doctype.repost_item_valuation.repost_item_valuation.repost_entries for newbench.new
2021-12-27 12:01:25,007 INFO scheduler Scheduled Job Complete: erpnext.erpnext_integrations.connectors.shopify_connection.sync_old_orders for newbench.new
2021-12-27 12:01:27,335 INFO scheduler Scheduled Job Start: erpnext.support.doctype.issue.issue.set_service_level_agreement_variance for newbench.new
2021-12-27 12:01:31,079 INFO scheduler Scheduled Job Complete: erpnext.support.doctype.issue.issue.set_service_level_agreement_variance for newbench.new
2021-12-27 12:01:31,391 INFO scheduler Scheduled Job Start: erpnext.hr.doctype.shift_type.shift_type.process_auto_attendance_for_all_shifts for newbench.new
2021-12-27 12:01:36,028 INFO scheduler Scheduled Job Complete: erpnext.hr.doctype.shift_type.shift_type.process_auto_attendance_for_all_shifts for newbench.new
2021-12-27 12:01:36,697 INFO scheduler Scheduled Job Start: erpnext.projects.doctype.project.project.collect_project_status for newbench.new
2021-12-27 12:01:39,924 INFO scheduler Scheduled Job Complete: erpnext.projects.doctype.project.project.collect_project_status for newbench.new
2021-12-27 12:01:40,474 INFO scheduler Scheduled Job Start: erpnext.projects.doctype.project.project.hourly_reminder for newbench.new
2021-12-27 12:01:42,106 DEBUG scheduler Queued events for site newbench.new
2021-12-27 12:01:42,530 INFO scheduler Scheduled Job Complete: erpnext.projects.doctype.project.project.hourly_reminder for newbench.new
2021-12-27 12:01:42,958 INFO scheduler Scheduled Job Start: erpnext.erpnext_integrations.doctype.plaid_settings.plaid_settings.automatic_synchronization for newbench.new
2021-12-27 12:01:47,124 INFO scheduler Scheduled Job Complete: erpnext.erpnext_integrations.doctype.plaid_settings.plaid_settings.automatic_synchronization for newbench.new
2021-12-27 12:01:47,763 INFO scheduler Scheduled Job Start: erpnext.accounts.doctype.gl_entry.gl_entry.rename_gle_sle_docs for newbench.new
2021-12-27 12:01:52,823 INFO scheduler Scheduled Job Complete: erpnext.accounts.doctype.gl_entry.gl_entry.rename_gle_sle_docs for newbench.new
2021-12-27 12:01:53,419 INFO scheduler Scheduled Job Start: erpnext.erpnext_integrations.doctype.amazon_mws_settings.amazon_mws_settings.schedule_get_order_details for newbench.new
2021-12-27 12:01:57,017 INFO scheduler Scheduled Job Complete: erpnext.erpnext_integrations.doctype.amazon_mws_settings.amazon_mws_settings.schedule_get_order_details for newbench.new
2021-12-27 12:01:58,042 INFO scheduler Scheduled Job Start: erpnext.accounts.doctype.subscription.subscription.process_all for newbench.new
2021-12-27 12:02:01,438 INFO scheduler Scheduled Job Complete: erpnext.accounts.doctype.subscription.subscription.process_all for newbench.new
2021-12-27 12:02:01,813 INFO scheduler Scheduled Job Start: erpnext.hr.doctype.daily_work_summary_group.daily_work_summary_group.trigger_emails for newbench.new
2021-12-27 12:02:03,860 INFO scheduler Scheduled Job Complete: erpnext.hr.doctype.daily_work_summary_group.daily_work_summary_group.trigger_emails for newbench.new
2021-12-27 12:02:04,375 INFO scheduler Scheduled Job Start: erpnext.crm.doctype.social_media_post.social_media_post.process_scheduled_social_media_posts for newbench.new
2021-12-27 12:02:06,207 INFO scheduler Scheduled Job Complete: erpnext.crm.doctype.social_media_post.social_media_post.process_scheduled_social_media_posts for newbench.new
2021-12-27 12:02:06,361 INFO scheduler Scheduled Job Start: erpnext.hr.doctype.interview.interview.send_interview_reminder for newbench.new
2021-12-27 12:02:08,225 INFO scheduler Scheduled Job Complete: erpnext.hr.doctype.interview.interview.send_interview_reminder for newbench.new
2021-12-27 12:02:08,405 INFO scheduler Scheduled Job Start: erpnext.healthcare.doctype.patient_appointment.patient_appointment.send_appointment_reminder for newbench.new
2021-12-27 12:02:10,625 INFO scheduler Scheduled Job Complete: erpnext.healthcare.doctype.patient_appointment.patient_appointment.send_appointment_reminder for newbench.new
2021-12-27 12:02:11,472 INFO scheduler Scheduled Job Start: erpnext.projects.doctype.project.project.project_status_update_reminder for newbench.new
2021-12-27 12:02:46,898 DEBUG scheduler Queued events for site newbench.new
