2021-12-23 17:01:06,456 INFO scheduler Scheduled Job Complete: erpnext.hr.doctype.shift_type.shift_type.process_auto_attendance_for_all_shifts for newbench.new
2021-12-23 17:01:07,178 INFO scheduler Scheduled Job Start: erpnext.projects.doctype.project.project.collect_project_status for newbench.new
2021-12-23 17:01:08,017 INFO scheduler Scheduled Job Complete: erpnext.projects.doctype.project.project.collect_project_status for newbench.new
2021-12-23 17:01:08,247 INFO scheduler Scheduled Job Start: erpnext.projects.doctype.project.project.hourly_reminder for newbench.new
2021-12-23 17:01:09,169 INFO scheduler Scheduled Job Complete: erpnext.projects.doctype.project.project.hourly_reminder for newbench.new
2021-12-23 17:01:09,459 INFO scheduler Scheduled Job Start: erpnext.erpnext_integrations.doctype.plaid_settings.plaid_settings.automatic_synchronization for newbench.new
2021-12-23 17:01:10,673 INFO scheduler Scheduled Job Complete: erpnext.erpnext_integrations.doctype.plaid_settings.plaid_settings.automatic_synchronization for newbench.new
2021-12-23 17:01:10,882 INFO scheduler Scheduled Job Start: erpnext.accounts.doctype.gl_entry.gl_entry.rename_gle_sle_docs for newbench.new
2021-12-23 17:01:11,838 INFO scheduler Scheduled Job Complete: erpnext.accounts.doctype.gl_entry.gl_entry.rename_gle_sle_docs for newbench.new
2021-12-23 17:01:12,062 INFO scheduler Scheduled Job Start: erpnext.erpnext_integrations.doctype.amazon_mws_settings.amazon_mws_settings.schedule_get_order_details for newbench.new
2021-12-23 17:01:12,801 INFO scheduler Scheduled Job Complete: erpnext.erpnext_integrations.doctype.amazon_mws_settings.amazon_mws_settings.schedule_get_order_details for newbench.new
2021-12-23 17:01:13,018 INFO scheduler Scheduled Job Start: erpnext.accounts.doctype.subscription.subscription.process_all for newbench.new
2021-12-23 17:01:13,839 INFO scheduler Scheduled Job Complete: erpnext.accounts.doctype.subscription.subscription.process_all for newbench.new
2021-12-23 17:01:14,062 INFO scheduler Scheduled Job Start: erpnext.hr.doctype.daily_work_summary_group.daily_work_summary_group.trigger_emails for newbench.new
2021-12-23 17:01:14,748 INFO scheduler Scheduled Job Complete: erpnext.hr.doctype.daily_work_summary_group.daily_work_summary_group.trigger_emails for newbench.new
2021-12-23 17:01:14,999 INFO scheduler Scheduled Job Start: erpnext.crm.doctype.social_media_post.social_media_post.process_scheduled_social_media_posts for newbench.new
2021-12-23 17:01:15,564 INFO scheduler Scheduled Job Complete: erpnext.crm.doctype.social_media_post.social_media_post.process_scheduled_social_media_posts for newbench.new
2021-12-23 17:01:15,715 INFO scheduler Scheduled Job Start: erpnext.hr.doctype.interview.interview.send_interview_reminder for newbench.new
2021-12-23 17:01:16,270 INFO scheduler Scheduled Job Complete: erpnext.hr.doctype.interview.interview.send_interview_reminder for newbench.new
2021-12-23 17:01:16,420 INFO scheduler Scheduled Job Start: erpnext.healthcare.doctype.patient_appointment.patient_appointment.send_appointment_reminder for newbench.new
2021-12-23 17:01:16,967 INFO scheduler Scheduled Job Complete: erpnext.healthcare.doctype.patient_appointment.patient_appointment.send_appointment_reminder for newbench.new
2021-12-23 17:01:17,123 INFO scheduler Scheduled Job Start: erpnext.projects.doctype.project.project.project_status_update_reminder for newbench.new
2021-12-23 17:01:17,920 INFO scheduler Scheduled Job Complete: erpnext.projects.doctype.project.project.project_status_update_reminder for newbench.new
2021-12-23 17:01:18,112 INFO scheduler Scheduled Job Start: erpnext.utilities.doctype.video.video.update_youtube_data for newbench.new
2021-12-23 17:01:19,739 INFO scheduler Scheduled Job Failed: erpnext.utilities.doctype.video.video.update_youtube_data for newbench.new
2021-12-23 17:01:20,048 INFO scheduler Scheduled Job Start: frappe.email.doctype.newsletter.newsletter.send_scheduled_email for newbench.new
2021-12-23 17:01:21,068 INFO scheduler Scheduled Job Complete: frappe.email.doctype.newsletter.newsletter.send_scheduled_email for newbench.new
2021-12-23 17:01:21,328 INFO scheduler Scheduled Job Start: frappe.integrations.doctype.google_calendar.google_calendar.sync for newbench.new
2021-12-23 17:01:24,348 INFO scheduler Scheduled Job Complete: frappe.integrations.doctype.google_calendar.google_calendar.sync for newbench.new
2021-12-23 17:01:24,571 INFO scheduler Scheduled Job Start: frappe.desk.form.document_follow.send_hourly_updates for newbench.new
2021-12-23 17:01:25,337 INFO scheduler Scheduled Job Complete: frappe.desk.form.document_follow.send_hourly_updates for newbench.new
2021-12-23 17:01:25,564 INFO scheduler Scheduled Job Start: frappe.deferred_insert.save_to_db for newbench.new
2021-12-23 17:01:26,963 INFO scheduler Scheduled Job Complete: frappe.deferred_insert.save_to_db for newbench.new
2021-12-23 17:01:27,191 INFO scheduler Scheduled Job Start: frappe.desk.page.backups.backups.delete_downloadable_backups for newbench.new
2021-12-23 17:01:28,252 INFO scheduler Scheduled Job Complete: frappe.desk.page.backups.backups.delete_downloadable_backups for newbench.new
2021-12-23 17:01:28,676 INFO scheduler Scheduled Job Start: frappe.utils.error.collect_error_snapshots for newbench.new
2021-12-23 17:01:29,750 INFO scheduler Scheduled Job Complete: frappe.utils.error.collect_error_snapshots for newbench.new
2021-12-23 17:01:30,004 INFO scheduler Scheduled Job Start: frappe.model.utils.user_settings.sync_user_settings for newbench.new
2021-12-23 17:01:30,818 INFO scheduler Scheduled Job Complete: frappe.model.utils.user_settings.sync_user_settings for newbench.new
2021-12-23 17:01:31,052 INFO scheduler Scheduled Job Start: frappe.model.utils.link_count.update_link_count for newbench.new
2021-12-23 17:01:31,732 INFO scheduler Scheduled Job Complete: frappe.model.utils.link_count.update_link_count for newbench.new
2021-12-23 17:01:31,983 INFO scheduler Scheduled Job Start: frappe.monitor.flush for newbench.new
2021-12-23 17:01:32,448 INFO scheduler Scheduled Job Complete: frappe.monitor.flush for newbench.new
2021-12-23 17:01:32,604 INFO scheduler Scheduled Job Start: frappe.utils.global_search.sync_global_search for newbench.new
2021-12-23 17:01:33,029 INFO scheduler Scheduled Job Complete: frappe.utils.global_search.sync_global_search for newbench.new
2021-12-23 17:01:33,198 INFO scheduler Scheduled Job Start: frappe.integrations.doctype.razorpay_settings.razorpay_settings.capture_payment for newbench.new
2021-12-23 17:01:33,947 INFO scheduler Scheduled Job Complete: frappe.integrations.doctype.razorpay_settings.razorpay_settings.capture_payment for newbench.new
2021-12-23 17:01:34,104 INFO scheduler Scheduled Job Start: frappe.email.doctype.email_account.email_account.notify_unreplied for newbench.new
2021-12-23 17:01:34,664 INFO scheduler Scheduled Job Complete: frappe.email.doctype.email_account.email_account.notify_unreplied for newbench.new
2021-12-23 17:01:34,820 INFO scheduler Scheduled Job Start: frappe.email.doctype.email_account.email_account.pull for newbench.new
2021-12-23 17:01:35,447 INFO scheduler Scheduled Job Complete: frappe.email.doctype.email_account.email_account.pull for newbench.new
2021-12-23 17:01:35,603 INFO scheduler Scheduled Job Start: frappe.email.queue.flush for newbench.new
2021-12-23 17:01:36,101 INFO scheduler Scheduled Job Complete: frappe.email.queue.flush for newbench.new
2021-12-23 17:01:36,254 INFO scheduler Scheduled Job Start: frappe.twofactor.delete_all_barcodes_for_users for newbench.new
2021-12-23 17:01:37,167 INFO scheduler Scheduled Job Complete: frappe.twofactor.delete_all_barcodes_for_users for newbench.new
2021-12-23 17:01:37,466 INFO scheduler Scheduled Job Start: frappe.website.doctype.web_page.web_page.check_publish_status for newbench.new
2021-12-23 17:01:38,457 INFO scheduler Scheduled Job Complete: frappe.website.doctype.web_page.web_page.check_publish_status for newbench.new
2021-12-23 17:01:38,781 INFO scheduler Scheduled Job Start: frappe.oauth.delete_oauth2_data for newbench.new
2021-12-23 17:01:39,955 INFO scheduler Scheduled Job Complete: frappe.oauth.delete_oauth2_data for newbench.new
