{
 "actions": [],
 "allow_rename": 1,
 "autoname": "field:student",
 "creation": "2021-12-15 15:46:05.760773",
 "doctype": "DocType",
 "editable_grid": 1,
 "engine": "InnoDB",
 "field_order": [
  "student",
  "subjects"
 ],
 "fields": [
  {
   "fieldname": "student",
   "fieldtype": "Data",
   "label": "Student",
   "unique": 1
  },
  {
   "fieldname": "subjects",
   "fieldtype": "Table MultiSelect",
   "label": "Subjects",
   "options": "Subjects"
  }
 ],
 "index_web_pages_for_search": 1,
 "links": [],
 "modified": "2021-12-15 16:03:15.256386",
 "modified_by": "Administrator",
 "module": "New App",
 "name": "Demo",
 "owner": "Administrator",
 "permissions": [
  {
   "create": 1,
   "delete": 1,
   "email": 1,
   "export": 1,
   "print": 1,
   "read": 1,
   "report": 1,
   "role": "System Manager",
   "share": 1,
   "write": 1
  }
 ],
 "sort_field": "modified",
 "sort_order": "DESC"
}