{
 "db_name": "_a9956440deabab80",
 "db_password": "KLyuFoIAFOJ95vlo",
 "db_type": "mariadb",
 "developer_mode": 1,
 "encryption_key": "564aWzpOm5vC2Xz2ch5Wveyit5VQGGCUlHYMXgDFFiY=",
 "user_type_doctype_limit": {
  "employee_self_service": 10
 }
}